(kicad_symbol_lib (version 20200126) (host kicad_symbol_editor "(5.99.0-1517-ga8407fba4)")
  (symbol "Amplifier_Current:AD8202" (pin_names (offset 0.508))
    (property "Reference" "U" (id 0) (at -7.62 10.795 0)
      (effects (font (size 1.27 1.27)) (justify right))
    )
    (property "Value" "AD8202" (id 1) (at -7.62 8.89 0)
      (effects (font (size 1.27 1.27)) (justify right))
    )
    (property "Footprint" "" (id 2) (at 1.27 -8.89 0)
      (effects (font (size 1.27 1.27)) (justify left) hide)
    )
    (property "Datasheet" "https://www.analog.com/media/en/technical-documentation/data-sheets/AD8202.pdf" (id 3) (at 16.51 -17.78 0)
      (effects (font (size 1.27 1.27)) hide)
    )
    (property "ki_keywords" "highside HS current sense amplifier linear buffered monitor preamp" (id 4) (at 0 0 0)
      (effects (font (size 1.27 1.27)) hide)
    )
    (property "ki_description" "28V High Common-Mode Voltage, Single-Supply Difference Amplifier, 10V/V x 2V/V adjustable gain, bandwidth 50kHz, Vcc=3.5V~12V, unidirectional, SOIC-8/MSOP-8" (id 5) (at 0 0 0)
      (effects (font (size 1.27 1.27)) hide)
    )
    (property "ki_fp_filters" "SOIC*P1.27mm*\nMSOP*P0.65mm*" (id 6) (at 0 0 0)
      (effects (font (size 1.27 1.27)) hide)
    )
    (symbol "AD8202_0_1"
      (rectangle (start -7.62 7.62) (end 7.62 -7.62) (stroke (width 0.254)) (fill (type background)))
    )
    (symbol "AD8202_1_1"
      (pin input line (at 5.08 10.16 270) (length 2.54) (name "-IN") (number "1"))
      (pin power_in line (at 0 -10.16 90) (length 2.54) (name "GND") (number "2"))
      (pin output line (at -10.16 0 0) (length 2.54) (name "A1") (number "3"))
      (pin input line (at -10.16 -2.54 0) (length 2.54) (name "A2") (number "4"))
      (pin output line (at 10.16 0 180) (length 2.54) (name "OUT") (number "5"))
      (pin power_in line (at -10.16 -5.08 0) (length 2.54) (name "+Vs") (number "6"))
      (pin unconnected line (at 2.54 -7.62 90) (length 2.54) (name "NC") (number "7") hide)
      (pin input line (at -5.08 10.16 270) (length 2.54) (name "+IN") (number "8"))
    )
  )
  (symbol "Amplifier_Current:AD8208" (extends "AD8202")
    (property "Value" "AD8208" (id 1) (at -7.62 8.89 0)
      (effects (font (size 1.27 1.27)) (justify right))
    )
    (property "Datasheet" "https://www.analog.com/media/en/technical-documentation/data-sheets/AD8208.pdf" (id 3) (at 16.51 -17.78 0)
      (effects (font (size 1.27 1.27)) hide)
    )
    (property "ki_keywords" "highside HS current sense amplifier linear buffered monitor preamp" (id 4) (at 0 0 0)
      (effects (font (size 1.27 1.27)) hide)
    )
    (property "ki_description" "45V High Voltage, Precision Difference Amplifier, 10V/V x 2V/V adjustable gain, bandwidth 70kHz, Vcc=5V, unidirectional, SOIC-8/MSOP-8" (id 5) (at 0 0 0)
      (effects (font (size 1.27 1.27)) hide)
    )
  )
  (symbol "Amplifier_Current:AD8203" (pin_names (offset 0.508))
    (property "Reference" "U" (id 0) (at -7.62 10.795 0)
      (effects (font (size 1.27 1.27)) (justify right))
    )
    (property "Value" "AD8203" (id 1) (at -7.62 8.89 0)
      (effects (font (size 1.27 1.27)) (justify right))
    )
    (property "Footprint" "" (id 2) (at 1.27 -8.89 0)
      (effects (font (size 1.27 1.27)) (justify left) hide)
    )
    (property "Datasheet" "https://www.analog.com/media/en/technical-documentation/data-sheets/AD8203.pdf" (id 3) (at 16.51 -17.78 0)
      (effects (font (size 1.27 1.27)) hide)
    )
    (property "ki_keywords" "highside HS current sense amplifier linear buffered monitor preamp" (id 4) (at 0 0 0)
      (effects (font (size 1.27 1.27)) hide)
    )
    (property "ki_description" "30V High Common-Mode Voltage, Single-Supply Difference Amplifier, 7V/V x 2V/V adjustable gain, bandwidth 60kHz, Vcc=3.5V~12V, unidirectional, SOIC-8/MSOP-8" (id 5) (at 0 0 0)
      (effects (font (size 1.27 1.27)) hide)
    )
    (property "ki_fp_filters" "SOIC*P1.27mm*\nMSOP*P0.65mm*" (id 6) (at 0 0 0)
      (effects (font (size 1.27 1.27)) hide)
    )
    (symbol "AD8203_0_1"
      (rectangle (start -7.62 7.62) (end 7.62 -7.62) (stroke (width 0.254)) (fill (type background)))
    )
    (symbol "AD8203_1_1"
      (pin input line (at 5.08 10.16 270) (length 2.54) (name "-IN") (number "1"))
      (pin power_in line (at 0 -10.16 90) (length 2.54) (name "GND") (number "2"))
      (pin output line (at -10.16 0 0) (length 2.54) (name "A1") (number "3"))
      (pin input line (at -10.16 -2.54 0) (length 2.54) (name "A2") (number "4"))
      (pin output line (at 10.16 0 180) (length 2.54) (name "OUT") (number "5"))
      (pin unconnected line (at 2.54 -7.62 90) (length 2.54) (name "NC") (number "6") hide)
      (pin power_in line (at -10.16 -5.08 0) (length 2.54) (name "+Vs") (number "7"))
      (pin input line (at -5.08 10.16 270) (length 2.54) (name "+IN") (number "8"))
    )
  )
  (symbol "Amplifier_Current:AD8209" (extends "AD8203")
    (property "Value" "AD8209" (id 1) (at -7.62 8.89 0)
      (effects (font (size 1.27 1.27)) (justify right))
    )
    (property "Datasheet" "https://www.analog.com/media/en/technical-documentation/data-sheets/AD8209.pdf" (id 3) (at 16.51 -17.78 0)
      (effects (font (size 1.27 1.27)) hide)
    )
    (property "ki_keywords" "highside HS current sense amplifier linear buffered monitor preamp" (id 4) (at 0 0 0)
      (effects (font (size 1.27 1.27)) hide)
    )
    (property "ki_description" "45V High Voltage, Precision Difference Amplifier, 7V/V x 2V/V adjustable gain, bandwidth 80kHz, Vcc=5V, unidirectional, MSOP-8" (id 5) (at 0 0 0)
      (effects (font (size 1.27 1.27)) hide)
    )
  )
  (symbol "Amplifier_Current:AD8210" (pin_names (offset 0.508))
    (property "Reference" "U" (id 0) (at -7.62 10.795 0)
      (effects (font (size 1.27 1.27)) (justify right))
    )
    (property "Value" "AD8210" (id 1) (at -7.62 8.89 0)
      (effects (font (size 1.27 1.27)) (justify right))
    )
    (property "Footprint" "Package_SO:SOIC-8_3.9x4.9mm_P1.27mm" (id 2) (at 0 0 0)
      (effects (font (size 1.27 1.27)) hide)
    )
    (property "Datasheet" "https://www.analog.com/media/en/technical-documentation/data-sheets/AD8210.pdf" (id 3) (at 16.51 -17.78 0)
      (effects (font (size 1.27 1.27)) hide)
    )
    (property "ki_keywords" "highside HS current sense amplifier linear buffered" (id 4) (at 0 0 0)
      (effects (font (size 1.27 1.27)) hide)
    )
    (property "ki_description" "65V High Voltage, Bidirectional Current Shunt Monitor, 20V/V gain, bandwidth 450kHz, Vcc=5V, SOIC-8" (id 5) (at 0 0 0)
      (effects (font (size 1.27 1.27)) hide)
    )
    (property "ki_fp_filters" "SOIC*3.9x4.9mm*P1.27mm*" (id 6) (at 0 0 0)
      (effects (font (size 1.27 1.27)) hide)
    )
    (symbol "AD8210_0_1"
      (rectangle (start -7.62 7.62) (end 7.62 -7.62) (stroke (width 0.254)) (fill (type background)))
    )
    (symbol "AD8210_1_1"
      (pin input line (at 5.08 10.16 270) (length 2.54) (name "-IN") (number "1"))
      (pin power_in line (at 0 -10.16 90) (length 2.54) (name "GND") (number "2"))
      (pin input line (at 10.16 -2.54 180) (length 2.54) (name "Vref2") (number "3"))
      (pin unconnected line (at 2.54 -7.62 90) (length 2.54) (name "NC") (number "4") hide)
      (pin output line (at 10.16 0 180) (length 2.54) (name "OUT") (number "5"))
      (pin power_in line (at -10.16 -5.08 0) (length 2.54) (name "V+") (number "6"))
      (pin input line (at -10.16 -2.54 0) (length 2.54) (name "Vref1") (number "7"))
      (pin input line (at -5.08 10.16 270) (length 2.54) (name "+IN") (number "8"))
    )
  )
  (symbol "Amplifier_Current:AD8205" (extends "AD8210")
    (property "Value" "AD8205" (id 1) (at -7.62 8.89 0)
      (effects (font (size 1.27 1.27)) (justify right))
    )
    (property "Datasheet" "https://www.analog.com/media/en/technical-documentation/data-sheets/AD8205.pdf" (id 3) (at 16.51 -17.78 0)
      (effects (font (size 1.27 1.27)) hide)
    )
    (property "ki_keywords" "highside HS difference amplifier linear buffered" (id 4) (at 0 0 0)
      (effects (font (size 1.27 1.27)) hide)
    )
    (property "ki_description" "65V Single-Supply, System Difference Amplifier, 50V/V gain, bandwidth 50kHz, Vcc=5V, SOIC-8" (id 5) (at 0 0 0)
      (effects (font (size 1.27 1.27)) hide)
    )
  )
  (symbol "Amplifier_Current:AD8206" (extends "AD8210")
    (property "Value" "AD8206" (id 1) (at -7.62 8.89 0)
      (effects (font (size 1.27 1.27)) (justify right))
    )
    (property "Datasheet" "https://www.analog.com/media/en/technical-documentation/data-sheets/AD8206.pdf" (id 3) (at 16.51 -17.78 0)
      (effects (font (size 1.27 1.27)) hide)
    )
    (property "ki_keywords" "highside HS current sense amplifier linear buffered" (id 4) (at 0 0 0)
      (effects (font (size 1.27 1.27)) hide)
    )
    (property "ki_description" "65V High Common-Mode Voltage, Bidirectional, Current Shunt Amplifier, 20V/V gain, bandwidth 100kHz, Vcc=5V, SOIC-8" (id 5) (at 0 0 0)
      (effects (font (size 1.27 1.27)) hide)
    )
  )
  (symbol "Amplifier_Current:AD8216" (extends "AD8210")
    (property "Value" "AD8216" (id 1) (at -7.62 8.89 0)
      (effects (font (size 1.27 1.27)) (justify right))
    )
    (property "Datasheet" "https://www.analog.com/media/en/technical-documentation/data-sheets/AD8216.pdf" (id 3) (at 16.51 -17.78 0)
      (effects (font (size 1.27 1.27)) hide)
    )
    (property "ki_keywords" "HS difference amplifier linear" (id 4) (at 0 0 0)
      (effects (font (size 1.27 1.27)) hide)
    )
    (property "ki_description" "65V High Bandwidth, Bidirectional Difference Amplifier, 3V/V gain, bandwidth 3MHz, Vcc=5V, SOIC-8" (id 5) (at 0 0 0)
      (effects (font (size 1.27 1.27)) hide)
    )
  )
  (symbol "Amplifier_Current:AD8211" (pin_names (offset 0.508))
    (property "Reference" "U" (id 0) (at -7.62 10.795 0)
      (effects (font (size 1.27 1.27)) (justify right))
    )
    (property "Value" "AD8211" (id 1) (at -7.62 8.89 0)
      (effects (font (size 1.27 1.27)) (justify right))
    )
    (property "Footprint" "Package_TO_SOT_SMD:SOT-23-5" (id 2) (at 0 0 0)
      (effects (font (size 1.27 1.27)) hide)
    )
    (property "Datasheet" "https://www.analog.com/media/en/technical-documentation/data-sheets/AD8211.pdf" (id 3) (at 16.51 -17.78 0)
      (effects (font (size 1.27 1.27)) hide)
    )
    (property "ki_keywords" "highside HS current sense amplifier linear buffered" (id 4) (at 0 0 0)
      (effects (font (size 1.27 1.27)) hide)
    )
    (property "ki_description" "65V High Voltage, Current Shunt Monitor, 20V/V gain, bandwidth 500kHz, Vcc=5V, SOT-23-5" (id 5) (at 0 0 0)
      (effects (font (size 1.27 1.27)) hide)
    )
    (property "ki_fp_filters" "SOT?23*" (id 6) (at 0 0 0)
      (effects (font (size 1.27 1.27)) hide)
    )
    (symbol "AD8211_0_1"
      (rectangle (start -7.62 7.62) (end 7.62 -7.62) (stroke (width 0.254)) (fill (type background)))
    )
    (symbol "AD8211_1_1"
      (pin output line (at 10.16 0 180) (length 2.54) (name "OUT") (number "1"))
      (pin power_in line (at 0 -10.16 90) (length 2.54) (name "GND") (number "2"))
      (pin input line (at -5.08 10.16 270) (length 2.54) (name "Vin+") (number "3"))
      (pin input line (at 5.08 10.16 270) (length 2.54) (name "Vin-") (number "4"))
      (pin power_in line (at -10.16 -5.08 0) (length 2.54) (name "V+") (number "5"))
    )
  )
  (symbol "Amplifier_Current:AD8212" (pin_names (offset 0.508))
    (property "Reference" "U" (id 0) (at -7.62 10.795 0)
      (effects (font (size 1.27 1.27)) (justify right))
    )
    (property "Value" "AD8212" (id 1) (at -7.62 8.89 0)
      (effects (font (size 1.27 1.27)) (justify right))
    )
    (property "Footprint" "Package_SO:MSOP-8_3x3mm_P0.65mm" (id 2) (at 0 0 0)
      (effects (font (size 1.27 1.27)) (justify left) hide)
    )
    (property "Datasheet" "https://www.analog.com/media/en/technical-documentation/data-sheets/AD8212.pdf" (id 3) (at 16.51 -17.78 0)
      (effects (font (size 1.27 1.27)) hide)
    )
    (property "ki_keywords" "highside HS current sense shunt monitor amplifier linear" (id 4) (at 0 0 0)
      (effects (font (size 1.27 1.27)) hide)
    )
    (property "ki_description" "65V High Voltage Current, Shunt Monitor, adjustable gain, bandwidth 1000kHz, Vcc=7V~65V, current output, unidirectional, MSOP-8" (id 5) (at 0 0 0)
      (effects (font (size 1.27 1.27)) hide)
    )
    (property "ki_fp_filters" "MSOP*3x3mm*P0.65mm*" (id 6) (at 0 0 0)
      (effects (font (size 1.27 1.27)) hide)
    )
    (symbol "AD8212_0_1"
      (rectangle (start -7.62 7.62) (end 7.62 -7.62) (stroke (width 0.254)) (fill (type background)))
    )
    (symbol "AD8212_1_1"
      (pin power_in line (at -5.08 10.16 270) (length 2.54) (name "V+") (number "1"))
      (pin input line (at 10.16 -5.08 180) (length 2.54) (name "COM") (number "2"))
      (pin input line (at -10.16 0 0) (length 2.54) (name "BIAS") (number "3"))
      (pin unconnected line (at -2.54 -7.62 90) (length 2.54) (name "NC") (number "4") hide)
      (pin output line (at 10.16 0 180) (length 2.54) (name "Iout") (number "5"))
      (pin output line (at -10.16 -2.54 0) (length 2.54) (name "ALPHA") (number "6"))
      (pin unconnected line (at 0 -7.62 90) (length 2.54) (name "NC") (number "7") hide)
      (pin input line (at 5.08 10.16 270) (length 2.54) (name "Vsns") (number "8"))
    )
  )
  (symbol "Amplifier_Current:AD8213" (pin_names (offset 0.508))
    (property "Reference" "U" (id 0) (at -7.62 10.795 0)
      (effects (font (size 1.27 1.27)) (justify right))
    )
    (property "Value" "AD8213" (id 1) (at -7.62 8.89 0)
      (effects (font (size 1.27 1.27)) (justify right))
    )
    (property "Footprint" "Package_SO:MSOP-10_3x3mm_P0.5mm" (id 2) (at 0 0 0)
      (effects (font (size 1.27 1.27)) hide)
    )
    (property "Datasheet" "https://www.analog.com/media/en/technical-documentation/data-sheets/AD8213.pdf" (id 3) (at 0 0 0)
      (effects (font (size 1.27 1.27)) hide)
    )
    (property "ki_keywords" "highside HS current sense amplifier linear buffered dual monitor" (id 4) (at 0 0 0)
      (effects (font (size 1.27 1.27)) hide)
    )
    (property "ki_description" "65V Dual, High Voltage, Current Shunt Monitor, 20V/V gain, bandwidth 500kHz, Vcc=5V, MSOP-10" (id 5) (at 0 0 0)
      (effects (font (size 1.27 1.27)) hide)
    )
    (property "ki_fp_filters" "MSOP*3x3mm*P0.5mm*" (id 6) (at 0 0 0)
      (effects (font (size 1.27 1.27)) hide)
    )
    (symbol "AD8213_0_1"
      (rectangle (start -7.62 7.62) (end 7.62 -7.62) (stroke (width 0.254)) (fill (type background)))
    )
    (symbol "AD8213_1_1"
      (pin input line (at 5.08 10.16 270) (length 2.54) (name "-IN") (number "10"))
      (pin power_in line (at 0 -10.16 90) (length 2.54) (name "GND") (number "3"))
      (pin passive line (at -10.16 -2.54 0) (length 2.54) (name "CF") (number "6"))
      (pin output line (at 10.16 0 180) (length 2.54) (name "OUT") (number "7"))
      (pin power_in line (at -10.16 -5.08 0) (length 2.54) (name "V+") (number "8"))
      (pin input line (at -5.08 10.16 270) (length 2.54) (name "+IN") (number "9"))
    )
    (symbol "AD8213_2_1"
      (pin input line (at 5.08 10.16 270) (length 2.54) (name "-IN") (number "1"))
      (pin input line (at -5.08 10.16 270) (length 2.54) (name "+IN") (number "2"))
      (pin output line (at 10.16 0 180) (length 2.54) (name "OUT") (number "4"))
      (pin passive line (at -10.16 -2.54 0) (length 2.54) (name "CF") (number "5"))
    )
  )
  (symbol "Amplifier_Current:AD8215" (pin_names (offset 0.508))
    (property "Reference" "U" (id 0) (at -7.62 10.795 0)
      (effects (font (size 1.27 1.27)) (justify right))
    )
    (property "Value" "AD8215" (id 1) (at -7.62 8.89 0)
      (effects (font (size 1.27 1.27)) (justify right))
    )
    (property "Footprint" "Package_SO:SOIC-8_3.9x4.9mm_P1.27mm" (id 2) (at 0 0 0)
      (effects (font (size 1.27 1.27)) hide)
    )
    (property "Datasheet" "https://www.analog.com/media/en/technical-documentation/data-sheets/AD8215.pdf" (id 3) (at 16.51 -17.78 0)
      (effects (font (size 1.27 1.27)) hide)
    )
    (property "ki_keywords" "highside HS current sense amplifier linear buffered monitor" (id 4) (at 0 0 0)
      (effects (font (size 1.27 1.27)) hide)
    )
    (property "ki_description" "65V High Voltage, Current Shunt Monitor, 20V/V gain, bandwidth 450kHz, Vcc=5V, unidirectional, SOIC-8" (id 5) (at 0 0 0)
      (effects (font (size 1.27 1.27)) hide)
    )
    (property "ki_fp_filters" "SOIC*3.9x4.9mm*P1.27mm*" (id 6) (at 0 0 0)
      (effects (font (size 1.27 1.27)) hide)
    )
    (symbol "AD8215_0_1"
      (rectangle (start -7.62 7.62) (end 7.62 -7.62) (stroke (width 0.254)) (fill (type background)))
    )
    (symbol "AD8215_1_1"
      (pin input line (at 5.08 10.16 270) (length 2.54) (name "-IN") (number "1"))
      (pin power_in line (at 0 -10.16 90) (length 2.54) (name "GND") (number "2"))
      (pin unconnected line (at -2.54 -7.62 90) (length 2.54) (name "NC") (number "3") hide)
      (pin unconnected line (at 2.54 -7.62 90) (length 2.54) (name "NC") (number "4") hide)
      (pin output line (at 10.16 0 180) (length 2.54) (name "OUT") (number "5"))
      (pin power_in line (at -10.16 -5.08 0) (length 2.54) (name "V+") (number "6"))
      (pin unconnected line (at 5.08 -7.62 90) (length 2.54) (name "NC") (number "7") hide)
      (pin input line (at -5.08 10.16 270) (length 2.54) (name "+IN") (number "8"))
    )
  )
  (symbol "Amplifier_Current:AD8217" (pin_names (offset 0.508))
    (property "Reference" "U" (id 0) (at -7.62 10.795 0)
      (effects (font (size 1.27 1.27)) (justify right))
    )
    (property "Value" "AD8217" (id 1) (at -7.62 8.89 0)
      (effects (font (size 1.27 1.27)) (justify right))
    )
    (property "Footprint" "Package_SO:MSOP-8_3x3mm_P0.65mm" (id 2) (at 0 0 0)
      (effects (font (size 1.27 1.27)) hide)
    )
    (property "Datasheet" "https://www.analog.com/media/en/technical-documentation/data-sheets/AD8217.pdf" (id 3) (at 16.51 -17.78 0)
      (effects (font (size 1.27 1.27)) hide)
    )
    (property "ki_keywords" "highside HS current sense amplifier linear buffered monitor" (id 4) (at 0 0 0)
      (effects (font (size 1.27 1.27)) hide)
    )
    (property "ki_description" "80V High Resolution, Zero-Drift, Current Shunt Monitor, 20V/V gain, bandwidth 500kHz, internal LDO, unidirectional, MSOP-8" (id 5) (at 0 0 0)
      (effects (font (size 1.27 1.27)) hide)
    )
    (property "ki_fp_filters" "MSOP*3x3mm*P0.65mm*" (id 6) (at 0 0 0)
      (effects (font (size 1.27 1.27)) hide)
    )
    (symbol "AD8217_0_1"
      (rectangle (start -7.62 7.62) (end 7.62 -7.62) (stroke (width 0.254)) (fill (type background)))
    )
    (symbol "AD8217_1_1"
      (pin power_in line (at -5.08 10.16 270) (length 2.54) (name "+IN") (number "1"))
      (pin unconnected line (at -5.08 -7.62 90) (length 2.54) (name "NC") (number "2") hide)
      (pin unconnected line (at -2.54 -7.62 90) (length 2.54) (name "NC") (number "3") hide)
      (pin power_in line (at 0 -10.16 90) (length 2.54) (name "GND") (number "4"))
      (pin output line (at 10.16 0 180) (length 2.54) (name "OUT") (number "5"))
      (pin unconnected line (at 2.54 -7.62 90) (length 2.54) (name "NC") (number "6") hide)
      (pin unconnected line (at 5.08 -7.62 90) (length 2.54) (name "NC") (number "7") hide)
      (pin input line (at 5.08 10.16 270) (length 2.54) (name "-IN") (number "8"))
    )
  )
  (symbol "Amplifier_Current:AD8218xCP" (pin_names (offset 0.508))
    (property "Reference" "U" (id 0) (at -7.62 10.795 0)
      (effects (font (size 1.27 1.27)) (justify right))
    )
    (property "Value" "AD8218xCP" (id 1) (at -7.62 8.89 0)
      (effects (font (size 1.27 1.27)) (justify right))
    )
    (property "Footprint" "Package_CSP:LFCSP-8-1EP_3x2mm_P0.5mm_EP1.6x1.65mm" (id 2) (at 0 0 0)
      (effects (font (size 1.27 1.27)) hide)
    )
    (property "Datasheet" "https://www.analog.com/media/en/technical-documentation/data-sheets/AD8218.pdf" (id 3) (at 16.51 -17.78 0)
      (effects (font (size 1.27 1.27)) hide)
    )
    (property "ki_keywords" "highside HS current sense amplifier linear buffered" (id 4) (at 0 0 0)
      (effects (font (size 1.27 1.27)) hide)
    )
    (property "ki_description" "80V Zero Drift, Bidirectional, Current Shunt Monitor, 20V/V gain, bandwidth 450kHz, Vcc=5V, LFCSP-8" (id 5) (at 0 0 0)
      (effects (font (size 1.27 1.27)) hide)
    )
    (property "ki_fp_filters" "LFCSP*3x2mm*P0.5mm*EP1.6x1.65mm*" (id 6) (at 0 0 0)
      (effects (font (size 1.27 1.27)) hide)
    )
    (symbol "AD8218xCP_0_1"
      (rectangle (start -7.62 7.62) (end 7.62 -7.62) (stroke (width 0.254)) (fill (type background)))
    )
    (symbol "AD8218xCP_1_1"
      (pin input line (at -5.08 10.16 270) (length 2.54) (name "+IN") (number "1"))
      (pin passive line (at -10.16 -5.08 0) (length 2.54) (name "Vs") (number "2"))
      (pin input line (at -10.16 0 0) (length 2.54) (name "ENB") (number "3"))
      (pin power_in line (at 0 -10.16 90) (length 2.54) (name "GND") (number "4"))
      (pin output line (at 10.16 0 180) (length 2.54) (name "OUT") (number "5"))
      (pin unconnected line (at 2.54 -7.62 90) (length 2.54) (name "NC") (number "6") hide)
      (pin input line (at -10.16 -2.54 0) (length 2.54) (name "REF") (number "7"))
      (pin input line (at 5.08 10.16 270) (length 2.54) (name "-IN") (number "8"))
      (pin passive line (at 0 -10.16 90) (length 2.54) (name "GND") (number "9") hide)
    )
  )
  (symbol "Amplifier_Current:AD8218xRM" (pin_names (offset 0.508))
    (property "Reference" "U" (id 0) (at -7.62 10.795 0)
      (effects (font (size 1.27 1.27)) (justify right))
    )
    (property "Value" "AD8218xRM" (id 1) (at -7.62 8.89 0)
      (effects (font (size 1.27 1.27)) (justify right))
    )
    (property "Footprint" "Package_SO:MSOP-8_3x3mm_P0.65mm" (id 2) (at 0 0 0)
      (effects (font (size 1.27 1.27)) (justify left) hide)
    )
    (property "Datasheet" "https://www.analog.com/media/en/technical-documentation/data-sheets/AD8218.pdf" (id 3) (at 16.51 -17.78 0)
      (effects (font (size 1.27 1.27)) hide)
    )
    (property "ki_keywords" "highside HS current sense amplifier linear buffered" (id 4) (at 0 0 0)
      (effects (font (size 1.27 1.27)) hide)
    )
    (property "ki_description" "80V Zero Drift, Bidirectional, Current Shunt Monitor, 20V/V gain, bandwidth 450kHz, Vcc=5V, MSOP-8" (id 5) (at 0 0 0)
      (effects (font (size 1.27 1.27)) hide)
    )
    (property "ki_fp_filters" "MSOP*3x3mm*P0.65mm*" (id 6) (at 0 0 0)
      (effects (font (size 1.27 1.27)) hide)
    )
    (symbol "AD8218xRM_0_1"
      (rectangle (start -7.62 7.62) (end 7.62 -7.62) (stroke (width 0.254)) (fill (type background)))
    )
    (symbol "AD8218xRM_1_1"
      (pin input line (at -5.08 10.16 270) (length 2.54) (name "+IN") (number "1"))
      (pin passive line (at -10.16 -5.08 0) (length 2.54) (name "Vs") (number "2"))
      (pin input line (at -10.16 0 0) (length 2.54) (name "ENB") (number "3"))
      (pin power_in line (at 0 -10.16 90) (length 2.54) (name "GND") (number "4"))
      (pin output line (at 10.16 0 180) (length 2.54) (name "OUT") (number "5"))
      (pin unconnected line (at 2.54 -7.62 90) (length 2.54) (name "NC") (number "6") hide)
      (pin input line (at -10.16 -2.54 0) (length 2.54) (name "REF") (number "7"))
      (pin input line (at 5.08 10.16 270) (length 2.54) (name "-IN") (number "8"))
    )
  )
  (symbol "Amplifier_Current:AD8219" (pin_names (offset 0.508))
    (property "Reference" "U" (id 0) (at -7.62 10.795 0)
      (effects (font (size 1.27 1.27)) (justify right))
    )
    (property "Value" "AD8219" (id 1) (at -7.62 8.89 0)
      (effects (font (size 1.27 1.27)) (justify right))
    )
    (property "Footprint" "Package_SO:MSOP-8_3x3mm_P0.65mm" (id 2) (at 0 0 0)
      (effects (font (size 1.27 1.27)) hide)
    )
    (property "Datasheet" "https://www.analog.com/media/en/technical-documentation/data-sheets/AD8219.pdf" (id 3) (at 16.51 -17.78 0)
      (effects (font (size 1.27 1.27)) hide)
    )
    (property "ki_keywords" "highside HS current sense amplifier linear buffered monitor" (id 4) (at 0 0 0)
      (effects (font (size 1.27 1.27)) hide)
    )
    (property "ki_description" "80V Zero Drift, Unidirectional, Current Shunt Monitor, 60V/V gain, bandwidth 500kHz, Vcc=4V~80V, MSOP-8" (id 5) (at 0 0 0)
      (effects (font (size 1.27 1.27)) hide)
    )
    (property "ki_fp_filters" "MSOP*3x3mm*P0.65mm*" (id 6) (at 0 0 0)
      (effects (font (size 1.27 1.27)) hide)
    )
    (symbol "AD8219_0_1"
      (rectangle (start -7.62 7.62) (end 7.62 -7.62) (stroke (width 0.254)) (fill (type background)))
    )
    (symbol "AD8219_1_1"
      (pin input line (at -5.08 10.16 270) (length 2.54) (name "+IN") (number "1"))
      (pin power_in line (at -10.16 -5.08 0) (length 2.54) (name "Vs") (number "2"))
      (pin unconnected line (at -2.54 -7.62 90) (length 2.54) (name "NC") (number "3") hide)
      (pin power_in line (at 0 -10.16 90) (length 2.54) (name "GND") (number "4"))
      (pin output line (at 10.16 0 180) (length 2.54) (name "OUT") (number "5"))
      (pin unconnected line (at 2.54 -7.62 90) (length 2.54) (name "NC") (number "6") hide)
      (pin unconnected line (at 5.08 -7.62 90) (length 2.54) (name "NC") (number "7") hide)
      (pin input line (at 5.08 10.16 270) (length 2.54) (name "-IN") (number "8"))
    )
  )
  (symbol "Amplifier_Current:AD8417" (pin_names (offset 0.508))
    (property "Reference" "U" (id 0) (at -7.62 10.795 0)
      (effects (font (size 1.27 1.27)) (justify right))
    )
    (property "Value" "AD8417" (id 1) (at -7.62 8.89 0)
      (effects (font (size 1.27 1.27)) (justify right))
    )
    (property "Footprint" "" (id 2) (at 1.27 -8.89 0)
      (effects (font (size 1.27 1.27)) hide)
    )
    (property "Datasheet" "https://www.analog.com/media/en/technical-documentation/data-sheets/AD8417.pdf" (id 3) (at 16.51 -17.78 0)
      (effects (font (size 1.27 1.27)) hide)
    )
    (property "ki_keywords" "highside HS current sense amplifier linear" (id 4) (at 0 0 0)
      (effects (font (size 1.27 1.27)) hide)
    )
    (property "ki_description" "70V Bidirectional, Zero Drift, Current Sense Amplifier, 60V/V gain, bandwidth 250kHz, VS=2.7V~5.5V, SOIC-8/MSOP-8" (id 5) (at 0 0 0)
      (effects (font (size 1.27 1.27)) hide)
    )
    (property "ki_fp_filters" "SOIC*3.9x4.9mm*P1.27mm*\nMSOP*3x3mm*P0.65mm*" (id 6) (at 0 0 0)
      (effects (font (size 1.27 1.27)) hide)
    )
    (symbol "AD8417_0_1"
      (rectangle (start -7.62 7.62) (end 7.62 -7.62) (stroke (width 0.254)) (fill (type background)))
    )
    (symbol "AD8417_1_1"
      (pin input line (at 5.08 10.16 270) (length 2.54) (name "IN-") (number "1"))
      (pin power_in line (at 0 -10.16 90) (length 2.54) (name "GND") (number "2"))
      (pin input line (at 10.16 -2.54 180) (length 2.54) (name "REF2") (number "3"))
      (pin unconnected line (at 2.54 -7.62 90) (length 2.54) (name "NC") (number "4") hide)
      (pin output line (at 10.16 0 180) (length 2.54) (name "OUT") (number "5"))
      (pin power_in line (at -10.16 -5.08 0) (length 2.54) (name "VS") (number "6"))
      (pin input line (at -10.16 -2.54 0) (length 2.54) (name "REF1") (number "7"))
      (pin input line (at -5.08 10.16 270) (length 2.54) (name "IN+") (number "8"))
    )
  )
  (symbol "Amplifier_Current:AD8418" (extends "AD8417")
    (property "Value" "AD8418" (id 1) (at -7.62 8.89 0)
      (effects (font (size 1.27 1.27)) (justify right))
    )
    (property "Datasheet" "https://www.analog.com/media/en/technical-documentation/data-sheets/AD8418.pdf" (id 3) (at 16.51 -17.78 0)
      (effects (font (size 1.27 1.27)) hide)
    )
    (property "ki_keywords" "highside HS current sense amplifier linear" (id 4) (at 0 0 0)
      (effects (font (size 1.27 1.27)) hide)
    )
    (property "ki_description" "70V Bidirectional, Zero Drift, Current Sense Amplifier, 20V/V gain, bandwidth 250kHz, VS=2.7V~5.5V, SOIC-8/MSOP-8" (id 5) (at 0 0 0)
      (effects (font (size 1.27 1.27)) hide)
    )
  )
  (symbol "Amplifier_Current:BQ500100DCK" (pin_names (offset 0.127))
    (property "Reference" "U" (id 0) (at 3.81 3.81 0))
    (property "Value" "BQ500100DCK" (id 1) (at 3.81 -3.81 0)
      (effects (font (size 1.27 1.27)) (justify left))
    )
    (property "Footprint" "Package_TO_SOT_SMD:SOT-363_SC-70-6" (id 2) (at 0 0 0)
      (effects (font (size 1.27 1.27)) hide)
    )
    (property "Datasheet" "http://www.ti.com/lit/ds/symlink/bq500100.pdf" (id 3) (at 0 0 0)
      (effects (font (size 1.27 1.27)) hide)
    )
    (property "ki_keywords" "Current shunt monitor" (id 4) (at 0 0 0)
      (effects (font (size 1.27 1.27)) hide)
    )
    (property "ki_description" "20V High side current sensor, Voltage Output, 50V/V Gain, SC-70-6" (id 5) (at 0 0 0)
      (effects (font (size 1.27 1.27)) hide)
    )
    (property "ki_fp_filters" "SOT?363*" (id 6) (at 0 0 0)
      (effects (font (size 1.27 1.27)) hide)
    )
    (symbol "BQ500100DCK_0_1"
      (polyline
        (pts (xy 5.08 0) (xy -5.08 5.08) (xy -5.08 -5.08) (xy 5.08 0))
        (stroke (width 0.254)) (fill (type background))
      )
    )
    (symbol "BQ500100DCK_1_1"
      (pin passive line (at -2.54 -7.62 90) (length 3.81) (name "GND") (number "1") hide)
      (pin power_in line (at -2.54 -7.62 90) (length 3.81) (name "GND") (number "2"))
      (pin power_in line (at -2.54 7.62 270) (length 3.81) (name "V+") (number "3"))
      (pin input line (at -7.62 2.54 0) (length 2.54) (name "+") (number "4"))
      (pin input line (at -7.62 -2.54 0) (length 2.54) (name "-") (number "5"))
      (pin output line (at 7.62 0 180) (length 2.54) (name "~") (number "6"))
    )
  )
  (symbol "Amplifier_Current:INA138" (pin_names (offset 0.127))
    (property "Reference" "U" (id 0) (at 3.81 5.08 0)
      (effects (font (size 1.27 1.27)) (justify left))
    )
    (property "Value" "INA138" (id 1) (at 3.81 2.54 0)
      (effects (font (size 1.27 1.27)) (justify left))
    )
    (property "Footprint" "Package_TO_SOT_SMD:SOT-23-5" (id 2) (at 0 0 0)
      (effects (font (size 1.27 1.27)) hide)
    )
    (property "Datasheet" "http://www.ti.com/lit/ds/symlink/ina138.pdf" (id 3) (at 0 0.127 0)
      (effects (font (size 1.27 1.27)) hide)
    )
    (property "ki_keywords" "current sense shunt monitor" (id 4) (at 0 0 0)
      (effects (font (size 1.27 1.27)) hide)
    )
    (property "ki_description" "High-Side Measurement Current Shunt Monitor, 36V, SOT-23-5" (id 5) (at 0 0 0)
      (effects (font (size 1.27 1.27)) hide)
    )
    (property "ki_fp_filters" "SOT?23*" (id 6) (at 0 0 0)
      (effects (font (size 1.27 1.27)) hide)
    )
    (symbol "INA138_0_1"
      (polyline
        (pts (xy -5.08 5.08) (xy 5.08 0) (xy -5.08 -5.08) (xy -5.08 5.08))
        (stroke (width 0.254)) (fill (type background))
      )
    )
    (symbol "INA138_1_1"
      (pin output line (at 7.62 0 180) (length 2.54) (name "~") (number "1"))
      (pin power_in line (at -2.54 -7.62 90) (length 3.81) (name "GND") (number "2"))
      (pin input line (at -7.62 2.54 0) (length 2.54) (name "+") (number "3"))
      (pin input line (at -7.62 -2.54 0) (length 2.54) (name "-") (number "4"))
      (pin power_in line (at -2.54 7.62 270) (length 3.81) (name "V+") (number "5"))
    )
  )
  (symbol "Amplifier_Current:INA139" (extends "INA138")
    (property "Value" "INA139" (id 1) (at 3.81 2.54 0)
      (effects (font (size 1.27 1.27)) (justify left))
    )
    (property "Datasheet" "http://www.ti.com/lit/ds/symlink/ina169.pdf" (id 3) (at 0 0.127 0)
      (effects (font (size 1.27 1.27)) hide)
    )
    (property "ki_keywords" "current sense shunt monitor" (id 4) (at 0 0 0)
      (effects (font (size 1.27 1.27)) hide)
    )
    (property "ki_description" "High-Side Measurement Current Shunt Monitor, 40V, SOT-23-5" (id 5) (at 0 0 0)
      (effects (font (size 1.27 1.27)) hide)
    )
  )
  (symbol "Amplifier_Current:INA168" (extends "INA138")
    (property "Value" "INA168" (id 1) (at 3.81 2.54 0)
      (effects (font (size 1.27 1.27)) (justify left))
    )
    (property "Datasheet" "http://www.ti.com/lit/ds/symlink/ina138.pdf" (id 3) (at 0 0.127 0)
      (effects (font (size 1.27 1.27)) hide)
    )
    (property "ki_keywords" "current sense shunt monitor" (id 4) (at 0 0 0)
      (effects (font (size 1.27 1.27)) hide)
    )
    (property "ki_description" "High-Side Measurement Current Shunt Monitor, 60V, SOT-23-5" (id 5) (at 0 0 0)
      (effects (font (size 1.27 1.27)) hide)
    )
  )
  (symbol "Amplifier_Current:INA169" (extends "INA138")
    (property "Value" "INA169" (id 1) (at 3.81 2.54 0)
      (effects (font (size 1.27 1.27)) (justify left))
    )
    (property "Datasheet" "http://www.ti.com/lit/ds/symlink/ina169.pdf" (id 3) (at 0 0.127 0)
      (effects (font (size 1.27 1.27)) hide)
    )
    (property "ki_keywords" "current sense shunt monitor" (id 4) (at 0 0 0)
      (effects (font (size 1.27 1.27)) hide)
    )
    (property "ki_description" "High-Side Measurement Current Shunt Monitor, 60V, SOT-23-5" (id 5) (at 0 0 0)
      (effects (font (size 1.27 1.27)) hide)
    )
  )
  (symbol "Amplifier_Current:INA181" (pin_names (offset 0.127))
    (property "Reference" "U" (id 0) (at 3.81 3.81 0)
      (effects (font (size 1.27 1.27)) (justify left))
    )
    (property "Value" "INA181" (id 1) (at 3.81 -2.54 0)
      (effects (font (size 1.27 1.27)) (justify left))
    )
    (property "Footprint" "Package_TO_SOT_SMD:SOT-23-6" (id 2) (at 1.27 1.27 0)
      (effects (font (size 1.27 1.27)) hide)
    )
    (property "Datasheet" "http://www.ti.com/lit/ds/symlink/ina181.pdf" (id 3) (at 3.81 3.81 0)
      (effects (font (size 1.27 1.27)) hide)
    )
    (property "ki_keywords" "current monitor shunt sensor bidirectional" (id 4) (at 0 0 0)
      (effects (font (size 1.27 1.27)) hide)
    )
    (property "ki_description" "Bidirectional, Low- and High-Side Voltage Output, Current-Sense Amplifier, SOT-23-6" (id 5) (at 0 0 0)
      (effects (font (size 1.27 1.27)) hide)
    )
    (property "ki_fp_filters" "SOT?23*" (id 6) (at 0 0 0)
      (effects (font (size 1.27 1.27)) hide)
    )
    (symbol "INA181_0_1"
      (polyline
        (pts (xy 5.08 0) (xy -5.08 5.08) (xy -5.08 -5.08) (xy 5.08 0))
        (stroke (width 0.254)) (fill (type background))
      )
    )
    (symbol "INA181_1_1"
      (pin output line (at 7.62 0 180) (length 2.54) (name "~") (number "1"))
      (pin power_in line (at -2.54 -7.62 90) (length 3.81) (name "GND") (number "2"))
      (pin input line (at -7.62 2.54 0) (length 2.54) (name "+") (number "3"))
      (pin input line (at -7.62 -2.54 0) (length 2.54) (name "-") (number "4"))
      (pin input line (at 2.54 -7.62 90) (length 6.35)
        (name "REF" (effects (font (size 0.508 0.508))))
        (number "5")
      )
      (pin power_in line (at -2.54 7.62 270) (length 3.81) (name "V+") (number "6"))
    )
  )
  (symbol "Amplifier_Current:INA193" (pin_names (offset 0.127))
    (property "Reference" "U" (id 0) (at 3.81 3.81 0))
    (property "Value" "INA193" (id 1) (at 3.81 -3.81 0))
    (property "Footprint" "Package_TO_SOT_SMD:SOT-23-5" (id 2) (at 0 0 0)
      (effects (font (size 1.27 1.27)) hide)
    )
    (property "Datasheet" "http://www.ti.com/lit/ds/symlink/ina193.pdf" (id 3) (at 0 0 0)
      (effects (font (size 1.27 1.27)) hide)
    )
    (property "ki_keywords" "current sense shunt monitor" (id 4) (at 0 0 0)
      (effects (font (size 1.27 1.27)) hide)
    )
    (property "ki_description" "Current Shunt Monitor −16V to +80V Common-Mode Range, 20V/V, SOT-23-5" (id 5) (at 0 0 0)
      (effects (font (size 1.27 1.27)) hide)
    )
    (property "ki_fp_filters" "SOT?23*" (id 6) (at 0 0 0)
      (effects (font (size 1.27 1.27)) hide)
    )
    (symbol "INA193_0_1"
      (polyline
        (pts (xy 5.08 0) (xy -5.08 5.08) (xy -5.08 -5.08) (xy 5.08 0))
        (stroke (width 0.254)) (fill (type background))
      )
    )
    (symbol "INA193_1_1"
      (pin output line (at 7.62 0 180) (length 2.54) (name "~") (number "1"))
      (pin power_in line (at -2.54 -7.62 90) (length 3.81) (name "GND") (number "2"))
      (pin input line (at -7.62 2.54 0) (length 2.54) (name "+") (number "3"))
      (pin input line (at -7.62 -2.54 0) (length 2.54) (name "-") (number "4"))
      (pin power_in line (at -2.54 7.62 270) (length 3.81) (name "V+") (number "5"))
    )
  )
  (symbol "Amplifier_Current:INA194" (extends "INA193")
    (property "Value" "INA194" (id 1) (at 3.81 -3.81 0))
    (property "Datasheet" "http://www.ti.com/lit/ds/symlink/ina193.pdf" (id 3) (at 0 0 0)
      (effects (font (size 1.27 1.27)) hide)
    )
    (property "ki_keywords" "current sense shunt monitor" (id 4) (at 0 0 0)
      (effects (font (size 1.27 1.27)) hide)
    )
    (property "ki_description" "Current Shunt Monitor −16V to +80V Common-Mode Range, 50V/V, SOT-23-5" (id 5) (at 0 0 0)
      (effects (font (size 1.27 1.27)) hide)
    )
  )
  (symbol "Amplifier_Current:INA195" (extends "INA193")
    (property "Value" "INA195" (id 1) (at 3.81 -3.81 0))
    (property "Datasheet" "http://www.ti.com/lit/ds/symlink/ina193.pdf" (id 3) (at 0 0 0)
      (effects (font (size 1.27 1.27)) hide)
    )
    (property "ki_keywords" "current sense shunt monitor" (id 4) (at 0 0 0)
      (effects (font (size 1.27 1.27)) hide)
    )
    (property "ki_description" "Current Shunt Monitor −16V to +80V Common-Mode Range, 100V/V, SOT-23-5" (id 5) (at 0 0 0)
      (effects (font (size 1.27 1.27)) hide)
    )
  )
  (symbol "Amplifier_Current:INA196" (pin_names (offset 0.127))
    (property "Reference" "U" (id 0) (at 3.81 3.81 0))
    (property "Value" "INA196" (id 1) (at 3.81 -3.81 0))
    (property "Footprint" "Package_TO_SOT_SMD:SOT-23-5" (id 2) (at 0 0 0)
      (effects (font (size 1.27 1.27)) hide)
    )
    (property "Datasheet" "http://www.ti.com/lit/ds/symlink/ina193.pdf" (id 3) (at 0 0 0)
      (effects (font (size 1.27 1.27)) hide)
    )
    (property "ki_keywords" "current sense shunt monitor" (id 4) (at 0 0 0)
      (effects (font (size 1.27 1.27)) hide)
    )
    (property "ki_description" "Current Shunt Monitor −16V to +80V Common-Mode Range, 20V/V, SOT-23-5" (id 5) (at 0 0 0)
      (effects (font (size 1.27 1.27)) hide)
    )
    (property "ki_fp_filters" "SOT?23*" (id 6) (at 0 0 0)
      (effects (font (size 1.27 1.27)) hide)
    )
    (symbol "INA196_0_1"
      (polyline
        (pts (xy 5.08 0) (xy -5.08 5.08) (xy -5.08 -5.08) (xy 5.08 0))
        (stroke (width 0.254)) (fill (type background))
      )
    )
    (symbol "INA196_1_1"
      (pin output line (at 7.62 0 180) (length 2.54) (name "~") (number "1"))
      (pin power_in line (at -2.54 -7.62 90) (length 3.81) (name "GND") (number "2"))
      (pin power_in line (at -2.54 7.62 270) (length 3.81) (name "V+") (number "3"))
      (pin input line (at -7.62 2.54 0) (length 2.54) (name "+") (number "4"))
      (pin input line (at -7.62 -2.54 0) (length 2.54) (name "-") (number "5"))
    )
  )
  (symbol "Amplifier_Current:INA197" (extends "INA196")
    (property "Value" "INA197" (id 1) (at 3.81 -3.81 0))
    (property "Datasheet" "http://www.ti.com/lit/ds/symlink/ina193.pdf" (id 3) (at 0 0 0)
      (effects (font (size 1.27 1.27)) hide)
    )
    (property "ki_keywords" "current sense shunt monitor" (id 4) (at 0 0 0)
      (effects (font (size 1.27 1.27)) hide)
    )
    (property "ki_description" "Current Shunt Monitor −16V to +80V Common-Mode Range, 50V/V, SOT-23-5" (id 5) (at 0 0 0)
      (effects (font (size 1.27 1.27)) hide)
    )
  )
  (symbol "Amplifier_Current:INA198" (extends "INA196")
    (property "Value" "INA198" (id 1) (at 3.81 -3.81 0))
    (property "Datasheet" "http://www.ti.com/lit/ds/symlink/ina193.pdf" (id 3) (at 0 0 0)
      (effects (font (size 1.27 1.27)) hide)
    )
    (property "ki_keywords" "current sense shunt monitor" (id 4) (at 0 0 0)
      (effects (font (size 1.27 1.27)) hide)
    )
    (property "ki_description" "Current Shunt Monitor −16V to +80V Common-Mode Range, 100V/V, SOT-23-5" (id 5) (at 0 0 0)
      (effects (font (size 1.27 1.27)) hide)
    )
  )
  (symbol "Amplifier_Current:INA240A1D" (pin_names (offset 0.127))
    (property "Reference" "U" (id 0) (at 3.81 3.81 0)
      (effects (font (size 1.27 1.27)) (justify left))
    )
    (property "Value" "INA240A1D" (id 1) (at 3.81 -2.54 0)
      (effects (font (size 1.27 1.27)) (justify left))
    )
    (property "Footprint" "Package_SO:SOIC-8_3.9x4.9mm_P1.27mm" (id 2) (at 0 -16.51 0)
      (effects (font (size 1.27 1.27)) hide)
    )
    (property "Datasheet" "http://www.ti.com/lit/ds/symlink/ina240.pdf" (id 3) (at 3.81 3.81 0)
      (effects (font (size 1.27 1.27)) hide)
    )
    (property "ki_keywords" "current monitor shunt sensor bidirectional high low" (id 4) (at 0 0 0)
      (effects (font (size 1.27 1.27)) hide)
    )
    (property "ki_description" "High- and Low-Side, Bidirectional, Zero-Drift, Current-Sense Amplifier With Enhanced PWM Rejection, 20V/V, SOIC-8" (id 5) (at 0 0 0)
      (effects (font (size 1.27 1.27)) hide)
    )
    (property "ki_fp_filters" "SOIC*3.9x4.9mm*P1.27mm*" (id 6) (at 0 0 0)
      (effects (font (size 1.27 1.27)) hide)
    )
    (symbol "INA240A1D_0_1"
      (polyline
        (pts (xy 5.08 0) (xy -5.08 5.08) (xy -5.08 -5.08) (xy 5.08 0))
        (stroke (width 0.254)) (fill (type background))
      )
    )
    (symbol "INA240A1D_1_1"
      (pin input line (at -7.62 -2.54 0) (length 2.54) (name "-") (number "1"))
      (pin power_in line (at -2.54 -7.62 90) (length 3.81)
        (name "GND" (effects (font (size 1.016 1.016))))
        (number "2")
      )
      (pin passive line (at 0 -7.62 90) (length 5.08)
        (name "REF2" (effects (font (size 0.508 0.508))))
        (number "3")
      )
      (pin passive line (at -2.54 -7.62 90) (length 3.81)
        (name "GND" (effects (font (size 1.016 1.016))))
        (number "4")
         hide      )
      (pin output line (at 7.62 0 180) (length 2.54) (name "~") (number "5"))
      (pin power_in line (at -2.54 7.62 270) (length 3.81)
        (name "V+" (effects (font (size 1.016 1.016))))
        (number "6")
      )
      (pin passive line (at 2.54 -7.62 90) (length 6.35)
        (name "REF1" (effects (font (size 0.508 0.508))))
        (number "7")
      )
      (pin input line (at -7.62 2.54 0) (length 2.54) (name "+") (number "8"))
    )
  )
  (symbol "Amplifier_Current:INA240A2D" (extends "INA240A1D")
    (property "Value" "INA240A2D" (id 1) (at 3.81 -2.54 0)
      (effects (font (size 1.27 1.27)) (justify left))
    )
    (property "Datasheet" "http://www.ti.com/lit/ds/symlink/ina240.pdf" (id 3) (at 3.81 3.81 0)
      (effects (font (size 1.27 1.27)) hide)
    )
    (property "ki_keywords" "current monitor shunt sensor bidirectional high low" (id 4) (at 0 0 0)
      (effects (font (size 1.27 1.27)) hide)
    )
    (property "ki_description" "High- and Low-Side, Bidirectional, Zero-Drift, Current-Sense Amplifier With Enhanced PWM Rejection, 50V/V, SOIC-8" (id 5) (at 0 0 0)
      (effects (font (size 1.27 1.27)) hide)
    )
  )
  (symbol "Amplifier_Current:INA240A3D" (extends "INA240A1D")
    (property "Value" "INA240A3D" (id 1) (at 3.81 -2.54 0)
      (effects (font (size 1.27 1.27)) (justify left))
    )
    (property "Datasheet" "http://www.ti.com/lit/ds/symlink/ina240.pdf" (id 3) (at 3.81 3.81 0)
      (effects (font (size 1.27 1.27)) hide)
    )
    (property "ki_keywords" "current monitor shunt sensor bidirectional high low" (id 4) (at 0 0 0)
      (effects (font (size 1.27 1.27)) hide)
    )
    (property "ki_description" "High- and Low-Side, Bidirectional, Zero-Drift, Current-Sense Amplifier With Enhanced PWM Rejection, 100V/V, SOIC-8" (id 5) (at 0 0 0)
      (effects (font (size 1.27 1.27)) hide)
    )
  )
  (symbol "Amplifier_Current:INA240A4D" (extends "INA240A1D")
    (property "Value" "INA240A4D" (id 1) (at 3.81 -2.54 0)
      (effects (font (size 1.27 1.27)) (justify left))
    )
    (property "Datasheet" "http://www.ti.com/lit/ds/symlink/ina240.pdf" (id 3) (at 3.81 3.81 0)
      (effects (font (size 1.27 1.27)) hide)
    )
    (property "ki_keywords" "current monitor shunt sensor bidirectional high low" (id 4) (at 0 0 0)
      (effects (font (size 1.27 1.27)) hide)
    )
    (property "ki_description" "High- and Low-Side, Bidirectional, Zero-Drift, Current-Sense Amplifier With Enhanced PWM Rejection, 200V/V, SOIC-8" (id 5) (at 0 0 0)
      (effects (font (size 1.27 1.27)) hide)
    )
  )
  (symbol "Amplifier_Current:INA240A1PW" (pin_names (offset 0.127))
    (property "Reference" "U" (id 0) (at 3.81 3.81 0)
      (effects (font (size 1.27 1.27)) (justify left))
    )
    (property "Value" "INA240A1PW" (id 1) (at 3.81 -2.54 0)
      (effects (font (size 1.27 1.27)) (justify left))
    )
    (property "Footprint" "Package_SO:TSSOP-8_4.4x3mm_P0.65mm" (id 2) (at 0 -16.51 0)
      (effects (font (size 1.27 1.27)) hide)
    )
    (property "Datasheet" "http://www.ti.com/lit/ds/symlink/ina240.pdf" (id 3) (at 3.81 3.81 0)
      (effects (font (size 1.27 1.27)) hide)
    )
    (property "ki_keywords" "current monitor shunt sensor bidirectional high low" (id 4) (at 0 0 0)
      (effects (font (size 1.27 1.27)) hide)
    )
    (property "ki_description" "High- and Low-Side, Bidirectional, Zero-Drift, Current-Sense Amplifier With Enhanced PWM Rejection, 20V/V, TSSOP-8" (id 5) (at 0 0 0)
      (effects (font (size 1.27 1.27)) hide)
    )
    (property "ki_fp_filters" "TSSOP*4.4x3mm*P0.65mm*" (id 6) (at 0 0 0)
      (effects (font (size 1.27 1.27)) hide)
    )
    (symbol "INA240A1PW_0_1"
      (polyline
        (pts (xy 5.08 0) (xy -5.08 5.08) (xy -5.08 -5.08) (xy 5.08 0))
        (stroke (width 0.254)) (fill (type background))
      )
    )
    (symbol "INA240A1PW_1_1"
      (pin passive line (at -2.54 -7.62 90) (length 3.81)
        (name "GND" (effects (font (size 1.016 1.016))))
        (number "1")
         hide      )
      (pin input line (at -7.62 2.54 0) (length 2.54) (name "+") (number "2"))
      (pin input line (at -7.62 -2.54 0) (length 2.54) (name "-") (number "3"))
      (pin power_in line (at -2.54 -7.62 90) (length 3.81)
        (name "GND" (effects (font (size 1.016 1.016))))
        (number "4")
      )
      (pin power_in line (at -2.54 7.62 270) (length 3.81)
        (name "V+" (effects (font (size 1.016 1.016))))
        (number "5")
      )
      (pin passive line (at 0 -7.62 90) (length 5.08)
        (name "REF2" (effects (font (size 0.508 0.508))))
        (number "6")
      )
      (pin passive line (at 2.54 -7.62 90) (length 6.35)
        (name "REF1" (effects (font (size 0.508 0.508))))
        (number "7")
      )
      (pin output line (at 7.62 0 180) (length 2.54) (name "~") (number "8"))
    )
  )
  (symbol "Amplifier_Current:INA240A2PW" (extends "INA240A1PW")
    (property "Value" "INA240A2PW" (id 1) (at 3.81 -2.54 0)
      (effects (font (size 1.27 1.27)) (justify left))
    )
    (property "Datasheet" "http://www.ti.com/lit/ds/symlink/ina240.pdf" (id 3) (at 3.81 3.81 0)
      (effects (font (size 1.27 1.27)) hide)
    )
    (property "ki_keywords" "current monitor shunt sensor bidirectional high low" (id 4) (at 0 0 0)
      (effects (font (size 1.27 1.27)) hide)
    )
    (property "ki_description" "High- and Low-Side, Bidirectional, Zero-Drift, Current-Sense Amplifier With Enhanced PWM Rejection, 50V/V, TSSOP-8" (id 5) (at 0 0 0)
      (effects (font (size 1.27 1.27)) hide)
    )
  )
  (symbol "Amplifier_Current:INA240A3PW" (extends "INA240A1PW")
    (property "Value" "INA240A3PW" (id 1) (at 3.81 -2.54 0)
      (effects (font (size 1.27 1.27)) (justify left))
    )
    (property "Datasheet" "http://www.ti.com/lit/ds/symlink/ina240.pdf" (id 3) (at 3.81 3.81 0)
      (effects (font (size 1.27 1.27)) hide)
    )
    (property "ki_keywords" "current monitor shunt sensor bidirectional high low" (id 4) (at 0 0 0)
      (effects (font (size 1.27 1.27)) hide)
    )
    (property "ki_description" "High- and Low-Side, Bidirectional, Zero-Drift, Current-Sense Amplifier With Enhanced PWM Rejection, 100V/V, TSSOP-8" (id 5) (at 0 0 0)
      (effects (font (size 1.27 1.27)) hide)
    )
  )
  (symbol "Amplifier_Current:INA240A4PW" (extends "INA240A1PW")
    (property "Value" "INA240A4PW" (id 1) (at 3.81 -2.54 0)
      (effects (font (size 1.27 1.27)) (justify left))
    )
    (property "Datasheet" "http://www.ti.com/lit/ds/symlink/ina240.pdf" (id 3) (at 3.81 3.81 0)
      (effects (font (size 1.27 1.27)) hide)
    )
    (property "ki_keywords" "current monitor shunt sensor bidirectional high low" (id 4) (at 0 0 0)
      (effects (font (size 1.27 1.27)) hide)
    )
    (property "ki_description" "High- and Low-Side, Bidirectional, Zero-Drift, Current-Sense Amplifier With Enhanced PWM Rejection, 200V/V, TSSOP-8" (id 5) (at 0 0 0)
      (effects (font (size 1.27 1.27)) hide)
    )
  )
  (symbol "Amplifier_Current:INA253" (pin_names (offset 0.508))
    (property "Reference" "U" (id 0) (at -8.89 13.97 0))
    (property "Value" "INA253" (id 1) (at 6.35 13.97 0))
    (property "Footprint" "Package_SO:TSSOP-20_4.4x6.5mm_P0.65mm" (id 2) (at 0 -22.86 0)
      (effects (font (size 1.27 1.27)) hide)
    )
    (property "Datasheet" "http://www.ti.com/lit/ds/symlink/ina253.pdf" (id 3) (at 0 -25.4 0)
      (effects (font (size 1.27 1.27)) hide)
    )
    (property "ki_keywords" "shunt current amplifier bidirectional" (id 4) (at 0 0 0)
      (effects (font (size 1.27 1.27)) hide)
    )
    (property "ki_description" "High Voltage, Bidirectional, Zero-Drift, Current-ShuntMonitor With Integrated, 2-mΩ, Precision, Low Inductive Shunt Resistor, TSSOP-20" (id 5) (at 0 0 0)
      (effects (font (size 1.27 1.27)) hide)
    )
    (property "ki_fp_filters" "TSSOP*4.4x6.5mm*P0.65mm*" (id 6) (at 0 0 0)
      (effects (font (size 1.27 1.27)) hide)
    )
    (symbol "INA253_0_1"
      (rectangle (start -7.62 12.7) (end 7.62 -12.7) (stroke (width 0.254)) (fill (type background)))
    )
    (symbol "INA253_1_1"
      (pin passive line (at -10.16 -10.16 0) (length 2.54) (name "IS-") (number "1"))
      (pin passive line (at 10.16 -2.54 180) (length 2.54) (name "REF2") (number "10"))
      (pin passive line (at 10.16 -5.08 180) (length 2.54) (name "REF1") (number "11"))
      (pin unconnected line (at 7.62 0 180) (length 2.54) (name "NC") (number "12") hide)
      (pin output line (at 10.16 5.08 180) (length 2.54) (name "OUT") (number "13"))
      (pin unconnected line (at 7.62 10.16 180) (length 2.54) (name "DNC2") (number "14") hide)
      (pin passive line (at 0 -15.24 90) (length 2.54) (name "GND") (number "15") hide)
      (pin passive line (at -10.16 2.54 0) (length 2.54) (name "IN+") (number "16"))
      (pin passive line (at -10.16 5.08 0) (length 2.54) (name "SH+") (number "17"))
      (pin passive line (at -10.16 10.16 0) (length 2.54) (name "IS+") (number "18") hide)
      (pin passive line (at -10.16 10.16 0) (length 2.54) (name "IS+") (number "19") hide)
      (pin passive line (at -10.16 -10.16 0) (length 2.54) (name "IS-") (number "2") hide)
      (pin passive line (at -10.16 10.16 0) (length 2.54) (name "IS+") (number "20"))
      (pin passive line (at -10.16 -10.16 0) (length 2.54) (name "IS-") (number "3") hide)
      (pin passive line (at -10.16 -5.08 0) (length 2.54) (name "SH-") (number "4"))
      (pin passive line (at -10.16 -2.54 0) (length 2.54) (name "IN-") (number "5"))
      (pin power_in line (at 0 -15.24 90) (length 2.54) (name "GND") (number "6"))
      (pin unconnected line (at 7.62 7.62 180) (length 2.54) (name "DNC1") (number "7") hide)
      (pin unconnected line (at 7.62 2.54 180) (length 2.54) (name "NC") (number "8") hide)
      (pin power_in line (at 0 15.24 270) (length 2.54) (name "VS") (number "9"))
    )
  )
  (symbol "Amplifier_Current:INA282" (pin_names (offset 0.127))
    (property "Reference" "U" (id 0) (at 3.81 3.81 0)
      (effects (font (size 1.27 1.27)) (justify left))
    )
    (property "Value" "INA282" (id 1) (at 3.81 -2.54 0)
      (effects (font (size 1.27 1.27)) (justify left))
    )
    (property "Footprint" "" (id 2) (at 0 0 0)
      (effects (font (size 1.27 1.27)) hide)
    )
    (property "Datasheet" "http://www.ti.com/lit/ds/symlink/ina282.pdf" (id 3) (at 0 0 0)
      (effects (font (size 1.27 1.27)) hide)
    )
    (property "ki_keywords" "current monitor shunt sensor bidirectional" (id 4) (at 0 0 0)
      (effects (font (size 1.27 1.27)) hide)
    )
    (property "ki_description" "High-Accuracy, Wide Common-Mode Range, Bidirectional Current Shunt Monitors, Zero-Drift Series, 50V/V, SOIC-8/VSSOP-8" (id 5) (at 0 0 0)
      (effects (font (size 1.27 1.27)) hide)
    )
    (property "ki_fp_filters" "SOIC*3.9x4.9mm*P1.27mm*\nMSOP*3x3mm*P0.65mm*" (id 6) (at 0 0 0)
      (effects (font (size 1.27 1.27)) hide)
    )
    (symbol "INA282_0_1"
      (polyline
        (pts (xy 5.08 0) (xy -5.08 5.08) (xy -5.08 -5.08) (xy 5.08 0))
        (stroke (width 0.254)) (fill (type background))
      )
    )
    (symbol "INA282_1_1"
      (pin input line (at -7.62 -2.54 0) (length 2.54) (name "-") (number "1"))
      (pin power_in line (at -2.54 -7.62 90) (length 3.81) (name "GND") (number "2"))
      (pin input line (at 0 -7.62 90) (length 5.08)
        (name "REF2" (effects (font (size 0.508 0.508))))
        (number "3")
      )
      (pin unconnected line (at -5.08 0 0) (length 2.54) (name "NC") (number "4") hide)
      (pin input line (at 7.62 0 180) (length 2.54) (name "~") (number "5"))
      (pin input line (at -2.54 7.62 270) (length 3.81) (name "V+") (number "6"))
      (pin input line (at 2.54 -7.62 90) (length 6.35)
        (name "REF1" (effects (font (size 0.508 0.508))))
        (number "7")
      )
      (pin input line (at -7.62 2.54 0) (length 2.54) (name "+") (number "8"))
    )
  )
  (symbol "Amplifier_Current:INA283" (extends "INA282")
    (property "Value" "INA283" (id 1) (at 3.81 -2.54 0)
      (effects (font (size 1.27 1.27)) (justify left))
    )
    (property "Datasheet" "http://www.ti.com/lit/ds/symlink/ina282.pdf" (id 3) (at 0 0 0)
      (effects (font (size 1.27 1.27)) hide)
    )
    (property "ki_keywords" "current monitor shunt sensor bidirectional" (id 4) (at 0 0 0)
      (effects (font (size 1.27 1.27)) hide)
    )
    (property "ki_description" "High-Accuracy, Wide Common-Mode Range, Bidirectional Current Shunt Monitors, Zero-Drift Series, 200V/V, SOIC-8/VSSOP-8" (id 5) (at 0 0 0)
      (effects (font (size 1.27 1.27)) hide)
    )
  )
  (symbol "Amplifier_Current:INA284" (extends "INA282")
    (property "Value" "INA284" (id 1) (at 3.81 -2.54 0)
      (effects (font (size 1.27 1.27)) (justify left))
    )
    (property "Datasheet" "http://www.ti.com/lit/ds/symlink/ina282.pdf" (id 3) (at 0 0 0)
      (effects (font (size 1.27 1.27)) hide)
    )
    (property "ki_keywords" "current monitor shunt sensor bidirectional" (id 4) (at 0 0 0)
      (effects (font (size 1.27 1.27)) hide)
    )
    (property "ki_description" "High-Accuracy, Wide Common-Mode Range, Bidirectional Current Shunt Monitors, Zero-Drift Series, 500V/V, SOIC-8/VSSOP-8" (id 5) (at 0 0 0)
      (effects (font (size 1.27 1.27)) hide)
    )
  )
  (symbol "Amplifier_Current:INA285" (extends "INA282")
    (property "Value" "INA285" (id 1) (at 3.81 -2.54 0)
      (effects (font (size 1.27 1.27)) (justify left))
    )
    (property "Datasheet" "http://www.ti.com/lit/ds/symlink/ina282.pdf" (id 3) (at 0 0 0)
      (effects (font (size 1.27 1.27)) hide)
    )
    (property "ki_keywords" "current monitor shunt sensor bidirectional" (id 4) (at 0 0 0)
      (effects (font (size 1.27 1.27)) hide)
    )
    (property "ki_description" "High-Accuracy, Wide Common-Mode Range, Bidirectional Current Shunt Monitors, Zero-Drift Series, 1000V/V, SOIC-8/VSSOP-8" (id 5) (at 0 0 0)
      (effects (font (size 1.27 1.27)) hide)
    )
  )
  (symbol "Amplifier_Current:INA286" (extends "INA282")
    (property "Value" "INA286" (id 1) (at 3.81 -2.54 0)
      (effects (font (size 1.27 1.27)) (justify left))
    )
    (property "Datasheet" "http://www.ti.com/lit/ds/symlink/ina282.pdf" (id 3) (at 0 0 0)
      (effects (font (size 1.27 1.27)) hide)
    )
    (property "ki_keywords" "current monitor shunt sensor bidirectional" (id 4) (at 0 0 0)
      (effects (font (size 1.27 1.27)) hide)
    )
    (property "ki_description" "High-Accuracy, Wide Common-Mode Range, Bidirectional Current Shunt Monitors, Zero-Drift Series, 100V/V, SOIC-8/VSSOP-8" (id 5) (at 0 0 0)
      (effects (font (size 1.27 1.27)) hide)
    )
  )
  (symbol "Amplifier_Current:LMP8640" (pin_names (offset 0.127))
    (property "Reference" "U" (id 0) (at 3.81 5.08 0)
      (effects (font (size 1.27 1.27)) (justify left))
    )
    (property "Value" "LMP8640" (id 1) (at 3.81 2.54 0)
      (effects (font (size 1.27 1.27)) (justify left))
    )
    (property "Footprint" "Package_TO_SOT_SMD:SOT-23-6" (id 2) (at 3.81 -2.54 0)
      (effects (font (size 1.27 1.27)) (justify left) hide)
    )
    (property "Datasheet" "http://www.ti.com/lit/ds/symlink/lmp8640.pdf" (id 3) (at 0 0.127 0)
      (effects (font (size 1.27 1.27)) hide)
    )
    (property "ki_keywords" "current monitor shunt sensor" (id 4) (at 0 0 0)
      (effects (font (size 1.27 1.27)) hide)
    )
    (property "ki_description" "Precision High Voltage Current Sense Amplifiers, 42V/76V, SOT-23-6" (id 5) (at 0 0 0)
      (effects (font (size 1.27 1.27)) hide)
    )
    (property "ki_fp_filters" "SOT?23*" (id 6) (at 0 0 0)
      (effects (font (size 1.27 1.27)) hide)
    )
    (symbol "LMP8640_0_1"
      (polyline
        (pts (xy -5.08 5.08) (xy 5.08 0) (xy -5.08 -5.08) (xy -5.08 5.08))
        (stroke (width 0.254)) (fill (type background))
      )
    )
    (symbol "LMP8640_1_1"
      (pin output line (at 7.62 0 180) (length 2.54) (name "~") (number "1"))
      (pin power_in line (at -2.54 -7.62 90) (length 3.81) (name "V-") (number "2"))
      (pin input line (at -7.62 2.54 0) (length 2.54) (name "+") (number "3"))
      (pin input line (at -7.62 -2.54 0) (length 2.54) (name "-") (number "4"))
      (pin power_in line (at -2.54 7.62 270) (length 3.81) (name "V+") (number "6"))
    )
  )
  (symbol "Amplifier_Current:LT6106" (pin_names (offset 0.127))
    (property "Reference" "U" (id 0) (at 1.27 5.08 0))
    (property "Value" "LT6106" (id 1) (at 0 -5.08 0)
      (effects (font (size 1.27 1.27)) (justify left))
    )
    (property "Footprint" "Package_TO_SOT_SMD:SOT-23-5" (id 2) (at 0 0 0)
      (effects (font (size 1.27 1.27)) hide)
    )
    (property "Datasheet" "https://www.analog.com/media/en/technical-documentation/data-sheets/6106fb.pdf" (id 3) (at 1.27 5.08 0)
      (effects (font (size 1.27 1.27)) hide)
    )
    (property "ki_keywords" "current sense" (id 4) (at 0 0 0)
      (effects (font (size 1.27 1.27)) hide)
    )
    (property "ki_description" "36V Low Cost, High Side Current Sense, SOT-23-5" (id 5) (at 0 0 0)
      (effects (font (size 1.27 1.27)) hide)
    )
    (property "ki_fp_filters" "SOT?23*" (id 6) (at 0 0 0)
      (effects (font (size 1.27 1.27)) hide)
    )
    (symbol "LT6106_0_1"
      (polyline
        (pts (xy -5.08 5.08) (xy 5.08 0) (xy -5.08 -5.08) (xy -5.08 5.08))
        (stroke (width 0.254)) (fill (type background))
      )
    )
    (symbol "LT6106_1_1"
      (pin open_collector line (at 7.62 0 180) (length 2.54) (name "~") (number "1"))
      (pin power_in line (at -2.54 -7.62 90) (length 3.81) (name "V-") (number "2"))
      (pin input line (at -7.62 -2.54 0) (length 2.54) (name "-") (number "3"))
      (pin input line (at -7.62 2.54 0) (length 2.54) (name "+") (number "4"))
      (pin power_in line (at -2.54 7.62 270) (length 3.81) (name "V+") (number "5"))
    )
  )
  (symbol "Amplifier_Current:LTC6102xDD" (pin_names (offset 0.508))
    (property "Reference" "U" (id 0) (at -10.16 8.89 0)
      (effects (font (size 1.27 1.27)) (justify left bottom))
    )
    (property "Value" "LTC6102xDD" (id 1) (at 1.27 8.89 0)
      (effects (font (size 1.27 1.27)) (justify left bottom))
    )
    (property "Footprint" "Package_DFN_QFN:DFN-8-1EP_3x3mm_P0.5mm_EP1.66x2.38mm" (id 2) (at 0 0 0)
      (effects (font (size 1.27 1.27)) hide)
    )
    (property "Datasheet" "https://www.analog.com/media/en/technical-documentation/data-sheets/6102fe.pdf" (id 3) (at 0 0 0)
      (effects (font (size 1.27 1.27)) hide)
    )
    (property "ki_keywords" "current sense amplifier" (id 4) (at 0 0 0)
      (effects (font (size 1.27 1.27)) hide)
    )
    (property "ki_description" "Precision Zero Drift Current Sense Amplifier, 60V, DFN-8" (id 5) (at 0 0 0)
      (effects (font (size 1.27 1.27)) hide)
    )
    (property "ki_fp_filters" "DFN*3x3mm*P0.5mm*" (id 6) (at 0 0 0)
      (effects (font (size 1.27 1.27)) hide)
    )
    (symbol "LTC6102xDD_0_1"
      (rectangle (start -10.16 7.62) (end 10.16 -5.08) (stroke (width 0.254)) (fill (type background)))
    )
    (symbol "LTC6102xDD_1_1"
      (pin input line (at -12.7 5.08 0) (length 2.54) (name "-INS") (number "1"))
      (pin input line (at -12.7 2.54 0) (length 2.54) (name "-INF") (number "2"))
      (pin power_in line (at 0 -7.62 90) (length 2.54) (name "V-") (number "3"))
      (pin output line (at 12.7 5.08 180) (length 2.54) (name "OUT") (number "4"))
      (pin passive line (at 0 -7.62 90) (length 2.54) (name "V-") (number "5") hide)
      (pin output line (at 12.7 0 180) (length 2.54) (name "VREG") (number "6"))
      (pin power_in line (at 0 10.16 270) (length 2.54) (name "V+") (number "7"))
      (pin input line (at -12.7 0 0) (length 2.54) (name "+IN") (number "8"))
      (pin passive line (at 0 -7.62 90) (length 2.54) (name "V-") (number "9") hide)
    )
  )
  (symbol "Amplifier_Current:LTC6102HVxDD" (extends "LTC6102xDD")
    (property "Value" "LTC6102HVxDD" (id 1) (at 1.27 8.89 0)
      (effects (font (size 1.27 1.27)) (justify left bottom))
    )
    (property "Datasheet" "https://www.analog.com/media/en/technical-documentation/data-sheets/6102fe.pdf" (id 3) (at 0 0 0)
      (effects (font (size 1.27 1.27)) hide)
    )
    (property "ki_keywords" "current sense amplifier" (id 4) (at 0 0 0)
      (effects (font (size 1.27 1.27)) hide)
    )
    (property "ki_description" "Precision Zero Drift Current Sense Amplifier, 100V, DFN-8" (id 5) (at 0 0 0)
      (effects (font (size 1.27 1.27)) hide)
    )
  )
  (symbol "Amplifier_Current:LTC6102xDD-1" (pin_names (offset 0.508))
    (property "Reference" "U" (id 0) (at -10.16 8.89 0)
      (effects (font (size 1.27 1.27)) (justify left bottom))
    )
    (property "Value" "LTC6102xDD-1" (id 1) (at 1.27 8.89 0)
      (effects (font (size 1.27 1.27)) (justify left bottom))
    )
    (property "Footprint" "Package_DFN_QFN:DFN-8-1EP_3x3mm_P0.5mm_EP1.66x2.38mm" (id 2) (at 0 0 0)
      (effects (font (size 1.27 1.27)) hide)
    )
    (property "Datasheet" "https://www.analog.com/media/en/technical-documentation/data-sheets/6102fe.pdf" (id 3) (at 0 0 0)
      (effects (font (size 1.27 1.27)) hide)
    )
    (property "ki_keywords" "current sense amplifier" (id 4) (at 0 0 0)
      (effects (font (size 1.27 1.27)) hide)
    )
    (property "ki_description" "Precision Zero Drift Current Sense Amplifier, 60V, DFN-8" (id 5) (at 0 0 0)
      (effects (font (size 1.27 1.27)) hide)
    )
    (property "ki_fp_filters" "DFN*3x3mm*P0.5mm*" (id 6) (at 0 0 0)
      (effects (font (size 1.27 1.27)) hide)
    )
    (symbol "LTC6102xDD-1_0_1"
      (rectangle (start -10.16 7.62) (end 10.16 -5.08) (stroke (width 0.254)) (fill (type background)))
    )
    (symbol "LTC6102xDD-1_1_1"
      (pin input line (at -12.7 5.08 0) (length 2.54) (name "-INS") (number "1"))
      (pin input line (at -12.7 2.54 0) (length 2.54) (name "-INF") (number "2"))
      (pin input line (at -12.7 -2.54 0) (length 2.54) (name "EN") (number "3"))
      (pin output line (at 12.7 5.08 180) (length 2.54) (name "OUT") (number "4"))
      (pin power_in line (at 0 -7.62 90) (length 2.54) (name "V-") (number "5"))
      (pin output line (at 12.7 0 180) (length 2.54) (name "VREG") (number "6"))
      (pin power_in line (at 0 10.16 270) (length 2.54) (name "V+") (number "7"))
      (pin input line (at -12.7 0 0) (length 2.54) (name "+IN") (number "8"))
      (pin passive line (at 0 -7.62 90) (length 2.54) (name "V-") (number "9") hide)
    )
  )
  (symbol "Amplifier_Current:LTC6102xMS8" (pin_names (offset 0.508))
    (property "Reference" "U" (id 0) (at -10.16 8.89 0)
      (effects (font (size 1.27 1.27)) (justify left bottom))
    )
    (property "Value" "LTC6102xMS8" (id 1) (at 1.27 8.89 0)
      (effects (font (size 1.27 1.27)) (justify left bottom))
    )
    (property "Footprint" "Package_SO:MSOP-8_3x3mm_P0.65mm" (id 2) (at 0 0 0)
      (effects (font (size 1.27 1.27)) hide)
    )
    (property "Datasheet" "https://www.analog.com/media/en/technical-documentation/data-sheets/6102fe.pdf" (id 3) (at 0 0 0)
      (effects (font (size 1.27 1.27)) hide)
    )
    (property "ki_keywords" "current sense amplifier" (id 4) (at 0 0 0)
      (effects (font (size 1.27 1.27)) hide)
    )
    (property "ki_description" "Precision Zero Drift Current Sense Amplifier, 60V, MSOP-8" (id 5) (at 0 0 0)
      (effects (font (size 1.27 1.27)) hide)
    )
    (property "ki_fp_filters" "MSOP*3x3mm*P0.65mm*" (id 6) (at 0 0 0)
      (effects (font (size 1.27 1.27)) hide)
    )
    (symbol "LTC6102xMS8_0_1"
      (rectangle (start -10.16 7.62) (end 10.16 -5.08) (stroke (width 0.254)) (fill (type background)))
    )
    (symbol "LTC6102xMS8_1_1"
      (pin input line (at -12.7 5.08 0) (length 2.54) (name "-INS") (number "1"))
      (pin input line (at -12.7 2.54 0) (length 2.54) (name "-INF") (number "2"))
      (pin power_in line (at 0 -7.62 90) (length 2.54) (name "V-") (number "3"))
      (pin output line (at 12.7 5.08 180) (length 2.54) (name "OUT") (number "4"))
      (pin passive line (at 0 -7.62 90) (length 2.54) (name "V-") (number "5") hide)
      (pin output line (at 12.7 0 180) (length 2.54) (name "VREG") (number "6"))
      (pin power_in line (at 0 10.16 270) (length 2.54) (name "V+") (number "7"))
      (pin input line (at -12.7 0 0) (length 2.54) (name "+IN") (number "8"))
    )
  )
  (symbol "Amplifier_Current:LTC6102HVxMS8" (extends "LTC6102xMS8")
    (property "Value" "LTC6102HVxMS8" (id 1) (at 1.27 8.89 0)
      (effects (font (size 1.27 1.27)) (justify left bottom))
    )
    (property "Datasheet" "https://www.analog.com/media/en/technical-documentation/data-sheets/6102fe.pdf" (id 3) (at 0 0 0)
      (effects (font (size 1.27 1.27)) hide)
    )
    (property "ki_keywords" "current sense amplifier" (id 4) (at 0 0 0)
      (effects (font (size 1.27 1.27)) hide)
    )
    (property "ki_description" "Precision Zero Drift Current Sense Amplifier, 100V, MSOP-8" (id 5) (at 0 0 0)
      (effects (font (size 1.27 1.27)) hide)
    )
  )
  (symbol "Amplifier_Current:LTC6102xMS8-1" (pin_names (offset 0.508))
    (property "Reference" "U" (id 0) (at -10.16 8.89 0)
      (effects (font (size 1.27 1.27)) (justify left bottom))
    )
    (property "Value" "LTC6102xMS8-1" (id 1) (at 1.27 8.89 0)
      (effects (font (size 1.27 1.27)) (justify left bottom))
    )
    (property "Footprint" "Package_SO:MSOP-8_3x3mm_P0.65mm" (id 2) (at 0 0 0)
      (effects (font (size 1.27 1.27)) hide)
    )
    (property "Datasheet" "https://www.analog.com/media/en/technical-documentation/data-sheets/6102fe.pdf" (id 3) (at 0 0 0)
      (effects (font (size 1.27 1.27)) hide)
    )
    (property "ki_keywords" "current sense amplifier" (id 4) (at 0 0 0)
      (effects (font (size 1.27 1.27)) hide)
    )
    (property "ki_description" "Precision Zero Drift Current Sense Amplifier, 60V, MSOP-8" (id 5) (at 0 0 0)
      (effects (font (size 1.27 1.27)) hide)
    )
    (property "ki_fp_filters" "MSOP*3x3mm*P0.65mm*" (id 6) (at 0 0 0)
      (effects (font (size 1.27 1.27)) hide)
    )
    (symbol "LTC6102xMS8-1_0_1"
      (rectangle (start -10.16 7.62) (end 10.16 -5.08) (stroke (width 0.254)) (fill (type background)))
    )
    (symbol "LTC6102xMS8-1_1_1"
      (pin input line (at -12.7 5.08 0) (length 2.54) (name "-INS") (number "1"))
      (pin input line (at -12.7 2.54 0) (length 2.54) (name "-INF") (number "2"))
      (pin input line (at -12.7 -2.54 0) (length 2.54) (name "EN") (number "3"))
      (pin output line (at 12.7 5.08 180) (length 2.54) (name "OUT") (number "4"))
      (pin power_in line (at 0 -7.62 90) (length 2.54) (name "V-") (number "5"))
      (pin output line (at 12.7 0 180) (length 2.54) (name "VREG") (number "6"))
      (pin power_in line (at 0 10.16 270) (length 2.54) (name "V+") (number "7"))
      (pin input line (at -12.7 0 0) (length 2.54) (name "+IN") (number "8"))
    )
  )
  (symbol "Amplifier_Current:MAX4080F" (pin_names (offset 0.508))
    (property "Reference" "U" (id 0) (at -7.62 6.35 0)
      (effects (font (size 1.27 1.27)) (justify left))
    )
    (property "Value" "MAX4080F" (id 1) (at 2.54 6.35 0)
      (effects (font (size 1.27 1.27)) (justify left))
    )
    (property "Footprint" "" (id 2) (at 16.51 -17.78 0)
      (effects (font (size 1.27 1.27)) hide)
    )
    (property "Datasheet" "http://datasheets.maximintegrated.com/en/ds/MAX4080-MAX4081.pdf" (id 3) (at 0 10.16 0)
      (effects (font (size 1.27 1.27)) hide)
    )
    (property "ki_keywords" "current sense amplifier" (id 4) (at 0 0 0)
      (effects (font (size 1.27 1.27)) hide)
    )
    (property "ki_description" "76V, High-Side, Current-Sense Amplifiers with Voltage Output, Unidirectional, 5V/V Gain, SOIC-8/uMAX-8" (id 5) (at 0 0 0)
      (effects (font (size 1.27 1.27)) hide)
    )
    (property "ki_fp_filters" "SOIC*3.9x4.9mm*P1.27mm*\nMSOP*3x3mm*P0.65mm*" (id 6) (at 0 0 0)
      (effects (font (size 1.27 1.27)) hide)
    )
    (symbol "MAX4080F_0_1"
      (rectangle (start -7.62 5.08) (end 7.62 -5.08) (stroke (width 0.254)) (fill (type background)))
    )
    (symbol "MAX4080F_1_1"
      (pin input line (at -10.16 2.54 0) (length 2.54) (name "RS+") (number "1"))
      (pin power_in line (at 0 7.62 270) (length 2.54) (name "Vcc") (number "2"))
      (pin unconnected line (at 2.54 -5.08 90) (length 2.54) (name "NC") (number "3") hide)
      (pin power_in line (at 0 -7.62 90) (length 2.54) (name "GND") (number "4"))
      (pin output line (at 10.16 0 180) (length 2.54) (name "OUT") (number "5"))
      (pin unconnected line (at 5.08 -5.08 90) (length 2.54) (name "NC") (number "6") hide)
      (pin unconnected line (at 7.62 -5.08 90) (length 2.54) (name "NC") (number "7") hide)
      (pin input line (at -10.16 -2.54 0) (length 2.54) (name "RS-") (number "8"))
    )
  )
  (symbol "Amplifier_Current:MAX4080S" (extends "MAX4080F")
    (property "Value" "MAX4080S" (id 1) (at 2.54 6.35 0)
      (effects (font (size 1.27 1.27)) (justify left))
    )
    (property "Datasheet" "http://datasheets.maximintegrated.com/en/ds/MAX4080-MAX4081.pdf" (id 3) (at 0 10.16 0)
      (effects (font (size 1.27 1.27)) hide)
    )
    (property "ki_keywords" "current sense amplifier" (id 4) (at 0 0 0)
      (effects (font (size 1.27 1.27)) hide)
    )
    (property "ki_description" "76V, High-Side, Current-Sense Amplifiers with Voltage Output, Undirectional, 60V/V Gain, SOIC-8/uMAX-8" (id 5) (at 0 0 0)
      (effects (font (size 1.27 1.27)) hide)
    )
  )
  (symbol "Amplifier_Current:MAX4080T" (extends "MAX4080F")
    (property "Value" "MAX4080T" (id 1) (at 2.54 6.35 0)
      (effects (font (size 1.27 1.27)) (justify left))
    )
    (property "Datasheet" "http://datasheets.maximintegrated.com/en/ds/MAX4080-MAX4081.pdf" (id 3) (at 0 10.16 0)
      (effects (font (size 1.27 1.27)) hide)
    )
    (property "ki_keywords" "current sense amplifier" (id 4) (at 0 0 0)
      (effects (font (size 1.27 1.27)) hide)
    )
    (property "ki_description" "76V, High-Side, Current-Sense Amplifiers with Voltage Output, Unidirectional, 20V/V Gain, SOIC-8/uMAX-8" (id 5) (at 0 0 0)
      (effects (font (size 1.27 1.27)) hide)
    )
  )
  (symbol "Amplifier_Current:MAX4081F" (pin_names (offset 0.508))
    (property "Reference" "U" (id 0) (at -7.62 8.89 0)
      (effects (font (size 1.27 1.27)) (justify left))
    )
    (property "Value" "MAX4081F" (id 1) (at 2.54 8.89 0)
      (effects (font (size 1.27 1.27)) (justify left))
    )
    (property "Footprint" "" (id 2) (at 16.51 -17.78 0)
      (effects (font (size 1.27 1.27)) hide)
    )
    (property "Datasheet" "http://datasheets.maximintegrated.com/en/ds/MAX4080-MAX4081.pdf" (id 3) (at 16.51 -17.78 0)
      (effects (font (size 1.27 1.27)) hide)
    )
    (property "ki_keywords" "current sense amplifier" (id 4) (at 0 0 0)
      (effects (font (size 1.27 1.27)) hide)
    )
    (property "ki_description" "76V, High-Side, Current-Sense Amplifiers with Voltage Output, Bidirectional, 5V/V Gain, SOIC-8/uMAX-8" (id 5) (at 0 0 0)
      (effects (font (size 1.27 1.27)) hide)
    )
    (property "ki_fp_filters" "SOIC*3.9x4.9mm*P1.27mm*\nMSOP*3x3mm*P0.65mm*" (id 6) (at 0 0 0)
      (effects (font (size 1.27 1.27)) hide)
    )
    (symbol "MAX4081F_0_1"
      (rectangle (start -7.62 7.62) (end 10.16 -5.08) (stroke (width 0.254)) (fill (type background)))
    )
    (symbol "MAX4081F_1_1"
      (pin input line (at -10.16 2.54 0) (length 2.54) (name "RS+") (number "1"))
      (pin power_in line (at 0 10.16 270) (length 2.54) (name "Vcc") (number "2"))
      (pin unconnected line (at 12.7 2.54 180) (length 2.54) (name "NC") (number "3") hide)
      (pin power_in line (at 0 -7.62 90) (length 2.54) (name "GND") (number "4"))
      (pin input line (at 12.7 5.08 180) (length 2.54) (name "OUT") (number "5"))
      (pin input line (at 12.7 -2.54 180) (length 2.54) (name "REF1B") (number "6"))
      (pin input line (at 12.7 0 180) (length 2.54) (name "REF1A") (number "7"))
      (pin input line (at -10.16 -2.54 0) (length 2.54) (name "RS-") (number "8"))
    )
  )
  (symbol "Amplifier_Current:MAX4081S" (extends "MAX4081F")
    (property "Value" "MAX4081S" (id 1) (at 2.54 8.89 0)
      (effects (font (size 1.27 1.27)) (justify left))
    )
    (property "Datasheet" "http://datasheets.maximintegrated.com/en/ds/MAX4080-MAX4081.pdf" (id 3) (at 16.51 -17.78 0)
      (effects (font (size 1.27 1.27)) hide)
    )
    (property "ki_keywords" "current sense amplifier" (id 4) (at 0 0 0)
      (effects (font (size 1.27 1.27)) hide)
    )
    (property "ki_description" "76V, High-Side, Current-Sense Amplifiers with Voltage Outpute, Bidirectional, 60V/V Gain, SOIC-8/uMAX-8" (id 5) (at 0 0 0)
      (effects (font (size 1.27 1.27)) hide)
    )
  )
  (symbol "Amplifier_Current:MAX4081T" (extends "MAX4081F")
    (property "Value" "MAX4081T" (id 1) (at 2.54 8.89 0)
      (effects (font (size 1.27 1.27)) (justify left))
    )
    (property "Datasheet" "http://datasheets.maximintegrated.com/en/ds/MAX4080-MAX4081.pdf" (id 3) (at 16.51 -17.78 0)
      (effects (font (size 1.27 1.27)) hide)
    )
    (property "ki_keywords" "current sense amplifier" (id 4) (at 0 0 0)
      (effects (font (size 1.27 1.27)) hide)
    )
    (property "ki_description" "76V, High-Side, Current-Sense Amplifiers with Voltage Output, Bidirectional, 20V/V Gain, SOIC-8/uMAX-8" (id 5) (at 0 0 0)
      (effects (font (size 1.27 1.27)) hide)
    )
  )
  (symbol "Amplifier_Current:MAX471" (pin_names (offset 0.508))
    (property "Reference" "U" (id 0) (at -7.62 8.89 0)
      (effects (font (size 1.27 1.27)) (justify left))
    )
    (property "Value" "MAX471" (id 1) (at 0 8.89 0)
      (effects (font (size 1.27 1.27)) (justify left))
    )
    (property "Footprint" "" (id 2) (at 0 0 0)
      (effects (font (size 1.27 1.27)) hide)
    )
    (property "Datasheet" "http://pdfserv.maximintegrated.com/en/ds/MAX471-MAX472.pdf" (id 3) (at 0 0 0)
      (effects (font (size 1.27 1.27)) hide)
    )
    (property "ki_keywords" "current sense amplifier" (id 4) (at 0 0 0)
      (effects (font (size 1.27 1.27)) hide)
    )
    (property "ki_description" "Precision, High-Side, Current-Sense Amplifiers, DIP-8/SOIC-8" (id 5) (at 0 0 0)
      (effects (font (size 1.27 1.27)) hide)
    )
    (property "ki_fp_filters" "SOIC*3.9x4.9mm*P1.27mm*\nDIP*W7.62mm*" (id 6) (at 0 0 0)
      (effects (font (size 1.27 1.27)) hide)
    )
    (symbol "MAX471_0_1"
      (rectangle (start -7.62 7.62) (end 7.62 -7.62) (stroke (width 0.254)) (fill (type background)))
    )
    (symbol "MAX471_1_1"
      (pin input line (at -10.16 -2.54 0) (length 2.54) (name "SHDN") (number "1"))
      (pin input line (at -10.16 5.08 0) (length 2.54) (name "RS+") (number "2"))
      (pin input line (at -10.16 2.54 0) (length 2.54) (name "RS+") (number "3"))
      (pin power_in line (at 0 -10.16 90) (length 2.54) (name "GND") (number "4"))
      (pin open_collector line (at 10.16 -2.54 180) (length 2.54) (name "SIGN") (number "5"))
      (pin input line (at 10.16 5.08 180) (length 2.54) (name "RS-") (number "6"))
      (pin input line (at 10.16 2.54 180) (length 2.54) (name "RS-") (number "7"))
      (pin output line (at 10.16 -5.08 180) (length 2.54) (name "OUT") (number "8"))
    )
  )
  (symbol "Amplifier_Current:MAX472" (pin_names (offset 0.508))
    (property "Reference" "U" (id 0) (at 3.81 11.43 0)
      (effects (font (size 1.27 1.27)) (justify left))
    )
    (property "Value" "MAX472" (id 1) (at 3.81 8.89 0)
      (effects (font (size 1.27 1.27)) (justify left))
    )
    (property "Footprint" "" (id 2) (at 0 0 0)
      (effects (font (size 1.27 1.27)) hide)
    )
    (property "Datasheet" "http://pdfserv.maximintegrated.com/en/ds/MAX471-MAX472.pdf" (id 3) (at 0 0 0)
      (effects (font (size 1.27 1.27)) hide)
    )
    (property "ki_keywords" "current sense amplifier" (id 4) (at 0 0 0)
      (effects (font (size 1.27 1.27)) hide)
    )
    (property "ki_description" "Precision, High-Side, Current-Sense Amplifiers, DIP-8/SOIC-8" (id 5) (at 0 0 0)
      (effects (font (size 1.27 1.27)) hide)
    )
    (property "ki_fp_filters" "SOIC*3.9x4.9mm*P1.27mm*\nDIP*W7.62mm*" (id 6) (at 0 0 0)
      (effects (font (size 1.27 1.27)) hide)
    )
    (symbol "MAX472_0_1"
      (rectangle (start -7.62 7.62) (end 7.62 -7.62) (stroke (width 0.254)) (fill (type background)))
    )
    (symbol "MAX472_1_1"
      (pin input line (at -10.16 -5.08 0) (length 2.54) (name "SHDN") (number "1"))
      (pin unconnected line (at 10.16 2.54 180) (length 2.54) (name "NC") (number "2") hide)
      (pin input line (at -5.08 10.16 270) (length 2.54) (name "SENSE+") (number "3"))
      (pin power_in line (at 0 -10.16 90) (length 2.54) (name "GND") (number "4"))
      (pin open_collector line (at 10.16 -2.54 180) (length 2.54) (name "SIGN") (number "5"))
      (pin input line (at -2.54 10.16 270) (length 2.54) (name "SENSE-") (number "6"))
      (pin power_in line (at 2.54 10.16 270) (length 2.54) (name "VCC") (number "7"))
      (pin output line (at 10.16 -5.08 180) (length 2.54) (name "OUT") (number "8"))
    )
  )
  (symbol "Amplifier_Current:NCS210" (pin_names (offset 0.508))
    (property "Reference" "U" (id 0) (at -7.62 8.89 0)
      (effects (font (size 1.27 1.27)) (justify left))
    )
    (property "Value" "NCS210" (id 1) (at 2.54 8.89 0)
      (effects (font (size 1.27 1.27)) (justify left))
    )
    (property "Footprint" "Package_TO_SOT_SMD:SOT-363_SC-70-6" (id 2) (at 0 0 0)
      (effects (font (size 1.27 1.27)) hide)
    )
    (property "Datasheet" "https://www.onsemi.com/pub/Collateral/NCS210R-D.PDF" (id 3) (at 0 0 0)
      (effects (font (size 1.27 1.27)) hide)
    )
    (property "ki_keywords" "Current shunt monitor" (id 4) (at 0 0 0)
      (effects (font (size 1.27 1.27)) hide)
    )
    (property "ki_description" "Current-Shunt Monitor, Voltage Output, Bi-Directional Zero-Drift, 200V/V Gain, SC-70-6" (id 5) (at 0 0 0)
      (effects (font (size 1.27 1.27)) hide)
    )
    (property "ki_fp_filters" "*SC?70*" (id 6) (at 0 0 0)
      (effects (font (size 1.27 1.27)) hide)
    )
    (symbol "NCS210_0_1"
      (rectangle (start -7.62 7.62) (end 10.16 -5.08) (stroke (width 0.254)) (fill (type background)))
    )
    (symbol "NCS210_1_1"
      (pin input line (at 12.7 0 180) (length 2.54) (name "REF") (number "1"))
      (pin power_in line (at 0 -7.62 90) (length 2.54) (name "GND") (number "2"))
      (pin power_in line (at 0 10.16 270) (length 2.54) (name "Vs") (number "3"))
      (pin input line (at -10.16 2.54 0) (length 2.54) (name "+IN") (number "4"))
      (pin input line (at -10.16 -2.54 0) (length 2.54) (name "-IN") (number "5"))
      (pin output line (at 12.7 5.08 180) (length 2.54) (name "OUT") (number "6"))
    )
  )
  (symbol "Amplifier_Current:NCS211" (extends "NCS210")
    (property "Value" "NCS211" (id 1) (at 2.54 8.89 0)
      (effects (font (size 1.27 1.27)) (justify left))
    )
    (property "Datasheet" "https://www.onsemi.com/pub/Collateral/NCS210R-D.PDF" (id 3) (at 0 0 0)
      (effects (font (size 1.27 1.27)) hide)
    )
    (property "ki_keywords" "Current shunt monitor" (id 4) (at 0 0 0)
      (effects (font (size 1.27 1.27)) hide)
    )
    (property "ki_description" "Current-Shunt Monitor, Voltage Output, Bi-Directional Zero-Drift, 500V/V Gain, SC-70-6" (id 5) (at 0 0 0)
      (effects (font (size 1.27 1.27)) hide)
    )
  )
  (symbol "Amplifier_Current:NCS213" (extends "NCS210")
    (property "Value" "NCS213" (id 1) (at 2.54 8.89 0)
      (effects (font (size 1.27 1.27)) (justify left))
    )
    (property "Datasheet" "https://www.onsemi.com/pub/Collateral/NCS210R-D.PDF" (id 3) (at 0 0 0)
      (effects (font (size 1.27 1.27)) hide)
    )
    (property "ki_keywords" "Current shunt monitor" (id 4) (at 0 0 0)
      (effects (font (size 1.27 1.27)) hide)
    )
    (property "ki_description" "Current-Shunt Monitor, Voltage Output, Bi-Directional Zero-Drift, 50V/V Gain, SC-70-6" (id 5) (at 0 0 0)
      (effects (font (size 1.27 1.27)) hide)
    )
  )
  (symbol "Amplifier_Current:NCS214" (extends "NCS210")
    (property "Value" "NCS214" (id 1) (at 2.54 8.89 0)
      (effects (font (size 1.27 1.27)) (justify left))
    )
    (property "Datasheet" "https://www.onsemi.com/pub/Collateral/NCS210R-D.PDF" (id 3) (at 0 0 0)
      (effects (font (size 1.27 1.27)) hide)
    )
    (property "ki_keywords" "Current shunt monitor" (id 4) (at 0 0 0)
      (effects (font (size 1.27 1.27)) hide)
    )
    (property "ki_description" "Current-Shunt Monitor, Voltage Output, Bi-Directional Zero-Drift, 100V/V Gain, SC-70-6" (id 5) (at 0 0 0)
      (effects (font (size 1.27 1.27)) hide)
    )
  )
  (symbol "Amplifier_Current:NCV210" (extends "NCS210")
    (property "Value" "NCV210" (id 1) (at 2.54 8.89 0)
      (effects (font (size 1.27 1.27)) (justify left))
    )
    (property "Datasheet" "https://www.onsemi.com/pub/Collateral/NCS210R-D.PDF" (id 3) (at 0 0 0)
      (effects (font (size 1.27 1.27)) hide)
    )
    (property "ki_keywords" "Current shunt monitor" (id 4) (at 0 0 0)
      (effects (font (size 1.27 1.27)) hide)
    )
    (property "ki_description" "Current-Shunt Monitor, Voltage Output, Bi-Directional Zero-Drift, 200V/V Gain, SC-70-6" (id 5) (at 0 0 0)
      (effects (font (size 1.27 1.27)) hide)
    )
  )
  (symbol "Amplifier_Current:NCV211" (extends "NCS210")
    (property "Value" "NCV211" (id 1) (at 2.54 8.89 0)
      (effects (font (size 1.27 1.27)) (justify left))
    )
    (property "Datasheet" "https://www.onsemi.com/pub/Collateral/NCS210R-D.PDF" (id 3) (at 0 0 0)
      (effects (font (size 1.27 1.27)) hide)
    )
    (property "ki_keywords" "Current shunt monitor" (id 4) (at 0 0 0)
      (effects (font (size 1.27 1.27)) hide)
    )
    (property "ki_description" "Current-Shunt Monitor, Voltage Output, Bi-Directional Zero-Drift, 500V/V Gain, SC-70-6" (id 5) (at 0 0 0)
      (effects (font (size 1.27 1.27)) hide)
    )
  )
  (symbol "Amplifier_Current:NCV213" (extends "NCS210")
    (property "Value" "NCV213" (id 1) (at 2.54 8.89 0)
      (effects (font (size 1.27 1.27)) (justify left))
    )
    (property "Datasheet" "https://www.onsemi.com/pub/Collateral/NCS210R-D.PDF" (id 3) (at 0 0 0)
      (effects (font (size 1.27 1.27)) hide)
    )
    (property "ki_keywords" "Current shunt monitor" (id 4) (at 0 0 0)
      (effects (font (size 1.27 1.27)) hide)
    )
    (property "ki_description" "Current-Shunt Monitor, Voltage Output, Bi-Directional Zero-Drift, 50V/V Gain, SC-70-6" (id 5) (at 0 0 0)
      (effects (font (size 1.27 1.27)) hide)
    )
  )
  (symbol "Amplifier_Current:NCV214" (extends "NCS210")
    (property "Value" "NCV214" (id 1) (at 2.54 8.89 0)
      (effects (font (size 1.27 1.27)) (justify left))
    )
    (property "Datasheet" "https://www.onsemi.com/pub/Collateral/NCS210R-D.PDF" (id 3) (at 0 0 0)
      (effects (font (size 1.27 1.27)) hide)
    )
    (property "ki_keywords" "Current shunt monitor" (id 4) (at 0 0 0)
      (effects (font (size 1.27 1.27)) hide)
    )
    (property "ki_description" "Current-Shunt Monitor, Voltage Output, Bi-Directional Zero-Drift, 100V/V Gain, SC-70-6" (id 5) (at 0 0 0)
      (effects (font (size 1.27 1.27)) hide)
    )
  )
  (symbol "Amplifier_Current:ZXCT1009F" (pin_names (offset 0.254))
    (property "Reference" "U" (id 0) (at 7.62 1.27 0)
      (effects (font (size 1.27 1.27)) (justify left))
    )
    (property "Value" "ZXCT1009F" (id 1) (at 7.62 -1.27 0)
      (effects (font (size 1.27 1.27)) (justify left))
    )
    (property "Footprint" "Package_TO_SOT_SMD:SOT-23" (id 2) (at 0 0 0)
      (effects (font (size 1.27 1.27)) hide)
    )
    (property "Datasheet" "https://www.diodes.com/assets/Datasheets/ZXCT1009.pdf" (id 3) (at -1.27 0 0)
      (effects (font (size 1.27 1.27)) hide)
    )
    (property "ki_keywords" "High side current monitor shunt" (id 4) (at 0 0 0)
      (effects (font (size 1.27 1.27)) hide)
    )
    (property "ki_description" "High-Side Current Monitor, SOT-23" (id 5) (at 0 0 0)
      (effects (font (size 1.27 1.27)) hide)
    )
    (property "ki_fp_filters" "SOT?23*" (id 6) (at 0 0 0)
      (effects (font (size 1.27 1.27)) hide)
    )
    (symbol "ZXCT1009F_0_1"
      (rectangle (start -6.35 2.54) (end 6.35 -2.54) (stroke (width 0.254)) (fill (type background)))
    )
    (symbol "ZXCT1009F_1_1"
      (pin input line (at 5.08 5.08 270) (length 2.54) (name "Vs-") (number "1"))
      (pin input line (at -5.08 5.08 270) (length 2.54) (name "Vs+") (number "2"))
      (pin output line (at 0 -5.08 90) (length 2.54) (name "Iout") (number "3"))
    )
  )
  (symbol "Amplifier_Current:ZXCT1009T8" (pin_names (offset 0.254))
    (property "Reference" "U" (id 0) (at 7.62 1.27 0)
      (effects (font (size 1.27 1.27)) (justify left))
    )
    (property "Value" "ZXCT1009T8" (id 1) (at 7.62 -1.27 0)
      (effects (font (size 1.27 1.27)) (justify left))
    )
    (property "Footprint" "Package_SO:Zetex_SM8" (id 2) (at 0 0 0)
      (effects (font (size 1.27 1.27)) hide)
    )
    (property "Datasheet" "https://www.diodes.com/assets/Datasheets/ZXCT1009.pdf" (id 3) (at -1.27 0 0)
      (effects (font (size 1.27 1.27)) hide)
    )
    (property "ki_keywords" "High side current monitor shunt" (id 4) (at 0 0 0)
      (effects (font (size 1.27 1.27)) hide)
    )
    (property "ki_description" "High-Side Current Monitor, SM8" (id 5) (at 0 0 0)
      (effects (font (size 1.27 1.27)) hide)
    )
    (property "ki_fp_filters" "Zetex*SM8*" (id 6) (at 0 0 0)
      (effects (font (size 1.27 1.27)) hide)
    )
    (symbol "ZXCT1009T8_0_1"
      (rectangle (start -6.35 2.54) (end 6.35 -2.54) (stroke (width 0.254)) (fill (type background)))
    )
    (symbol "ZXCT1009T8_1_1"
      (pin input line (at 5.08 5.08 270) (length 2.54) (name "Vs-") (number "1"))
      (pin unconnected line (at -2.54 2.54 270) (length 2.54) (name "NC") (number "2") hide)
      (pin input line (at -5.08 5.08 270) (length 2.54) (name "Vs+") (number "3"))
      (pin output line (at 0 -5.08 90) (length 2.54) (name "Iout") (number "4"))
      (pin unconnected line (at 0 2.54 270) (length 2.54) (name "NC") (number "5") hide)
      (pin unconnected line (at 2.54 2.54 270) (length 2.54) (name "NC") (number "6") hide)
      (pin unconnected line (at -2.54 -2.54 90) (length 2.54) (name "NC") (number "7") hide)
      (pin unconnected line (at 2.54 -2.54 90) (length 2.54) (name "NC") (number "8") hide)
    )
  )
  (symbol "Amplifier_Current:ZXCT1010" (pin_names (offset 0.254))
    (property "Reference" "U" (id 0) (at 7.62 1.27 0)
      (effects (font (size 1.27 1.27)) (justify left))
    )
    (property "Value" "ZXCT1010" (id 1) (at 7.62 -1.27 0)
      (effects (font (size 1.27 1.27)) (justify left))
    )
    (property "Footprint" "Package_TO_SOT_SMD:SOT-23-5" (id 2) (at 0 0 0)
      (effects (font (size 1.27 1.27)) hide)
    )
    (property "Datasheet" "https://www.diodes.com/assets/Datasheets/ZXCT1010.pdf" (id 3) (at -1.27 0 0)
      (effects (font (size 1.27 1.27)) hide)
    )
    (property "ki_keywords" "High side current monitor shunt" (id 4) (at 0 0 0)
      (effects (font (size 1.27 1.27)) hide)
    )
    (property "ki_description" "Enhanced High-Side Current Monitors, SOT-23-5" (id 5) (at 0 0 0)
      (effects (font (size 1.27 1.27)) hide)
    )
    (property "ki_fp_filters" "SOT?23*" (id 6) (at 0 0 0)
      (effects (font (size 1.27 1.27)) hide)
    )
    (symbol "ZXCT1010_0_1"
      (rectangle (start -6.35 2.54) (end 6.35 -2.54) (stroke (width 0.254)) (fill (type background)))
    )
    (symbol "ZXCT1010_1_1"
      (pin unconnected line (at 0 2.54 270) (length 2.54) (name "NC") (number "1") hide)
      (pin power_in line (at -2.54 -5.08 90) (length 2.54) (name "GND") (number "2"))
      (pin output line (at 2.54 -5.08 90) (length 2.54) (name "OUT") (number "3"))
      (pin input line (at -5.08 5.08 270) (length 2.54) (name "Vs+") (number "4"))
      (pin input line (at 5.08 5.08 270) (length 2.54) (name "Vs-") (number "5"))
    )
  )
  (symbol "Amplifier_Current:ZXCT1107" (pin_names (offset 0.254))
    (property "Reference" "U" (id 0) (at 7.62 1.27 0)
      (effects (font (size 1.27 1.27)) (justify left))
    )
    (property "Value" "ZXCT1107" (id 1) (at 7.62 -1.27 0)
      (effects (font (size 1.27 1.27)) (justify left))
    )
    (property "Footprint" "Package_TO_SOT_SMD:SOT-23" (id 2) (at 0 0 0)
      (effects (font (size 1.27 1.27)) hide)
    )
    (property "Datasheet" "https://www.diodes.com/assets/Datasheets/ZXCT1107_10.pdf" (id 3) (at -1.27 0 0)
      (effects (font (size 1.27 1.27)) hide)
    )
    (property "ki_keywords" "High side current monitor shunt" (id 4) (at 0 0 0)
      (effects (font (size 1.27 1.27)) hide)
    )
    (property "ki_description" "Low Power High-Side Current Monitors, SOT-23" (id 5) (at 0 0 0)
      (effects (font (size 1.27 1.27)) hide)
    )
    (property "ki_fp_filters" "SOT?23*" (id 6) (at 0 0 0)
      (effects (font (size 1.27 1.27)) hide)
    )
    (symbol "ZXCT1107_0_1"
      (rectangle (start -6.35 2.54) (end 6.35 -2.54) (stroke (width 0.254)) (fill (type background)))
    )
    (symbol "ZXCT1107_1_1"
      (pin input line (at -5.08 5.08 270) (length 2.54) (name "Vs+") (number "1"))
      (pin input line (at 5.08 5.08 270) (length 2.54) (name "Vs-") (number "2"))
      (pin output line (at 0 -5.08 90) (length 2.54) (name "OUT") (number "3"))
    )
  )
  (symbol "Amplifier_Current:ZXCT1109" (pin_names (offset 0.254))
    (property "Reference" "U" (id 0) (at 7.62 1.27 0)
      (effects (font (size 1.27 1.27)) (justify left))
    )
    (property "Value" "ZXCT1109" (id 1) (at 7.62 -1.27 0)
      (effects (font (size 1.27 1.27)) (justify left))
    )
    (property "Footprint" "Package_TO_SOT_SMD:SOT-23" (id 2) (at 0 0 0)
      (effects (font (size 1.27 1.27)) hide)
    )
    (property "Datasheet" "https://www.diodes.com/assets/Datasheets/ZXCT1107_10.pdf" (id 3) (at -1.27 0 0)
      (effects (font (size 1.27 1.27)) hide)
    )
    (property "ki_keywords" "High side current monitor shunt" (id 4) (at 0 0 0)
      (effects (font (size 1.27 1.27)) hide)
    )
    (property "ki_description" "Low Power High-Side Current Monitors, SOT-23" (id 5) (at 0 0 0)
      (effects (font (size 1.27 1.27)) hide)
    )
    (property "ki_fp_filters" "SOT?23*" (id 6) (at 0 0 0)
      (effects (font (size 1.27 1.27)) hide)
    )
    (symbol "ZXCT1109_0_1"
      (rectangle (start -6.35 2.54) (end 6.35 -2.54) (stroke (width 0.254)) (fill (type background)))
    )
    (symbol "ZXCT1109_1_1"
      (pin input line (at 5.08 5.08 270) (length 2.54) (name "Vs-") (number "1"))
      (pin input line (at -5.08 5.08 270) (length 2.54) (name "Vs+") (number "2"))
      (pin output line (at 0 -5.08 90) (length 2.54) (name "OUT") (number "3"))
    )
  )
  (symbol "Amplifier_Current:ZXCT1110" (pin_names (offset 0.254))
    (property "Reference" "U" (id 0) (at 7.62 1.27 0)
      (effects (font (size 1.27 1.27)) (justify left))
    )
    (property "Value" "ZXCT1110" (id 1) (at 7.62 -1.27 0)
      (effects (font (size 1.27 1.27)) (justify left))
    )
    (property "Footprint" "Package_TO_SOT_SMD:SOT-23-5" (id 2) (at 0 0 0)
      (effects (font (size 1.27 1.27)) hide)
    )
    (property "Datasheet" "https://www.diodes.com/assets/Datasheets/ZXCT1107_10.pdf" (id 3) (at -1.27 0 0)
      (effects (font (size 1.27 1.27)) hide)
    )
    (property "ki_keywords" "High side current monitor shunt" (id 4) (at 0 0 0)
      (effects (font (size 1.27 1.27)) hide)
    )
    (property "ki_description" "Low Power High-Side Current Monitors, SOT-23-5" (id 5) (at 0 0 0)
      (effects (font (size 1.27 1.27)) hide)
    )
    (property "ki_fp_filters" "SOT?23*" (id 6) (at 0 0 0)
      (effects (font (size 1.27 1.27)) hide)
    )
    (symbol "ZXCT1110_0_1"
      (rectangle (start -6.35 2.54) (end 6.35 -2.54) (stroke (width 0.254)) (fill (type background)))
    )
    (symbol "ZXCT1110_1_1"
      (pin unconnected line (at 0 2.54 270) (length 2.54) (name "NC") (number "1") hide)
      (pin power_in line (at -2.54 -5.08 90) (length 2.54) (name "GND") (number "2"))
      (pin output line (at 2.54 -5.08 90) (length 2.54) (name "OUT") (number "3"))
      (pin input line (at -5.08 5.08 270) (length 2.54) (name "Vs+") (number "4"))
      (pin input line (at 5.08 5.08 270) (length 2.54) (name "Vs-") (number "5"))
    )
  )
)
