(kicad_symbol_lib (version 20200126) (host kicad_symbol_editor "(5.99.0-1517-ga8407fba4)")
  (symbol "Amplifier_Difference:AD628" (pin_names (offset 0.127))
    (property "Reference" "U" (id 0) (at 3.81 3.175 0)
      (effects (font (size 1.27 1.27)) (justify left))
    )
    (property "Value" "AD628" (id 1) (at 3.81 -3.175 0)
      (effects (font (size 1.27 1.27)) (justify left))
    )
    (property "Footprint" "" (id 2) (at 0 0 0)
      (effects (font (size 1.27 1.27)) hide)
    )
    (property "Datasheet" "https://www.analog.com/media/en/technical-documentation/data-sheets/AD628.pdf" (id 3) (at 0 0 0)
      (effects (font (size 1.27 1.27)) hide)
    )
    (property "ki_keywords" "difference amplifier" (id 4) (at 0 0 0)
      (effects (font (size 1.27 1.27)) hide)
    )
    (property "ki_description" "High Common-Mode Voltage, Programmable Gain Difference Amplifier, +/-120V, Gain = 0.1 to 100, SOIC-8/MSOP-8" (id 5) (at 0 0 0)
      (effects (font (size 1.27 1.27)) hide)
    )
    (property "ki_fp_filters" "SOIC*3.9x4.9mm*P1.27mm*\nMSOP*3x3mm*P0.65mm*" (id 6) (at 0 0 0)
      (effects (font (size 1.27 1.27)) hide)
    )
    (symbol "AD628_0_1"
      (polyline
        (pts (xy 5.08 0) (xy -5.08 5.08) (xy -5.08 -5.08) (xy 5.08 0))
        (stroke (width 0.254)) (fill (type background))
      )
    )
    (symbol "AD628_1_1"
      (pin input line (at -7.62 2.54 0) (length 2.54) (name "+") (number "1"))
      (pin power_in line (at -2.54 -7.62 90) (length 3.81) (name "V-") (number "2"))
      (pin passive line (at 0 -7.62 90) (length 5.08)
        (name "VREF" (effects (font (size 0.508 0.508))))
        (number "3")
      )
      (pin passive line (at 2.54 -7.62 90) (length 6.35)
        (name "CFILT" (effects (font (size 0.508 0.508))))
        (number "4")
      )
      (pin output line (at 7.62 0 180) (length 2.54) (name "~") (number "5"))
      (pin passive line (at 0 7.62 270) (length 5.08)
        (name "RG" (effects (font (size 0.508 0.508))))
        (number "6")
      )
      (pin power_in line (at -2.54 7.62 270) (length 3.81) (name "V+") (number "7"))
      (pin input line (at -7.62 -2.54 0) (length 2.54) (name "-") (number "8"))
    )
  )
  (symbol "Amplifier_Difference:AD8207" (pin_names (offset 0.508))
    (property "Reference" "U" (id 0) (at -7.62 10.795 0)
      (effects (font (size 1.27 1.27)) (justify right))
    )
    (property "Value" "AD8207" (id 1) (at -7.62 8.89 0)
      (effects (font (size 1.27 1.27)) (justify right))
    )
    (property "Footprint" "Package_SO:SOIC-8_3.9x4.9mm_P1.27mm" (id 2) (at 0 0 0)
      (effects (font (size 1.27 1.27)) hide)
    )
    (property "Datasheet" "https://www.analog.com/media/en/technical-documentation/data-sheets/AD8207.pdf" (id 3) (at 16.51 -17.78 0)
      (effects (font (size 1.27 1.27)) hide)
    )
    (property "ki_keywords" "highside HS current sense difference amplifier linear buffered" (id 4) (at 0 0 0)
      (effects (font (size 1.27 1.27)) hide)
    )
    (property "ki_description" "65V (35V) Zero-Drift, High Voltage, Bidirectional, Difference Amplifier, 20V/V gain, bandwidth 150kHz, Vcc=5V (3.3V), SOIC-8" (id 5) (at 0 0 0)
      (effects (font (size 1.27 1.27)) hide)
    )
    (property "ki_fp_filters" "SOIC*3.9x4.9mm*P1.27mm*" (id 6) (at 0 0 0)
      (effects (font (size 1.27 1.27)) hide)
    )
    (symbol "AD8207_0_1"
      (rectangle (start -7.62 7.62) (end 7.62 -7.62) (stroke (width 0.254)) (fill (type background)))
    )
    (symbol "AD8207_1_1"
      (pin input line (at 5.08 10.16 270) (length 2.54) (name "-IN") (number "1"))
      (pin power_in line (at 0 -10.16 90) (length 2.54) (name "GND") (number "2"))
      (pin input line (at 10.16 -2.54 180) (length 2.54) (name "Vref2") (number "3"))
      (pin input line (at -10.16 0 0) (length 2.54) (name "RANGE") (number "4"))
      (pin output line (at 10.16 0 180) (length 2.54) (name "OUT") (number "5"))
      (pin power_in line (at -10.16 -5.08 0) (length 2.54) (name "V+") (number "6"))
      (pin input line (at -10.16 -2.54 0) (length 2.54) (name "Vref1") (number "7"))
      (pin input line (at -5.08 10.16 270) (length 2.54) (name "+IN") (number "8"))
    )
  )
  (symbol "Amplifier_Difference:AD8276" (pin_names (offset 0.127))
    (property "Reference" "U" (id 0) (at 7.62 5.08 0))
    (property "Value" "AD8276" (id 1) (at 7.62 2.54 0))
    (property "Footprint" "" (id 2) (at 0 0 0)
      (effects (font (size 1.27 1.27)) hide)
    )
    (property "Datasheet" "https://www.analog.com/media/en/technical-documentation/data-sheets/AD8276_8277.pdf" (id 3) (at 0 0 0)
      (effects (font (size 1.27 1.27)) hide)
    )
    (property "ki_keywords" "difference amplifier" (id 4) (at 0 0 0)
      (effects (font (size 1.27 1.27)) hide)
    )
    (property "ki_description" "Low Power, Wide Supply Range, Low Cost Unity-Gain Difference Amplifier, SOIC-8/MSOP-8" (id 5) (at 0 0 0)
      (effects (font (size 1.27 1.27)) hide)
    )
    (property "ki_fp_filters" "SOIC*3.9x4.9mm*P1.27mm*\nMSOP*3x3mm*P0.65mm*" (id 6) (at 0 0 0)
      (effects (font (size 1.27 1.27)) hide)
    )
    (symbol "AD8276_0_1"
      (polyline
        (pts (xy -5.08 5.08) (xy 5.08 0) (xy -5.08 -5.08) (xy -5.08 5.08))
        (stroke (width 0.254)) (fill (type background))
      )
    )
    (symbol "AD8276_1_1"
      (pin passive line (at 0 -7.62 90) (length 5.08)
        (name "REF" (effects (font (size 0.508 0.508))))
        (number "1")
      )
      (pin passive line (at -7.62 -2.54 0) (length 2.54) (name "-") (number "2"))
      (pin passive line (at -7.62 2.54 0) (length 2.54) (name "+") (number "3"))
      (pin power_in line (at -2.54 -7.62 90) (length 3.81) (name "V-") (number "4"))
      (pin passive line (at 0 7.62 270) (length 5.08)
        (name "SENSE" (effects (font (size 0.508 0.508))))
        (number "5")
      )
      (pin output line (at 7.62 0 180) (length 2.54) (name "~") (number "6"))
      (pin power_in line (at -2.54 7.62 270) (length 3.81) (name "V+") (number "7"))
      (pin unconnected line (at -5.08 0 0) (length 2.54) (name "~") (number "8") hide)
    )
  )
  (symbol "Amplifier_Difference:AD8475ACPZ" (pin_names (offset 0.254))
    (property "Reference" "U" (id 0) (at 3.81 6.35 0)
      (effects (font (size 1.27 1.27)) (justify left))
    )
    (property "Value" "AD8475ACPZ" (id 1) (at 3.81 8.89 0)
      (effects (font (size 1.27 1.27)) (justify left))
    )
    (property "Footprint" "Package_CSP:LFCSP-16-1EP_3x3mm_P0.5mm_EP1.6x1.6mm" (id 2) (at 0 0 0)
      (effects (font (size 1.27 1.27)) hide)
    )
    (property "Datasheet" "https://www.analog.com/media/en/technical-documentation/data-sheets/AD8475.pdf" (id 3) (at 10.16 5.08 0)
      (effects (font (size 1.27 1.27)) hide)
    )
    (property "ki_keywords" "selectable gain ADC driver" (id 4) (at 0 0 0)
      (effects (font (size 1.27 1.27)) hide)
    )
    (property "ki_description" "Precision, Selectable Gain, Fully Differential Funnel Amplifier, LFCSP-16" (id 5) (at 0 0 0)
      (effects (font (size 1.27 1.27)) hide)
    )
    (property "ki_fp_filters" "LFCSP*1EP*3x3mm*P0.5mm*" (id 6) (at 0 0 0)
      (effects (font (size 1.27 1.27)) hide)
    )
    (symbol "AD8475ACPZ_0_1"
      (polyline
        (pts (xy -7.62 8.89) (xy -7.62 -8.89) (xy 10.16 0) (xy -7.62 8.89))
        (stroke (width 0.254)) (fill (type background))
      )
    )
    (symbol "AD8475ACPZ_1_1"
      (pin input line (at -10.16 5.08 0) (length 2.54)
        (name "+IN0.4x" (effects (font (size 0.889 0.889))))
        (number "1")
      )
      (pin output line (at 10.16 -2.54 180) (length 5.08) (name "+") (number "10"))
      (pin output line (at 10.16 2.54 180) (length 5.08) (name "-") (number "11"))
      (pin unconnected line (at -7.62 -7.62 0) (length 2.54) (name "NC") (number "12") hide)
      (pin power_in line (at 0 -10.16 90) (length 5.08)
        (name "-Vs" (effects (font (size 0.889 0.889))))
        (number "13")
      )
      (pin passive line (at 0 -10.16 90) (length 5.08)
        (name "-Vs" (effects (font (size 0.889 0.889))))
        (number "14")
         hide      )
      (pin passive line (at 0 -10.16 90) (length 5.08)
        (name "-Vs" (effects (font (size 0.889 0.889))))
        (number "15")
         hide      )
      (pin input line (at -10.16 5.08 0) (length 2.54)
        (name "+IN0.4x" (effects (font (size 0.889 0.889))))
        (number "16")
         hide      )
      (pin passive line (at 2.54 -10.16 90) (length 6.35)
        (name "EP" (effects (font (size 0.889 0.889))))
        (number "17")
      )
      (pin input line (at -10.16 2.54 0) (length 2.54)
        (name "+IN0.8x" (effects (font (size 0.889 0.889))))
        (number "2")
      )
      (pin input line (at -10.16 -2.54 0) (length 2.54)
        (name "-IN0.8x" (effects (font (size 0.889 0.889))))
        (number "3")
      )
      (pin input line (at -10.16 -5.08 0) (length 2.54)
        (name "-IN0.4x" (effects (font (size 0.889 0.889))))
        (number "4")
      )
      (pin input line (at -10.16 -5.08 0) (length 2.54)
        (name "-IN0.4x" (effects (font (size 0.889 0.889))))
        (number "5")
         hide      )
      (pin power_in line (at 0 10.16 270) (length 5.08)
        (name "+Vs" (effects (font (size 0.889 0.889))))
        (number "6")
      )
      (pin passive line (at 0 10.16 270) (length 5.08)
        (name "+Vs" (effects (font (size 0.889 0.889))))
        (number "7")
         hide      )
      (pin passive line (at 0 10.16 270) (length 5.08)
        (name "+Vs" (effects (font (size 0.889 0.889))))
        (number "8")
         hide      )
      (pin power_in line (at 2.54 10.16 270) (length 6.35)
        (name "VOCM" (effects (font (size 0.889 0.889))))
        (number "9")
      )
    )
  )
  (symbol "Amplifier_Difference:AD8475xRMZ" (pin_names (offset 0.254))
    (property "Reference" "U" (id 0) (at 3.81 6.35 0)
      (effects (font (size 1.27 1.27)) (justify left))
    )
    (property "Value" "AD8475xRMZ" (id 1) (at 3.81 8.89 0)
      (effects (font (size 1.27 1.27)) (justify left))
    )
    (property "Footprint" "Package_SO:MSOP-10_3x3mm_P0.5mm" (id 2) (at -1.27 0 0)
      (effects (font (size 1.27 1.27)) hide)
    )
    (property "Datasheet" "https://www.analog.com/media/en/technical-documentation/data-sheets/AD8475.pdf" (id 3) (at 12.7 5.08 0)
      (effects (font (size 1.27 1.27)) hide)
    )
    (property "ki_keywords" "selectable gain ADC driver" (id 4) (at 0 0 0)
      (effects (font (size 1.27 1.27)) hide)
    )
    (property "ki_description" "Precision, Selectable Gain, Fully Differential Funnel Amplifier, MSOP-10" (id 5) (at 0 0 0)
      (effects (font (size 1.27 1.27)) hide)
    )
    (property "ki_fp_filters" "MSOP*3x3mm*P0.5mm*" (id 6) (at 0 0 0)
      (effects (font (size 1.27 1.27)) hide)
    )
    (symbol "AD8475xRMZ_0_1"
      (polyline
        (pts (xy -7.62 8.89) (xy -7.62 -8.89) (xy 10.16 0) (xy -7.62 8.89))
        (stroke (width 0.254)) (fill (type background))
      )
    )
    (symbol "AD8475xRMZ_1_1"
      (pin input line (at -10.16 -2.54 0) (length 2.54)
        (name "-IN0.8x" (effects (font (size 0.889 0.889))))
        (number "1")
      )
      (pin input line (at -10.16 2.54 0) (length 2.54)
        (name "+IN0.8x" (effects (font (size 0.889 0.889))))
        (number "10")
      )
      (pin input line (at -10.16 -5.08 0) (length 2.54)
        (name "-IN0.4x" (effects (font (size 0.889 0.889))))
        (number "2")
      )
      (pin power_in line (at 0 10.16 270) (length 5.08)
        (name "+Vs" (effects (font (size 0.889 0.889))))
        (number "3")
      )
      (pin power_in line (at 2.54 10.16 270) (length 6.35)
        (name "VOCM" (effects (font (size 0.889 0.889))))
        (number "4")
      )
      (pin output line (at 10.16 -2.54 180) (length 5.08) (name "+") (number "5"))
      (pin output line (at 10.16 2.54 180) (length 5.08) (name "-") (number "6"))
      (pin unconnected line (at -7.62 -7.62 0) (length 2.54) (name "NC") (number "7") hide)
      (pin power_in line (at 0 -10.16 90) (length 5.08)
        (name "-Vs" (effects (font (size 0.889 0.889))))
        (number "8")
      )
      (pin input line (at -10.16 5.08 0) (length 2.54)
        (name "+IN0.4x" (effects (font (size 0.889 0.889))))
        (number "9")
      )
    )
  )
  (symbol "Amplifier_Difference:ADA4940-2" (pin_names (offset 0.508))
    (property "Reference" "U" (id 0) (at 5.08 5.08 0))
    (property "Value" "ADA4940-2" (id 1) (at 8.89 -5.08 0))
    (property "Footprint" "Package_CSP:LFCSP-24-1EP_4x4mm_P0.5mm_EP2.5x2.5mm" (id 2) (at 0 -10.16 0)
      (effects (font (size 1.27 1.27)) hide)
    )
    (property "Datasheet" "https://www.analog.com/media/en/technical-documentation/data-sheets/ADA4940-1_4940-2.pdf" (id 3) (at -43.18 30.48 0)
      (effects (font (size 1.27 1.27)) hide)
    )
    (property "ki_keywords" "differential amplifier" (id 4) (at 0 0 0)
      (effects (font (size 1.27 1.27)) hide)
    )
    (property "ki_description" "Ultralow Power, Low Distortion, Fully Differential ADC Drivers, LFCSP-24" (id 5) (at 0 0 0)
      (effects (font (size 1.27 1.27)) hide)
    )
    (property "ki_fp_filters" "LFCSP*1EP*4x4mm*P0.5mm*" (id 6) (at 0 0 0)
      (effects (font (size 1.27 1.27)) hide)
    )
    (symbol "ADA4940-2_0_1"
      (polyline
        (pts (xy 5.08 -3.175) (xy 3.81 -3.175))
      )
    )
    (symbol "ADA4940-2_1_1"
      (polyline
        (pts (xy -5.08 7.62) (xy -5.08 -7.62) (xy 10.16 0) (xy -5.08 7.62))
        (stroke (width 0.254)) (fill (type background))
      )
      (pin input line (at -7.62 5.08 0) (length 2.54)
        (name "-IN1" (effects (font (size 0.508 0.508))))
        (number "1")
      )
      (pin input line (at -7.62 -2.54 0) (length 2.54)
        (name "VOCM1" (effects (font (size 0.508 0.508))))
        (number "17")
      )
      (pin output line (at 10.16 2.54 180) (length 5.08)
        (name "+1" (effects (font (size 0.508 0.508))))
        (number "18" (effects (font (size 0.508 0.508))))
      )
      (pin output line (at 10.16 -2.54 180) (length 5.08)
        (name "-1" (effects (font (size 0.508 0.508))))
        (number "19" (effects (font (size 0.508 0.508))))
      )
      (pin input line (at 0 7.62 270) (length 2.54)
        (name "+FB1" (effects (font (size 0.508 0.508))))
        (number "2" (effects (font (size 0.762 0.762))))
      )
      (pin input line (at -7.62 2.54 0) (length 2.54)
        (name "~DISABLE1" (effects (font (size 0.508 0.508))))
        (number "20")
      )
      (pin input line (at 0 -7.62 90) (length 2.54)
        (name "-FB1" (effects (font (size 0.508 0.508))))
        (number "23" (effects (font (size 0.762 0.762))))
      )
      (pin input line (at -7.62 -5.08 0) (length 2.54)
        (name "+IN1" (effects (font (size 0.508 0.508))))
        (number "24")
      )
    )
    (symbol "ADA4940-2_2_1"
      (polyline
        (pts (xy -5.08 7.62) (xy -5.08 -7.62) (xy 10.16 0) (xy -5.08 7.62))
        (stroke (width 0.254)) (fill (type background))
      )
      (pin input line (at -7.62 -2.54 0) (length 2.54)
        (name "VOCM2" (effects (font (size 0.508 0.508))))
        (number "11")
      )
      (pin output line (at 10.16 2.54 180) (length 5.08)
        (name "+2" (effects (font (size 0.508 0.508))))
        (number "12" (effects (font (size 0.508 0.508))))
      )
      (pin output line (at 10.16 -2.54 180) (length 5.08)
        (name "-2" (effects (font (size 0.508 0.508))))
        (number "13" (effects (font (size 0.508 0.508))))
      )
      (pin input line (at -7.62 2.54 0) (length 2.54)
        (name "~DISABLE2" (effects (font (size 0.508 0.508))))
        (number "14")
      )
      (pin input line (at 0 -7.62 90) (length 2.54)
        (name "-FB2" (effects (font (size 0.508 0.508))))
        (number "5" (effects (font (size 0.762 0.762))))
      )
      (pin input line (at -7.62 -5.08 0) (length 2.54)
        (name "+IN2" (effects (font (size 0.508 0.508))))
        (number "6")
      )
      (pin input line (at -7.62 5.08 0) (length 2.54)
        (name "-IN2" (effects (font (size 0.508 0.508))))
        (number "7")
      )
      (pin input line (at 0 7.62 270) (length 2.54)
        (name "+FB2" (effects (font (size 0.508 0.508))))
        (number "8" (effects (font (size 0.762 0.762))))
      )
    )
    (symbol "ADA4940-2_3_1"
      (pin input line (at 2.54 -7.62 90) (length 3.81)
        (name "-FB2" (effects (font (size 0.508 0.508))))
        (number "21" (effects (font (size 0.762 0.762))))
      )
      (pin input line (at 2.54 -7.62 90) (length 3.81)
        (name "-FB2" (effects (font (size 0.508 0.508))))
        (number "22" (effects (font (size 0.762 0.762))))
         hide      )
      (pin passive line (at 5.08 -7.62 90) (length 4.445)
        (name "EP" (effects (font (size 0.508 0.508))))
        (number "25" (effects (font (size 0.762 0.762))))
      )
      (pin input line (at 2.54 7.62 270) (length 3.81)
        (name "+FB2" (effects (font (size 0.508 0.508))))
        (number "3" (effects (font (size 0.762 0.762))))
      )
      (pin input line (at 2.54 7.62 270) (length 3.81)
        (name "+FB2" (effects (font (size 0.508 0.508))))
        (number "4" (effects (font (size 0.762 0.762))))
         hide      )
    )
    (symbol "ADA4940-2_4_1"
      (pin input line (at 2.54 7.62 270) (length 3.81)
        (name "+FB2" (effects (font (size 0.508 0.508))))
        (number "10" (effects (font (size 0.762 0.762))))
         hide      )
      (pin input line (at 2.54 -7.62 90) (length 3.81)
        (name "-FB2" (effects (font (size 0.508 0.508))))
        (number "15" (effects (font (size 0.762 0.762))))
      )
      (pin input line (at 2.54 -7.62 90) (length 3.81)
        (name "-FB2" (effects (font (size 0.508 0.508))))
        (number "16" (effects (font (size 0.762 0.762))))
         hide      )
      (pin input line (at 2.54 7.62 270) (length 3.81)
        (name "+FB2" (effects (font (size 0.508 0.508))))
        (number "9" (effects (font (size 0.762 0.762))))
      )
    )
  )
  (symbol "Amplifier_Difference:LM733CH" (pin_names (offset 0.127))
    (property "Reference" "U" (id 0) (at 3.81 6.35 0)
      (effects (font (size 1.27 1.27)) (justify left))
    )
    (property "Value" "LM733CH" (id 1) (at 3.81 -6.35 0)
      (effects (font (size 1.27 1.27)) (justify left))
    )
    (property "Footprint" "Package_TO_SOT_THT:TO-5-10" (id 2) (at 0 0 0)
      (effects (font (size 1.27 1.27)) hide)
    )
    (property "Datasheet" "http://www.soemtron.org/downloads/disposals/lm733cn.pdf" (id 3) (at 0 0 0)
      (effects (font (size 1.27 1.27)) hide)
    )
    (property "ki_keywords" "single differential video opamp" (id 4) (at 0 0 0)
      (effects (font (size 1.27 1.27)) hide)
    )
    (property "ki_description" "Single Differential Amplifier, TO-5-10" (id 5) (at 0 0 0)
      (effects (font (size 1.27 1.27)) hide)
    )
    (property "ki_fp_filters" "TO?5*" (id 6) (at 0 0 0)
      (effects (font (size 1.27 1.27)) hide)
    )
    (symbol "LM733CH_0_1"
      (polyline
        (pts (xy 5.08 -2.54) (xy 3.81 -2.54) (xy 3.81 -0.635))
      )
      (polyline
        (pts (xy 5.08 2.54) (xy 3.81 2.54) (xy 3.81 0.635))
      )
      (polyline
        (pts (xy 5.08 0) (xy -5.08 5.08) (xy -5.08 -5.08) (xy 5.08 0))
        (stroke (width 0.254)) (fill (type background))
      )
    )
    (symbol "LM733CH_1_1"
      (pin input line (at -7.62 2.54 0) (length 2.54) (name "~") (number "1"))
      (pin passive line (at 0 -7.62 90) (length 5.08)
        (name "2A" (effects (font (size 0.508 0.508))))
        (number "10")
      )
      (pin input line (at -7.62 -2.54 0) (length 2.54) (name "~") (number "2"))
      (pin passive line (at 2.54 -7.62 90) (length 6.35)
        (name "2B" (effects (font (size 0.508 0.508))))
        (number "3")
      )
      (pin passive line (at 2.54 7.62 270) (length 6.35)
        (name "1B" (effects (font (size 0.508 0.508))))
        (number "4")
      )
      (pin power_in line (at -2.54 -7.62 90) (length 3.81) (name "V-") (number "5"))
      (pin output line (at 7.62 -2.54 180) (length 2.54) (name "~") (number "6"))
      (pin output line (at 7.62 2.54 180) (length 2.54) (name "~") (number "7"))
      (pin power_in line (at -2.54 7.62 270) (length 3.81) (name "V+") (number "8"))
      (pin passive line (at 0 7.62 270) (length 5.08)
        (name "1A" (effects (font (size 0.508 0.508))))
        (number "9")
      )
    )
  )
  (symbol "Amplifier_Difference:LM733H" (extends "LM733CH")
    (property "Value" "LM733H" (id 1) (at 3.81 -6.35 0)
      (effects (font (size 1.27 1.27)) (justify left))
    )
    (property "Datasheet" "http://www.soemtron.org/downloads/disposals/lm733cn.pdf" (id 3) (at 0 0 0)
      (effects (font (size 1.27 1.27)) hide)
    )
    (property "ki_keywords" "single differential video opamp" (id 4) (at 0 0 0)
      (effects (font (size 1.27 1.27)) hide)
    )
    (property "ki_description" "Single Differential Amplifier, TO-5-10" (id 5) (at 0 0 0)
      (effects (font (size 1.27 1.27)) hide)
    )
  )
  (symbol "Amplifier_Difference:LM733CN" (pin_names (offset 0.127))
    (property "Reference" "U" (id 0) (at 3.81 6.35 0)
      (effects (font (size 1.27 1.27)) (justify left))
    )
    (property "Value" "LM733CN" (id 1) (at 3.81 -6.35 0)
      (effects (font (size 1.27 1.27)) (justify left))
    )
    (property "Footprint" "Package_DIP:DIP-14_W7.62mm" (id 2) (at 0 0 0)
      (effects (font (size 1.27 1.27)) hide)
    )
    (property "Datasheet" "http://www.soemtron.org/downloads/disposals/lm733cn.pdf" (id 3) (at 0 0 0)
      (effects (font (size 1.27 1.27)) hide)
    )
    (property "ki_keywords" "single differential video opamp" (id 4) (at 0 0 0)
      (effects (font (size 1.27 1.27)) hide)
    )
    (property "ki_description" "Single Differential Amplifier, DIP-14" (id 5) (at 0 0 0)
      (effects (font (size 1.27 1.27)) hide)
    )
    (property "ki_fp_filters" "DIP*W7.62mm*" (id 6) (at 0 0 0)
      (effects (font (size 1.27 1.27)) hide)
    )
    (symbol "LM733CN_0_1"
      (polyline
        (pts (xy 5.08 -2.54) (xy 3.81 -2.54) (xy 3.81 -0.635))
      )
      (polyline
        (pts (xy 5.08 2.54) (xy 3.81 2.54) (xy 3.81 0.635))
      )
      (polyline
        (pts (xy 5.08 0) (xy -5.08 5.08) (xy -5.08 -5.08) (xy 5.08 0))
        (stroke (width 0.254)) (fill (type background))
      )
    )
    (symbol "LM733CN_1_1"
      (pin input line (at -7.62 -2.54 0) (length 2.54) (name "~") (number "1"))
      (pin power_in line (at -2.54 7.62 270) (length 3.81) (name "V+") (number "10"))
      (pin passive line (at 0 7.62 270) (length 5.08)
        (name "1A" (effects (font (size 0.508 0.508))))
        (number "11")
      )
      (pin passive line (at 0 -7.62 90) (length 5.08)
        (name "2A" (effects (font (size 0.508 0.508))))
        (number "12")
      )
      (pin unconnected line (at -2.54 -2.54 90) (length 2.54) (name "NC") (number "13") hide)
      (pin input line (at -7.62 2.54 0) (length 2.54) (name "~") (number "14"))
      (pin unconnected line (at 2.54 2.54 270) (length 2.54) (name "NC") (number "2") hide)
      (pin passive line (at 2.54 -7.62 90) (length 6.35)
        (name "2B" (effects (font (size 0.508 0.508))))
        (number "3")
      )
      (pin passive line (at 2.54 7.62 270) (length 6.35)
        (name "1B" (effects (font (size 0.508 0.508))))
        (number "4")
      )
      (pin power_in line (at -2.54 -7.62 90) (length 3.81) (name "V-") (number "5"))
      (pin unconnected line (at 0 2.54 270) (length 2.54) (name "NC") (number "6") hide)
      (pin output line (at 7.62 -2.54 180) (length 2.54) (name "~") (number "7"))
      (pin output line (at 7.62 2.54 180) (length 2.54) (name "~") (number "8"))
      (pin unconnected line (at 0 -2.54 90) (length 2.54) (name "NC") (number "9") hide)
    )
  )
)
