(kicad_symbol_lib (version 20200126) (host kicad_symbol_editor "(5.99.0-1517-ga8407fba4)")
  (symbol "Amplifier_Instrumentation:AD620" (pin_names (offset 0.127))
    (property "Reference" "U" (id 0) (at 3.81 7.62 0))
    (property "Value" "AD620" (id 1) (at 5.08 5.08 0))
    (property "Footprint" "" (id 2) (at 0 0 0)
      (effects (font (size 1.27 1.27)) hide)
    )
    (property "Datasheet" "https://www.analog.com/media/en/technical-documentation/data-sheets/AD620.pdf" (id 3) (at 0 0 0)
      (effects (font (size 1.27 1.27)) hide)
    )
    (property "ki_keywords" "Instrumentation amplifier" (id 4) (at 0 0 0)
      (effects (font (size 1.27 1.27)) hide)
    )
    (property "ki_description" "Low Cost, Low Power, Instrumentation Amplifier, DIP-8/SOIC-8" (id 5) (at 0 0 0)
      (effects (font (size 1.27 1.27)) hide)
    )
    (property "ki_fp_filters" "SOIC*P1.27mm*\nDIP*W7.62mm*" (id 6) (at 0 0 0)
      (effects (font (size 1.27 1.27)) hide)
    )
    (symbol "AD620_0_1"
      (polyline
        (pts (xy -7.62 7.62) (xy -7.62 -7.62) (xy 7.62 0) (xy -7.62 7.62))
        (stroke (width 0.254)) (fill (type background))
      )
    )
    (symbol "AD620_1_1"
      (pin passive line (at -10.16 2.54 0) (length 2.54) (name "Rg") (number "1"))
      (pin input line (at -10.16 5.08 0) (length 2.54) (name "-") (number "2"))
      (pin input line (at -10.16 -5.08 0) (length 2.54) (name "+") (number "3"))
      (pin power_in line (at -2.54 -7.62 90) (length 2.54) (name "Vs-") (number "4"))
      (pin passive line (at 2.54 -7.62 90) (length 5.08) (name "Ref") (number "5"))
      (pin output line (at 10.16 0 180) (length 2.54) (name "~") (number "6"))
      (pin power_in line (at -2.54 7.62 270) (length 2.54) (name "Vs+") (number "7"))
      (pin passive line (at -10.16 -2.54 0) (length 2.54) (name "Rg") (number "8"))
    )
  )
  (symbol "Amplifier_Instrumentation:AD623" (extends "AD620")
    (property "Value" "AD623" (id 1) (at 5.08 5.08 0))
    (property "Datasheet" "https://www.analog.com/media/en/technical-documentation/data-sheets/AD623.pdf" (id 3) (at 0 0 0)
      (effects (font (size 1.27 1.27)) hide)
    )
    (property "ki_keywords" "single instumentation amplifier" (id 4) (at 0 0 0)
      (effects (font (size 1.27 1.27)) hide)
    )
    (property "ki_description" "Single Rail-to-Rail, Low Cost Instrumentation Amplifier, DIP-8/SOIC-8/MSOP-8" (id 5) (at 0 0 0)
      (effects (font (size 1.27 1.27)) hide)
    )
  )
  (symbol "Amplifier_Instrumentation:AD623AN" (pin_names (offset 0.127))
    (property "Reference" "U" (id 0) (at 3.556 7.366 0))
    (property "Value" "AD623AN" (id 1) (at 6.604 5.334 0))
    (property "Footprint" "" (id 2) (at -2.54 0 0)
      (effects (font (size 1.27 1.27)) hide)
    )
    (property "Datasheet" "https://www.analog.com/media/en/technical-documentation/data-sheets/AD623.pdf" (id 3) (at 11.43 -10.16 0)
      (effects (font (size 1.27 1.27)) hide)
    )
    (property "ki_keywords" "ad623 instumentation amplifier dip-8" (id 4) (at 0 0 0)
      (effects (font (size 1.27 1.27)) hide)
    )
    (property "ki_description" "Single Supply, Rail to Rail, Instumentation Amplifier, DIP-8" (id 5) (at 0 0 0)
      (effects (font (size 1.27 1.27)) hide)
    )
    (property "ki_fp_filters" "DIP-8*" (id 6) (at 0 0 0)
      (effects (font (size 1.27 1.27)) hide)
    )
    (symbol "AD623AN_0_1"
      (polyline
        (pts (xy -5.08 7.62) (xy -5.08 -7.62) (xy 10.16 0) (xy -5.08 7.62))
        (stroke (width 0.254)) (fill (type background))
      )
    )
    (symbol "AD623AN_1_1"
      (pin passive line (at -7.62 2.54 0) (length 2.54) (name "Rg") (number "1"))
      (pin input line (at -7.62 5.08 0) (length 2.54) (name "-") (number "2"))
      (pin input line (at -7.62 -5.08 0) (length 2.54) (name "+") (number "3"))
      (pin power_in line (at 0 -7.62 90) (length 2.54) (name "Vs-") (number "4"))
      (pin passive line (at 5.08 -7.62 90) (length 5.08) (name "Ref") (number "5"))
      (pin output line (at 12.7 0 180) (length 2.54) (name "~") (number "6"))
      (pin power_in line (at 0 7.62 270) (length 2.54) (name "Vs+") (number "7"))
      (pin passive line (at -7.62 -2.54 0) (length 2.54) (name "Rg") (number "8"))
    )
  )
  (symbol "Amplifier_Instrumentation:AD623ANZ" (extends "AD623AN")
    (property "Value" "AD623ANZ" (id 1) (at 6.604 5.334 0))
    (property "Datasheet" "https://www.analog.com/media/en/technical-documentation/data-sheets/AD623.pdf" (id 3) (at 11.43 -10.16 0)
      (effects (font (size 1.27 1.27)) hide)
    )
    (property "ki_keywords" "ad623 instumentation amplifier dip-8" (id 4) (at 0 0 0)
      (effects (font (size 1.27 1.27)) hide)
    )
    (property "ki_description" "Single Supply, Rail to Rail, Instumentation Amplifier, RoHS, DIP-8" (id 5) (at 0 0 0)
      (effects (font (size 1.27 1.27)) hide)
    )
  )
  (symbol "Amplifier_Instrumentation:AD623BN" (extends "AD623AN")
    (property "Value" "AD623BN" (id 1) (at 6.604 5.334 0))
    (property "Datasheet" "https://www.analog.com/media/en/technical-documentation/data-sheets/AD623.pdf" (id 3) (at 11.43 -10.16 0)
      (effects (font (size 1.27 1.27)) hide)
    )
    (property "ki_keywords" "ad623 instumentation amplifier dip-8" (id 4) (at 0 0 0)
      (effects (font (size 1.27 1.27)) hide)
    )
    (property "ki_description" "Single Supply, Rail to Rail, Instumentation Amplifier, DIP-8" (id 5) (at 0 0 0)
      (effects (font (size 1.27 1.27)) hide)
    )
  )
  (symbol "Amplifier_Instrumentation:AD623BNZ" (extends "AD623AN")
    (property "Value" "AD623BNZ" (id 1) (at 6.604 5.334 0))
    (property "Datasheet" "https://www.analog.com/media/en/technical-documentation/data-sheets/AD623.pdf" (id 3) (at 11.43 -10.16 0)
      (effects (font (size 1.27 1.27)) hide)
    )
    (property "ki_keywords" "ad623 instumentation amplifier dip-8" (id 4) (at 0 0 0)
      (effects (font (size 1.27 1.27)) hide)
    )
    (property "ki_description" "Single Supply, Rail to Rail, Instumentation Amplifier, RoHS, DIP-8" (id 5) (at 0 0 0)
      (effects (font (size 1.27 1.27)) hide)
    )
  )
  (symbol "Amplifier_Instrumentation:AD623AR" (pin_names (offset 0.127))
    (property "Reference" "U" (id 0) (at 3.556 7.366 0))
    (property "Value" "AD623AR" (id 1) (at 6.604 5.334 0))
    (property "Footprint" "" (id 2) (at -2.54 0 0)
      (effects (font (size 1.27 1.27)) hide)
    )
    (property "Datasheet" "https://www.analog.com/media/en/technical-documentation/data-sheets/AD623.pdf" (id 3) (at 11.43 -10.16 0)
      (effects (font (size 1.27 1.27)) hide)
    )
    (property "ki_keywords" "ad623 instumentation amplifier soic-8" (id 4) (at 0 0 0)
      (effects (font (size 1.27 1.27)) hide)
    )
    (property "ki_description" "Single Supply, Rail to Rail, Instumentation Amplifier, SOIC-8" (id 5) (at 0 0 0)
      (effects (font (size 1.27 1.27)) hide)
    )
    (property "ki_fp_filters" "SOIC-8*" (id 6) (at 0 0 0)
      (effects (font (size 1.27 1.27)) hide)
    )
    (symbol "AD623AR_0_1"
      (polyline
        (pts (xy -5.08 7.62) (xy -5.08 -7.62) (xy 10.16 0) (xy -5.08 7.62))
        (stroke (width 0.254)) (fill (type background))
      )
    )
    (symbol "AD623AR_1_1"
      (pin passive line (at -7.62 2.54 0) (length 2.54) (name "Rg") (number "1"))
      (pin input line (at -7.62 5.08 0) (length 2.54) (name "-") (number "2"))
      (pin input line (at -7.62 -5.08 0) (length 2.54) (name "+") (number "3"))
      (pin power_in line (at 0 -7.62 90) (length 2.54) (name "Vs-") (number "4"))
      (pin passive line (at 5.08 -7.62 90) (length 5.08) (name "Ref") (number "5"))
      (pin output line (at 12.7 0 180) (length 2.54) (name "~") (number "6"))
      (pin power_in line (at 0 7.62 270) (length 2.54) (name "Vs+") (number "7"))
      (pin passive line (at -7.62 -2.54 0) (length 2.54) (name "Rg") (number "8"))
    )
  )
  (symbol "Amplifier_Instrumentation:AD623ARZ" (extends "AD623AR")
    (property "Value" "AD623ARZ" (id 1) (at 6.604 5.334 0))
    (property "Datasheet" "https://www.analog.com/media/en/technical-documentation/data-sheets/AD623.pdf" (id 3) (at 11.43 -10.16 0)
      (effects (font (size 1.27 1.27)) hide)
    )
    (property "ki_keywords" "ad623 instumentation amplifier soic-8" (id 4) (at 0 0 0)
      (effects (font (size 1.27 1.27)) hide)
    )
    (property "ki_description" "Single Supply, Rail to Rail, Instumentation Amplifier, RoHS, SOIC-8" (id 5) (at 0 0 0)
      (effects (font (size 1.27 1.27)) hide)
    )
  )
  (symbol "Amplifier_Instrumentation:AD623BR" (extends "AD623AR")
    (property "Value" "AD623BR" (id 1) (at 6.604 5.334 0))
    (property "Datasheet" "https://www.analog.com/media/en/technical-documentation/data-sheets/AD623.pdf" (id 3) (at 11.43 -10.16 0)
      (effects (font (size 1.27 1.27)) hide)
    )
    (property "ki_keywords" "ad623 instumentation amplifier soic-8" (id 4) (at 0 0 0)
      (effects (font (size 1.27 1.27)) hide)
    )
    (property "ki_description" "Single Supply, Rail to Rail, Instumentation Amplifier, SOIC-8" (id 5) (at 0 0 0)
      (effects (font (size 1.27 1.27)) hide)
    )
  )
  (symbol "Amplifier_Instrumentation:AD623BRZ" (extends "AD623AR")
    (property "Value" "AD623BRZ" (id 1) (at 6.604 5.334 0))
    (property "Datasheet" "https://www.analog.com/media/en/technical-documentation/data-sheets/AD623.pdf" (id 3) (at 11.43 -10.16 0)
      (effects (font (size 1.27 1.27)) hide)
    )
    (property "ki_keywords" "ad623 instumentation amplifier soic-8" (id 4) (at 0 0 0)
      (effects (font (size 1.27 1.27)) hide)
    )
    (property "ki_description" "Single Supply, Rail to Rail, Instumentation Amplifier, RoHS, SOIC-8" (id 5) (at 0 0 0)
      (effects (font (size 1.27 1.27)) hide)
    )
  )
  (symbol "Amplifier_Instrumentation:AD623ARM" (pin_names (offset 0.127))
    (property "Reference" "U" (id 0) (at 3.556 7.366 0))
    (property "Value" "AD623ARM" (id 1) (at 7.112 5.334 0))
    (property "Footprint" "" (id 2) (at -2.54 0 0)
      (effects (font (size 1.27 1.27)) hide)
    )
    (property "Datasheet" "https://www.analog.com/media/en/technical-documentation/data-sheets/AD623.pdf" (id 3) (at 11.43 -10.16 0)
      (effects (font (size 1.27 1.27)) hide)
    )
    (property "ki_keywords" "ad623 instumentation amplifier msop-8" (id 4) (at 0 0 0)
      (effects (font (size 1.27 1.27)) hide)
    )
    (property "ki_description" "Single Supply, Rail to Rail, Instumentation Amplifier, MSOP-8" (id 5) (at 0 0 0)
      (effects (font (size 1.27 1.27)) hide)
    )
    (property "ki_fp_filters" "MSOP-8*" (id 6) (at 0 0 0)
      (effects (font (size 1.27 1.27)) hide)
    )
    (symbol "AD623ARM_0_1"
      (polyline
        (pts (xy -5.08 7.62) (xy -5.08 -7.62) (xy 10.16 0) (xy -5.08 7.62))
        (stroke (width 0.254)) (fill (type background))
      )
    )
    (symbol "AD623ARM_1_1"
      (pin passive line (at -7.62 2.54 0) (length 2.54) (name "Rg") (number "1"))
      (pin input line (at -7.62 5.08 0) (length 2.54) (name "-") (number "2"))
      (pin input line (at -7.62 -5.08 0) (length 2.54) (name "+") (number "3"))
      (pin power_in line (at 0 -7.62 90) (length 2.54) (name "Vs-") (number "4"))
      (pin passive line (at 5.08 -7.62 90) (length 5.08) (name "Ref") (number "5"))
      (pin output line (at 12.7 0 180) (length 2.54) (name "~") (number "6"))
      (pin power_in line (at 0 7.62 270) (length 2.54) (name "Vs+") (number "7"))
      (pin passive line (at -7.62 -2.54 0) (length 2.54) (name "Rg") (number "8"))
    )
  )
  (symbol "Amplifier_Instrumentation:AD623ARMZ" (extends "AD623ARM")
    (property "Value" "AD623ARMZ" (id 1) (at 7.112 5.334 0))
    (property "Datasheet" "https://www.analog.com/media/en/technical-documentation/data-sheets/AD623.pdf" (id 3) (at 11.43 -10.16 0)
      (effects (font (size 1.27 1.27)) hide)
    )
    (property "ki_keywords" "ad623 instumentation amplifier msop-8" (id 4) (at 0 0 0)
      (effects (font (size 1.27 1.27)) hide)
    )
    (property "ki_description" "Single Supply, Rail to Rail, Instumentation Amplifier, RoHS, MSOP-8" (id 5) (at 0 0 0)
      (effects (font (size 1.27 1.27)) hide)
    )
  )
  (symbol "Amplifier_Instrumentation:AD8230" (pin_names (offset 0.0762))
    (property "Reference" "U" (id 0) (at 7.62 7.62 0))
    (property "Value" "AD8230" (id 1) (at 7.62 5.08 0))
    (property "Footprint" "Package_SO:SOIC-8_3.9x4.9mm_P1.27mm" (id 2) (at 3.81 -13.97 0)
      (effects (font (size 1.27 1.27)) hide)
    )
    (property "Datasheet" "https://www.analog.com/media/en/technical-documentation/data-sheets/AD8230.pdf" (id 3) (at -2.54 2.54 0)
      (effects (font (size 1.27 1.27)) hide)
    )
    (property "ki_keywords" "single instrumentation amplifier" (id 4) (at 0 0 0)
      (effects (font (size 1.27 1.27)) hide)
    )
    (property "ki_description" "16V Rail-to-Rail, Zero-Drift, Precision Instrumentation Amplifier, SOIC-8" (id 5) (at 0 0 0)
      (effects (font (size 1.27 1.27)) hide)
    )
    (property "ki_fp_filters" "SOIC*3.9x4.9mm*P1.27mm*" (id 6) (at 0 0 0)
      (effects (font (size 1.27 1.27)) hide)
    )
    (symbol "AD8230_0_1"
      (polyline
        (pts (xy -5.08 5.08) (xy -5.08 0) (xy -5.08 -5.08) (xy 5.08 0)
             (xy -5.08 5.08)
        )
        (stroke (width 0.254)) (fill (type background))
      )
    )
    (symbol "AD8230_1_1"
      (pin power_in line (at -2.54 -7.62 90) (length 3.81) (name "V-") (number "1"))
      (pin power_in line (at -2.54 7.62 270) (length 3.81) (name "V+") (number "2"))
      (pin input line (at 0 -7.62 90) (length 5.08)
        (name "Vr1" (effects (font (size 0.762 0.762))))
        (number "3")
      )
      (pin input line (at -7.62 2.54 0) (length 2.54) (name "+") (number "4"))
      (pin input line (at -7.62 -2.54 0) (length 2.54) (name "-") (number "5"))
      (pin input line (at 2.54 -7.62 90) (length 6.35)
        (name "Vr2" (effects (font (size 0.762 0.762))))
        (number "6")
      )
      (pin output line (at 0 7.62 270) (length 5.08)
        (name "Rg" (effects (font (size 0.762 0.762))))
        (number "7")
      )
      (pin output line (at 7.62 0 180) (length 2.54) (name "~") (number "8"))
    )
  )
  (symbol "Amplifier_Instrumentation:AD8236" (pin_names (offset 0.127))
    (property "Reference" "U" (id 0) (at 3.81 7.62 0))
    (property "Value" "AD8236" (id 1) (at 3.81 5.08 0))
    (property "Footprint" "" (id 2) (at -7.62 0 0)
      (effects (font (size 1.27 1.27)) hide)
    )
    (property "Datasheet" "https://www.analog.com/media/en/technical-documentation/data-sheets/AD8236.pdf" (id 3) (at 8.89 -10.16 0)
      (effects (font (size 1.27 1.27)) hide)
    )
    (property "ki_keywords" "single instumentation amplifier" (id 4) (at 0 0 0)
      (effects (font (size 1.27 1.27)) hide)
    )
    (property "ki_description" "Single 40 μA Micropower Instrumentation Amplifier with Zero Crossover Distortion, MSOP-8" (id 5) (at 0 0 0)
      (effects (font (size 1.27 1.27)) hide)
    )
    (property "ki_fp_filters" "SOIC*3.9x4.9mm*P1.27mm*\nMSOP*3x3mm*P0.65mm*" (id 6) (at 0 0 0)
      (effects (font (size 1.27 1.27)) hide)
    )
    (symbol "AD8236_0_1"
      (polyline
        (pts (xy -7.62 7.62) (xy -7.62 -7.62) (xy 7.62 0) (xy -7.62 7.62))
        (stroke (width 0.254)) (fill (type background))
      )
    )
    (symbol "AD8236_1_1"
      (pin input line (at -10.16 5.08 0) (length 2.54) (name "-") (number "1"))
      (pin passive line (at -10.16 2.54 0) (length 2.54) (name "Rg") (number "2"))
      (pin passive line (at -10.16 -2.54 0) (length 2.54) (name "Rg") (number "3"))
      (pin input line (at -10.16 -5.08 0) (length 2.54) (name "+") (number "4"))
      (pin power_in line (at -2.54 -7.62 90) (length 2.54) (name "Vs-") (number "5"))
      (pin passive line (at 2.54 -7.62 90) (length 5.08) (name "Ref") (number "6"))
      (pin output line (at 10.16 0 180) (length 2.54) (name "~") (number "7"))
      (pin power_in line (at -2.54 7.62 270) (length 2.54) (name "Vs+") (number "8"))
    )
  )
  (symbol "Amplifier_Instrumentation:AD8421" (extends "AD8236")
    (property "Value" "AD8421" (id 1) (at 3.81 5.08 0))
    (property "Datasheet" "https://www.analog.com/media/en/technical-documentation/data-sheets/AD8421.pdf" (id 3) (at 8.89 -10.16 0)
      (effects (font (size 1.27 1.27)) hide)
    )
    (property "ki_keywords" "single instumentation amplifier" (id 4) (at 0 0 0)
      (effects (font (size 1.27 1.27)) hide)
    )
    (property "ki_description" "Single Low Power Instrumentation Amplifier, SOIC-8/MSOP-8" (id 5) (at 0 0 0)
      (effects (font (size 1.27 1.27)) hide)
    )
  )
  (symbol "Amplifier_Instrumentation:AD8422" (extends "AD8236")
    (property "Value" "AD8422" (id 1) (at 3.81 5.08 0))
    (property "Datasheet" "https://www.analog.com/media/en/technical-documentation/data-sheets/AD8422.pdf" (id 3) (at 8.89 -10.16 0)
      (effects (font (size 1.27 1.27)) hide)
    )
    (property "ki_keywords" "single instumentation amplifier" (id 4) (at 0 0 0)
      (effects (font (size 1.27 1.27)) hide)
    )
    (property "ki_description" "Single High Performance, Low Power, Rail-to-Rail Precision Instrumentation Amplifier, SOIC-8/MSOP-8" (id 5) (at 0 0 0)
      (effects (font (size 1.27 1.27)) hide)
    )
  )
  (symbol "Amplifier_Instrumentation:AD8429" (extends "AD8236")
    (property "Value" "AD8429" (id 1) (at 3.81 5.08 0))
    (property "Datasheet" "https://www.analog.com/media/en/technical-documentation/data-sheets/AD8429.pdf" (id 3) (at 8.89 -10.16 0)
      (effects (font (size 1.27 1.27)) hide)
    )
    (property "ki_keywords" "single instumentation amplifier" (id 4) (at 0 0 0)
      (effects (font (size 1.27 1.27)) hide)
    )
    (property "ki_description" "Single Low Noise Instrumentation Amplifier, SOIC-8" (id 5) (at 0 0 0)
      (effects (font (size 1.27 1.27)) hide)
    )
  )
  (symbol "Amplifier_Instrumentation:AD8422ARMZ" (pin_names (offset 0.127))
    (property "Reference" "U" (id 0) (at 3.556 7.366 0))
    (property "Value" "AD8422ARMZ" (id 1) (at 7.366 5.334 0))
    (property "Footprint" "" (id 2) (at -5.08 0 0)
      (effects (font (size 1.27 1.27)) hide)
    )
    (property "Datasheet" "https://www.analog.com/media/en/technical-documentation/data-sheets/AD8422.pdf" (id 3) (at 8.89 -10.16 0)
      (effects (font (size 1.27 1.27)) hide)
    )
    (property "ki_keywords" "ad8422 instumentation amplifier msop-8" (id 4) (at 0 0 0)
      (effects (font (size 1.27 1.27)) hide)
    )
    (property "ki_description" "Low Power, Rail to Rail, Instumentation Amplifier, MSOP-8" (id 5) (at 0 0 0)
      (effects (font (size 1.27 1.27)) hide)
    )
    (property "ki_fp_filters" "MSOP-8*" (id 6) (at 0 0 0)
      (effects (font (size 1.27 1.27)) hide)
    )
    (symbol "AD8422ARMZ_0_1"
      (polyline
        (pts (xy -5.08 7.62) (xy -5.08 -7.62) (xy 10.16 0) (xy -5.08 7.62))
        (stroke (width 0.254)) (fill (type background))
      )
    )
    (symbol "AD8422ARMZ_1_1"
      (pin input line (at -7.62 5.08 0) (length 2.54) (name "-") (number "1"))
      (pin passive line (at -7.62 2.54 0) (length 2.54) (name "Rg") (number "2"))
      (pin passive line (at -7.62 -2.54 0) (length 2.54) (name "Rg") (number "3"))
      (pin input line (at -7.62 -5.08 0) (length 2.54) (name "+") (number "4"))
      (pin power_in line (at 0 -7.62 90) (length 2.54) (name "Vs-") (number "5"))
      (pin passive line (at 5.08 -7.62 90) (length 5.08) (name "Ref") (number "6"))
      (pin output line (at 12.7 0 180) (length 2.54) (name "~") (number "7"))
      (pin power_in line (at 0 7.62 270) (length 2.54) (name "Vs+") (number "8"))
    )
  )
  (symbol "Amplifier_Instrumentation:AD8236ARMZ" (extends "AD8422ARMZ")
    (property "Value" "AD8236ARMZ" (id 1) (at 7.366 5.334 0))
    (property "Datasheet" "https://www.analog.com/media/en/technical-documentation/data-sheets/AD8236.pdf" (id 3) (at 8.89 -10.16 0)
      (effects (font (size 1.27 1.27)) hide)
    )
    (property "ki_keywords" "ad8236 instumentation amplifier msop-8" (id 4) (at 0 0 0)
      (effects (font (size 1.27 1.27)) hide)
    )
    (property "ki_description" "Micropower Instumentation Amplifier with Zero Crossover Distortion, MSOP-8" (id 5) (at 0 0 0)
      (effects (font (size 1.27 1.27)) hide)
    )
  )
  (symbol "Amplifier_Instrumentation:AD8421ARMZ" (extends "AD8422ARMZ")
    (property "Value" "AD8421ARMZ" (id 1) (at 7.366 5.334 0))
    (property "Datasheet" "https://www.analog.com/media/en/technical-documentation/data-sheets/AD8421.pdf" (id 3) (at 8.89 -10.16 0)
      (effects (font (size 1.27 1.27)) hide)
    )
    (property "ki_keywords" "ad8421 instumentation amplifier msop-8" (id 4) (at 0 0 0)
      (effects (font (size 1.27 1.27)) hide)
    )
    (property "ki_description" "Low Power,  Instumentation Amplifier, MSOP-8" (id 5) (at 0 0 0)
      (effects (font (size 1.27 1.27)) hide)
    )
  )
  (symbol "Amplifier_Instrumentation:AD8421BRMZ" (extends "AD8422ARMZ")
    (property "Value" "AD8421BRMZ" (id 1) (at 7.366 5.334 0))
    (property "Datasheet" "https://www.analog.com/media/en/technical-documentation/data-sheets/AD8421.pdf" (id 3) (at 8.89 -10.16 0)
      (effects (font (size 1.27 1.27)) hide)
    )
    (property "ki_keywords" "ad8421 instumentation amplifier msop-8" (id 4) (at 0 0 0)
      (effects (font (size 1.27 1.27)) hide)
    )
    (property "ki_description" "Low Power, Instumentation Amplifier, MSOP-8" (id 5) (at 0 0 0)
      (effects (font (size 1.27 1.27)) hide)
    )
  )
  (symbol "Amplifier_Instrumentation:AD8422BRMZ" (extends "AD8422ARMZ")
    (property "Value" "AD8422BRMZ" (id 1) (at 7.366 5.334 0))
    (property "Datasheet" "https://www.analog.com/media/en/technical-documentation/data-sheets/AD8422.pdf" (id 3) (at 8.89 -10.16 0)
      (effects (font (size 1.27 1.27)) hide)
    )
    (property "ki_keywords" "ad8422 instumentation amplifier msop-8" (id 4) (at 0 0 0)
      (effects (font (size 1.27 1.27)) hide)
    )
    (property "ki_description" "Low Power, Rail to Rail, Instumentation Amplifier, MSOP-8" (id 5) (at 0 0 0)
      (effects (font (size 1.27 1.27)) hide)
    )
  )
  (symbol "Amplifier_Instrumentation:AD8422ARZ" (pin_names (offset 0.127))
    (property "Reference" "U" (id 0) (at 3.556 7.366 0))
    (property "Value" "AD8422ARZ" (id 1) (at 7.366 5.334 0))
    (property "Footprint" "" (id 2) (at -2.54 0 0)
      (effects (font (size 1.27 1.27)) hide)
    )
    (property "Datasheet" "https://www.analog.com/media/en/technical-documentation/data-sheets/AD8422.pdf" (id 3) (at 11.43 -10.16 0)
      (effects (font (size 1.27 1.27)) hide)
    )
    (property "ki_keywords" "ad8422 instumentation amplifier soic-8" (id 4) (at 0 0 0)
      (effects (font (size 1.27 1.27)) hide)
    )
    (property "ki_description" "Low Power, Rail to Rail, Instumentation Amplifier, SOIC-8" (id 5) (at 0 0 0)
      (effects (font (size 1.27 1.27)) hide)
    )
    (property "ki_fp_filters" "SOIC-8*" (id 6) (at 0 0 0)
      (effects (font (size 1.27 1.27)) hide)
    )
    (symbol "AD8422ARZ_0_1"
      (polyline
        (pts (xy -5.08 7.62) (xy -5.08 -7.62) (xy 10.16 0) (xy -5.08 7.62))
        (stroke (width 0.254)) (fill (type background))
      )
    )
    (symbol "AD8422ARZ_1_1"
      (pin input line (at -7.62 5.08 0) (length 2.54) (name "-") (number "1"))
      (pin passive line (at -7.62 2.54 0) (length 2.54) (name "Rg") (number "2"))
      (pin passive line (at -7.62 -2.54 0) (length 2.54) (name "Rg") (number "3"))
      (pin input line (at -7.62 -5.08 0) (length 2.54) (name "+") (number "4"))
      (pin power_in line (at 0 -7.62 90) (length 2.54) (name "Vs-") (number "5"))
      (pin passive line (at 5.08 -7.62 90) (length 5.08) (name "Ref") (number "6"))
      (pin output line (at 12.7 0 180) (length 2.54) (name "~") (number "7"))
      (pin power_in line (at 0 7.62 270) (length 2.54) (name "Vs+") (number "8"))
    )
  )
  (symbol "Amplifier_Instrumentation:AD8421ARZ" (extends "AD8422ARZ")
    (property "Value" "AD8421ARZ" (id 1) (at 7.366 5.334 0))
    (property "Datasheet" "https://www.analog.com/media/en/technical-documentation/data-sheets/AD8421.pdf" (id 3) (at 11.43 -10.16 0)
      (effects (font (size 1.27 1.27)) hide)
    )
    (property "ki_keywords" "ad8421 instumentation amplifier soic-8" (id 4) (at 0 0 0)
      (effects (font (size 1.27 1.27)) hide)
    )
    (property "ki_description" "Low Power, Instumentation Amplifier, SOIC-8" (id 5) (at 0 0 0)
      (effects (font (size 1.27 1.27)) hide)
    )
  )
  (symbol "Amplifier_Instrumentation:AD8421BRZ" (extends "AD8422ARZ")
    (property "Value" "AD8421BRZ" (id 1) (at 7.366 5.334 0))
    (property "Datasheet" "https://www.analog.com/media/en/technical-documentation/data-sheets/AD8421.pdf" (id 3) (at 11.43 -10.16 0)
      (effects (font (size 1.27 1.27)) hide)
    )
    (property "ki_keywords" "ad8421 instumentation amplifier soic-8" (id 4) (at 0 0 0)
      (effects (font (size 1.27 1.27)) hide)
    )
    (property "ki_description" "Low Power, Instumentation Amplifier, SOIC-8" (id 5) (at 0 0 0)
      (effects (font (size 1.27 1.27)) hide)
    )
  )
  (symbol "Amplifier_Instrumentation:AD8422BRZ" (extends "AD8422ARZ")
    (property "Value" "AD8422BRZ" (id 1) (at 7.366 5.334 0))
    (property "Datasheet" "https://www.analog.com/media/en/technical-documentation/data-sheets/AD8422.pdf" (id 3) (at 11.43 -10.16 0)
      (effects (font (size 1.27 1.27)) hide)
    )
    (property "ki_keywords" "ad8422 instumentation amplifier soic-8" (id 4) (at 0 0 0)
      (effects (font (size 1.27 1.27)) hide)
    )
    (property "ki_description" "Low Power, Rail to Rail, Instumentation Amplifier, SOIC-8" (id 5) (at 0 0 0)
      (effects (font (size 1.27 1.27)) hide)
    )
  )
  (symbol "Amplifier_Instrumentation:AD8429ARZ" (extends "AD8422ARZ")
    (property "Value" "AD8429ARZ" (id 1) (at 7.366 5.334 0))
    (property "Datasheet" "https://www.analog.com/media/en/technical-documentation/data-sheets/AD8429.pdf" (id 3) (at 11.43 -10.16 0)
      (effects (font (size 1.27 1.27)) hide)
    )
    (property "ki_keywords" "ad8429 instumentation amplifier soic-8" (id 4) (at 0 0 0)
      (effects (font (size 1.27 1.27)) hide)
    )
    (property "ki_description" "Low Noise, Instumentation Amplifier, SOIC-8" (id 5) (at 0 0 0)
      (effects (font (size 1.27 1.27)) hide)
    )
  )
  (symbol "Amplifier_Instrumentation:AD8429BRZ" (extends "AD8422ARZ")
    (property "Value" "AD8429BRZ" (id 1) (at 7.366 5.334 0))
    (property "Datasheet" "https://www.analog.com/media/en/technical-documentation/data-sheets/AD8429.pdf" (id 3) (at 11.43 -10.16 0)
      (effects (font (size 1.27 1.27)) hide)
    )
    (property "ki_keywords" "ad8429 instumentation amplifier soic-8" (id 4) (at 0 0 0)
      (effects (font (size 1.27 1.27)) hide)
    )
    (property "ki_description" "Low Noise, Instumentation Amplifier, SOIC-8" (id 5) (at 0 0 0)
      (effects (font (size 1.27 1.27)) hide)
    )
  )
  (symbol "Amplifier_Instrumentation:INA128" (pin_names (offset 0.127))
    (property "Reference" "U" (id 0) (at 3.81 3.175 0)
      (effects (font (size 1.27 1.27)) (justify left))
    )
    (property "Value" "INA128" (id 1) (at 3.81 -3.175 0)
      (effects (font (size 1.27 1.27)) (justify left))
    )
    (property "Footprint" "" (id 2) (at 2.54 0 0)
      (effects (font (size 1.27 1.27)) hide)
    )
    (property "Datasheet" "http://www.ti.com/lit/ds/symlink/ina128.pdf" (id 3) (at 2.54 0 0)
      (effects (font (size 1.27 1.27)) hide)
    )
    (property "ki_keywords" "instrumentation opamp" (id 4) (at 0 0 0)
      (effects (font (size 1.27 1.27)) hide)
    )
    (property "ki_description" "Precision, Low Power Instrumentation Amplifier G = 1 + 50kOhm/Rg, DIP-8/SOIC-8" (id 5) (at 0 0 0)
      (effects (font (size 1.27 1.27)) hide)
    )
    (property "ki_fp_filters" "DIP*W7.62mm*\nSOIC*P1.27mm*" (id 6) (at 0 0 0)
      (effects (font (size 1.27 1.27)) hide)
    )
    (symbol "INA128_0_1"
      (polyline
        (pts (xy 7.62 0) (xy -5.08 6.35) (xy -5.08 -6.35) (xy 7.62 0))
        (stroke (width 0.254)) (fill (type background))
      )
    )
    (symbol "INA128_1_1"
      (pin passive line (at -7.62 2.54 0) (length 2.54) (name "Rg") (number "1"))
      (pin input line (at -7.62 -5.08 0) (length 2.54) (name "-") (number "2"))
      (pin input line (at -7.62 5.08 0) (length 2.54) (name "+") (number "3"))
      (pin power_in line (at 0 -7.62 90) (length 3.81) (name "V-") (number "4"))
      (pin input line (at 2.54 -7.62 90) (length 5.08) (name "Ref") (number "5"))
      (pin output line (at 10.16 0 180) (length 2.54) (name "~") (number "6"))
      (pin power_in line (at 0 7.62 270) (length 3.81) (name "V+") (number "7"))
      (pin passive line (at -7.62 -2.54 0) (length 2.54) (name "Rg") (number "8"))
    )
  )
  (symbol "Amplifier_Instrumentation:INA129" (extends "INA128")
    (property "Value" "INA129" (id 1) (at 3.81 -3.175 0)
      (effects (font (size 1.27 1.27)) (justify left))
    )
    (property "Datasheet" "http://www.ti.com/lit/ds/symlink/ina128.pdf" (id 3) (at 2.54 0 0)
      (effects (font (size 1.27 1.27)) hide)
    )
    (property "ki_keywords" "instrumentation opamp" (id 4) (at 0 0 0)
      (effects (font (size 1.27 1.27)) hide)
    )
    (property "ki_description" "Precision, Low Power Instrumentation Amplifier G = 1 + 49.4kOhm/Rg, DIP-8/SOIC-8" (id 5) (at 0 0 0)
      (effects (font (size 1.27 1.27)) hide)
    )
  )
  (symbol "Amplifier_Instrumentation:INA326" (pin_names (offset 0.127))
    (property "Reference" "U" (id 0) (at 3.81 3.175 0)
      (effects (font (size 1.27 1.27)) (justify left))
    )
    (property "Value" "INA326" (id 1) (at 3.81 -3.175 0)
      (effects (font (size 1.27 1.27)) (justify left))
    )
    (property "Footprint" "Package_SO:MSOP-8_3x3mm_P0.65mm" (id 2) (at 0 0 0)
      (effects (font (size 1.27 1.27)) (justify left) hide)
    )
    (property "Datasheet" "http://www.ti.com/lit/ds/symlink/ina326.pdf" (id 3) (at 2.54 0 0)
      (effects (font (size 1.27 1.27)) hide)
    )
    (property "ki_keywords" "instrumentation opamp" (id 4) (at 0 0 0)
      (effects (font (size 1.27 1.27)) hide)
    )
    (property "ki_description" "Precision, Rail-to-Rail I/O Instrumentation Amplifier, MSOP-8 package" (id 5) (at 0 0 0)
      (effects (font (size 1.27 1.27)) hide)
    )
    (property "ki_fp_filters" "MSOP*3x3mm*P0.65mm*" (id 6) (at 0 0 0)
      (effects (font (size 1.27 1.27)) hide)
    )
    (symbol "INA326_0_1"
      (polyline
        (pts (xy 7.62 0) (xy -5.08 6.35) (xy -5.08 -6.35) (xy 7.62 0))
        (stroke (width 0.254)) (fill (type background))
      )
    )
    (symbol "INA326_1_1"
      (pin passive line (at -7.62 2.54 0) (length 2.54) (name "R1") (number "1"))
      (pin input line (at -7.62 -5.08 0) (length 2.54) (name "-") (number "2"))
      (pin input line (at -7.62 5.08 0) (length 2.54) (name "+") (number "3"))
      (pin power_in line (at 0 -7.62 90) (length 3.81) (name "V-") (number "4"))
      (pin input line (at 2.54 -7.62 90) (length 5.08) (name "R2") (number "5"))
      (pin output line (at 10.16 0 180) (length 2.54) (name "~") (number "6"))
      (pin power_in line (at 0 7.62 270) (length 3.81) (name "V+") (number "7"))
      (pin passive line (at -7.62 -2.54 0) (length 2.54) (name "R1") (number "8"))
    )
  )
  (symbol "Amplifier_Instrumentation:INA327" (pin_names (offset 0.127))
    (property "Reference" "U" (id 0) (at 3.81 3.175 0)
      (effects (font (size 1.27 1.27)) (justify left))
    )
    (property "Value" "INA327" (id 1) (at 3.81 -3.175 0)
      (effects (font (size 1.27 1.27)) (justify left))
    )
    (property "Footprint" "Package_SO:MSOP-10_3x3mm_P0.5mm" (id 2) (at 0 0 0)
      (effects (font (size 1.27 1.27)) hide)
    )
    (property "Datasheet" "http://www.ti.com/lit/ds/symlink/ina326.pdf" (id 3) (at 0 0 0)
      (effects (font (size 1.27 1.27)) hide)
    )
    (property "ki_keywords" "instrumentation opamp" (id 4) (at 0 0 0)
      (effects (font (size 1.27 1.27)) hide)
    )
    (property "ki_description" "Precision, Rail-to-Rail I/O Instrumentation Amplifier, MSOP-10 package" (id 5) (at 0 0 0)
      (effects (font (size 1.27 1.27)) hide)
    )
    (property "ki_fp_filters" "MSOP*3x3mm*P0.5mm*" (id 6) (at 0 0 0)
      (effects (font (size 1.27 1.27)) hide)
    )
    (symbol "INA327_0_1"
      (polyline
        (pts (xy 7.62 0) (xy -5.08 6.35) (xy -5.08 -6.35) (xy 7.62 0))
        (stroke (width 0.254)) (fill (type background))
      )
    )
    (symbol "INA327_1_1"
      (pin passive line (at -7.62 2.54 0) (length 2.54) (name "R1") (number "1"))
      (pin passive line (at -7.62 -2.54 0) (length 2.54) (name "R1") (number "10"))
      (pin input line (at -7.62 -5.08 0) (length 2.54) (name "-") (number "2"))
      (pin input line (at -7.62 5.08 0) (length 2.54) (name "+") (number "3"))
      (pin power_in line (at 0 -7.62 90) (length 3.81) (name "V-") (number "4"))
      (pin power_in line (at 0 7.62 270) (length 3.81) (name "V+") (number "5"))
      (pin input line (at 2.54 7.62 270) (length 5.08)
        (name "EN" (effects (font (size 0.762 0.762))))
        (number "6")
      )
      (pin input line (at 2.54 -7.62 90) (length 5.08) (name "R2") (number "7"))
      (pin output line (at 10.16 0 180) (length 2.54) (name "~") (number "8"))
      (pin passive line (at 0 7.62 270) (length 3.81) (name "V+") (number "9") hide)
    )
  )
  (symbol "Amplifier_Instrumentation:LTC1100xN8" (pin_names (offset 0.127))
    (property "Reference" "U" (id 0) (at 1.27 6.35 0)
      (effects (font (size 1.27 1.27)) (justify left))
    )
    (property "Value" "LTC1100xN8" (id 1) (at 1.27 3.81 0)
      (effects (font (size 1.27 1.27)) (justify left))
    )
    (property "Footprint" "Package_DIP:DIP-8_W7.62mm" (id 2) (at 0 0 0)
      (effects (font (size 1.27 1.27)) hide)
    )
    (property "Datasheet" "https://www.analog.com/media/en/technical-documentation/data-sheets/1100fc.pdf" (id 3) (at 0 0 0)
      (effects (font (size 1.27 1.27)) hide)
    )
    (property "ki_keywords" "single instrumentation amp" (id 4) (at 0 0 0)
      (effects (font (size 1.27 1.27)) hide)
    )
    (property "ki_description" "Single Precision, Zero-Drift Instrumentation Amplifier, Gain = 100, DIP-8" (id 5) (at 0 0 0)
      (effects (font (size 1.27 1.27)) hide)
    )
    (property "ki_fp_filters" "DIP*W7.62mm*" (id 6) (at 0 0 0)
      (effects (font (size 1.27 1.27)) hide)
    )
    (symbol "LTC1100xN8_0_1"
      (polyline
        (pts (xy -5.08 5.08) (xy 5.08 0) (xy -5.08 -5.08) (xy -5.08 5.08))
        (stroke (width 0.254)) (fill (type background))
      )
    )
    (symbol "LTC1100xN8_1_1"
      (pin input line (at 2.54 -7.62 90) (length 6.35)
        (name "GND" (effects (font (size 0.508 0.508))))
        (number "1")
      )
      (pin input line (at 0 -7.62 90) (length 5.08)
        (name "CMRR" (effects (font (size 0.508 0.508))))
        (number "2")
      )
      (pin input line (at -7.62 -2.54 0) (length 2.54) (name "-") (number "3"))
      (pin power_in line (at -2.54 -7.62 90) (length 3.81) (name "V-") (number "4"))
      (pin power_in line (at -2.54 7.62 270) (length 3.81) (name "V+") (number "5"))
      (pin input line (at -7.62 2.54 0) (length 2.54) (name "+") (number "6"))
      (pin input line (at 0 7.62 270) (length 5.08)
        (name "COMP" (effects (font (size 0.508 0.508))))
        (number "7")
      )
      (pin output line (at 7.62 0 180) (length 2.54) (name "~") (number "8"))
    )
  )
  (symbol "Amplifier_Instrumentation:LTC1100xSW" (pin_names (offset 0.127))
    (property "Reference" "U" (id 0) (at 6.35 3.81 0)
      (effects (font (size 1.27 1.27)) (justify left))
    )
    (property "Value" "LTC1100xSW" (id 1) (at 6.35 -2.54 0)
      (effects (font (size 1.27 1.27)) (justify left))
    )
    (property "Footprint" "Package_SO:SOIC-16W_7.5x10.3mm_P1.27mm" (id 2) (at 0 0 0)
      (effects (font (size 1.27 1.27)) hide)
    )
    (property "Datasheet" "https://www.analog.com/media/en/technical-documentation/data-sheets/1100fc.pdf" (id 3) (at 0 0 0)
      (effects (font (size 1.27 1.27)) hide)
    )
    (property "ki_keywords" "single instrumentation amp" (id 4) (at 0 0 0)
      (effects (font (size 1.27 1.27)) hide)
    )
    (property "ki_description" "Single Precision, Zero-Drift Instrumentation Amplifier, Gain = 10/100, SOIC-16W" (id 5) (at 0 0 0)
      (effects (font (size 1.27 1.27)) hide)
    )
    (property "ki_fp_filters" "SOIC*7.5x10.3mm*P1.27mm*" (id 6) (at 0 0 0)
      (effects (font (size 1.27 1.27)) hide)
    )
    (symbol "LTC1100xSW_0_1"
      (polyline
        (pts (xy 1.27 1.905) (xy 2.54 3.175) (xy 2.54 3.81))
      )
      (polyline
        (pts (xy 3.81 0.635) (xy 5.08 1.905) (xy 5.08 3.81))
      )
      (polyline
        (pts (xy -5.08 5.08) (xy 5.08 0) (xy -5.08 -5.08) (xy -5.08 5.08))
        (stroke (width 0.254)) (fill (type background))
      )
    )
    (symbol "LTC1100xSW_1_1"
      (pin unconnected line (at -5.08 2.54 270) (length 2.54) (name "NC") (number "1") hide)
      (pin power_in line (at -2.54 7.62 270) (length 3.81) (name "V+") (number "10"))
      (pin input line (at -7.62 2.54 0) (length 2.54) (name "+") (number "11"))
      (pin unconnected line (at -2.54 -2.54 90) (length 2.54) (name "NC") (number "12") hide)
      (pin input line (at 0 7.62 270) (length 5.08)
        (name "COMP" (effects (font (size 0.508 0.508))))
        (number "13")
      )
      (pin passive line (at 2.54 7.62 270) (length 3.81) (name "~") (number "14"))
      (pin output line (at 7.62 0 180) (length 2.54) (name "~") (number "15"))
      (pin unconnected line (at 0 -2.54 90) (length 2.54) (name "NC") (number "16") hide)
      (pin input line (at 2.54 -7.62 90) (length 6.35)
        (name "GND" (effects (font (size 0.508 0.508))))
        (number "2")
      )
      (pin passive line (at 5.08 7.62 270) (length 3.81) (name "~") (number "3"))
      (pin input line (at 0 -7.62 90) (length 5.08)
        (name "CMRR" (effects (font (size 0.508 0.508))))
        (number "4")
      )
      (pin unconnected line (at -2.54 2.54 270) (length 2.54) (name "NC") (number "5") hide)
      (pin input line (at -7.62 -2.54 0) (length 2.54) (name "-") (number "6"))
      (pin power_in line (at -2.54 -7.62 90) (length 3.81) (name "V-") (number "7"))
      (pin unconnected line (at 0 2.54 270) (length 2.54) (name "NC") (number "8") hide)
      (pin unconnected line (at -5.08 -2.54 90) (length 2.54) (name "NC") (number "9") hide)
    )
  )
)
