(kicad_symbol_lib (version 20200126) (host kicad_symbol_editor "(5.99.0-1517-ga8407fba4)")
  (symbol "DSP_Freescale:DSP96002"
    (property "Reference" "U" (id 0) (at -41.91 127 0)
      (effects (font (size 1.27 1.27)) (justify left))
    )
    (property "Value" "DSP96002" (id 1) (at 31.75 127 0)
      (effects (font (size 1.27 1.27)) (justify left))
    )
    (property "Footprint" "" (id 2) (at 0 0 0)
      (effects (font (size 1.27 1.27)) hide)
    )
    (property "Datasheet" "http://cache.freescale.com/files/dsp/doc/inactive/DSP96002.pdf" (id 3) (at 0 0 0)
      (effects (font (size 1.27 1.27)) hide)
    )
    (property "ki_keywords" "DSP 32bit Dual Port Processor" (id 4) (at 0 0 0)
      (effects (font (size 1.27 1.27)) hide)
    )
    (property "ki_description" "32-bit General Purpose Floating-point DSP, Dual Port, PGA-223" (id 5) (at 0 0 0)
      (effects (font (size 1.27 1.27)) hide)
    )
    (property "ki_fp_filters" "PGA-223*" (id 6) (at 0 0 0)
      (effects (font (size 1.27 1.27)) hide)
    )
    (symbol "DSP96002_0_1"
      (rectangle (start -41.91 -125.73) (end 41.91 125.73) (stroke (width 0.254)) (fill (type background)))
    )
    (symbol "DSP96002_1_1"
      (pin tri_state line (at 45.72 -20.32 180) (length 3.81) (name "B.A23") (number "A1"))
      (pin tri_state line (at 45.72 -12.7 180) (length 3.81) (name "B.A20") (number "B1"))
      (pin tri_state line (at 45.72 -5.08 180) (length 3.81) (name "B.A17") (number "C1"))
      (pin tri_state line (at 45.72 0 180) (length 3.81) (name "B.A15") (number "D1"))
      (pin tri_state line (at 45.72 5.08 180) (length 3.81) (name "B.A13") (number "E1"))
      (pin tri_state line (at 45.72 7.62 180) (length 3.81) (name "B.A12") (number "F1"))
      (pin tri_state line (at 45.72 15.24 180) (length 3.81) (name "B.A9") (number "G1"))
      (pin tri_state line (at 45.72 17.78 180) (length 3.81) (name "B.A8") (number "H1"))
      (pin input inverted (at -45.72 -63.5 0) (length 3.81) (name "A.TACK") (number "J1"))
      (pin tri_state line (at 45.72 27.94 180) (length 3.81) (name "B.A4") (number "K1"))
      (pin tri_state line (at 45.72 30.48 180) (length 3.81) (name "B.A3") (number "L1"))
      (pin tri_state line (at 45.72 38.1 180) (length 3.81) (name "B.A0") (number "M1"))
      (pin input inverted (at 45.72 -68.58 180) (length 3.81) (name "B.AENB") (number "N1"))
      (pin tri_state line (at 45.72 -45.72 180) (length 3.81) (name "B.R/W") (number "P1"))
      (pin output inverted (at 45.72 -50.8 180) (length 3.81) (name "B.BUS_STR") (number "R1"))
      (pin input inverted (at 45.72 -88.9 180) (length 3.81) (name "B.BG") (number "T1"))
      (pin output inverted (at 45.72 -81.28 180) (length 3.81) (name "B.HOSTREQ") (number "U1"))
      (pin output line (at 45.72 -109.22 180) (length 3.81) (name "DSO") (number "V1"))
      (pin tri_state line (at 45.72 -30.48 180) (length 3.81) (name "B.A27") (number "A2"))
      (pin tri_state line (at 45.72 -25.4 180) (length 3.81) (name "B.A25") (number "B2"))
      (pin tri_state line (at 45.72 -15.24 180) (length 3.81) (name "B.A21") (number "C2"))
      (pin tri_state line (at 45.72 -7.62 180) (length 3.81) (name "B.A18") (number "D2"))
      (pin tri_state line (at 45.72 -2.54 180) (length 3.81) (name "B.A16") (number "E2"))
      (pin tri_state line (at 45.72 2.54 180) (length 3.81) (name "B.A14") (number "F2"))
      (pin tri_state line (at 45.72 12.7 180) (length 3.81) (name "B.A10") (number "G2"))
      (pin input clock (at -45.72 -116.84 0) (length 3.81) (name "CLK") (number "H2"))
      (pin input inverted (at 45.72 -63.5 180) (length 3.81) (name "B.TACK") (number "J2"))
      (pin tri_state line (at 45.72 25.4 180) (length 3.81) (name "B.A5") (number "K2"))
      (pin tri_state line (at 45.72 35.56 180) (length 3.81) (name "B.A1") (number "L2"))
      (pin tri_state inverted (at 45.72 -101.6 180) (length 3.81) (name "B.S1") (number "M2"))
      (pin tri_state inverted (at 45.72 -60.96 180) (length 3.81) (name "B.T_STROBE") (number "P2"))
      (pin output inverted (at 45.72 -86.36 180) (length 3.81) (name "B.BR") (number "R2"))
      (pin open_collector inverted (at 45.72 -91.44 180) (length 3.81) (name "B.BA") (number "T2"))
      (pin bidirectional line (at 45.72 -114.3 180) (length 3.81) (name "DSCK/OS1") (number "U2"))
      (pin bidirectional line (at 45.72 -111.76 180) (length 3.81) (name "DSI/OS0") (number "V2"))
      (pin tri_state line (at 45.72 -35.56 180) (length 3.81) (name "B.A29") (number "A3"))
      (pin tri_state line (at 45.72 -33.02 180) (length 3.81) (name "B.A28") (number "B3"))
      (pin tri_state line (at 45.72 -27.94 180) (length 3.81) (name "B.A26") (number "C3"))
      (pin tri_state line (at 45.72 -22.86 180) (length 3.81) (name "B.A24") (number "D3"))
      (pin tri_state line (at 45.72 -17.78 180) (length 3.81) (name "B.A22") (number "E3"))
      (pin tri_state line (at 45.72 -10.16 180) (length 3.81) (name "B.A19") (number "F3"))
      (pin power_in line (at -20.32 129.54 270) (length 3.81) (name "VCC") (number "G3"))
      (pin tri_state line (at 45.72 10.16 180) (length 3.81) (name "B.A11") (number "H3"))
      (pin tri_state line (at 45.72 20.32 180) (length 3.81) (name "B.A7") (number "J3"))
      (pin tri_state line (at 45.72 22.86 180) (length 3.81) (name "B.A6") (number "K3"))
      (pin tri_state line (at 45.72 33.02 180) (length 3.81) (name "B.A2") (number "L3"))
      (pin tri_state inverted (at 45.72 -99.06 180) (length 3.81) (name "B.S0") (number "M3"))
      (pin output inverted (at 45.72 -53.34 180) (length 3.81) (name "B.BUS_LOCK") (number "P3"))
      (pin input inverted (at 45.72 -93.98 180) (length 3.81) (name "B.BB") (number "R3"))
      (pin output inverted (at -45.72 -81.28 0) (length 3.81) (name "A.HOSTREQ") (number "T3"))
      (pin input inverted (at 45.72 -78.74 180) (length 3.81) (name "B.HOSTACK") (number "V3"))
      (pin tri_state line (at 45.72 -40.64 180) (length 3.81) (name "B.A31") (number "A4"))
      (pin tri_state line (at 45.72 -38.1 180) (length 3.81) (name "B.A30") (number "B4"))
      (pin power_in line (at -35.56 -129.54 90) (length 3.81) (name "GND") (number "C4"))
      (pin power_in line (at -15.24 -129.54 90) (length 3.81) (name "GND") (number "E4"))
      (pin power_in line (at -10.16 -129.54 90) (length 3.81) (name "GND") (number "F4"))
      (pin power_in line (at -17.78 129.54 270) (length 3.81) (name "VCC") (number "G4"))
      (pin power_in line (at -15.24 129.54 270) (length 3.81) (name "VCC") (number "H4"))
      (pin power_in line (at -2.54 -129.54 90) (length 3.81) (name "GND") (number "J4"))
      (pin power_in line (at -12.7 129.54 270) (length 3.81) (name "VCC") (number "K4"))
      (pin power_in line (at -10.16 129.54 270) (length 3.81) (name "VCC") (number "L4"))
      (pin power_in line (at 5.08 -129.54 90) (length 3.81) (name "GND") (number "M4"))
      (pin power_in line (at 7.62 -129.54 90) (length 3.81) (name "GND") (number "N4"))
      (pin power_in line (at 12.7 -129.54 90) (length 3.81) (name "GND") (number "P4"))
      (pin power_in line (at 17.78 -129.54 90) (length 3.81) (name "GND") (number "R4"))
      (pin input inverted (at 45.72 -116.84 180) (length 3.81) (name "DEBUGREQ") (number "T4"))
      (pin input inverted (at -45.72 -78.74 0) (length 3.81) (name "A.HOSTACK") (number "U4"))
      (pin input inverted (at 45.72 -76.2 180) (length 3.81) (name "B.HOSTSEL") (number "V4"))
      (pin input line (at -45.72 -106.68 0) (length 3.81) (name "MODA/IRQA") (number "A5"))
      (pin input line (at -45.72 -109.22 0) (length 3.81) (name "MODB/IRQB") (number "B5"))
      (pin input line (at -45.72 -111.76 0) (length 3.81) (name "MODC/IRQC") (number "C5"))
      (pin power_in line (at -33.02 -129.54 90) (length 3.81) (name "GND") (number "D5"))
      (pin power_in line (at 20.32 -129.54 90) (length 3.81) (name "GND") (number "R5"))
      (pin input inverted (at -45.72 -76.2 0) (length 3.81) (name "A.HOSTSEL") (number "T5"))
      (pin input inverted (at 45.72 -71.12 180) (length 3.81) (name "B.DENB") (number "U5"))
      (pin tri_state line (at 45.72 45.72 180) (length 3.81) (name "B.D30") (number "V5"))
      (pin input inverted (at -45.72 -93.98 0) (length 3.81) (name "A.BB") (number "A6"))
      (pin input inverted (at -45.72 -88.9 0) (length 3.81) (name "A.BG") (number "B6"))
      (pin input inverted (at -45.72 -119.38 0) (length 3.81) (name "RESET") (number "C6"))
      (pin power_in line (at -30.48 -129.54 90) (length 3.81) (name "GND") (number "D6"))
      (pin power_in line (at 22.86 -129.54 90) (length 3.81) (name "GND") (number "R6"))
      (pin tri_state line (at 45.72 43.18 180) (length 3.81) (name "B.D31") (number "T6"))
      (pin tri_state line (at 45.72 48.26 180) (length 3.81) (name "B.D29") (number "U6"))
      (pin tri_state line (at 45.72 50.8 180) (length 3.81) (name "B.D28") (number "V6"))
      (pin output inverted (at -45.72 -86.36 0) (length 3.81) (name "A.BR") (number "A7"))
      (pin open_collector inverted (at -45.72 -91.44 0) (length 3.81) (name "A.BA") (number "B7"))
      (pin output inverted (at -45.72 -53.34 0) (length 3.81) (name "A.BUS_LOCK") (number "C7"))
      (pin power_in line (at -27.94 -129.54 90) (length 3.81) (name "GND") (number "D7"))
      (pin power_in line (at -2.54 129.54 270) (length 3.81) (name "VCC") (number "R7"))
      (pin power_in line (at 38.1 -129.54 90) (length 3.81) (name "GND") (number "T7"))
      (pin tri_state line (at 45.72 53.34 180) (length 3.81) (name "B.D27") (number "U7"))
      (pin tri_state line (at 45.72 58.42 180) (length 3.81) (name "B.D25") (number "V7"))
      (pin output inverted (at 45.72 -58.42 180) (length 3.81) (name "B.T_TYPE") (number "B8"))
      (pin output inverted (at -45.72 -58.42 0) (length 3.81) (name "A.T_TYPE") (number "C8"))
      (pin power_in line (at -7.62 129.54 270) (length 3.81) (name "VCC") (number "D8"))
      (pin power_in line (at 25.4 -129.54 90) (length 3.81) (name "GND") (number "R8"))
      (pin tri_state line (at 45.72 55.88 180) (length 3.81) (name "B.D26") (number "T8"))
      (pin tri_state line (at 45.72 60.96 180) (length 3.81) (name "B.D24") (number "U8"))
      (pin tri_state line (at 45.72 63.5 180) (length 3.81) (name "B.D23") (number "V8"))
      (pin tri_state line (at -45.72 -45.72 0) (length 3.81) (name "A.R/W") (number "A9"))
      (pin tri_state inverted (at -45.72 -101.6 0) (length 3.81) (name "A.S1") (number "B9"))
      (pin power_in line (at -5.08 129.54 270) (length 3.81) (name "VCC") (number "D9"))
      (pin power_in line (at 0 129.54 270) (length 3.81) (name "VCC") (number "R9"))
      (pin tri_state line (at 45.72 66.04 180) (length 3.81) (name "B.D22") (number "T9"))
      (pin tri_state line (at 45.72 68.58 180) (length 3.81) (name "B.D21") (number "U9"))
      (pin tri_state line (at 45.72 71.12 180) (length 3.81) (name "B.D20") (number "V9"))
      (pin tri_state inverted (at -45.72 -99.06 0) (length 3.81) (name "A.S0") (number "A10"))
      (pin output inverted (at -45.72 -50.8 0) (length 3.81) (name "A.BUS_STR") (number "B10"))
      (pin tri_state line (at -45.72 35.56 0) (length 3.81) (name "A.A1") (number "C10"))
      (pin power_in line (at 2.54 129.54 270) (length 3.81) (name "VCC") (number "D10"))
      (pin power_in line (at 17.78 129.54 270) (length 3.81) (name "VCC") (number "R10"))
      (pin tri_state line (at 45.72 78.74 180) (length 3.81) (name "B.D17") (number "T10"))
      (pin tri_state line (at 45.72 76.2 180) (length 3.81) (name "B.D18") (number "U10"))
      (pin tri_state line (at 45.72 73.66 180) (length 3.81) (name "B.D19") (number "V10"))
      (pin tri_state inverted (at -45.72 -60.96 0) (length 3.81) (name "A.T_STROBE") (number "A11"))
      (pin tri_state line (at -45.72 38.1 0) (length 3.81) (name "A.A0") (number "B11"))
      (pin tri_state line (at -45.72 25.4 0) (length 3.81) (name "A.A5") (number "C11"))
      (pin power_in line (at -25.4 -129.54 90) (length 3.81) (name "GND") (number "D11"))
      (pin power_in line (at 20.32 129.54 270) (length 3.81) (name "VCC") (number "R11"))
      (pin tri_state line (at 45.72 86.36 180) (length 3.81) (name "B.D14") (number "T11"))
      (pin tri_state line (at 45.72 83.82 180) (length 3.81) (name "B.D15") (number "U11"))
      (pin tri_state line (at 45.72 81.28 180) (length 3.81) (name "B.D16") (number "V11"))
      (pin input inverted (at -45.72 -68.58 0) (length 3.81) (name "A.AENB") (number "A12"))
      (pin tri_state line (at -45.72 30.48 0) (length 3.81) (name "A.A3") (number "B12"))
      (pin tri_state line (at -45.72 17.78 0) (length 3.81) (name "A.A8") (number "C12"))
      (pin power_in line (at 5.08 129.54 270) (length 3.81) (name "VCC") (number "D12"))
      (pin power_in line (at 27.94 -129.54 90) (length 3.81) (name "GND") (number "R12"))
      (pin tri_state line (at 45.72 93.98 180) (length 3.81) (name "B.D11") (number "T12"))
      (pin tri_state line (at 45.72 91.44 180) (length 3.81) (name "B.D12") (number "U12"))
      (pin tri_state line (at 45.72 88.9 180) (length 3.81) (name "B.D13") (number "V12"))
      (pin tri_state line (at -45.72 33.02 0) (length 3.81) (name "A.A2") (number "A13"))
      (pin tri_state line (at -45.72 22.86 0) (length 3.81) (name "A.A6") (number "B13"))
      (pin tri_state line (at -45.72 7.62 0) (length 3.81) (name "A.A12") (number "C13"))
      (pin power_in line (at -22.86 -129.54 90) (length 3.81) (name "GND") (number "D13"))
      (pin power_in line (at 30.48 -129.54 90) (length 3.81) (name "GND") (number "R13"))
      (pin tri_state line (at 45.72 104.14 180) (length 3.81) (name "B.D7") (number "T13"))
      (pin tri_state line (at 45.72 99.06 180) (length 3.81) (name "B.D9") (number "U13"))
      (pin tri_state line (at 45.72 96.52 180) (length 3.81) (name "B.D10") (number "V13"))
      (pin tri_state line (at -45.72 27.94 0) (length 3.81) (name "A.A4") (number "A14"))
      (pin tri_state line (at -45.72 15.24 0) (length 3.81) (name "A.A9") (number "B14"))
      (pin tri_state line (at -45.72 0 0) (length 3.81) (name "A.A15") (number "C14"))
      (pin power_in line (at -20.32 -129.54 90) (length 3.81) (name "GND") (number "D14"))
      (pin power_in line (at 33.02 -129.54 90) (length 3.81) (name "GND") (number "R14"))
      (pin tri_state line (at 45.72 111.76 180) (length 3.81) (name "B.D4") (number "T14"))
      (pin tri_state line (at 45.72 106.68 180) (length 3.81) (name "B.D6") (number "U14"))
      (pin tri_state line (at 45.72 101.6 180) (length 3.81) (name "B.D8") (number "V14"))
      (pin tri_state line (at -45.72 20.32 0) (length 3.81) (name "A.A7") (number "A15"))
      (pin tri_state line (at -45.72 10.16 0) (length 3.81) (name "A.A11") (number "B15"))
      (pin tri_state line (at -45.72 -5.08 0) (length 3.81) (name "A.A17") (number "C15"))
      (pin power_in line (at -17.78 -129.54 90) (length 3.81) (name "GND") (number "D15"))
      (pin power_in line (at -12.7 -129.54 90) (length 3.81) (name "GND") (number "E15"))
      (pin power_in line (at -7.62 -129.54 90) (length 3.81) (name "GND") (number "F15"))
      (pin power_in line (at -5.08 -129.54 90) (length 3.81) (name "GND") (number "G15"))
      (pin power_in line (at 7.62 129.54 270) (length 3.81) (name "VCC") (number "H15"))
      (pin power_in line (at 0 -129.54 90) (length 3.81) (name "GND") (number "J15"))
      (pin power_in line (at 2.54 -129.54 90) (length 3.81) (name "GND") (number "K15"))
      (pin power_in line (at 10.16 129.54 270) (length 3.81) (name "VCC") (number "L15"))
      (pin power_in line (at 12.7 129.54 270) (length 3.81) (name "VCC") (number "M15"))
      (pin power_in line (at 10.16 -129.54 90) (length 3.81) (name "GND") (number "N15"))
      (pin power_in line (at 15.24 -129.54 90) (length 3.81) (name "GND") (number "P15"))
      (pin power_in line (at 35.56 -129.54 90) (length 3.81) (name "GND") (number "R15"))
      (pin tri_state line (at 45.72 119.38 180) (length 3.81) (name "B.D1") (number "T15"))
      (pin tri_state line (at 45.72 114.3 180) (length 3.81) (name "B.D3") (number "U15"))
      (pin tri_state line (at 45.72 109.22 180) (length 3.81) (name "B.D5") (number "V15"))
      (pin tri_state line (at -45.72 12.7 0) (length 3.81) (name "A.A10") (number "A16"))
      (pin tri_state line (at -45.72 2.54 0) (length 3.81) (name "A.A14") (number "B16"))
      (pin tri_state line (at -45.72 -10.16 0) (length 3.81) (name "A.A19") (number "C16"))
      (pin tri_state line (at -45.72 -17.78 0) (length 3.81) (name "A.A22") (number "D16"))
      (pin tri_state line (at -45.72 -22.86 0) (length 3.81) (name "A.A24") (number "E16"))
      (pin tri_state line (at -45.72 -30.48 0) (length 3.81) (name "A.A27") (number "F16"))
      (pin tri_state line (at -45.72 -40.64 0) (length 3.81) (name "A.A31") (number "G16"))
      (pin tri_state line (at -45.72 50.8 0) (length 3.81) (name "A.D28") (number "H16"))
      (pin tri_state line (at -45.72 60.96 0) (length 3.81) (name "A.D24") (number "J16"))
      (pin tri_state line (at -45.72 71.12 0) (length 3.81) (name "A.D20") (number "K16"))
      (pin tri_state line (at -45.72 81.28 0) (length 3.81) (name "A.D16") (number "L16"))
      (pin power_in line (at 15.24 129.54 270) (length 3.81) (name "VCC") (number "M16"))
      (pin tri_state line (at -45.72 93.98 0) (length 3.81) (name "A.D11") (number "N16"))
      (pin tri_state line (at -45.72 104.14 0) (length 3.81) (name "A.D7") (number "P16"))
      (pin tri_state line (at -45.72 109.22 0) (length 3.81) (name "A.D5") (number "R16"))
      (pin tri_state line (at -45.72 116.84 0) (length 3.81) (name "A.D2") (number "T16"))
      (pin tri_state line (at 45.72 121.92 180) (length 3.81) (name "B.D0") (number "U16"))
      (pin tri_state line (at 45.72 116.84 180) (length 3.81) (name "B.D2") (number "V16"))
      (pin tri_state line (at -45.72 5.08 0) (length 3.81) (name "A.A13") (number "A17"))
      (pin tri_state line (at -45.72 -7.62 0) (length 3.81) (name "A.A18") (number "B17"))
      (pin tri_state line (at -45.72 -15.24 0) (length 3.81) (name "A.A21") (number "C17"))
      (pin tri_state line (at -45.72 -25.4 0) (length 3.81) (name "A.A25") (number "D17"))
      (pin tri_state line (at -45.72 -33.02 0) (length 3.81) (name "A.A28") (number "E17"))
      (pin tri_state line (at -45.72 -38.1 0) (length 3.81) (name "A.A30") (number "F17"))
      (pin tri_state line (at -45.72 45.72 0) (length 3.81) (name "A.D30") (number "G17"))
      (pin tri_state line (at -45.72 53.34 0) (length 3.81) (name "A.D27") (number "H17"))
      (pin tri_state line (at -45.72 58.42 0) (length 3.81) (name "A.D25") (number "J17"))
      (pin tri_state line (at -45.72 68.58 0) (length 3.81) (name "A.D21") (number "K17"))
      (pin tri_state line (at -45.72 76.2 0) (length 3.81) (name "A.D18") (number "L17"))
      (pin input inverted (at -45.72 -71.12 0) (length 3.81) (name "A.DENB") (number "M17"))
      (pin tri_state line (at -45.72 86.36 0) (length 3.81) (name "A.D14") (number "N17"))
      (pin tri_state line (at -45.72 91.44 0) (length 3.81) (name "A.D12") (number "P17"))
      (pin tri_state line (at -45.72 99.06 0) (length 3.81) (name "A.D9") (number "R17"))
      (pin tri_state line (at -45.72 106.68 0) (length 3.81) (name "A.D6") (number "T17"))
      (pin tri_state line (at -45.72 114.3 0) (length 3.81) (name "A.D3") (number "U17"))
      (pin tri_state line (at -45.72 121.92 0) (length 3.81) (name "A.D0") (number "V17"))
      (pin tri_state line (at -45.72 -2.54 0) (length 3.81) (name "A.A16") (number "A18"))
      (pin tri_state line (at -45.72 -12.7 0) (length 3.81) (name "A.A20") (number "B18"))
      (pin tri_state line (at -45.72 -20.32 0) (length 3.81) (name "A.A23") (number "C18"))
      (pin tri_state line (at -45.72 -27.94 0) (length 3.81) (name "A.A26") (number "D18"))
      (pin tri_state line (at -45.72 -35.56 0) (length 3.81) (name "A.A29") (number "E18"))
      (pin tri_state line (at -45.72 43.18 0) (length 3.81) (name "A.D31") (number "F18"))
      (pin tri_state line (at -45.72 48.26 0) (length 3.81) (name "A.D29") (number "G18"))
      (pin tri_state line (at -45.72 55.88 0) (length 3.81) (name "A.D26") (number "H18"))
      (pin tri_state line (at -45.72 63.5 0) (length 3.81) (name "A.D23") (number "J18"))
      (pin tri_state line (at -45.72 66.04 0) (length 3.81) (name "A.D22") (number "K18"))
      (pin tri_state line (at -45.72 73.66 0) (length 3.81) (name "A.D19") (number "L18"))
      (pin tri_state line (at -45.72 78.74 0) (length 3.81) (name "A.D17") (number "M18"))
      (pin tri_state line (at -45.72 83.82 0) (length 3.81) (name "A.D15") (number "N18"))
      (pin tri_state line (at -45.72 88.9 0) (length 3.81) (name "A.D13") (number "P18"))
      (pin tri_state line (at -45.72 96.52 0) (length 3.81) (name "A.D10") (number "R18"))
      (pin tri_state line (at -45.72 101.6 0) (length 3.81) (name "A.D8") (number "T18"))
      (pin tri_state line (at -45.72 111.76 0) (length 3.81) (name "A.D4") (number "U18"))
      (pin tri_state line (at -45.72 119.38 0) (length 3.81) (name "A.D1") (number "V18"))
    )
  )
)
