(kicad_symbol_lib (version 20200126) (host kicad_symbol_editor "(5.99.0-1517-ga8407fba4)")
  (symbol "Filter:0850BM14E0016" (pin_names (offset 0.508))
    (property "Reference" "FL" (id 0) (at -6.35 -6.35 0))
    (property "Value" "0850BM14E0016" (id 1) (at 0 6.35 0))
    (property "Footprint" "RF_Converter:Balun_Johanson_1.6x0.8mm" (id 2) (at 0 -17.78 0)
      (effects (font (size 1.27 1.27)) hide)
    )
    (property "Datasheet" "https://www.johansontechnology.com/datasheets/0850BM14E0016/0850BM14E0016.pdf" (id 3) (at -24.13 15.24 0)
      (effects (font (size 1.27 1.27)) hide)
    )
    (property "ki_keywords" "Sub-GHz Balun" (id 4) (at 0 0 0)
      (effects (font (size 1.27 1.27)) hide)
    )
    (property "ki_description" "Sub-GHz Impedance Matched Balun + LPF integrated Passive" (id 5) (at 0 0 0)
      (effects (font (size 1.27 1.27)) hide)
    )
    (property "ki_fp_filters" "Balun*Johanson*1.6x0.8mm*" (id 6) (at 0 0 0)
      (effects (font (size 1.27 1.27)) hide)
    )
    (symbol "0850BM14E0016_0_1"
      (rectangle (start -7.62 5.08) (end 7.62 -5.08) (stroke (width 0.254)) (fill (type background)))
    )
    (symbol "0850BM14E0016_0_0"
      (pin passive line (at 10.16 2.54 180) (length 2.54) (name "UBP") (number "1"))
      (pin passive line (at -10.16 -2.54 0) (length 2.54) (name "RX/TX") (number "2"))
      (pin passive line (at -10.16 0 0) (length 2.54) (name "RF_N") (number "3"))
      (pin passive line (at -10.16 2.54 0) (length 2.54) (name "RF_P") (number "4"))
      (pin power_in line (at 2.54 -7.62 90) (length 2.54) (name "GND") (number "5"))
      (pin passive line (at 2.54 -7.62 90) (length 2.54) (name "GND") (number "6") hide)
    )
  )
  (symbol "Filter:1FP45-0R" (pin_names (offset 0.508))
    (property "Reference" "FL" (id 0) (at 0 7.62 0))
    (property "Value" "1FP45-0R" (id 1) (at 0 5.08 0))
    (property "Footprint" "Filter:Filter_FILTERCON_1FPxx" (id 2) (at 0 0 0)
      (effects (font (size 1.27 1.27)) hide)
    )
    (property "Datasheet" "https://filtercon.com.pl/wp-content/uploads/2019/07/Karta-katalogowa-FP-12-1.pdf" (id 3) (at 0 0 0)
      (effects (font (size 1.27 1.27)) hide)
    )
    (property "ki_keywords" "EMI" (id 4) (at 0 0 0)
      (effects (font (size 1.27 1.27)) hide)
    )
    (property "ki_description" "0.5A, 250VAC, 50/60Hz line filter" (id 5) (at 0 0 0)
      (effects (font (size 1.27 1.27)) hide)
    )
    (property "ki_fp_filters" "Filter*FILTERCON*1FPxx*" (id 6) (at 0 0 0)
      (effects (font (size 1.27 1.27)) hide)
    )
    (symbol "1FP45-0R_1_1"
      (arc (start -0.762 -2.54) (end -1.524 -2.54) (radius (at -1.143 -2.54) (length 0.381) (angles 0.1 179.9)))
      (arc (start -0.762 2.54) (end -1.524 2.54) (radius (at -1.143 2.54) (length 0.381) (angles 0.1 179.9)))
      (arc (start 0 -2.54) (end -0.762 -2.54) (radius (at -0.381 -2.54) (length 0.381) (angles 0.1 179.9)))
      (arc (start 0 2.54) (end -0.762 2.54) (radius (at -0.381 2.54) (length 0.381) (angles 0.1 179.9)))
      (arc (start 0.762 -2.54) (end 0 -2.54) (radius (at 0.381 -2.54) (length 0.381) (angles 0.1 179.9)))
      (arc (start 0.762 2.54) (end 0 2.54) (radius (at 0.381 2.54) (length 0.381) (angles 0.1 179.9)))
      (arc (start 1.524 -2.54) (end 0.762 -2.54) (radius (at 1.143 -2.54) (length 0.381) (angles 0.1 179.9)))
      (arc (start 1.524 2.54) (end 0.762 2.54) (radius (at 1.143 2.54) (length 0.381) (angles 0.1 179.9)))
      (circle (center 0 0) (radius 1.8034))
      (rectangle (start -10.16 3.81) (end 10.16 -3.81) (stroke (width 0.254)) (fill (type background)))
      (rectangle (start -4.826 -0.254) (end -2.794 -0.508)(fill (type outline)))
      (rectangle (start -4.826 0.254) (end -2.794 0.508)(fill (type outline)))
      (rectangle (start 2.794 -0.254) (end 4.826 -0.508)(fill (type outline)))
      (rectangle (start 2.794 0.254) (end 4.826 0.508)(fill (type outline)))
      (polyline
        (pts (xy -6.858 -1.27) (xy -6.858 1.27))
      )
      (polyline
        (pts (xy -6.858 -1.27) (xy -5.842 -1.27))
      )
      (polyline
        (pts (xy -6.858 1.27) (xy -5.842 1.27))
      )
      (polyline
        (pts (xy -6.35 -1.27) (xy -6.35 -2.54))
      )
      (polyline
        (pts (xy -6.35 1.27) (xy -6.35 2.54))
      )
      (polyline
        (pts (xy -5.842 -1.27) (xy -5.842 1.27))
      )
      (polyline
        (pts (xy -3.81 -0.508) (xy -3.81 -2.54))
      )
      (polyline
        (pts (xy -3.81 0.508) (xy -3.81 2.54))
      )
      (polyline
        (pts (xy -1.524 -2.54) (xy -7.62 -2.54))
      )
      (polyline
        (pts (xy -1.524 2.54) (xy -7.62 2.54))
      )
      (polyline
        (pts (xy 1.524 -2.54) (xy 7.112 -2.54))
      )
      (polyline
        (pts (xy 3.81 -0.508) (xy 3.81 -2.54))
      )
      (polyline
        (pts (xy 3.81 0.508) (xy 3.81 2.54))
      )
      (polyline
        (pts (xy 7.112 2.54) (xy 1.524 2.54))
      )
      (pin passive line (at -12.7 2.54 0) (length 2.54) (name "P") (number "1"))
      (pin passive line (at 12.7 2.54 180) (length 2.54) (name "P'") (number "2"))
      (pin passive line (at -12.7 -2.54 0) (length 2.54) (name "N") (number "3"))
      (pin passive line (at 12.7 -2.54 180) (length 2.54) (name "N'") (number "4"))
    )
  )
  (symbol "Filter:1FP41-4R" (extends "1FP45-0R")
    (property "Value" "1FP41-4R" (id 1) (at 0 5.08 0))
    (property "Datasheet" "https://filtercon.com.pl/wp-content/uploads/2019/07/Karta-katalogowa-FP-12-1.pdf" (id 3) (at 0 0 0)
      (effects (font (size 1.27 1.27)) hide)
    )
    (property "ki_keywords" "EMI" (id 4) (at 0 0 0)
      (effects (font (size 1.27 1.27)) hide)
    )
    (property "ki_description" "4A, 250VAC, 50/60Hz line filter" (id 5) (at 0 0 0)
      (effects (font (size 1.27 1.27)) hide)
    )
  )
  (symbol "Filter:1FP42-3R" (extends "1FP45-0R")
    (property "Value" "1FP42-3R" (id 1) (at 0 5.08 0))
    (property "Datasheet" "https://filtercon.com.pl/wp-content/uploads/2019/07/Karta-katalogowa-FP-12-1.pdf" (id 3) (at 0 0 0)
      (effects (font (size 1.27 1.27)) hide)
    )
    (property "ki_keywords" "EMI" (id 4) (at 0 0 0)
      (effects (font (size 1.27 1.27)) hide)
    )
    (property "ki_description" "3A, 250VAC, 50/60Hz line filter" (id 5) (at 0 0 0)
      (effects (font (size 1.27 1.27)) hide)
    )
  )
  (symbol "Filter:1FP44-2R" (extends "1FP45-0R")
    (property "Value" "1FP44-2R" (id 1) (at 0 5.08 0))
    (property "Datasheet" "https://filtercon.com.pl/wp-content/uploads/2019/07/Karta-katalogowa-FP-12-1.pdf" (id 3) (at 0 0 0)
      (effects (font (size 1.27 1.27)) hide)
    )
    (property "ki_keywords" "EMI" (id 4) (at 0 0 0)
      (effects (font (size 1.27 1.27)) hide)
    )
    (property "ki_description" "2A, 250VAC, 50/60Hz line filter" (id 5) (at 0 0 0)
      (effects (font (size 1.27 1.27)) hide)
    )
  )
  (symbol "Filter:1FP45-1R" (extends "1FP45-0R")
    (property "Value" "1FP45-1R" (id 1) (at 0 5.08 0))
    (property "Datasheet" "https://filtercon.com.pl/wp-content/uploads/2019/07/Karta-katalogowa-FP-12-1.pdf" (id 3) (at 0 0 0)
      (effects (font (size 1.27 1.27)) hide)
    )
    (property "ki_keywords" "EMI" (id 4) (at 0 0 0)
      (effects (font (size 1.27 1.27)) hide)
    )
    (property "ki_description" "1A, 250VAC, 50/60Hz line filter" (id 5) (at 0 0 0)
      (effects (font (size 1.27 1.27)) hide)
    )
  )
  (symbol "Filter:1FP61-4R" (extends "1FP45-0R")
    (property "Value" "1FP61-4R" (id 1) (at 0 5.08 0))
    (property "Datasheet" "https://filtercon.com.pl/wp-content/uploads/2019/07/Karta-katalogowa-FP-12-1.pdf" (id 3) (at 0 0 0)
      (effects (font (size 1.27 1.27)) hide)
    )
    (property "ki_keywords" "EMI" (id 4) (at 0 0 0)
      (effects (font (size 1.27 1.27)) hide)
    )
    (property "ki_description" "4A, 250VAC, 50/60Hz line filter" (id 5) (at 0 0 0)
      (effects (font (size 1.27 1.27)) hide)
    )
  )
  (symbol "Filter:1FP62-3R" (extends "1FP45-0R")
    (property "Value" "1FP62-3R" (id 1) (at 0 5.08 0))
    (property "Datasheet" "https://filtercon.com.pl/wp-content/uploads/2019/07/Karta-katalogowa-FP-12-1.pdf" (id 3) (at 0 0 0)
      (effects (font (size 1.27 1.27)) hide)
    )
    (property "ki_keywords" "EMI" (id 4) (at 0 0 0)
      (effects (font (size 1.27 1.27)) hide)
    )
    (property "ki_description" "3A, 250VAC, 50/60Hz line filter" (id 5) (at 0 0 0)
      (effects (font (size 1.27 1.27)) hide)
    )
  )
  (symbol "Filter:1FP64-2R" (extends "1FP45-0R")
    (property "Value" "1FP64-2R" (id 1) (at 0 5.08 0))
    (property "Datasheet" "https://filtercon.com.pl/wp-content/uploads/2019/07/Karta-katalogowa-FP-12-1.pdf" (id 3) (at 0 0 0)
      (effects (font (size 1.27 1.27)) hide)
    )
    (property "ki_keywords" "EMI" (id 4) (at 0 0 0)
      (effects (font (size 1.27 1.27)) hide)
    )
    (property "ki_description" "2A, 250VAC, 50/60Hz line filter" (id 5) (at 0 0 0)
      (effects (font (size 1.27 1.27)) hide)
    )
  )
  (symbol "Filter:1FP65-0R" (extends "1FP45-0R")
    (property "Value" "1FP65-0R" (id 1) (at 0 5.08 0))
    (property "Datasheet" "https://filtercon.com.pl/wp-content/uploads/2019/07/Karta-katalogowa-FP-12-1.pdf" (id 3) (at 0 0 0)
      (effects (font (size 1.27 1.27)) hide)
    )
    (property "ki_keywords" "EMI" (id 4) (at 0 0 0)
      (effects (font (size 1.27 1.27)) hide)
    )
    (property "ki_description" "0.5A, 250VAC, 50/60Hz line filter" (id 5) (at 0 0 0)
      (effects (font (size 1.27 1.27)) hide)
    )
  )
  (symbol "Filter:1FP65-1R" (extends "1FP45-0R")
    (property "Value" "1FP65-1R" (id 1) (at 0 5.08 0))
    (property "Datasheet" "https://filtercon.com.pl/wp-content/uploads/2019/07/Karta-katalogowa-FP-12-1.pdf" (id 3) (at 0 0 0)
      (effects (font (size 1.27 1.27)) hide)
    )
    (property "ki_keywords" "EMI" (id 4) (at 0 0 0)
      (effects (font (size 1.27 1.27)) hide)
    )
    (property "ki_description" "1A, 250VAC, 50/60Hz line filter" (id 5) (at 0 0 0)
      (effects (font (size 1.27 1.27)) hide)
    )
  )
  (symbol "Filter:B39162B8813P810"
    (property "Reference" "FL" (id 0) (at 2.54 -6.35 0))
    (property "Value" "B39162B8813P810" (id 1) (at 0 6.35 0))
    (property "Footprint" "Filter:Filter_1109-5_1.1x0.9mm" (id 2) (at 0 0 0)
      (effects (font (size 1.27 1.27)) hide)
    )
    (property "Datasheet" "https://product.tdk.com/search-template/en/documents/data_sheet/40/ds/mc/B9482.pdf" (id 3) (at -1.778 0.762 0)
      (effects (font (size 1.27 1.27)) hide)
    )
    (property "ki_keywords" "SAW filter" (id 4) (at 0 0 0)
      (effects (font (size 1.27 1.27)) hide)
    )
    (property "ki_description" "1582.47MHz SAW filter, SMD 1109" (id 5) (at 0 0 0)
      (effects (font (size 1.27 1.27)) hide)
    )
    (property "ki_fp_filters" "Filter*1109*1.1x0.9mm*" (id 6) (at 0 0 0)
      (effects (font (size 1.27 1.27)) hide)
    )
    (symbol "B39162B8813P810_0_1"
      (arc (start -0.762 1.524) (end 0 2.794) (radius (at -1.4224 2.794) (length 1.4224) (angles -62.5 0)))
      (arc (start 0 2.794) (end 0.762 1.524) (radius (at 1.4224 2.794) (length 1.4224) (angles 180 -117.5)))
      (rectangle (start -5.08 5.08) (end 5.08 -5.08) (stroke (width 0.254)) (fill (type background)))
      (polyline
        (pts (xy -1.524 -0.762) (xy -1.27 -0.762))
      )
      (polyline
        (pts (xy 1.524 -1.27) (xy -1.524 -1.27))
      )
      (polyline
        (pts (xy 1.524 -0.762) (xy -1.27 -0.762))
      )
      (polyline
        (pts (xy -1.524 -1.27) (xy -2.032 -1.27) (xy -2.032 0) (xy 2.286 0))
      )
      (polyline
        (pts (xy 1.524 -0.762) (xy 2.032 -0.762) (xy 2.032 -2.032) (xy -2.286 -2.032))
      )
    )
    (symbol "B39162B8813P810_1_1"
      (pin passive line (at -7.62 2.54 0) (length 2.54) (name "~") (number "1"))
      (pin passive line (at -7.62 -2.54 0) (length 2.54) (name "~") (number "2"))
      (pin passive line (at 7.62 -2.54 180) (length 2.54) (name "~") (number "3"))
      (pin passive line (at 7.62 2.54 180) (length 2.54) (name "~") (number "4"))
      (pin passive line (at -7.62 -2.54 0) (length 2.54) (name "~") (number "5") hide)
    )
  )
  (symbol "Filter:SAFFB1G58KA0F0A" (extends "B39162B8813P810")
    (property "Value" "SAFFB1G58KA0F0A" (id 1) (at 0 6.35 0))
    (property "Datasheet" "https://www.murata.com/~/media/webrenewal/support/library/catalog/products/filter/rf/p73e.ashx?la=en" (id 3) (at -1.778 0.762 0)
      (effects (font (size 1.27 1.27)) hide)
    )
    (property "ki_keywords" "SAW filter" (id 4) (at 0 0 0)
      (effects (font (size 1.27 1.27)) hide)
    )
    (property "ki_description" "Murata 1575.42/1602MHz SAW filter, SMD 1109" (id 5) (at 0 0 0)
      (effects (font (size 1.27 1.27)) hide)
    )
  )
  (symbol "Filter:SAFFB1G96FN0F0A" (extends "B39162B8813P810")
    (property "Value" "SAFFB1G96FN0F0A" (id 1) (at 0 6.35 0))
    (property "Datasheet" "https://www.murata.com/~/media/webrenewal/support/library/catalog/products/filter/rf/p73e.ashx?la=en" (id 3) (at -1.778 0.762 0)
      (effects (font (size 1.27 1.27)) hide)
    )
    (property "ki_keywords" "SAW filter" (id 4) (at 0 0 0)
      (effects (font (size 1.27 1.27)) hide)
    )
    (property "ki_description" "Murata 1960MHz SAW filter, SMD 1109" (id 5) (at 0 0 0)
      (effects (font (size 1.27 1.27)) hide)
    )
  )
  (symbol "Filter:SAFFB2G14FA0F0A" (extends "B39162B8813P810")
    (property "Value" "SAFFB2G14FA0F0A" (id 1) (at 0 6.35 0))
    (property "Datasheet" "https://www.murata.com/~/media/webrenewal/support/library/catalog/products/filter/rf/p73e.ashx?la=en" (id 3) (at -1.778 0.762 0)
      (effects (font (size 1.27 1.27)) hide)
    )
    (property "ki_keywords" "SAW filter" (id 4) (at 0 0 0)
      (effects (font (size 1.27 1.27)) hide)
    )
    (property "ki_description" "Murata 2140MHz SAW filter, SMD 1109" (id 5) (at 0 0 0)
      (effects (font (size 1.27 1.27)) hide)
    )
  )
  (symbol "Filter:SAFFB881MFL0F0A" (extends "B39162B8813P810")
    (property "Value" "SAFFB881MFL0F0A" (id 1) (at 0 6.35 0))
    (property "Datasheet" "https://www.murata.com/~/media/webrenewal/support/library/catalog/products/filter/rf/p73e.ashx?la=en" (id 3) (at -1.778 0.762 0)
      (effects (font (size 1.27 1.27)) hide)
    )
    (property "ki_keywords" "SAW filter" (id 4) (at 0 0 0)
      (effects (font (size 1.27 1.27)) hide)
    )
    (property "ki_description" "Murata 881.5MHz SAW filter, SMD 1109" (id 5) (at 0 0 0)
      (effects (font (size 1.27 1.27)) hide)
    )
  )
  (symbol "Filter:SAFFB942MFM0F0A" (extends "B39162B8813P810")
    (property "Value" "SAFFB942MFM0F0A" (id 1) (at 0 6.35 0))
    (property "Datasheet" "https://www.murata.com/~/media/webrenewal/support/library/catalog/products/filter/rf/p73e.ashx?la=en" (id 3) (at -1.778 0.762 0)
      (effects (font (size 1.27 1.27)) hide)
    )
    (property "ki_keywords" "SAW filter" (id 4) (at 0 0 0)
      (effects (font (size 1.27 1.27)) hide)
    )
    (property "ki_description" "Murata 942.5MHz SAW filter, SMD 1109" (id 5) (at 0 0 0)
      (effects (font (size 1.27 1.27)) hide)
    )
  )
  (symbol "Filter:BNX025" (pin_names (offset 0.508))
    (property "Reference" "FL" (id 0) (at -6.35 5.08 0))
    (property "Value" "BNX025" (id 1) (at 7.62 5.08 0))
    (property "Footprint" "Filter:Filter_Murata_BNX025" (id 2) (at 0 -5.08 0)
      (effects (font (size 1.27 1.27)) hide)
    )
    (property "Datasheet" "https://www.murata.com/en-us/products/productdetail.aspx?cate=luNoiseSupprFilteBlockType&partno=BNX025H01%23" (id 3) (at -0.635 -0.635 90)
      (effects (font (size 1.27 1.27)) hide)
    )
    (property "ki_keywords" "EMI Filter SMD Murata" (id 4) (at 0 0 0)
      (effects (font (size 1.27 1.27)) hide)
    )
    (property "ki_description" "EMI Filter SMD, Murata BNX025" (id 5) (at 0 0 0)
      (effects (font (size 1.27 1.27)) hide)
    )
    (property "ki_fp_filters" "Filter*Murata*BNX025*" (id 6) (at 0 0 0)
      (effects (font (size 1.27 1.27)) hide)
    )
    (symbol "BNX025_0_1"
      (arc (start -1.905 -2.54) (end -2.921 -2.54) (radius (at -2.413 -2.54) (length 0.508) (angles 0.1 179.9)))
      (arc (start -0.889 -2.54) (end -1.905 -2.54) (radius (at -1.397 -2.54) (length 0.508) (angles 0.1 179.9)))
      (arc (start 0.127 -2.54) (end -0.889 -2.54) (radius (at -0.381 -2.54) (length 0.508) (angles 0.1 179.9)))
      (arc (start 2.159 2.54) (end 1.143 2.54) (radius (at 1.651 2.54) (length 0.508) (angles 0.1 179.9)))
      (arc (start 3.175 2.54) (end 2.159 2.54) (radius (at 2.667 2.54) (length 0.508) (angles 0.1 179.9)))
      (circle (center 0.508 2.54) (radius 0.254) (fill (type outline)))
      (rectangle (start -7.62 3.81) (end 7.62 -3.81)(fill (type background)))
      (rectangle (start -0.508 0.508) (end 1.524 0.762)(fill (type outline)))
      (rectangle (start 1.524 1.143) (end -0.508 1.397)(fill (type outline)))
      (polyline
        (pts (xy -4.953 2.54) (xy -5.715 2.54))
      )
      (polyline
        (pts (xy -3.302 -2.54) (xy -2.921 -2.54))
      )
      (polyline
        (pts (xy 0.127 -2.54) (xy 0.508 -2.54))
      )
      (polyline
        (pts (xy 0.381 2.54) (xy -1.905 2.54))
      )
      (polyline
        (pts (xy 0.508 -2.54) (xy 0.508 0.508))
      )
      (polyline
        (pts (xy 0.508 2.54) (xy 0.508 1.27))
      )
      (polyline
        (pts (xy 1.143 2.54) (xy 0.508 2.54))
      )
      (polyline
        (pts (xy 3.175 2.54) (xy 3.937 2.54))
      )
      (polyline
        (pts (xy 3.937 -2.54) (xy 0.508 -2.54))
      )
      (polyline
        (pts (xy 3.937 -2.54) (xy 3.937 0.508))
      )
      (polyline
        (pts (xy 3.937 -2.54) (xy 4.445 -2.54))
      )
      (polyline
        (pts (xy 3.937 2.54) (xy 3.937 1.27))
      )
      (polyline
        (pts (xy 3.937 2.54) (xy 4.445 2.54))
      )
    )
    (symbol "BNX025_1_1"
      (arc (start -3.937 2.54) (end -4.953 2.54) (radius (at -4.445 2.54) (length 0.508) (angles 0.1 179.9)))
      (arc (start -2.921 2.54) (end -3.937 2.54) (radius (at -3.429 2.54) (length 0.508) (angles 0.1 179.9)))
      (arc (start -1.905 2.54) (end -2.921 2.54) (radius (at -2.413 2.54) (length 0.508) (angles 0.1 179.9)))
      (circle (center 0.508 -2.54) (radius 0.254) (fill (type outline)))
      (circle (center 3.937 -2.54) (radius 0.254) (fill (type outline)))
      (circle (center 3.937 2.54) (radius 0.254) (fill (type outline)))
      (rectangle (start 2.921 0.508) (end 4.953 0.762)(fill (type outline)))
      (rectangle (start 4.953 1.143) (end 2.921 1.397)(fill (type outline)))
      (pin passive line (at -10.16 2.54 0) (length 2.54) (name "B") (number "1"))
      (pin passive line (at 10.16 2.54 180) (length 2.54) (name "CB") (number "2"))
      (pin passive line (at -10.16 -2.54 0) (length 2.54) (name "PSG") (number "3"))
      (pin passive line (at 10.16 -2.54 180) (length 2.54) (name "CG") (number "4"))
    )
  )
  (symbol "Filter:FN405-0.5-02" (pin_names (offset 0.508))
    (property "Reference" "FL" (id 0) (at 0 7.62 0))
    (property "Value" "FN405-0.5-02" (id 1) (at 0 5.08 0))
    (property "Footprint" "Filter:Filter_Schaffner_FN405" (id 2) (at 2.54 0 0)
      (effects (font (size 1.27 1.27)) hide)
    )
    (property "Datasheet" "https://www.schaffner.com/de/produkte/download/product/datasheet/fn-405-pcb-mounting-filter/" (id 3) (at 2.54 0 0)
      (effects (font (size 1.27 1.27)) hide)
    )
    (property "ki_keywords" "EMI" (id 4) (at 0 0 0)
      (effects (font (size 1.27 1.27)) hide)
    )
    (property "ki_description" "0.5A, 250VAC, 50/60Hz line filter" (id 5) (at 0 0 0)
      (effects (font (size 1.27 1.27)) hide)
    )
    (property "ki_fp_filters" "Filter*Schaffner*FN405*" (id 6) (at 0 0 0)
      (effects (font (size 1.27 1.27)) hide)
    )
    (symbol "FN405-0.5-02_0_1"
      (arc (start -0.762 -2.54) (end -1.524 -2.54) (radius (at -1.143 -2.54) (length 0.381) (angles 0.1 179.9)))
      (arc (start -0.762 2.54) (end -1.524 2.54) (radius (at -1.143 2.54) (length 0.381) (angles 0.1 179.9)))
      (arc (start 0 -2.54) (end -0.762 -2.54) (radius (at -0.381 -2.54) (length 0.381) (angles 0.1 179.9)))
      (arc (start 0 2.54) (end -0.762 2.54) (radius (at -0.381 2.54) (length 0.381) (angles 0.1 179.9)))
      (arc (start 0.762 -2.54) (end 0 -2.54) (radius (at 0.381 -2.54) (length 0.381) (angles 0.1 179.9)))
      (arc (start 0.762 2.54) (end 0 2.54) (radius (at 0.381 2.54) (length 0.381) (angles 0.1 179.9)))
      (arc (start 1.524 -2.54) (end 0.762 -2.54) (radius (at 1.143 -2.54) (length 0.381) (angles 0.1 179.9)))
      (arc (start 1.524 2.54) (end 0.762 2.54) (radius (at 1.143 2.54) (length 0.381) (angles 0.1 179.9)))
      (circle (center 0 0) (radius 1.8034))
      (rectangle (start -7.62 3.81) (end 7.62 -3.81) (stroke (width 0.254)) (fill (type background)))
      (rectangle (start -4.826 -0.254) (end -2.794 -0.508)(fill (type outline)))
      (rectangle (start -4.826 0.254) (end -2.794 0.508)(fill (type outline)))
      (rectangle (start 2.794 -1.524) (end 4.826 -1.778)(fill (type outline)))
      (rectangle (start 2.794 -1.016) (end 4.826 -0.762)(fill (type outline)))
      (rectangle (start 2.794 1.016) (end 4.826 0.762)(fill (type outline)))
      (rectangle (start 2.794 1.524) (end 4.826 1.778)(fill (type outline)))
      (polyline
        (pts (xy -3.81 -0.508) (xy -3.81 -2.54))
      )
      (polyline
        (pts (xy -3.81 0.508) (xy -3.81 2.54))
      )
      (polyline
        (pts (xy -1.524 -2.54) (xy -5.588 -2.54))
      )
      (polyline
        (pts (xy -1.524 2.54) (xy -5.588 2.54))
      )
      (polyline
        (pts (xy 1.524 -2.54) (xy 5.08 -2.54))
      )
      (polyline
        (pts (xy 3.81 -1.778) (xy 3.81 -2.54))
      )
      (polyline
        (pts (xy 3.81 0) (xy 5.842 0))
      )
      (polyline
        (pts (xy 3.81 0.762) (xy 3.81 -0.762))
      )
      (polyline
        (pts (xy 3.81 1.778) (xy 3.81 2.54))
      )
      (polyline
        (pts (xy 5.08 2.54) (xy 1.524 2.54))
      )
    )
    (symbol "FN405-0.5-02_1_1"
      (pin passive line (at -10.16 -2.54 0) (length 2.54) (name "N") (number "1"))
      (pin passive line (at 10.16 -2.54 180) (length 2.54) (name "N'") (number "2"))
      (pin passive line (at 10.16 0 180) (length 2.54) (name "E") (number "3"))
      (pin passive line (at 10.16 2.54 180) (length 2.54) (name "P'") (number "4"))
      (pin passive line (at -10.16 2.54 0) (length 2.54) (name "P") (number "5"))
    )
  )
  (symbol "Filter:FN405-1-02" (extends "FN405-0.5-02")
    (property "Value" "FN405-1-02" (id 1) (at 0 5.08 0))
    (property "Datasheet" "https://www.schaffner.com/de/produkte/download/product/datasheet/fn-405-pcb-mounting-filter/" (id 3) (at 2.54 0 0)
      (effects (font (size 1.27 1.27)) hide)
    )
    (property "ki_keywords" "EMI" (id 4) (at 0 0 0)
      (effects (font (size 1.27 1.27)) hide)
    )
    (property "ki_description" "1A, 250VAC, 50/60Hz line filter" (id 5) (at 0 0 0)
      (effects (font (size 1.27 1.27)) hide)
    )
  )
  (symbol "Filter:FN405-10-02" (extends "FN405-0.5-02")
    (property "Value" "FN405-10-02" (id 1) (at 0 5.08 0))
    (property "Datasheet" "https://www.schaffner.com/de/produkte/download/product/datasheet/fn-405-pcb-mounting-filter/" (id 3) (at 2.54 0 0)
      (effects (font (size 1.27 1.27)) hide)
    )
    (property "ki_keywords" "EMI" (id 4) (at 0 0 0)
      (effects (font (size 1.27 1.27)) hide)
    )
    (property "ki_description" "10A, 250VAC, 50/60Hz line filter" (id 5) (at 0 0 0)
      (effects (font (size 1.27 1.27)) hide)
    )
  )
  (symbol "Filter:FN405-3-02" (extends "FN405-0.5-02")
    (property "Value" "FN405-3-02" (id 1) (at 0 5.08 0))
    (property "Datasheet" "https://www.schaffner.com/de/produkte/download/product/datasheet/fn-405-pcb-mounting-filter/" (id 3) (at 2.54 0 0)
      (effects (font (size 1.27 1.27)) hide)
    )
    (property "ki_keywords" "EMI" (id 4) (at 0 0 0)
      (effects (font (size 1.27 1.27)) hide)
    )
    (property "ki_description" "3A, 250VAC, 50/60Hz line filter" (id 5) (at 0 0 0)
      (effects (font (size 1.27 1.27)) hide)
    )
  )
  (symbol "Filter:FN405-6-02" (extends "FN405-0.5-02")
    (property "Value" "FN405-6-02" (id 1) (at 0 5.08 0))
    (property "Datasheet" "https://www.schaffner.com/de/produkte/download/product/datasheet/fn-405-pcb-mounting-filter/" (id 3) (at 2.54 0 0)
      (effects (font (size 1.27 1.27)) hide)
    )
    (property "ki_keywords" "EMI" (id 4) (at 0 0 0)
      (effects (font (size 1.27 1.27)) hide)
    )
    (property "ki_description" "6A, 250VAC, 50/60Hz line filter" (id 5) (at 0 0 0)
      (effects (font (size 1.27 1.27)) hide)
    )
  )
  (symbol "Filter:FN406-0.5-02" (pin_names (offset 0.508))
    (property "Reference" "FL" (id 0) (at 0 7.62 0))
    (property "Value" "FN406-0.5-02" (id 1) (at 0 5.08 0))
    (property "Footprint" "Filter:Filter_Schaffner_FN406" (id 2) (at 0 0 0)
      (effects (font (size 1.27 1.27)) hide)
    )
    (property "Datasheet" "https://www.schaffner.com/products/download/product/datasheet/fn-406-ultra-compact-emc-filter/" (id 3) (at 0 0 0)
      (effects (font (size 1.27 1.27)) hide)
    )
    (property "ki_keywords" "EMI mains" (id 4) (at 0 0 0)
      (effects (font (size 1.27 1.27)) hide)
    )
    (property "ki_description" "0.5A ultra compact EMI Filter" (id 5) (at 0 0 0)
      (effects (font (size 1.27 1.27)) hide)
    )
    (property "ki_fp_filters" "Filter*Schaffner*FN406*" (id 6) (at 0 0 0)
      (effects (font (size 1.27 1.27)) hide)
    )
    (symbol "FN406-0.5-02_0_1"
      (rectangle (start -5.08 3.81) (end 5.08 -3.81) (stroke (width 0.254)) (fill (type background)))
    )
    (symbol "FN406-0.5-02_1_1"
      (pin passive line (at -7.62 2.54 0) (length 2.54) (name "P") (number "1"))
      (pin passive line (at -7.62 -2.54 0) (length 2.54) (name "N") (number "2"))
      (pin passive line (at -7.62 0 0) (length 2.54) (name "PE") (number "3"))
      (pin passive line (at 7.62 -2.54 180) (length 2.54) (name "N'") (number "4"))
      (pin passive line (at 7.62 2.54 180) (length 2.54) (name "P'") (number "5"))
    )
  )
  (symbol "Filter:FN406-1-02" (extends "FN406-0.5-02")
    (property "Value" "FN406-1-02" (id 1) (at 0 5.08 0))
    (property "Datasheet" "https://www.schaffner.com/products/download/product/datasheet/fn-406-ultra-compact-emc-filter/" (id 3) (at 0 0 0)
      (effects (font (size 1.27 1.27)) hide)
    )
    (property "ki_keywords" "EMI mains" (id 4) (at 0 0 0)
      (effects (font (size 1.27 1.27)) hide)
    )
    (property "ki_description" "1A ultra compact EMI Filter" (id 5) (at 0 0 0)
      (effects (font (size 1.27 1.27)) hide)
    )
  )
  (symbol "Filter:FN406-3-02" (extends "FN406-0.5-02")
    (property "Value" "FN406-3-02" (id 1) (at 0 5.08 0))
    (property "Datasheet" "https://www.schaffner.com/products/download/product/datasheet/fn-406-ultra-compact-emc-filter/" (id 3) (at 0 0 0)
      (effects (font (size 1.27 1.27)) hide)
    )
    (property "ki_keywords" "EMI mains" (id 4) (at 0 0 0)
      (effects (font (size 1.27 1.27)) hide)
    )
    (property "ki_description" "3A ultra compact EMI Filter" (id 5) (at 0 0 0)
      (effects (font (size 1.27 1.27)) hide)
    )
  )
  (symbol "Filter:FN406-6-02" (extends "FN406-0.5-02")
    (property "Value" "FN406-6-02" (id 1) (at 0 5.08 0))
    (property "Datasheet" "https://www.schaffner.com/products/download/product/datasheet/fn-406-ultra-compact-emc-filter/" (id 3) (at 0 0 0)
      (effects (font (size 1.27 1.27)) hide)
    )
    (property "ki_keywords" "EMI mains" (id 4) (at 0 0 0)
      (effects (font (size 1.27 1.27)) hide)
    )
    (property "ki_description" "6A ultra compact EMI Filter" (id 5) (at 0 0 0)
      (effects (font (size 1.27 1.27)) hide)
    )
  )
  (symbol "Filter:FN406-8.4-02" (extends "FN406-0.5-02")
    (property "Value" "FN406-8.4-02" (id 1) (at 0 5.08 0))
    (property "Datasheet" "https://www.schaffner.com/products/download/product/datasheet/fn-406-ultra-compact-emc-filter/" (id 3) (at 0 0 0)
      (effects (font (size 1.27 1.27)) hide)
    )
    (property "ki_keywords" "EMI mains" (id 4) (at 0 0 0)
      (effects (font (size 1.27 1.27)) hide)
    )
    (property "ki_description" "8.4A ultra compact EMI Filter" (id 5) (at 0 0 0)
      (effects (font (size 1.27 1.27)) hide)
    )
  )
  (symbol "Filter:FN406B-0.5-02" (extends "FN406-0.5-02")
    (property "Value" "FN406B-0.5-02" (id 1) (at 0 5.08 0))
    (property "Datasheet" "https://www.schaffner.com/products/download/product/datasheet/fn-406-ultra-compact-emc-filter/" (id 3) (at 0 0 0)
      (effects (font (size 1.27 1.27)) hide)
    )
    (property "ki_keywords" "EMI mains" (id 4) (at 0 0 0)
      (effects (font (size 1.27 1.27)) hide)
    )
    (property "ki_description" "0.5A ultra compact EMI Filter, medical version" (id 5) (at 0 0 0)
      (effects (font (size 1.27 1.27)) hide)
    )
  )
  (symbol "Filter:FN406B-1-02" (extends "FN406-0.5-02")
    (property "Value" "FN406B-1-02" (id 1) (at 0 5.08 0))
    (property "Datasheet" "https://www.schaffner.com/products/download/product/datasheet/fn-406-ultra-compact-emc-filter/" (id 3) (at 0 0 0)
      (effects (font (size 1.27 1.27)) hide)
    )
    (property "ki_keywords" "EMI mains" (id 4) (at 0 0 0)
      (effects (font (size 1.27 1.27)) hide)
    )
    (property "ki_description" "1A ultra compact EMI Filter, medical version" (id 5) (at 0 0 0)
      (effects (font (size 1.27 1.27)) hide)
    )
  )
  (symbol "Filter:FN406B-3-02" (extends "FN406-0.5-02")
    (property "Value" "FN406B-3-02" (id 1) (at 0 5.08 0))
    (property "Datasheet" "https://www.schaffner.com/products/download/product/datasheet/fn-406-ultra-compact-emc-filter/" (id 3) (at 0 0 0)
      (effects (font (size 1.27 1.27)) hide)
    )
    (property "ki_keywords" "EMI mains" (id 4) (at 0 0 0)
      (effects (font (size 1.27 1.27)) hide)
    )
    (property "ki_description" "3A ultra compact EMI Filter, medical version" (id 5) (at 0 0 0)
      (effects (font (size 1.27 1.27)) hide)
    )
  )
  (symbol "Filter:FN406B-6-02" (extends "FN406-0.5-02")
    (property "Value" "FN406B-6-02" (id 1) (at 0 5.08 0))
    (property "Datasheet" "https://www.schaffner.com/products/download/product/datasheet/fn-406-ultra-compact-emc-filter/" (id 3) (at 0 0 0)
      (effects (font (size 1.27 1.27)) hide)
    )
    (property "ki_keywords" "EMI mains" (id 4) (at 0 0 0)
      (effects (font (size 1.27 1.27)) hide)
    )
    (property "ki_description" "6A ultra compact EMI Filter, medical version" (id 5) (at 0 0 0)
      (effects (font (size 1.27 1.27)) hide)
    )
  )
  (symbol "Filter:FN406B-8.4-02" (extends "FN406-0.5-02")
    (property "Value" "FN406B-8.4-02" (id 1) (at 0 5.08 0))
    (property "Datasheet" "https://www.schaffner.com/products/download/product/datasheet/fn-406-ultra-compact-emc-filter/" (id 3) (at 0 0 0)
      (effects (font (size 1.27 1.27)) hide)
    )
    (property "ki_keywords" "EMI mains" (id 4) (at 0 0 0)
      (effects (font (size 1.27 1.27)) hide)
    )
    (property "ki_description" "8.4A ultra compact EMI Filter, medical version" (id 5) (at 0 0 0)
      (effects (font (size 1.27 1.27)) hide)
    )
  )
  (symbol "Filter:LTC1562xxG" (pin_names (offset 0.508))
    (property "Reference" "U" (id 0) (at -7.62 17.78 0))
    (property "Value" "LTC1562xxG" (id 1) (at 7.62 17.78 0))
    (property "Footprint" "Package_SO:SSOP-20_5.3x7.2mm_P0.65mm" (id 2) (at 0 -27.94 0)
      (effects (font (size 1.27 1.27)) hide)
    )
    (property "Datasheet" "https://www.analog.com/media/en/technical-documentation/data-sheets/1562fa.pdf" (id 3) (at 5.08 -20.32 0)
      (effects (font (size 1.27 1.27)) hide)
    )
    (property "ki_keywords" "filter opamp quad" (id 4) (at 0 0 0)
      (effects (font (size 1.27 1.27)) hide)
    )
    (property "ki_description" "Active RC Quad Universal Filter, 10kHz to 150kHz, Low Noise, Low Distortion, SSOP-20" (id 5) (at 0 0 0)
      (effects (font (size 1.27 1.27)) hide)
    )
    (property "ki_fp_filters" "SSOP*5.3x7.2mm*P0.65mm*" (id 6) (at 0 0 0)
      (effects (font (size 1.27 1.27)) hide)
    )
    (symbol "LTC1562xxG_0_1"
      (rectangle (start -7.62 15.24) (end 7.62 -15.24) (stroke (width 0.254)) (fill (type background)))
    )
    (symbol "LTC1562xxG_1_1"
      (pin input line (at -10.16 7.62 0) (length 2.54) (name "INV_B") (number "1"))
      (pin input line (at -10.16 -7.62 0) (length 2.54) (name "INV_A") (number "10"))
      (pin input line (at 10.16 -7.62 180) (length 2.54) (name "INV_D") (number "11"))
      (pin output line (at 10.16 -5.08 180) (length 2.54) (name "V1_D") (number "12"))
      (pin output line (at 10.16 -2.54 180) (length 2.54) (name "V2_D") (number "13"))
      (pin passive line (at 0 -17.78 90) (length 2.54) (name "V-") (number "14") hide)
      (pin power_in line (at 2.54 -17.78 90) (length 2.54) (name "AGND") (number "15"))
      (pin power_in line (at 0 -17.78 90) (length 2.54) (name "V-") (number "16"))
      (pin passive line (at 0 -17.78 90) (length 2.54) (name "V-") (number "17") hide)
      (pin output line (at 10.16 2.54 180) (length 2.54) (name "V2_C") (number "18"))
      (pin output line (at 10.16 5.08 180) (length 2.54) (name "V1_C") (number "19"))
      (pin output line (at -10.16 5.08 0) (length 2.54) (name "V1_B") (number "2"))
      (pin input line (at 10.16 7.62 180) (length 2.54) (name "INV_C") (number "20"))
      (pin output line (at -10.16 2.54 0) (length 2.54) (name "V2_B") (number "3"))
      (pin passive line (at 0 -17.78 90) (length 2.54) (name "V-") (number "4") hide)
      (pin power_in line (at 0 17.78 270) (length 2.54) (name "V+") (number "5"))
      (pin input line (at -10.16 -12.7 0) (length 2.54) (name "SHDN") (number "6"))
      (pin passive line (at 0 -17.78 90) (length 2.54) (name "V-") (number "7") hide)
      (pin output line (at -10.16 -2.54 0) (length 2.54) (name "V2_A") (number "8"))
      (pin output line (at -10.16 -5.08 0) (length 2.54) (name "V1_A") (number "9"))
    )
  )
  (symbol "Filter:LTC1562xG-2" (extends "LTC1562xxG")
    (property "Value" "LTC1562xG-2" (id 1) (at 7.62 17.78 0))
    (property "Datasheet" "https://www.analog.com/media/en/technical-documentation/data-sheets/15622fa.pdf" (id 3) (at 5.08 -20.32 0)
      (effects (font (size 1.27 1.27)) hide)
    )
    (property "ki_keywords" "filter opamp quad" (id 4) (at 0 0 0)
      (effects (font (size 1.27 1.27)) hide)
    )
    (property "ki_description" "Active RC Quad Universal Filter, 20kHz to 300kHz, Low Noise, Low Distortion, SSOP-20" (id 5) (at 0 0 0)
      (effects (font (size 1.27 1.27)) hide)
    )
  )
  (symbol "Filter:SF14-1575F5UUA1"
    (property "Reference" "FL" (id 0) (at 2.54 -6.35 0))
    (property "Value" "SF14-1575F5UUA1" (id 1) (at 0 6.35 0))
    (property "Footprint" "Filter:Filter_1411-5_1.4x1.1mm" (id 2) (at 0 0 0)
      (effects (font (size 1.27 1.27)) hide)
    )
    (property "Datasheet" "https://global.kyocera.com/prdct/electro/product/pdf/sf14_gnss.pdf" (id 3) (at 0 0 0)
      (effects (font (size 1.27 1.27)) hide)
    )
    (property "ki_keywords" "SAW filter" (id 4) (at 0 0 0)
      (effects (font (size 1.27 1.27)) hide)
    )
    (property "ki_description" "1575MHz SAW filter, SMD 1411" (id 5) (at 0 0 0)
      (effects (font (size 1.27 1.27)) hide)
    )
    (property "ki_fp_filters" "Filter*1411*1.4x1.1mm*" (id 6) (at 0 0 0)
      (effects (font (size 1.27 1.27)) hide)
    )
    (symbol "SF14-1575F5UUA1_0_1"
      (arc (start -0.762 1.524) (end 0 2.794) (radius (at -1.4224 2.794) (length 1.4224) (angles -62.5 0)))
      (arc (start 0 2.794) (end 0.762 1.524) (radius (at 1.4224 2.794) (length 1.4224) (angles 180 -117.5)))
      (rectangle (start -5.08 5.08) (end 5.08 -5.08) (stroke (width 0.254)) (fill (type background)))
      (polyline
        (pts (xy -1.524 -0.762) (xy -1.27 -0.762))
      )
      (polyline
        (pts (xy 1.524 -1.27) (xy -1.524 -1.27))
      )
      (polyline
        (pts (xy 1.524 -0.762) (xy -1.27 -0.762))
      )
      (polyline
        (pts (xy -1.524 -1.27) (xy -2.032 -1.27) (xy -2.032 0) (xy 2.286 0))
      )
      (polyline
        (pts (xy 1.524 -0.762) (xy 2.032 -0.762) (xy 2.032 -2.032) (xy -2.286 -2.032))
      )
    )
    (symbol "SF14-1575F5UUA1_1_1"
      (pin passive line (at -7.62 2.54 0) (length 2.54) (name "~") (number "1"))
      (pin passive line (at -7.62 -2.54 0) (length 2.54) (name "~") (number "2"))
      (pin passive line (at 7.62 -2.54 180) (length 2.54) (name "~") (number "3"))
      (pin passive line (at 7.62 2.54 180) (length 2.54) (name "~") (number "4"))
      (pin passive line (at -7.62 -2.54 0) (length 2.54) (name "~") (number "5") hide)
    )
  )
  (symbol "Filter:SAFFA1G58KA0F0A" (extends "SF14-1575F5UUA1")
    (property "Value" "SAFFA1G58KA0F0A" (id 1) (at 0 6.35 0))
    (property "Datasheet" "https://www.murata.com/~/media/webrenewal/support/library/catalog/products/filter/rf/p73e.ashx?la=en" (id 3) (at 0 0 0)
      (effects (font (size 1.27 1.27)) hide)
    )
    (property "ki_keywords" "SAW filter" (id 4) (at 0 0 0)
      (effects (font (size 1.27 1.27)) hide)
    )
    (property "ki_description" "Murata 1575.42/1602MHz SAW filter, SMD 1411" (id 5) (at 0 0 0)
      (effects (font (size 1.27 1.27)) hide)
    )
  )
  (symbol "Filter:SAFFA1G96FN0F0A" (extends "SF14-1575F5UUA1")
    (property "Value" "SAFFA1G96FN0F0A" (id 1) (at 0 6.35 0))
    (property "Datasheet" "https://www.murata.com/~/media/webrenewal/support/library/catalog/products/filter/rf/p73e.ashx?la=en" (id 3) (at 0 0 0)
      (effects (font (size 1.27 1.27)) hide)
    )
    (property "ki_keywords" "SAW filter" (id 4) (at 0 0 0)
      (effects (font (size 1.27 1.27)) hide)
    )
    (property "ki_description" "Murata 1960MHz SAW filter, SMD 1411" (id 5) (at 0 0 0)
      (effects (font (size 1.27 1.27)) hide)
    )
  )
  (symbol "Filter:SAFFA2G14FA0F0A" (extends "SF14-1575F5UUA1")
    (property "Value" "SAFFA2G14FA0F0A" (id 1) (at 0 6.35 0))
    (property "Datasheet" "https://www.murata.com/~/media/webrenewal/support/library/catalog/products/filter/rf/p73e.ashx?la=en" (id 3) (at 0 0 0)
      (effects (font (size 1.27 1.27)) hide)
    )
    (property "ki_keywords" "SAW filter" (id 4) (at 0 0 0)
      (effects (font (size 1.27 1.27)) hide)
    )
    (property "ki_description" "Murata 2140MHz SAW filter, SMD 1411" (id 5) (at 0 0 0)
      (effects (font (size 1.27 1.27)) hide)
    )
  )
  (symbol "Filter:SAFFA881MFL0F0A" (extends "SF14-1575F5UUA1")
    (property "Value" "SAFFA881MFL0F0A" (id 1) (at 0 6.35 0))
    (property "Datasheet" "https://www.murata.com/~/media/webrenewal/support/library/catalog/products/filter/rf/p73e.ashx?la=en" (id 3) (at 0 0 0)
      (effects (font (size 1.27 1.27)) hide)
    )
    (property "ki_keywords" "SAW filter" (id 4) (at 0 0 0)
      (effects (font (size 1.27 1.27)) hide)
    )
    (property "ki_description" "Murata 881.5MHz SAW filter, SMD 1411" (id 5) (at 0 0 0)
      (effects (font (size 1.27 1.27)) hide)
    )
  )
  (symbol "Filter:SAFFA942MFM0F0A" (extends "SF14-1575F5UUA1")
    (property "Value" "SAFFA942MFM0F0A" (id 1) (at 0 6.35 0))
    (property "Datasheet" "https://www.murata.com/~/media/webrenewal/support/library/catalog/products/filter/rf/p73e.ashx?la=en" (id 3) (at 0 0 0)
      (effects (font (size 1.27 1.27)) hide)
    )
    (property "ki_keywords" "SAW filter" (id 4) (at 0 0 0)
      (effects (font (size 1.27 1.27)) hide)
    )
    (property "ki_description" "Murata 942.5MHz SAW filter, SMD 1411" (id 5) (at 0 0 0)
      (effects (font (size 1.27 1.27)) hide)
    )
  )
  (symbol "Filter:SF14-1575F5UUC1" (extends "SF14-1575F5UUA1")
    (property "Value" "SF14-1575F5UUC1" (id 1) (at 0 6.35 0))
    (property "Datasheet" "https://global.kyocera.com/prdct/electro/product/pdf/sf14_gnss.pdf" (id 3) (at 0 0 0)
      (effects (font (size 1.27 1.27)) hide)
    )
    (property "ki_keywords" "SAW filter" (id 4) (at 0 0 0)
      (effects (font (size 1.27 1.27)) hide)
    )
    (property "ki_description" "1575MHz SAW filter, SMD 1411" (id 5) (at 0 0 0)
      (effects (font (size 1.27 1.27)) hide)
    )
  )
)
