(kicad_symbol_lib (version 20200126) (host kicad_symbol_editor "(5.99.0-1517-ga8407fba4)")
  (symbol "Interface_HDMI:ADV7611" (pin_names (offset 0.508))
    (property "Reference" "U" (id 0) (at -30.48 49.53 0)
      (effects (font (size 1.27 1.27)) (justify left))
    )
    (property "Value" "ADV7611" (id 1) (at 30.48 49.53 0)
      (effects (font (size 1.27 1.27)) (justify right))
    )
    (property "Footprint" "Package_QFP:LQFP-64-1EP_10x10mm_P0.5mm_EP5x5mm" (id 2) (at 1.27 0 0)
      (effects (font (size 1.27 1.27)) hide)
    )
    (property "Datasheet" "https://www.analog.com/media/en/technical-documentation/data-sheets/adv7611.pdf" (id 3) (at 31.75 -10.16 0)
      (effects (font (size 1.27 1.27)) hide)
    )
    (property "ki_keywords" "hdmi" (id 4) (at 0 0 0)
      (effects (font (size 1.27 1.27)) hide)
    )
    (property "ki_description" "Low Power 165MHz HDMI Receiver, LQFP-64" (id 5) (at 0 0 0)
      (effects (font (size 1.27 1.27)) hide)
    )
    (property "ki_fp_filters" "LQFP*1EP*10x10mm*P0.5mm*" (id 6) (at 0 0 0)
      (effects (font (size 1.27 1.27)) hide)
    )
    (symbol "ADV7611_0_1"
      (rectangle (start -30.48 48.26) (end 30.48 -48.26) (stroke (width 0.254)) (fill (type background)))
    )
    (symbol "ADV7611_1_1"
      (pin bidirectional line (at -33.02 15.24 0) (length 2.54) (name "HPA_A/INT2") (number "1"))
      (pin input line (at -33.02 38.1 0) (length 2.54) (name "RXA_1+") (number "10"))
      (pin power_in line (at 10.16 50.8 270) (length 2.54) (name "TVDD") (number "11"))
      (pin input line (at -33.02 40.64 0) (length 2.54) (name "RXA_2−") (number "12"))
      (pin input line (at -33.02 43.18 0) (length 2.54) (name "RXA_2+") (number "13"))
      (pin power_in line (at -17.78 50.8 270) (length 2.54) (name "CVDD") (number "14"))
      (pin output line (at 33.02 43.18 180) (length 2.54) (name "P23") (number "15"))
      (pin output line (at 33.02 40.64 180) (length 2.54) (name "P22") (number "16"))
      (pin output line (at 33.02 38.1 180) (length 2.54) (name "P21") (number "17"))
      (pin output line (at 33.02 35.56 180) (length 2.54) (name "P20") (number "18"))
      (pin output line (at 33.02 33.02 180) (length 2.54) (name "P19") (number "19"))
      (pin power_in line (at -20.32 50.8 270) (length 2.54) (name "CVDD") (number "2"))
      (pin output line (at 33.02 30.48 180) (length 2.54) (name "P18") (number "20"))
      (pin output line (at 33.02 27.94 180) (length 2.54) (name "P17") (number "21"))
      (pin output line (at 33.02 25.4 180) (length 2.54) (name "P16") (number "22"))
      (pin power_in line (at 15.24 50.8 270) (length 2.54) (name "DVDDIO") (number "23"))
      (pin power_in line (at -12.7 50.8 270) (length 2.54) (name "DVDD") (number "24"))
      (pin output line (at 33.02 -27.94 180) (length 2.54) (name "LLC") (number "25"))
      (pin output line (at 33.02 22.86 180) (length 2.54) (name "P15") (number "26"))
      (pin output line (at 33.02 20.32 180) (length 2.54) (name "P14") (number "27"))
      (pin output line (at 33.02 17.78 180) (length 2.54) (name "P13") (number "28"))
      (pin output line (at 33.02 15.24 180) (length 2.54) (name "P12") (number "29"))
      (pin input line (at -33.02 25.4 0) (length 2.54) (name "RXA_C−") (number "3"))
      (pin output line (at 33.02 12.7 180) (length 2.54) (name "P11") (number "30"))
      (pin output line (at 33.02 10.16 180) (length 2.54) (name "P10") (number "31"))
      (pin output line (at 33.02 7.62 180) (length 2.54) (name "P9") (number "32"))
      (pin output line (at 33.02 5.08 180) (length 2.54) (name "P8") (number "33"))
      (pin power_in line (at 17.78 50.8 270) (length 2.54) (name "DVDDIO") (number "34"))
      (pin output line (at 33.02 2.54 180) (length 2.54) (name "P7") (number "35"))
      (pin output line (at 33.02 0 180) (length 2.54) (name "P6") (number "36"))
      (pin output line (at 33.02 -2.54 180) (length 2.54) (name "P5") (number "37"))
      (pin output line (at 33.02 -5.08 180) (length 2.54) (name "P4") (number "38"))
      (pin output line (at 33.02 -7.62 180) (length 2.54) (name "P3") (number "39"))
      (pin input line (at -33.02 27.94 0) (length 2.54) (name "RXA_C+") (number "4"))
      (pin power_in line (at -10.16 50.8 270) (length 2.54) (name "DVDD") (number "40"))
      (pin output line (at 33.02 -10.16 180) (length 2.54) (name "P2") (number "41"))
      (pin output line (at 33.02 -12.7 180) (length 2.54) (name "P1") (number "42"))
      (pin output line (at 33.02 -15.24 180) (length 2.54) (name "P0") (number "43"))
      (pin power_in line (at 20.32 50.8 270) (length 2.54) (name "DVDDIO") (number "44"))
      (pin output line (at 33.02 -20.32 180) (length 2.54) (name "DE") (number "45"))
      (pin output line (at 33.02 -22.86 180) (length 2.54) (name "HS") (number "46"))
      (pin bidirectional line (at 33.02 -25.4 180) (length 2.54) (name "VS/FIELD/ALSB") (number "47"))
      (pin output line (at 33.02 -33.02 180) (length 2.54) (name "AP") (number "48"))
      (pin output line (at 33.02 -35.56 180) (length 2.54) (name "SCLK/INT2") (number "49"))
      (pin power_in line (at 5.08 50.8 270) (length 2.54) (name "TVDD") (number "5"))
      (pin output line (at 33.02 -38.1 180) (length 2.54) (name "LRCLK") (number "50"))
      (pin output line (at 33.02 -40.64 180) (length 2.54) (name "MCLK/INT2") (number "51"))
      (pin power_in line (at -7.62 50.8 270) (length 2.54) (name "DVDD") (number "52"))
      (pin input line (at -33.02 7.62 0) (length 2.54) (name "SCL") (number "53"))
      (pin bidirectional line (at -33.02 5.08 0) (length 2.54) (name "SDA") (number "54"))
      (pin output line (at 33.02 -43.18 180) (length 2.54) (name "INT1") (number "55"))
      (pin input line (at -33.02 0 0) (length 2.54) (name "~RESET") (number "56"))
      (pin power_in line (at 0 50.8 270) (length 2.54) (name "PVDD") (number "57"))
      (pin input line (at -33.02 -5.08 0) (length 2.54) (name "XTALP") (number "58"))
      (pin input line (at -33.02 -7.62 0) (length 2.54) (name "XTALN") (number "59"))
      (pin input line (at -33.02 30.48 0) (length 2.54) (name "RXA_0−") (number "6"))
      (pin power_in line (at -5.08 50.8 270) (length 2.54) (name "DVDD") (number "60"))
      (pin bidirectional line (at -33.02 22.86 0) (length 2.54) (name "CEC") (number "61"))
      (pin input line (at -33.02 20.32 0) (length 2.54) (name "DDCA_SCL") (number "62"))
      (pin bidirectional line (at -33.02 17.78 0) (length 2.54) (name "DDCA_SDA") (number "63"))
      (pin input line (at -33.02 12.7 0) (length 2.54) (name "RXA_5V") (number "64"))
      (pin power_in line (at 0 -50.8 90) (length 2.54) (name "GND") (number "65"))
      (pin input line (at -33.02 33.02 0) (length 2.54) (name "RXA_0+") (number "7"))
      (pin power_in line (at 7.62 50.8 270) (length 2.54) (name "TVDD") (number "8"))
      (pin input line (at -33.02 35.56 0) (length 2.54) (name "RXA_1−") (number "9"))
    )
  )
  (symbol "Interface_HDMI:TPD12S520DBT" (pin_names (offset 0.508))
    (property "Reference" "U" (id 0) (at -17.78 26.67 0)
      (effects (font (size 1.27 1.27)) (justify left))
    )
    (property "Value" "TPD12S520DBT" (id 1) (at 17.78 26.67 0)
      (effects (font (size 1.27 1.27)) (justify right))
    )
    (property "Footprint" "Package_SO:TSSOP-38_4.4x9.7mm_P0.5mm" (id 2) (at -3.81 -6.35 0)
      (effects (font (size 1.27 1.27)) hide)
    )
    (property "Datasheet" "http://www.ti.com/lit/ds/symlink/tpd12s520.pdf" (id 3) (at -3.81 -6.35 0)
      (effects (font (size 1.27 1.27)) hide)
    )
    (property "ki_keywords" "hdmi" (id 4) (at 0 0 0)
      (effects (font (size 1.27 1.27)) hide)
    )
    (property "ki_description" "HDMI Receiver Port Protection and Interface Device, TSSOP-38" (id 5) (at 0 0 0)
      (effects (font (size 1.27 1.27)) hide)
    )
    (property "ki_fp_filters" "TSSOP*4.4x9.7mm*P0.5mm*" (id 6) (at 0 0 0)
      (effects (font (size 1.27 1.27)) hide)
    )
    (symbol "TPD12S520DBT_0_1"
      (rectangle (start -17.78 25.4) (end 17.78 -25.4) (stroke (width 0.254)) (fill (type background)))
    )
    (symbol "TPD12S520DBT_1_1"
      (pin power_in line (at -2.54 27.94 270) (length 2.54) (name "5V_SUPPLY") (number "1"))
      (pin passive line (at -20.32 12.7 0) (length 2.54) (name "TMDS_D0+") (number "10"))
      (pin passive line (at 2.54 -27.94 90) (length 2.54) (name "TMDS_GND") (number "11") hide)
      (pin passive line (at -20.32 10.16 0) (length 2.54) (name "TMDS_D0-") (number "12"))
      (pin passive line (at -20.32 7.62 0) (length 2.54) (name "TMDS_CK+") (number "13"))
      (pin passive line (at 2.54 -27.94 90) (length 2.54) (name "TMDS_GND") (number "14") hide)
      (pin passive line (at -20.32 5.08 0) (length 2.54) (name "TMDS_CK-") (number "15"))
      (pin bidirectional line (at -20.32 0 0) (length 2.54) (name "CE_REMOTE_IN") (number "16"))
      (pin bidirectional line (at -20.32 -5.08 0) (length 2.54) (name "DDC_CLK_IN") (number "17"))
      (pin bidirectional line (at -20.32 -7.62 0) (length 2.54) (name "DDC_DAT_IN") (number "18"))
      (pin bidirectional line (at -20.32 -12.7 0) (length 2.54) (name "HOTPLUG_DET_IN") (number "19"))
      (pin power_in line (at 2.54 27.94 270) (length 2.54) (name "LV_SUPPLY") (number "2"))
      (pin bidirectional line (at 20.32 -12.7 180) (length 2.54) (name "HOTPLUG_DET_OUT") (number "20"))
      (pin bidirectional line (at 20.32 -7.62 180) (length 2.54) (name "DDC_DAT_OUT") (number "21"))
      (pin bidirectional line (at 20.32 -5.08 180) (length 2.54) (name "DDC_CLK_OUT") (number "22"))
      (pin bidirectional line (at 20.32 0 180) (length 2.54) (name "CE_REMOTE_OUT") (number "23"))
      (pin passive line (at -20.32 5.08 0) (length 2.54) (name "TMDS_CK-") (number "24") hide)
      (pin passive line (at 2.54 -27.94 90) (length 2.54) (name "TMDS_GND") (number "25") hide)
      (pin passive line (at -20.32 7.62 0) (length 2.54) (name "TMDS_CK+") (number "26") hide)
      (pin passive line (at -20.32 10.16 0) (length 2.54) (name "TMDS_D0-") (number "27") hide)
      (pin passive line (at 2.54 -27.94 90) (length 2.54) (name "TMDS_GND") (number "28") hide)
      (pin passive line (at -20.32 12.7 0) (length 2.54) (name "TMDS_D0+") (number "29") hide)
      (pin power_in line (at -2.54 -27.94 90) (length 2.54) (name "GND") (number "3"))
      (pin passive line (at -20.32 15.24 0) (length 2.54) (name "TMDS_D1-") (number "30") hide)
      (pin passive line (at 2.54 -27.94 90) (length 2.54) (name "TMDS_GND") (number "31") hide)
      (pin passive line (at -20.32 17.78 0) (length 2.54) (name "TMDS_D1+") (number "32") hide)
      (pin passive line (at -20.32 20.32 0) (length 2.54) (name "TMDS_D2-") (number "33") hide)
      (pin passive line (at 2.54 -27.94 90) (length 2.54) (name "TMDS_GND") (number "34") hide)
      (pin passive line (at -20.32 22.86 0) (length 2.54) (name "TMDS_D2+") (number "35") hide)
      (pin passive line (at -2.54 -27.94 90) (length 2.54) (name "GND") (number "36") hide)
      (pin passive line (at 20.32 22.86 180) (length 2.54) (name "ESD_BYP") (number "37"))
      (pin unconnected line (at 17.78 20.32 180) (length 2.54) (name "NC") (number "38") hide)
      (pin passive line (at -20.32 22.86 0) (length 2.54) (name "TMDS_D2+") (number "4"))
      (pin passive line (at 2.54 -27.94 90) (length 2.54) (name "TMDS_GND") (number "5"))
      (pin passive line (at -20.32 20.32 0) (length 2.54) (name "TMDS_D2-") (number "6"))
      (pin passive line (at -20.32 17.78 0) (length 2.54) (name "TMDS_D1+") (number "7"))
      (pin passive line (at 2.54 -27.94 90) (length 2.54) (name "TMDS_GND") (number "8") hide)
      (pin passive line (at -20.32 15.24 0) (length 2.54) (name "TMDS_D1-") (number "9"))
    )
  )
)
