(kicad_symbol_lib (version 20200126) (host kicad_symbol_editor "(5.99.0-1517-ga8407fba4)")
  (symbol "Logic_Programmable:GAL16V8"
    (property "Reference" "U" (id 0) (at -8.89 16.51 0)
      (effects (font (size 1.27 1.27)) (justify left))
    )
    (property "Value" "GAL16V8" (id 1) (at 1.27 16.51 0)
      (effects (font (size 1.27 1.27)) (justify left))
    )
    (property "Footprint" "" (id 2) (at 0 0 0)
      (effects (font (size 1.27 1.27)) hide)
    )
    (property "Datasheet" "" (id 3) (at 0 0 0)
      (effects (font (size 1.27 1.27)) hide)
    )
    (property "ki_keywords" "GAL PLD 16V8" (id 4) (at 0 0 0)
      (effects (font (size 1.27 1.27)) hide)
    )
    (property "ki_description" "Programmable Logic Array, DIP-20/SOIC-20/PLCC-20" (id 5) (at 0 0 0)
      (effects (font (size 1.27 1.27)) hide)
    )
    (property "ki_fp_filters" "DIP*\nPDIP*\nSOIC*\nSO*\nPLCC*" (id 6) (at 0 0 0)
      (effects (font (size 1.27 1.27)) hide)
    )
    (symbol "GAL16V8_0_1"
      (rectangle (start -8.89 13.97) (end 8.89 -13.97) (stroke (width 0.254)) (fill (type background)))
    )
    (symbol "GAL16V8_0_0"
      (pin power_in line (at 0 -17.78 90) (length 3.81) (name "GND") (number "10"))
      (pin power_in line (at 0 17.78 270) (length 3.81) (name "VCC") (number "20"))
    )
    (symbol "GAL16V8_1_1"
      (pin input line (at -12.7 12.7 0) (length 3.81) (name "I1/CLK") (number "1"))
      (pin input line (at -12.7 10.16 0) (length 3.81) (name "I2") (number "2"))
      (pin input line (at -12.7 7.62 0) (length 3.81) (name "I3") (number "3"))
      (pin input line (at -12.7 5.08 0) (length 3.81) (name "I4") (number "4"))
      (pin input line (at -12.7 2.54 0) (length 3.81) (name "I5") (number "5"))
      (pin input line (at -12.7 0 0) (length 3.81) (name "I6") (number "6"))
      (pin input line (at -12.7 -2.54 0) (length 3.81) (name "I7") (number "7"))
      (pin input line (at -12.7 -5.08 0) (length 3.81) (name "I8") (number "8"))
      (pin input line (at -12.7 -7.62 0) (length 3.81) (name "I9") (number "9"))
      (pin input line (at -12.7 -10.16 0) (length 3.81) (name "I10/~OE~") (number "11"))
      (pin tri_state line (at 12.7 -5.08 180) (length 3.81) (name "IO8") (number "12"))
      (pin tri_state line (at 12.7 -2.54 180) (length 3.81) (name "IO7") (number "13"))
      (pin tri_state line (at 12.7 0 180) (length 3.81) (name "IO6") (number "14"))
      (pin tri_state line (at 12.7 2.54 180) (length 3.81) (name "IO5") (number "15"))
      (pin tri_state line (at 12.7 5.08 180) (length 3.81) (name "IO4") (number "16"))
      (pin tri_state line (at 12.7 7.62 180) (length 3.81) (name "I03") (number "17"))
      (pin tri_state line (at 12.7 10.16 180) (length 3.81) (name "IO2") (number "18"))
      (pin tri_state line (at 12.7 12.7 180) (length 3.81) (name "IO1") (number "19"))
    )
  )
  (symbol "Logic_Programmable:PAL16L8"
    (property "Reference" "U" (id 0) (at -8.89 16.51 0)
      (effects (font (size 1.27 1.27)) (justify left))
    )
    (property "Value" "PAL16L8" (id 1) (at 1.27 16.51 0)
      (effects (font (size 1.27 1.27)) (justify left))
    )
    (property "Footprint" "" (id 2) (at 0 0 0)
      (effects (font (size 1.27 1.27)) hide)
    )
    (property "Datasheet" "" (id 3) (at 0 0 0)
      (effects (font (size 1.27 1.27)) hide)
    )
    (property "ki_keywords" "PAL PLD 16L8" (id 4) (at 0 0 0)
      (effects (font (size 1.27 1.27)) hide)
    )
    (property "ki_description" "Programmable Logic Array, DIP-20" (id 5) (at 0 0 0)
      (effects (font (size 1.27 1.27)) hide)
    )
    (property "ki_fp_filters" "DIP*\nPDIP*" (id 6) (at 0 0 0)
      (effects (font (size 1.27 1.27)) hide)
    )
    (symbol "PAL16L8_0_1"
      (rectangle (start -8.89 13.97) (end 7.62 -11.43) (stroke (width 0.254)) (fill (type background)))
    )
    (symbol "PAL16L8_0_0"
      (pin power_in line (at 0 -15.24 90) (length 3.81) (name "GND") (number "10"))
      (pin power_in line (at 0 17.78 270) (length 3.81) (name "VCC") (number "20"))
    )
    (symbol "PAL16L8_1_1"
      (pin input line (at -12.7 12.7 0) (length 3.81) (name "I1") (number "1"))
      (pin input line (at -12.7 10.16 0) (length 3.81) (name "I2") (number "2"))
      (pin input line (at -12.7 7.62 0) (length 3.81) (name "I3") (number "3"))
      (pin input line (at -12.7 5.08 0) (length 3.81) (name "I4") (number "4"))
      (pin input line (at -12.7 2.54 0) (length 3.81) (name "I5") (number "5"))
      (pin input line (at -12.7 0 0) (length 3.81) (name "I6") (number "6"))
      (pin input line (at -12.7 -2.54 0) (length 3.81) (name "I7") (number "7"))
      (pin input line (at -12.7 -5.08 0) (length 3.81) (name "I8") (number "8"))
      (pin input line (at -12.7 -7.62 0) (length 3.81) (name "I9") (number "9"))
      (pin input line (at -12.7 -10.16 0) (length 3.81) (name "I10") (number "11"))
      (pin tri_state inverted (at 12.7 -5.08 180) (length 5.08) (name "IO8") (number "12"))
      (pin tri_state inverted (at 12.7 -2.54 180) (length 5.08) (name "IO7") (number "13"))
      (pin tri_state inverted (at 12.7 0 180) (length 5.08) (name "IO6") (number "14"))
      (pin tri_state inverted (at 12.7 2.54 180) (length 5.08) (name "IO5") (number "15"))
      (pin tri_state inverted (at 12.7 5.08 180) (length 5.08) (name "IO4") (number "16"))
      (pin tri_state inverted (at 12.7 7.62 180) (length 5.08) (name "I03") (number "17"))
      (pin tri_state inverted (at 12.7 10.16 180) (length 5.08) (name "IO2") (number "18"))
      (pin tri_state inverted (at 12.7 12.7 180) (length 5.08) (name "IO1") (number "19"))
    )
  )
  (symbol "Logic_Programmable:PAL20"
    (property "Reference" "U" (id 0) (at -11.684 16.51 0))
    (property "Value" "PAL20" (id 1) (at 10.16 16.51 0))
    (property "Footprint" "" (id 2) (at 0 1.27 0)
      (effects (font (size 1.27 1.27)) hide)
    )
    (property "Datasheet" "~" (id 3) (at 0 1.27 0)
      (effects (font (size 1.27 1.27)) hide)
    )
    (property "ki_keywords" "logic programmable PAL" (id 4) (at 0 0 0)
      (effects (font (size 1.27 1.27)) hide)
    )
    (property "ki_description" "generic 20-pin Programmable Array Logic (PAL) device" (id 5) (at 0 0 0)
      (effects (font (size 1.27 1.27)) hide)
    )
    (symbol "PAL20_0_1"
      (rectangle (start -11.43 -11.43) (end 11.43 13.97) (stroke (width 0.254)) (fill (type background)))
    )
    (symbol "PAL20_1_1"
      (pin passive line (at -15.24 12.7 0) (length 3.81) (name "OD/CLK") (number "1"))
      (pin passive line (at -15.24 7.62 0) (length 3.81) (name "I0") (number "2"))
      (pin passive line (at -15.24 5.08 0) (length 3.81) (name "I1") (number "3"))
      (pin passive line (at -15.24 2.54 0) (length 3.81) (name "I2") (number "4"))
      (pin passive line (at -15.24 0 0) (length 3.81) (name "I3") (number "5"))
      (pin passive line (at -15.24 -2.54 0) (length 3.81) (name "I4") (number "6"))
      (pin passive line (at -15.24 -5.08 0) (length 3.81) (name "I5") (number "7"))
      (pin passive line (at -15.24 -7.62 0) (length 3.81) (name "I6") (number "8"))
      (pin passive line (at -15.24 -10.16 0) (length 3.81) (name "I7") (number "9"))
      (pin passive line (at 0 -15.24 90) (length 3.81) (name "GND") (number "10"))
      (pin passive line (at 0 17.78 270) (length 3.81) (name "VCC") (number "20"))
      (pin passive line (at 15.24 12.7 180) (length 3.81) (name "CLK/OD") (number "11"))
      (pin passive line (at 15.24 -10.16 180) (length 3.81) (name "LR/O3") (number "12"))
      (pin passive line (at 15.24 -7.62 180) (length 3.81) (name "A2/O2") (number "13"))
      (pin passive line (at 15.24 -5.08 180) (length 3.81) (name "A1/O1") (number "14"))
      (pin passive line (at 15.24 -2.54 180) (length 3.81) (name "A0/O0") (number "15"))
      (pin passive line (at 15.24 0 180) (length 3.81) (name "O3/A2") (number "16"))
      (pin passive line (at 15.24 2.54 180) (length 3.81) (name "O2/A1") (number "17"))
      (pin passive line (at 15.24 5.08 180) (length 3.81) (name "O1/A0") (number "18"))
      (pin passive line (at 15.24 10.16 180) (length 3.81) (name "O0/LR") (number "19"))
    )
  )
  (symbol "Logic_Programmable:PAL20L8"
    (property "Reference" "U" (id 0) (at -8.89 21.59 0)
      (effects (font (size 1.27 1.27)) (justify left))
    )
    (property "Value" "PAL20L8" (id 1) (at 1.27 21.59 0)
      (effects (font (size 1.27 1.27)) (justify left))
    )
    (property "Footprint" "" (id 2) (at 0 0 0)
      (effects (font (size 1.27 1.27)) hide)
    )
    (property "Datasheet" "" (id 3) (at 0 0 0)
      (effects (font (size 1.27 1.27)) hide)
    )
    (property "ki_keywords" "PAL PLD 20L8" (id 4) (at 0 0 0)
      (effects (font (size 1.27 1.27)) hide)
    )
    (property "ki_description" "Programmable Logic Array, DIP-24" (id 5) (at 0 0 0)
      (effects (font (size 1.27 1.27)) hide)
    )
    (property "ki_fp_filters" "DIP*\nPDIP*" (id 6) (at 0 0 0)
      (effects (font (size 1.27 1.27)) hide)
    )
    (symbol "PAL20L8_0_1"
      (rectangle (start -8.89 19.05) (end 7.62 -16.51) (stroke (width 0.254)) (fill (type background)))
    )
    (symbol "PAL20L8_0_0"
      (pin power_in line (at 0 -20.32 90) (length 3.81) (name "GND") (number "12"))
      (pin power_in line (at 0 22.86 270) (length 3.81) (name "VCC") (number "24"))
    )
    (symbol "PAL20L8_1_1"
      (pin input line (at -12.7 17.78 0) (length 3.81) (name "I1") (number "1"))
      (pin input line (at -12.7 15.24 0) (length 3.81) (name "I2") (number "2"))
      (pin input line (at -12.7 12.7 0) (length 3.81) (name "I3") (number "3"))
      (pin input line (at -12.7 10.16 0) (length 3.81) (name "I4") (number "4"))
      (pin input line (at -12.7 7.62 0) (length 3.81) (name "I5") (number "5"))
      (pin input line (at -12.7 5.08 0) (length 3.81) (name "I6") (number "6"))
      (pin input line (at -12.7 2.54 0) (length 3.81) (name "I7") (number "7"))
      (pin input line (at -12.7 0 0) (length 3.81) (name "I8") (number "8"))
      (pin input line (at -12.7 -2.54 0) (length 3.81) (name "I9") (number "9"))
      (pin input line (at -12.7 -5.08 0) (length 3.81) (name "I10") (number "10"))
      (pin tri_state inverted (at 12.7 12.7 180) (length 5.08) (name "I020") (number "20"))
      (pin input line (at -12.7 -7.62 0) (length 3.81) (name "I11") (number "11"))
      (pin tri_state inverted (at 12.7 15.24 180) (length 5.08) (name "IO21") (number "21"))
      (pin tri_state inverted (at 12.7 17.78 180) (length 5.08) (name "IO22") (number "22"))
      (pin input line (at -12.7 -10.16 0) (length 3.81) (name "I13") (number "13"))
      (pin input line (at -12.7 -15.24 0) (length 3.81) (name "I23") (number "23"))
      (pin input line (at -12.7 -12.7 0) (length 3.81) (name "I14") (number "14"))
      (pin tri_state inverted (at 12.7 0 180) (length 5.08) (name "IO15") (number "15"))
      (pin tri_state inverted (at 12.7 2.54 180) (length 5.08) (name "IO16") (number "16"))
      (pin tri_state inverted (at 12.7 5.08 180) (length 5.08) (name "IO17") (number "17"))
      (pin tri_state inverted (at 12.7 7.62 180) (length 5.08) (name "IO18") (number "18"))
      (pin tri_state inverted (at 12.7 10.16 180) (length 5.08) (name "IO19") (number "19"))
    )
  )
  (symbol "Logic_Programmable:PAL20RS10"
    (property "Reference" "U" (id 0) (at -8.89 19.05 0)
      (effects (font (size 1.27 1.27)) (justify left))
    )
    (property "Value" "PAL20RS10" (id 1) (at 5.08 19.05 0)
      (effects (font (size 1.27 1.27)) (justify left))
    )
    (property "Footprint" "" (id 2) (at 0 0 0)
      (effects (font (size 1.27 1.27)) hide)
    )
    (property "Datasheet" "" (id 3) (at 0 0 0)
      (effects (font (size 1.27 1.27)) hide)
    )
    (property "ki_keywords" "PAL PLD 20RS10" (id 4) (at 0 0 0)
      (effects (font (size 1.27 1.27)) hide)
    )
    (property "ki_description" "Programmable Logic Array, DIP-24 (Narrow)" (id 5) (at 0 0 0)
      (effects (font (size 1.27 1.27)) hide)
    )
    (property "ki_fp_filters" "DIP*\nPDIP*" (id 6) (at 0 0 0)
      (effects (font (size 1.27 1.27)) hide)
    )
    (symbol "PAL20RS10_0_1"
      (rectangle (start -8.89 -16.51) (end 8.89 16.51) (stroke (width 0.254)) (fill (type background)))
    )
    (symbol "PAL20RS10_1_1"
      (pin input clock (at -12.7 -12.7 0) (length 3.81) (name "CLK") (number "1"))
      (pin input line (at -12.7 15.24 0) (length 3.81) (name "I0") (number "2"))
      (pin input line (at -12.7 12.7 0) (length 3.81) (name "I1") (number "3"))
      (pin input line (at -12.7 10.16 0) (length 3.81) (name "I2") (number "4"))
      (pin input line (at -12.7 7.62 0) (length 3.81) (name "I3") (number "5"))
      (pin input line (at -12.7 5.08 0) (length 3.81) (name "I4") (number "6"))
      (pin input line (at -12.7 2.54 0) (length 3.81) (name "I5") (number "7"))
      (pin input line (at -12.7 0 0) (length 3.81) (name "I6") (number "8"))
      (pin input line (at -12.7 -2.54 0) (length 3.81) (name "I7") (number "9"))
      (pin input line (at -12.7 -5.08 0) (length 3.81) (name "I8") (number "10"))
      (pin output line (at 12.7 7.62 180) (length 3.81) (name "O3") (number "20"))
      (pin input line (at -12.7 -7.62 0) (length 3.81) (name "I9") (number "11"))
      (pin output line (at 12.7 10.16 180) (length 3.81) (name "O2") (number "21"))
      (pin power_in line (at 0 -20.32 90) (length 3.81) (name "GND") (number "12"))
      (pin output line (at 12.7 12.7 180) (length 3.81) (name "O1") (number "22"))
      (pin input inverted (at -12.7 -15.24 0) (length 3.81) (name "~OE~") (number "13"))
      (pin output line (at 12.7 15.24 180) (length 3.81) (name "O0") (number "23"))
      (pin output line (at 12.7 -7.62 180) (length 3.81) (name "O9") (number "14"))
      (pin power_in line (at 0 20.32 270) (length 3.81) (name "VCC") (number "24"))
      (pin output line (at 12.7 -5.08 180) (length 3.81) (name "O8") (number "15"))
      (pin output line (at 12.7 -2.54 180) (length 3.81) (name "O7") (number "16"))
      (pin output line (at 12.7 0 180) (length 3.81) (name "O6") (number "17"))
      (pin output line (at 12.7 2.54 180) (length 3.81) (name "O5") (number "18"))
      (pin output line (at 12.7 5.08 180) (length 3.81) (name "O4") (number "19"))
    )
  )
  (symbol "Logic_Programmable:PAL24"
    (property "Reference" "U" (id 0) (at -11.938 17.526 0))
    (property "Value" "PAL24" (id 1) (at 9.906 17.526 0))
    (property "Footprint" "" (id 2) (at 0 -1.27 0)
      (effects (font (size 1.27 1.27)) hide)
    )
    (property "Datasheet" "~" (id 3) (at 0 -1.27 0)
      (effects (font (size 1.27 1.27)) hide)
    )
    (property "ki_keywords" "logic programmable PAL" (id 4) (at 0 0 0)
      (effects (font (size 1.27 1.27)) hide)
    )
    (property "ki_description" "generic 24-pin Programmable Array Logic (PAL) device" (id 5) (at 0 0 0)
      (effects (font (size 1.27 1.27)) hide)
    )
    (symbol "PAL24_0_1"
      (rectangle (start -11.43 -13.97) (end 11.43 16.51) (stroke (width 0.254)) (fill (type background)))
    )
    (symbol "PAL24_1_1"
      (pin passive line (at -15.24 15.24 0) (length 3.81) (name "OD/CLK") (number "1"))
      (pin passive line (at -15.24 10.16 0) (length 3.81) (name "I0") (number "2"))
      (pin passive line (at -15.24 7.62 0) (length 3.81) (name "I1") (number "3"))
      (pin passive line (at -15.24 5.08 0) (length 3.81) (name "I2") (number "4"))
      (pin passive line (at -15.24 2.54 0) (length 3.81) (name "I3") (number "5"))
      (pin passive line (at -15.24 0 0) (length 3.81) (name "I4") (number "6"))
      (pin passive line (at -15.24 -2.54 0) (length 3.81) (name "I5") (number "7"))
      (pin passive line (at -15.24 -5.08 0) (length 3.81) (name "I6") (number "8"))
      (pin passive line (at -15.24 -7.62 0) (length 3.81) (name "I7") (number "9"))
      (pin passive line (at -15.24 -10.16 0) (length 3.81) (name "I8") (number "10"))
      (pin passive line (at 15.24 2.54 180) (length 3.81) (name "O3/A2") (number "20"))
      (pin passive line (at -15.24 -12.7 0) (length 3.81) (name "I9") (number "11"))
      (pin passive line (at 15.24 5.08 180) (length 3.81) (name "O2/A1") (number "21"))
      (pin passive line (at 0 -17.78 90) (length 3.81) (name "GND") (number "12"))
      (pin passive line (at 15.24 7.62 180) (length 3.81) (name "O1/A0") (number "22"))
      (pin passive line (at 15.24 15.24 180) (length 3.81) (name "CLK/OD") (number "13"))
      (pin passive line (at 15.24 10.16 180) (length 3.81) (name "O0/LR") (number "23"))
      (pin passive line (at 15.24 -12.7 180) (length 3.81) (name "LR/O4") (number "14"))
      (pin passive line (at 0 20.32 270) (length 3.81) (name "VCC") (number "24"))
      (pin passive line (at 15.24 -10.16 180) (length 3.81) (name "A0/O3") (number "15"))
      (pin passive line (at 15.24 -7.62 180) (length 3.81) (name "A1/O2") (number "16"))
      (pin passive line (at 15.24 -5.08 180) (length 3.81) (name "A2/O1") (number "17"))
      (pin passive line (at 15.24 -2.54 180) (length 3.81) (name "NC/O0") (number "18"))
      (pin passive line (at 15.24 0 180) (length 3.81) (name "O4/NC") (number "19"))
    )
  )
)
