(kicad_symbol_lib (version 20200126) (host kicad_symbol_editor "(5.99.0-1517-ga8407fba4)")
  (symbol "MCU_SiliconLabs:C8051F380-GQ" (pin_names (offset 0.508))
    (property "Reference" "U" (id 0) (at -10.16 40.64 0))
    (property "Value" "C8051F380-GQ" (id 1) (at 12.7 40.64 0))
    (property "Footprint" "Package_QFP:TQFP-48_7x7mm_P0.5mm" (id 2) (at -25.4 -38.1 0)
      (effects (font (size 1.27 1.27)) hide)
    )
    (property "Datasheet" "https://www.silabs.com/documents/public/data-sheets/C8051F38x.pdf" (id 3) (at -22.86 -12.7 0)
      (effects (font (size 1.27 1.27)) hide)
    )
    (property "ki_keywords" "8051 microcontroller PCA UART USB SPI I2C ADC EMIF TQFP48" (id 4) (at 0 0 0)
      (effects (font (size 1.27 1.27)) hide)
    )
    (property "ki_description" "Full Speed USB Flash MCU Family, 64k flash, 4352 ram, 40 IO, EMIF, ADC, Temperature, VREF, TQFP-48" (id 5) (at 0 0 0)
      (effects (font (size 1.27 1.27)) hide)
    )
    (property "ki_fp_filters" "TQFP*7x7mm*P0.5mm*" (id 6) (at 0 0 0)
      (effects (font (size 1.27 1.27)) hide)
    )
    (symbol "C8051F380-GQ_0_1"
      (rectangle (start -10.16 38.1) (end 10.16 -35.56) (stroke (width 0.254)) (fill (type background)))
    )
    (symbol "C8051F380-GQ_1_1"
      (pin bidirectional line (at -12.7 -2.54 0) (length 2.54) (name "P0.5") (number "1"))
      (pin power_in line (at -2.54 40.64 270) (length 2.54) (name "VDD") (number "10"))
      (pin power_in line (at 0 40.64 270) (length 2.54) (name "REGIN") (number "11"))
      (pin input line (at -12.7 27.94 0) (length 2.54) (name "VBUS") (number "12"))
      (pin input line (at -12.7 22.86 0) (length 2.54) (name "~RST~/C2CK") (number "13"))
      (pin bidirectional line (at -12.7 20.32 0) (length 2.54) (name "C2D") (number "14"))
      (pin bidirectional line (at 12.7 -30.48 180) (length 2.54) (name "P4.7") (number "15"))
      (pin bidirectional line (at 12.7 -27.94 180) (length 2.54) (name "P4.6") (number "16"))
      (pin bidirectional line (at 12.7 -25.4 180) (length 2.54) (name "P4.5") (number "17"))
      (pin bidirectional line (at 12.7 -22.86 180) (length 2.54) (name "P4.4") (number "18"))
      (pin bidirectional line (at 12.7 -20.32 180) (length 2.54) (name "P4.3") (number "19"))
      (pin bidirectional line (at -12.7 0 0) (length 2.54) (name "P0.4") (number "2"))
      (pin bidirectional line (at 12.7 -17.78 180) (length 2.54) (name "P4.2") (number "20"))
      (pin bidirectional line (at 12.7 -15.24 180) (length 2.54) (name "P4.1") (number "21"))
      (pin bidirectional line (at 12.7 -12.7 180) (length 2.54) (name "P4.0") (number "22"))
      (pin bidirectional line (at 12.7 -7.62 180) (length 2.54) (name "P3.7") (number "23"))
      (pin bidirectional line (at 12.7 -5.08 180) (length 2.54) (name "P3.6") (number "24"))
      (pin bidirectional line (at 12.7 -2.54 180) (length 2.54) (name "P3.5") (number "25"))
      (pin bidirectional line (at 12.7 0 180) (length 2.54) (name "P3.4") (number "26"))
      (pin bidirectional line (at 12.7 2.54 180) (length 2.54) (name "P3.3") (number "27"))
      (pin bidirectional line (at 12.7 5.08 180) (length 2.54) (name "P3.2") (number "28"))
      (pin bidirectional line (at 12.7 7.62 180) (length 2.54) (name "P3.1") (number "29"))
      (pin bidirectional line (at -12.7 2.54 0) (length 2.54) (name "P0.3") (number "3"))
      (pin bidirectional line (at 12.7 10.16 180) (length 2.54) (name "P3.0") (number "30"))
      (pin bidirectional line (at 12.7 15.24 180) (length 2.54) (name "P2.7") (number "31"))
      (pin bidirectional line (at 12.7 17.78 180) (length 2.54) (name "P2.6") (number "32"))
      (pin bidirectional line (at 12.7 20.32 180) (length 2.54) (name "P2.5") (number "33"))
      (pin bidirectional line (at 12.7 22.86 180) (length 2.54) (name "P2.4") (number "34"))
      (pin bidirectional line (at 12.7 25.4 180) (length 2.54) (name "P2.3") (number "35"))
      (pin bidirectional line (at 12.7 27.94 180) (length 2.54) (name "P2.2") (number "36"))
      (pin bidirectional line (at 12.7 30.48 180) (length 2.54) (name "P2.1") (number "37"))
      (pin bidirectional line (at 12.7 33.02 180) (length 2.54) (name "P2.0") (number "38"))
      (pin bidirectional line (at -12.7 -30.48 0) (length 2.54) (name "P1.7") (number "39"))
      (pin bidirectional line (at -12.7 5.08 0) (length 2.54) (name "P0.2") (number "4"))
      (pin bidirectional line (at -12.7 -27.94 0) (length 2.54) (name "P1.6") (number "40"))
      (pin bidirectional line (at -12.7 -25.4 0) (length 2.54) (name "P1.5") (number "41"))
      (pin bidirectional line (at -12.7 -22.86 0) (length 2.54) (name "P1.4") (number "42"))
      (pin bidirectional line (at -12.7 -20.32 0) (length 2.54) (name "P1.3") (number "43"))
      (pin bidirectional line (at -12.7 -17.78 0) (length 2.54) (name "P1.2") (number "44"))
      (pin bidirectional line (at -12.7 -15.24 0) (length 2.54) (name "P1.1") (number "45"))
      (pin bidirectional line (at -12.7 -12.7 0) (length 2.54) (name "P1.0") (number "46"))
      (pin bidirectional line (at -12.7 -7.62 0) (length 2.54) (name "P0.7") (number "47"))
      (pin bidirectional line (at -12.7 -5.08 0) (length 2.54) (name "P0.6") (number "48"))
      (pin bidirectional line (at -12.7 7.62 0) (length 2.54) (name "P0.1") (number "5"))
      (pin bidirectional line (at -12.7 10.16 0) (length 2.54) (name "P0.0") (number "6"))
      (pin power_in line (at 0 -38.1 90) (length 2.54) (name "GND") (number "7"))
      (pin bidirectional line (at -12.7 33.02 0) (length 2.54) (name "D+") (number "8"))
      (pin bidirectional line (at -12.7 30.48 0) (length 2.54) (name "D-") (number "9"))
    )
  )
  (symbol "MCU_SiliconLabs:C8051F382-GQ" (extends "C8051F380-GQ")
    (property "Value" "C8051F382-GQ" (id 1) (at 12.7 40.64 0))
    (property "Datasheet" "https://www.silabs.com/documents/public/data-sheets/C8051F38x.pdf" (id 3) (at -22.86 -12.7 0)
      (effects (font (size 1.27 1.27)) hide)
    )
    (property "ki_keywords" "8051 microcontroller PCA UART USB SPI I2C ADC EMIF TQFP48" (id 4) (at 0 0 0)
      (effects (font (size 1.27 1.27)) hide)
    )
    (property "ki_description" "Full Speed USB Flash MCU Family, 32k flash, 2304 ram, 40 IO, EMIF, ADC, Temperature, VREF, TQFP-48" (id 5) (at 0 0 0)
      (effects (font (size 1.27 1.27)) hide)
    )
  )
  (symbol "MCU_SiliconLabs:C8051F384-GQ" (extends "C8051F380-GQ")
    (property "Value" "C8051F384-GQ" (id 1) (at 12.7 40.64 0))
    (property "Datasheet" "https://www.silabs.com/documents/public/data-sheets/C8051F38x.pdf" (id 3) (at -22.86 -12.7 0)
      (effects (font (size 1.27 1.27)) hide)
    )
    (property "ki_keywords" "8051 microcontroller PCA UART USB SPI I2C EMIF TQFP48" (id 4) (at 0 0 0)
      (effects (font (size 1.27 1.27)) hide)
    )
    (property "ki_description" "Full Speed USB Flash MCU Family, 64k flash, 4352 ram, 40 IO, EMIF, TQFP-48" (id 5) (at 0 0 0)
      (effects (font (size 1.27 1.27)) hide)
    )
  )
  (symbol "MCU_SiliconLabs:C8051F386-GQ" (extends "C8051F380-GQ")
    (property "Value" "C8051F386-GQ" (id 1) (at 12.7 40.64 0))
    (property "Datasheet" "https://www.silabs.com/documents/public/data-sheets/C8051F38x.pdf" (id 3) (at -22.86 -12.7 0)
      (effects (font (size 1.27 1.27)) hide)
    )
    (property "ki_keywords" "8051 microcontroller PCA UART USB SPI I2C EMIF TQFP48" (id 4) (at 0 0 0)
      (effects (font (size 1.27 1.27)) hide)
    )
    (property "ki_description" "Full Speed USB Flash MCU Family, 32k flash, 2304 ram, 40 IO, EMIF, TQFP-48" (id 5) (at 0 0 0)
      (effects (font (size 1.27 1.27)) hide)
    )
  )
  (symbol "MCU_SiliconLabs:C8051F381-GM" (pin_names (offset 0.508))
    (property "Reference" "U" (id 0) (at -10.16 27.94 0))
    (property "Value" "C8051F381-GM" (id 1) (at 12.7 27.94 0))
    (property "Footprint" "Package_DFN_QFN:QFN-32-1EP_5x5mm_P0.5mm_EP3.3x3.3mm" (id 2) (at -22.86 -27.94 0)
      (effects (font (size 1.27 1.27)) hide)
    )
    (property "Datasheet" "https://www.silabs.com/documents/public/data-sheets/C8051F38x.pdf" (id 3) (at -22.86 -25.4 0)
      (effects (font (size 1.27 1.27)) hide)
    )
    (property "ki_keywords" "8051 microcontroller PCA UART USB SPI I2C ADC QFN32" (id 4) (at 0 0 0)
      (effects (font (size 1.27 1.27)) hide)
    )
    (property "ki_description" "Full Speed USB Flash MCU Family, 64k flash, 4352 ram, 25 IO, ADC, Temperature, VREF, QFN-32" (id 5) (at 0 0 0)
      (effects (font (size 1.27 1.27)) hide)
    )
    (property "ki_fp_filters" "QFN*1EP*5x5mm*P0.5mm*" (id 6) (at 0 0 0)
      (effects (font (size 1.27 1.27)) hide)
    )
    (symbol "C8051F381-GM_0_1"
      (rectangle (start -10.16 25.4) (end 10.16 -25.4) (stroke (width 0.254)) (fill (type background)))
    )
    (symbol "C8051F381-GM_1_1"
      (pin bidirectional line (at -12.7 -5.08 0) (length 2.54) (name "P0.1") (number "1"))
      (pin bidirectional line (at -12.7 7.62 0) (length 2.54) (name "P3.0/C2D") (number "10"))
      (pin bidirectional line (at 12.7 -20.32 180) (length 2.54) (name "P2.7") (number "11"))
      (pin bidirectional line (at 12.7 -17.78 180) (length 2.54) (name "P2.6") (number "12"))
      (pin bidirectional line (at 12.7 -15.24 180) (length 2.54) (name "P2.5") (number "13"))
      (pin bidirectional line (at 12.7 -12.7 180) (length 2.54) (name "P2.4") (number "14"))
      (pin bidirectional line (at 12.7 -10.16 180) (length 2.54) (name "P2.3") (number "15"))
      (pin bidirectional line (at 12.7 -7.62 180) (length 2.54) (name "P2.2") (number "16"))
      (pin bidirectional line (at 12.7 -5.08 180) (length 2.54) (name "P2.1") (number "17"))
      (pin bidirectional line (at 12.7 -2.54 180) (length 2.54) (name "P2.0") (number "18"))
      (pin bidirectional line (at 12.7 2.54 180) (length 2.54) (name "P1.7") (number "19"))
      (pin bidirectional line (at -12.7 -2.54 0) (length 2.54) (name "P0.0") (number "2"))
      (pin bidirectional line (at 12.7 5.08 180) (length 2.54) (name "P1.6") (number "20"))
      (pin bidirectional line (at 12.7 7.62 180) (length 2.54) (name "P1.5") (number "21"))
      (pin bidirectional line (at 12.7 10.16 180) (length 2.54) (name "P1.4") (number "22"))
      (pin bidirectional line (at 12.7 12.7 180) (length 2.54) (name "P1.3") (number "23"))
      (pin bidirectional line (at 12.7 15.24 180) (length 2.54) (name "P1.2") (number "24"))
      (pin bidirectional line (at 12.7 17.78 180) (length 2.54) (name "P1.1") (number "25"))
      (pin bidirectional line (at 12.7 20.32 180) (length 2.54) (name "P1.0") (number "26"))
      (pin bidirectional line (at -12.7 -20.32 0) (length 2.54) (name "P0.7") (number "27"))
      (pin bidirectional line (at -12.7 -17.78 0) (length 2.54) (name "P0.6") (number "28"))
      (pin bidirectional line (at -12.7 -15.24 0) (length 2.54) (name "P0.5") (number "29"))
      (pin power_in line (at 0 -27.94 90) (length 2.54) (name "GND") (number "3"))
      (pin bidirectional line (at -12.7 -12.7 0) (length 2.54) (name "P0.4") (number "30"))
      (pin bidirectional line (at -12.7 -10.16 0) (length 2.54) (name "P0.3") (number "31"))
      (pin bidirectional line (at -12.7 -7.62 0) (length 2.54) (name "P0.2") (number "32"))
      (pin passive line (at 0 -27.94 90) (length 2.54) (name "GND") (number "33") hide)
      (pin bidirectional line (at -12.7 20.32 0) (length 2.54) (name "D+") (number "4"))
      (pin bidirectional line (at -12.7 17.78 0) (length 2.54) (name "D-") (number "5"))
      (pin power_in line (at -2.54 27.94 270) (length 2.54) (name "VDD") (number "6"))
      (pin power_in line (at 0 27.94 270) (length 2.54) (name "REGIN") (number "7"))
      (pin input line (at -12.7 15.24 0) (length 2.54) (name "VBUS") (number "8"))
      (pin input line (at -12.7 10.16 0) (length 2.54) (name "~RST~/C2CK") (number "9"))
    )
  )
  (symbol "MCU_SiliconLabs:C8051F383-GM" (extends "C8051F381-GM")
    (property "Value" "C8051F383-GM" (id 1) (at 12.7 27.94 0))
    (property "Datasheet" "https://www.silabs.com/documents/public/data-sheets/C8051F38x.pdf" (id 3) (at -22.86 -25.4 0)
      (effects (font (size 1.27 1.27)) hide)
    )
    (property "ki_keywords" "8051 microcontroller PCA UART USB SPI I2C ADC QFN32" (id 4) (at 0 0 0)
      (effects (font (size 1.27 1.27)) hide)
    )
    (property "ki_description" "Full Speed USB Flash MCU Family, 32k flash, 2304 ram, 25 IO, ADC, Temperature, VREF, QFN-32" (id 5) (at 0 0 0)
      (effects (font (size 1.27 1.27)) hide)
    )
  )
  (symbol "MCU_SiliconLabs:C8051F385-GM" (extends "C8051F381-GM")
    (property "Value" "C8051F385-GM" (id 1) (at 12.7 27.94 0))
    (property "Datasheet" "https://www.silabs.com/documents/public/data-sheets/C8051F38x.pdf" (id 3) (at -22.86 -25.4 0)
      (effects (font (size 1.27 1.27)) hide)
    )
    (property "ki_keywords" "8051 microcontroller PCA UART USB SPI I2C QFN32" (id 4) (at 0 0 0)
      (effects (font (size 1.27 1.27)) hide)
    )
    (property "ki_description" "Full Speed USB Flash MCU Family, 64k flash, 4352 ram, 25 IO, QFN-32" (id 5) (at 0 0 0)
      (effects (font (size 1.27 1.27)) hide)
    )
  )
  (symbol "MCU_SiliconLabs:C8051F387-GM" (extends "C8051F381-GM")
    (property "Value" "C8051F387-GM" (id 1) (at 12.7 27.94 0))
    (property "Datasheet" "https://www.silabs.com/documents/public/data-sheets/C8051F38x.pdf" (id 3) (at -22.86 -25.4 0)
      (effects (font (size 1.27 1.27)) hide)
    )
    (property "ki_keywords" "8051 microcontroller PCA UART USB SPI I2C QFN32" (id 4) (at 0 0 0)
      (effects (font (size 1.27 1.27)) hide)
    )
    (property "ki_description" "Full Speed USB Flash MCU Family, 32k flash, 2304 ram, 25 IO, QFN-32" (id 5) (at 0 0 0)
      (effects (font (size 1.27 1.27)) hide)
    )
  )
  (symbol "MCU_SiliconLabs:C8051F38C-GM" (extends "C8051F381-GM")
    (property "Value" "C8051F38C-GM" (id 1) (at 12.7 27.94 0))
    (property "Datasheet" "https://www.silabs.com/documents/public/data-sheets/C8051F38x.pdf" (id 3) (at -22.86 -25.4 0)
      (effects (font (size 1.27 1.27)) hide)
    )
    (property "ki_keywords" "8051 microcontroller PCA UART USB SPI I2C ADC QFN32" (id 4) (at 0 0 0)
      (effects (font (size 1.27 1.27)) hide)
    )
    (property "ki_description" "Full Speed USB Flash MCU Family, 16k flash, 2304 ram, 25 IO, ADC, Temperature, VREF, QFN-32" (id 5) (at 0 0 0)
      (effects (font (size 1.27 1.27)) hide)
    )
  )
  (symbol "MCU_SiliconLabs:C8051F381-GQ" (pin_names (offset 0.508))
    (property "Reference" "U" (id 0) (at -10.16 27.94 0))
    (property "Value" "C8051F381-GQ" (id 1) (at 12.7 27.94 0))
    (property "Footprint" "Package_QFP:LQFP-32_7x7mm_P0.8mm" (id 2) (at -22.86 -27.94 0)
      (effects (font (size 1.27 1.27)) hide)
    )
    (property "Datasheet" "https://www.silabs.com/documents/public/data-sheets/C8051F38x.pdf" (id 3) (at -22.86 -25.4 0)
      (effects (font (size 1.27 1.27)) hide)
    )
    (property "ki_keywords" "8051 microcontroller PCA UART USB SPI I2C ADC LQFP32" (id 4) (at 0 0 0)
      (effects (font (size 1.27 1.27)) hide)
    )
    (property "ki_description" "Full Speed USB Flash MCU Family, 64k flash, 4352 ram, 25 IO, ADC, Temperature, VREF, LQFP-32" (id 5) (at 0 0 0)
      (effects (font (size 1.27 1.27)) hide)
    )
    (property "ki_fp_filters" "LQFP*7x7mm*P0.8mm*" (id 6) (at 0 0 0)
      (effects (font (size 1.27 1.27)) hide)
    )
    (symbol "C8051F381-GQ_0_1"
      (rectangle (start -10.16 25.4) (end 10.16 -25.4) (stroke (width 0.254)) (fill (type background)))
    )
    (symbol "C8051F381-GQ_1_1"
      (pin bidirectional line (at -12.7 -5.08 0) (length 2.54) (name "P0.1") (number "1"))
      (pin bidirectional line (at -12.7 7.62 0) (length 2.54) (name "P3.0/C2D") (number "10"))
      (pin bidirectional line (at 12.7 -20.32 180) (length 2.54) (name "P2.7") (number "11"))
      (pin bidirectional line (at 12.7 -17.78 180) (length 2.54) (name "P2.6") (number "12"))
      (pin bidirectional line (at 12.7 -15.24 180) (length 2.54) (name "P2.5") (number "13"))
      (pin bidirectional line (at 12.7 -12.7 180) (length 2.54) (name "P2.4") (number "14"))
      (pin bidirectional line (at 12.7 -10.16 180) (length 2.54) (name "P2.3") (number "15"))
      (pin bidirectional line (at 12.7 -7.62 180) (length 2.54) (name "P2.2") (number "16"))
      (pin bidirectional line (at 12.7 -5.08 180) (length 2.54) (name "P2.1") (number "17"))
      (pin bidirectional line (at 12.7 -2.54 180) (length 2.54) (name "P2.0") (number "18"))
      (pin bidirectional line (at 12.7 2.54 180) (length 2.54) (name "P1.7") (number "19"))
      (pin bidirectional line (at -12.7 -2.54 0) (length 2.54) (name "P0.0") (number "2"))
      (pin bidirectional line (at 12.7 5.08 180) (length 2.54) (name "P1.6") (number "20"))
      (pin bidirectional line (at 12.7 7.62 180) (length 2.54) (name "P1.5") (number "21"))
      (pin bidirectional line (at 12.7 10.16 180) (length 2.54) (name "P1.4") (number "22"))
      (pin bidirectional line (at 12.7 12.7 180) (length 2.54) (name "P1.3") (number "23"))
      (pin bidirectional line (at 12.7 15.24 180) (length 2.54) (name "P1.2") (number "24"))
      (pin bidirectional line (at 12.7 17.78 180) (length 2.54) (name "P1.1") (number "25"))
      (pin bidirectional line (at 12.7 20.32 180) (length 2.54) (name "P1.0") (number "26"))
      (pin bidirectional line (at -12.7 -20.32 0) (length 2.54) (name "P0.7") (number "27"))
      (pin bidirectional line (at -12.7 -17.78 0) (length 2.54) (name "P0.6") (number "28"))
      (pin bidirectional line (at -12.7 -15.24 0) (length 2.54) (name "P0.5") (number "29"))
      (pin power_in line (at 0 -27.94 90) (length 2.54) (name "GND") (number "3"))
      (pin bidirectional line (at -12.7 -12.7 0) (length 2.54) (name "P0.4") (number "30"))
      (pin bidirectional line (at -12.7 -10.16 0) (length 2.54) (name "P0.3") (number "31"))
      (pin bidirectional line (at -12.7 -7.62 0) (length 2.54) (name "P0.2") (number "32"))
      (pin bidirectional line (at -12.7 20.32 0) (length 2.54) (name "D+") (number "4"))
      (pin bidirectional line (at -12.7 17.78 0) (length 2.54) (name "D-") (number "5"))
      (pin power_in line (at -2.54 27.94 270) (length 2.54) (name "VDD") (number "6"))
      (pin power_in line (at 0 27.94 270) (length 2.54) (name "REGIN") (number "7"))
      (pin input line (at -12.7 15.24 0) (length 2.54) (name "VBUS") (number "8"))
      (pin input line (at -12.7 10.16 0) (length 2.54) (name "~RST~/C2CK") (number "9"))
    )
  )
  (symbol "MCU_SiliconLabs:C8051F383-GQ" (extends "C8051F381-GQ")
    (property "Value" "C8051F383-GQ" (id 1) (at 12.7 27.94 0))
    (property "Datasheet" "https://www.silabs.com/documents/public/data-sheets/C8051F38x.pdf" (id 3) (at -22.86 -25.4 0)
      (effects (font (size 1.27 1.27)) hide)
    )
    (property "ki_keywords" "8051 microcontroller PCA UART USB SPI I2C ADC LQFP32" (id 4) (at 0 0 0)
      (effects (font (size 1.27 1.27)) hide)
    )
    (property "ki_description" "Full Speed USB Flash MCU Family, 32k flash, 2304 ram, 25 IO, ADC, Temperature, VREF, LQFP-32" (id 5) (at 0 0 0)
      (effects (font (size 1.27 1.27)) hide)
    )
  )
  (symbol "MCU_SiliconLabs:C8051F385-GQ" (extends "C8051F381-GQ")
    (property "Value" "C8051F385-GQ" (id 1) (at 12.7 27.94 0))
    (property "Datasheet" "https://www.silabs.com/documents/public/data-sheets/C8051F38x.pdf" (id 3) (at -22.86 -25.4 0)
      (effects (font (size 1.27 1.27)) hide)
    )
    (property "ki_keywords" "8051 microcontroller PCA UART USB SPI I2C LQFP32" (id 4) (at 0 0 0)
      (effects (font (size 1.27 1.27)) hide)
    )
    (property "ki_description" "Full Speed USB Flash MCU Family, 64k flash, 4352 ram, 25 IO, LQFP-32" (id 5) (at 0 0 0)
      (effects (font (size 1.27 1.27)) hide)
    )
  )
  (symbol "MCU_SiliconLabs:C8051F387-GQ" (extends "C8051F381-GQ")
    (property "Value" "C8051F387-GQ" (id 1) (at 12.7 27.94 0))
    (property "Datasheet" "https://www.silabs.com/documents/public/data-sheets/C8051F38x.pdf" (id 3) (at -22.86 -25.4 0)
      (effects (font (size 1.27 1.27)) hide)
    )
    (property "ki_keywords" "8051 microcontroller PCA UART USB SPI I2C LQFP32" (id 4) (at 0 0 0)
      (effects (font (size 1.27 1.27)) hide)
    )
    (property "ki_description" "Full Speed USB Flash MCU Family, 32k flash, 2304 ram, 25 IO, LQFP-32" (id 5) (at 0 0 0)
      (effects (font (size 1.27 1.27)) hide)
    )
  )
  (symbol "MCU_SiliconLabs:C8051F38C-GQ" (extends "C8051F381-GQ")
    (property "Value" "C8051F38C-GQ" (id 1) (at 12.7 27.94 0))
    (property "Datasheet" "https://www.silabs.com/documents/public/data-sheets/C8051F38x.pdf" (id 3) (at -22.86 -25.4 0)
      (effects (font (size 1.27 1.27)) hide)
    )
    (property "ki_keywords" "8051 microcontroller PCA UART USB SPI I2C ADC LQFP32" (id 4) (at 0 0 0)
      (effects (font (size 1.27 1.27)) hide)
    )
    (property "ki_description" "Full Speed USB Flash MCU Family, 16k flash, 2304 ram, 25 IO, ADC, Temperature, VREF, LQFP-32" (id 5) (at 0 0 0)
      (effects (font (size 1.27 1.27)) hide)
    )
  )
  (symbol "MCU_SiliconLabs:EFM32G230F128G-E-QFN64" (pin_names (offset 0.508))
    (property "Reference" "U" (id 0) (at -15.24 43.18 0))
    (property "Value" "EFM32G230F128G-E-QFN64" (id 1) (at 22.86 43.18 0))
    (property "Footprint" "Package_DFN_QFN:QFN-64-1EP_9x9mm_P0.5mm_EP7.3x7.3mm" (id 2) (at 0 0 0)
      (effects (font (size 1.27 1.27)) hide)
    )
    (property "Datasheet" "https://www.silabs.com/documents/public/data-sheets/efm32g-datasheet.pdf" (id 3) (at 15.24 -12.7 0)
      (effects (font (size 1.27 1.27)) hide)
    )
    (property "ki_keywords" "MCU microcontroller silicon labs siliconlabs silabs EFM32 gecko" (id 4) (at 0 0 0)
      (effects (font (size 1.27 1.27)) hide)
    )
    (property "ki_description" "32-bit ARM Cortex-M3 microcontroller, 128 kB flash, 16 kB x 8 RAM, Silicon Labs - Gecko, QFN-64" (id 5) (at 0 0 0)
      (effects (font (size 1.27 1.27)) hide)
    )
    (property "ki_fp_filters" "QFN*1EP*9x9mm*P0.5mm*" (id 6) (at 0 0 0)
      (effects (font (size 1.27 1.27)) hide)
    )
    (symbol "EFM32G230F128G-E-QFN64_0_1"
      (rectangle (start -15.24 40.64) (end 15.24 -43.18) (stroke (width 0.254)) (fill (type background)))
    )
    (symbol "EFM32G230F128G-E-QFN64_1_1"
      (pin bidirectional line (at -17.78 38.1 0) (length 2.54) (name "PA0") (number "1"))
      (pin bidirectional line (at 17.78 35.56 180) (length 2.54) (name "PC1") (number "10"))
      (pin bidirectional line (at 17.78 33.02 180) (length 2.54) (name "PC2") (number "11"))
      (pin bidirectional line (at 17.78 30.48 180) (length 2.54) (name "PC3") (number "12"))
      (pin bidirectional line (at 17.78 27.94 180) (length 2.54) (name "PC4") (number "13"))
      (pin bidirectional line (at 17.78 25.4 180) (length 2.54) (name "PC5") (number "14"))
      (pin bidirectional line (at -17.78 7.62 0) (length 2.54) (name "PB7") (number "15"))
      (pin bidirectional line (at -17.78 5.08 0) (length 2.54) (name "PB8") (number "16"))
      (pin bidirectional line (at -17.78 20.32 0) (length 2.54) (name "PA8") (number "17"))
      (pin bidirectional line (at -17.78 17.78 0) (length 2.54) (name "PA9") (number "18"))
      (pin bidirectional line (at -17.78 15.24 0) (length 2.54) (name "PA10") (number "19"))
      (pin bidirectional line (at -17.78 35.56 0) (length 2.54) (name "PA1") (number "2"))
      (pin input line (at -17.78 -35.56 0) (length 2.54) (name "~RESET") (number "20"))
      (pin bidirectional line (at -17.78 2.54 0) (length 2.54) (name "PB11") (number "21"))
      (pin bidirectional line (at -17.78 0 0) (length 2.54) (name "PB12") (number "22"))
      (pin power_in line (at 5.08 43.18 270) (length 2.54) (name "AVDD_1") (number "23"))
      (pin bidirectional line (at -17.78 -2.54 0) (length 2.54) (name "PB13") (number "24"))
      (pin bidirectional line (at -17.78 -5.08 0) (length 2.54) (name "PB14") (number "25"))
      (pin power_in line (at -2.54 43.18 270) (length 2.54) (name "IOVDD_3") (number "26"))
      (pin power_in line (at 2.54 43.18 270) (length 2.54) (name "AVDD_0") (number "27"))
      (pin bidirectional line (at -17.78 -10.16 0) (length 2.54) (name "PD0") (number "28"))
      (pin bidirectional line (at -17.78 -12.7 0) (length 2.54) (name "PD1") (number "29"))
      (pin bidirectional line (at -17.78 33.02 0) (length 2.54) (name "PA2") (number "3"))
      (pin bidirectional line (at -17.78 -15.24 0) (length 2.54) (name "PD2") (number "30"))
      (pin bidirectional line (at -17.78 -17.78 0) (length 2.54) (name "PD3") (number "31"))
      (pin bidirectional line (at -17.78 -20.32 0) (length 2.54) (name "PD4") (number "32"))
      (pin bidirectional line (at -17.78 -22.86 0) (length 2.54) (name "PD5") (number "33"))
      (pin bidirectional line (at -17.78 -25.4 0) (length 2.54) (name "PD6") (number "34"))
      (pin bidirectional line (at -17.78 -27.94 0) (length 2.54) (name "PD7") (number "35"))
      (pin bidirectional line (at -17.78 -30.48 0) (length 2.54) (name "PD8") (number "36"))
      (pin bidirectional line (at 17.78 22.86 180) (length 2.54) (name "PC6") (number "37"))
      (pin bidirectional line (at 17.78 20.32 180) (length 2.54) (name "PC7") (number "38"))
      (pin power_in line (at -7.62 43.18 270) (length 2.54) (name "VDD_DREG") (number "39"))
      (pin bidirectional line (at -17.78 30.48 0) (length 2.54) (name "PA3") (number "4"))
      (pin passive line (at 7.62 43.18 270) (length 2.54) (name "DECOUPLE") (number "40"))
      (pin bidirectional line (at 17.78 17.78 180) (length 2.54) (name "PC8") (number "41"))
      (pin bidirectional line (at 17.78 15.24 180) (length 2.54) (name "PC9") (number "42"))
      (pin bidirectional line (at 17.78 12.7 180) (length 2.54) (name "PC10") (number "43"))
      (pin bidirectional line (at 17.78 10.16 180) (length 2.54) (name "PC11") (number "44"))
      (pin bidirectional line (at 17.78 7.62 180) (length 2.54) (name "PC12") (number "45"))
      (pin bidirectional line (at 17.78 5.08 180) (length 2.54) (name "PC13") (number "46"))
      (pin bidirectional line (at 17.78 2.54 180) (length 2.54) (name "PC14") (number "47"))
      (pin bidirectional line (at 17.78 0 180) (length 2.54) (name "PC15") (number "48"))
      (pin bidirectional line (at 17.78 -27.94 180) (length 2.54) (name "PF0") (number "49"))
      (pin bidirectional line (at -17.78 27.94 0) (length 2.54) (name "PA4") (number "5"))
      (pin bidirectional line (at 17.78 -30.48 180) (length 2.54) (name "PF1") (number "50"))
      (pin bidirectional line (at 17.78 -33.02 180) (length 2.54) (name "PF2") (number "51"))
      (pin bidirectional line (at 17.78 -35.56 180) (length 2.54) (name "PF3") (number "52"))
      (pin bidirectional line (at 17.78 -38.1 180) (length 2.54) (name "PF4") (number "53"))
      (pin bidirectional line (at 17.78 -40.64 180) (length 2.54) (name "PF5") (number "54"))
      (pin power_in line (at 0 43.18 270) (length 2.54) (name "IOVDD_5") (number "55"))
      (pin bidirectional line (at 17.78 -5.08 180) (length 2.54) (name "PE8") (number "56"))
      (pin bidirectional line (at 17.78 -7.62 180) (length 2.54) (name "PE9") (number "57"))
      (pin bidirectional line (at 17.78 -10.16 180) (length 2.54) (name "PE10") (number "58"))
      (pin bidirectional line (at 17.78 -12.7 180) (length 2.54) (name "PE11") (number "59"))
      (pin bidirectional line (at -17.78 25.4 0) (length 2.54) (name "PA5") (number "6"))
      (pin bidirectional line (at 17.78 -15.24 180) (length 2.54) (name "PE12") (number "60"))
      (pin bidirectional line (at 17.78 -17.78 180) (length 2.54) (name "PE13") (number "61"))
      (pin bidirectional line (at 17.78 -20.32 180) (length 2.54) (name "PE14") (number "62"))
      (pin bidirectional line (at 17.78 -22.86 180) (length 2.54) (name "PE15") (number "63"))
      (pin bidirectional line (at -17.78 12.7 0) (length 2.54) (name "PA15") (number "64"))
      (pin power_in line (at 0 -45.72 90) (length 2.54) (name "VSS") (number "65"))
      (pin bidirectional line (at -17.78 22.86 0) (length 2.54) (name "PA6") (number "7"))
      (pin power_in line (at -5.08 43.18 270) (length 2.54) (name "IOVDD_0") (number "8"))
      (pin bidirectional line (at 17.78 38.1 180) (length 2.54) (name "PC0") (number "9"))
    )
  )
  (symbol "MCU_SiliconLabs:EFM32HG108F32G-C-QFN24" (pin_names (offset 0.508))
    (property "Reference" "U" (id 0) (at -13.97 24.13 0))
    (property "Value" "EFM32HG108F32G-C-QFN24" (id 1) (at 24.13 24.13 0))
    (property "Footprint" "Package_DFN_QFN:QFN-24-1EP_5x5mm_P0.65mm_EP3.6x3.6mm" (id 2) (at 1.27 -24.13 0)
      (effects (font (size 1.27 1.27)) hide)
    )
    (property "Datasheet" "https://www.silabs.com/documents/public/data-sheets/efm32hg-datasheet.pdf" (id 3) (at 1.27 -24.13 0)
      (effects (font (size 1.27 1.27)) hide)
    )
    (property "ki_keywords" "MCU microcontroller silicon labs siliconlabs silabs EFM32 happy gecko" (id 4) (at 0 0 0)
      (effects (font (size 1.27 1.27)) hide)
    )
    (property "ki_description" "32-bit ARM Cortex-M0 microcontroller, 32 kB flash, 4 kB  RAM, Silicon Labs - Happy Gecko, QFN-24" (id 5) (at 0 0 0)
      (effects (font (size 1.27 1.27)) hide)
    )
    (property "ki_fp_filters" "QFN*1EP*5x5mm*P0.65mm*" (id 6) (at 0 0 0)
      (effects (font (size 1.27 1.27)) hide)
    )
    (symbol "EFM32HG108F32G-C-QFN24_0_1"
      (rectangle (start -15.24 22.86) (end 15.24 -22.86) (stroke (width 0.254)) (fill (type background)))
    )
    (symbol "EFM32HG108F32G-C-QFN24_1_1"
      (pin bidirectional line (at -17.78 12.7 0) (length 2.54) (name "PA0") (number "1"))
      (pin bidirectional line (at -17.78 0 0) (length 2.54) (name "PB13") (number "10"))
      (pin bidirectional line (at -17.78 -2.54 0) (length 2.54) (name "PB14") (number "11"))
      (pin power_in line (at 5.08 25.4 270) (length 2.54) (name "AVDD_0") (number "12"))
      (pin bidirectional line (at 17.78 5.08 180) (length 2.54) (name "PD6") (number "13"))
      (pin bidirectional line (at 17.78 2.54 180) (length 2.54) (name "PD7") (number "14"))
      (pin power_in line (at -2.54 25.4 270) (length 2.54) (name "VDD_DREG") (number "15"))
      (pin passive line (at 17.78 -20.32 180) (length 2.54) (name "DECOUPLE") (number "16"))
      (pin bidirectional line (at -17.78 -12.7 0) (length 2.54) (name "PC14") (number "17"))
      (pin bidirectional line (at -17.78 -15.24 0) (length 2.54) (name "PC15") (number "18"))
      (pin bidirectional line (at 17.78 -10.16 180) (length 2.54) (name "PF0") (number "19"))
      (pin power_in line (at 0 25.4 270) (length 2.54) (name "IOVDD_0") (number "2"))
      (pin bidirectional line (at 17.78 -12.7 180) (length 2.54) (name "PF1") (number "20"))
      (pin bidirectional line (at 17.78 -15.24 180) (length 2.54) (name "PF2") (number "21"))
      (pin power_in line (at 2.54 25.4 270) (length 2.54) (name "IOVDD_5") (number "22"))
      (pin bidirectional line (at 17.78 -2.54 180) (length 2.54) (name "PE12") (number "23"))
      (pin bidirectional line (at 17.78 -5.08 180) (length 2.54) (name "PE13") (number "24"))
      (pin power_in line (at 0 -25.4 90) (length 2.54) (name "VSS") (number "25"))
      (pin bidirectional line (at -17.78 -7.62 0) (length 2.54) (name "PC0") (number "3"))
      (pin bidirectional line (at -17.78 -10.16 0) (length 2.54) (name "PC1") (number "4"))
      (pin bidirectional line (at -17.78 7.62 0) (length 2.54) (name "PB7") (number "5"))
      (pin bidirectional line (at -17.78 5.08 0) (length 2.54) (name "PB8") (number "6"))
      (pin input line (at -17.78 -20.32 0) (length 2.54) (name "~RESET") (number "7"))
      (pin bidirectional line (at -17.78 2.54 0) (length 2.54) (name "PB11") (number "8"))
      (pin power_in line (at 7.62 25.4 270) (length 2.54) (name "AVDD_2") (number "9"))
    )
  )
  (symbol "MCU_SiliconLabs:EFM32HG108F64G-C-QFN24" (extends "EFM32HG108F32G-C-QFN24")
    (property "Value" "EFM32HG108F64G-C-QFN24" (id 1) (at 24.13 24.13 0))
    (property "Datasheet" "https://www.silabs.com/documents/public/data-sheets/efm32hg-datasheet.pdf" (id 3) (at 1.27 -24.13 0)
      (effects (font (size 1.27 1.27)) hide)
    )
    (property "ki_keywords" "MCU microcontroller silicon labs siliconlabs silabs EFM32 happy gecko" (id 4) (at 0 0 0)
      (effects (font (size 1.27 1.27)) hide)
    )
    (property "ki_description" "32-bit ARM Cortex-M0 microcontroller, 64 kB flash, 4 kB  RAM, Silicon Labs - Happy Gecko, QFN-24" (id 5) (at 0 0 0)
      (effects (font (size 1.27 1.27)) hide)
    )
  )
  (symbol "MCU_SiliconLabs:EFM32HG308F32G-C-QFN24" (pin_names (offset 0.508))
    (property "Reference" "U" (id 0) (at -12.7 24.13 0))
    (property "Value" "EFM32HG308F32G-C-QFN24" (id 1) (at 25.4 24.13 0))
    (property "Footprint" "Package_DFN_QFN:QFN-24-1EP_5x5mm_P0.65mm_EP3.6x3.6mm" (id 2) (at 1.27 -24.13 0)
      (effects (font (size 1.27 1.27)) hide)
    )
    (property "Datasheet" "https://www.silabs.com/documents/public/data-sheets/efm32hg-datasheet.pdf" (id 3) (at 1.27 -24.13 0)
      (effects (font (size 1.27 1.27)) hide)
    )
    (property "ki_keywords" "MCU microcontroller silicon labs siliconlabs silabs EFM32 happy gecko" (id 4) (at 0 0 0)
      (effects (font (size 1.27 1.27)) hide)
    )
    (property "ki_description" "32-bit ARM Cortex-M0 microcontroller, 32 kB flash, 4 kB  RAM, Silicon Labs - Happy Gecko, QFN-24" (id 5) (at 0 0 0)
      (effects (font (size 1.27 1.27)) hide)
    )
    (property "ki_fp_filters" "QFN*1EP*5x5mm*P0.65mm*" (id 6) (at 0 0 0)
      (effects (font (size 1.27 1.27)) hide)
    )
    (symbol "EFM32HG308F32G-C-QFN24_0_1"
      (rectangle (start -15.24 22.86) (end 15.24 -22.86) (stroke (width 0.254)) (fill (type background)))
    )
    (symbol "EFM32HG308F32G-C-QFN24_1_1"
      (pin bidirectional line (at -17.78 12.7 0) (length 2.54) (name "PA0") (number "1"))
      (pin bidirectional line (at -17.78 0 0) (length 2.54) (name "PB13") (number "10"))
      (pin bidirectional line (at -17.78 -2.54 0) (length 2.54) (name "PB14") (number "11"))
      (pin power_in line (at 5.08 25.4 270) (length 2.54) (name "AVDD_0") (number "12"))
      (pin power_in line (at -2.54 25.4 270) (length 2.54) (name "VDD_DREG") (number "13"))
      (pin passive line (at 17.78 -20.32 180) (length 2.54) (name "DECOUPLE") (number "14"))
      (pin power_in line (at -7.62 25.4 270) (length 2.54) (name "USB_VREGI") (number "15"))
      (pin power_out line (at -5.08 25.4 270) (length 2.54) (name "USB_VREGO") (number "16"))
      (pin bidirectional line (at -17.78 -12.7 0) (length 2.54) (name "PC14") (number "17"))
      (pin bidirectional line (at -17.78 -15.24 0) (length 2.54) (name "PC15") (number "18"))
      (pin bidirectional line (at 17.78 -10.16 180) (length 2.54) (name "PF0") (number "19"))
      (pin power_in line (at 0 25.4 270) (length 2.54) (name "IOVDD_0") (number "2"))
      (pin bidirectional line (at 17.78 -12.7 180) (length 2.54) (name "PF1") (number "20"))
      (pin bidirectional line (at 17.78 -15.24 180) (length 2.54) (name "PF2") (number "21"))
      (pin power_in line (at 2.54 25.4 270) (length 2.54) (name "IOVDD_5") (number "22"))
      (pin bidirectional line (at 17.78 -2.54 180) (length 2.54) (name "PE12") (number "23"))
      (pin bidirectional line (at 17.78 -5.08 180) (length 2.54) (name "PE13") (number "24"))
      (pin power_in line (at 0 -25.4 90) (length 2.54) (name "VSS") (number "25"))
      (pin bidirectional line (at -17.78 -7.62 0) (length 2.54) (name "PC0") (number "3"))
      (pin bidirectional line (at -17.78 -10.16 0) (length 2.54) (name "PC1") (number "4"))
      (pin bidirectional line (at -17.78 7.62 0) (length 2.54) (name "PB7") (number "5"))
      (pin bidirectional line (at -17.78 5.08 0) (length 2.54) (name "PB8") (number "6"))
      (pin input line (at -17.78 -20.32 0) (length 2.54) (name "~RESET") (number "7"))
      (pin bidirectional line (at -17.78 2.54 0) (length 2.54) (name "PB11") (number "8"))
      (pin power_in line (at 7.62 25.4 270) (length 2.54) (name "AVDD_2") (number "9"))
    )
  )
  (symbol "MCU_SiliconLabs:EFM32HG308F64G-C-QFN24" (extends "EFM32HG308F32G-C-QFN24")
    (property "Value" "EFM32HG308F64G-C-QFN24" (id 1) (at 25.4 24.13 0))
    (property "Datasheet" "https://www.silabs.com/documents/public/data-sheets/efm32hg-datasheet.pdf" (id 3) (at 1.27 -24.13 0)
      (effects (font (size 1.27 1.27)) hide)
    )
    (property "ki_keywords" "MCU microcontroller silicon labs siliconlabs silabs EFM32 happy gecko" (id 4) (at 0 0 0)
      (effects (font (size 1.27 1.27)) hide)
    )
    (property "ki_description" "32-bit ARM Cortex-M0 microcontroller, 64 kB flash, 4 kB  RAM, Silicon Labs - Happy Gecko, QFN-24" (id 5) (at 0 0 0)
      (effects (font (size 1.27 1.27)) hide)
    )
  )
  (symbol "MCU_SiliconLabs:EFM8BB10F8G-A-QFN20" (pin_names (offset 0.508))
    (property "Reference" "U" (id 0) (at -13.97 15.24 0)
      (effects (font (size 1.27 1.27)) (justify left))
    )
    (property "Value" "EFM8BB10F8G-A-QFN20" (id 1) (at 1.27 15.24 0)
      (effects (font (size 1.27 1.27)) (justify left))
    )
    (property "Footprint" "Package_DFN_QFN:SiliconLabs_QFN-20-1EP_3x3mm_P0.5mm_EP1.8x1.8mm" (id 2) (at 0 20.32 0)
      (effects (font (size 1.27 1.27)) hide)
    )
    (property "Datasheet" "https://www.silabs.com/documents/public/data-sheets/efm8bb1-datasheet.pdf" (id 3) (at 0 0 0)
      (effects (font (size 1.27 1.27)) hide)
    )
    (property "ki_keywords" "8051 microcontroller PWM UART SPI I2C ADC QFN20" (id 4) (at 0 0 0)
      (effects (font (size 1.27 1.27)) hide)
    )
    (property "ki_description" "8051-compatible microcontroller, 25 MHz, 2.2 to 3.6V, 8K flash, 512B RAM, -40 to +85 C, QFN20" (id 5) (at 0 0 0)
      (effects (font (size 1.27 1.27)) hide)
    )
    (property "ki_fp_filters" "SiliconLabs*QFN*1EP*3x3mm*P0.5mm*" (id 6) (at 0 0 0)
      (effects (font (size 1.27 1.27)) hide)
    )
    (symbol "EFM8BB10F8G-A-QFN20_0_1"
      (rectangle (start -13.97 13.97) (end 13.97 -13.97) (stroke (width 0.254)) (fill (type background)))
      (pin bidirectional line (at -17.78 5.08 0) (length 3.81) (name "P0.1") (number "1"))
      (pin bidirectional line (at 17.78 2.54 180) (length 3.81) (name "P1.3") (number "10"))
      (pin bidirectional line (at 17.78 5.08 180) (length 3.81) (name "P1.2") (number "11"))
      (pin passive line (at 0 -17.78 90) (length 3.81) (name "GND") (number "12") hide)
      (pin bidirectional line (at 17.78 7.62 180) (length 3.81) (name "P1.1") (number "13"))
      (pin bidirectional line (at 17.78 10.16 180) (length 3.81) (name "P1.0") (number "14"))
      (pin bidirectional line (at -17.78 -10.16 0) (length 3.81) (name "P0.7") (number "15"))
      (pin bidirectional line (at -17.78 -7.62 0) (length 3.81) (name "P0.6") (number "16"))
      (pin bidirectional line (at -17.78 -5.08 0) (length 3.81) (name "P0.5") (number "17"))
      (pin bidirectional line (at -17.78 -2.54 0) (length 3.81) (name "P0.4") (number "18"))
      (pin bidirectional line (at -17.78 0 0) (length 3.81) (name "P0.3") (number "19"))
      (pin bidirectional line (at -17.78 7.62 0) (length 3.81) (name "P0.0") (number "2"))
      (pin bidirectional line (at -17.78 2.54 0) (length 3.81) (name "P0.2") (number "20"))
      (pin passive line (at 0 -17.78 90) (length 3.81) (name "GND") (number "21") hide)
      (pin power_in line (at 0 -17.78 90) (length 3.81) (name "GND") (number "3"))
      (pin power_in line (at 0 17.78 270) (length 3.81) (name "VDD") (number "4"))
      (pin input line (at -17.78 10.16 0) (length 3.81) (name "RSTb/C2CK") (number "5"))
      (pin bidirectional line (at 17.78 -7.62 180) (length 3.81) (name "P2.0/C2D") (number "6"))
      (pin bidirectional line (at 17.78 -5.08 180) (length 3.81) (name "P1.6") (number "7"))
      (pin bidirectional line (at 17.78 -2.54 180) (length 3.81) (name "P1.5") (number "8"))
      (pin bidirectional line (at 17.78 0 180) (length 3.81) (name "P1.4") (number "9"))
    )
  )
  (symbol "MCU_SiliconLabs:EFM8BB10F2A-A-QFN20" (extends "EFM8BB10F8G-A-QFN20")
    (property "Value" "EFM8BB10F2A-A-QFN20" (id 1) (at 1.27 15.24 0)
      (effects (font (size 1.27 1.27)) (justify left))
    )
    (property "Datasheet" "https://www.silabs.com/documents/public/data-sheets/efm8bb1-datasheet.pdf" (id 3) (at 0 0 0)
      (effects (font (size 1.27 1.27)) hide)
    )
    (property "ki_keywords" "8051 microcontroller PWM UART SPI I2C ADC QFN20 automotive" (id 4) (at 0 0 0)
      (effects (font (size 1.27 1.27)) hide)
    )
    (property "ki_description" "8051-compatible microcontroller, 25 MHz, 2.2 to 3.6V, 2K flash, 256B RAM, -40 to +125 C (automotive), QFN20" (id 5) (at 0 0 0)
      (effects (font (size 1.27 1.27)) hide)
    )
  )
  (symbol "MCU_SiliconLabs:EFM8BB10F2G-A-QFN20" (extends "EFM8BB10F8G-A-QFN20")
    (property "Value" "EFM8BB10F2G-A-QFN20" (id 1) (at 1.27 15.24 0)
      (effects (font (size 1.27 1.27)) (justify left))
    )
    (property "Datasheet" "https://www.silabs.com/documents/public/data-sheets/efm8bb1-datasheet.pdf" (id 3) (at 0 0 0)
      (effects (font (size 1.27 1.27)) hide)
    )
    (property "ki_keywords" "8051 microcontroller PWM UART SPI I2C ADC QFN20" (id 4) (at 0 0 0)
      (effects (font (size 1.27 1.27)) hide)
    )
    (property "ki_description" "8051-compatible microcontroller, 25 MHz, 2.2 to 3.6V, 2K flash, 256B RAM, -40 to +85 C, QFN20" (id 5) (at 0 0 0)
      (effects (font (size 1.27 1.27)) hide)
    )
  )
  (symbol "MCU_SiliconLabs:EFM8BB10F2I-A-QFN20" (extends "EFM8BB10F8G-A-QFN20")
    (property "Value" "EFM8BB10F2I-A-QFN20" (id 1) (at 1.27 15.24 0)
      (effects (font (size 1.27 1.27)) (justify left))
    )
    (property "Datasheet" "https://www.silabs.com/documents/public/data-sheets/efm8bb1-datasheet.pdf" (id 3) (at 0 0 0)
      (effects (font (size 1.27 1.27)) hide)
    )
    (property "ki_keywords" "8051 microcontroller PWM UART SPI I2C ADC QFN20" (id 4) (at 0 0 0)
      (effects (font (size 1.27 1.27)) hide)
    )
    (property "ki_description" "8051-compatible microcontroller, 25 MHz, 2.2 to 3.6V, 2K flash, 256B RAM, -40 to +125 C, QFN20" (id 5) (at 0 0 0)
      (effects (font (size 1.27 1.27)) hide)
    )
  )
  (symbol "MCU_SiliconLabs:EFM8BB10F4A-A-QFN20" (extends "EFM8BB10F8G-A-QFN20")
    (property "Value" "EFM8BB10F4A-A-QFN20" (id 1) (at 1.27 15.24 0)
      (effects (font (size 1.27 1.27)) (justify left))
    )
    (property "Datasheet" "https://www.silabs.com/documents/public/data-sheets/efm8bb1-datasheet.pdf" (id 3) (at 0 0 0)
      (effects (font (size 1.27 1.27)) hide)
    )
    (property "ki_keywords" "8051 microcontroller PWM UART SPI I2C ADC QFN20 automotive" (id 4) (at 0 0 0)
      (effects (font (size 1.27 1.27)) hide)
    )
    (property "ki_description" "8051-compatible microcontroller, 25 MHz, 2.2 to 3.6V, 4K flash, 512B RAM, -40 to +125 C (automotive), QFN20" (id 5) (at 0 0 0)
      (effects (font (size 1.27 1.27)) hide)
    )
  )
  (symbol "MCU_SiliconLabs:EFM8BB10F4G-A-QFN20" (extends "EFM8BB10F8G-A-QFN20")
    (property "Value" "EFM8BB10F4G-A-QFN20" (id 1) (at 1.27 15.24 0)
      (effects (font (size 1.27 1.27)) (justify left))
    )
    (property "Datasheet" "https://www.silabs.com/documents/public/data-sheets/efm8bb1-datasheet.pdf" (id 3) (at 0 0 0)
      (effects (font (size 1.27 1.27)) hide)
    )
    (property "ki_keywords" "8051 microcontroller PWM UART SPI I2C ADC QFN20" (id 4) (at 0 0 0)
      (effects (font (size 1.27 1.27)) hide)
    )
    (property "ki_description" "8051-compatible microcontroller, 25 MHz, 2.2 to 3.6V, 4K flash, 512B RAM, -40 to +85 C, QFN20" (id 5) (at 0 0 0)
      (effects (font (size 1.27 1.27)) hide)
    )
  )
  (symbol "MCU_SiliconLabs:EFM8BB10F4I-A-QFN20" (extends "EFM8BB10F8G-A-QFN20")
    (property "Value" "EFM8BB10F4I-A-QFN20" (id 1) (at 1.27 15.24 0)
      (effects (font (size 1.27 1.27)) (justify left))
    )
    (property "Datasheet" "https://www.silabs.com/documents/public/data-sheets/efm8bb1-datasheet.pdf" (id 3) (at 0 0 0)
      (effects (font (size 1.27 1.27)) hide)
    )
    (property "ki_keywords" "8051 microcontroller PWM UART SPI I2C ADC QFN20" (id 4) (at 0 0 0)
      (effects (font (size 1.27 1.27)) hide)
    )
    (property "ki_description" "8051-compatible microcontroller, 25 MHz, 2.2 to 3.6V, 4K flash, 512B RAM, -40 to +125 C, QFN20" (id 5) (at 0 0 0)
      (effects (font (size 1.27 1.27)) hide)
    )
  )
  (symbol "MCU_SiliconLabs:EFM8BB10F8A-A-QFN20" (extends "EFM8BB10F8G-A-QFN20")
    (property "Value" "EFM8BB10F8A-A-QFN20" (id 1) (at 1.27 15.24 0)
      (effects (font (size 1.27 1.27)) (justify left))
    )
    (property "Datasheet" "https://www.silabs.com/documents/public/data-sheets/efm8bb1-datasheet.pdf" (id 3) (at 0 0 0)
      (effects (font (size 1.27 1.27)) hide)
    )
    (property "ki_keywords" "8051 microcontroller PWM UART SPI I2C ADC QFN20 automotive" (id 4) (at 0 0 0)
      (effects (font (size 1.27 1.27)) hide)
    )
    (property "ki_description" "8051-compatible microcontroller, 25 MHz, 2.2 to 3.6V, 8K flash, 512B RAM, -40 to +125 C (automotive), QFN20" (id 5) (at 0 0 0)
      (effects (font (size 1.27 1.27)) hide)
    )
  )
  (symbol "MCU_SiliconLabs:EFM8BB10F8I-A-QFN20" (extends "EFM8BB10F8G-A-QFN20")
    (property "Value" "EFM8BB10F8I-A-QFN20" (id 1) (at 1.27 15.24 0)
      (effects (font (size 1.27 1.27)) (justify left))
    )
    (property "Datasheet" "https://www.silabs.com/documents/public/data-sheets/efm8bb1-datasheet.pdf" (id 3) (at 0 0 0)
      (effects (font (size 1.27 1.27)) hide)
    )
    (property "ki_keywords" "8051 microcontroller PWM UART SPI I2C ADC QFN20" (id 4) (at 0 0 0)
      (effects (font (size 1.27 1.27)) hide)
    )
    (property "ki_description" "8051-compatible microcontroller, 25 MHz, 2.2 to 3.6V, 8K flash, 512B RAM, -40 to +125 C, QFN20" (id 5) (at 0 0 0)
      (effects (font (size 1.27 1.27)) hide)
    )
  )
  (symbol "MCU_SiliconLabs:EFM8BB10F8G-A-QSOP24"
    (property "Reference" "U" (id 0) (at -13.97 15.24 0)
      (effects (font (size 1.27 1.27)) (justify left))
    )
    (property "Value" "EFM8BB10F8G-A-QSOP24" (id 1) (at 1.27 15.24 0)
      (effects (font (size 1.27 1.27)) (justify left))
    )
    (property "Footprint" "Package_SO:QSOP-24_3.9x8.7mm_P0.635mm" (id 2) (at 0 20.32 0)
      (effects (font (size 1.27 1.27)) hide)
    )
    (property "Datasheet" "https://www.silabs.com/documents/public/data-sheets/efm8bb1-datasheet.pdf" (id 3) (at 0 0 0)
      (effects (font (size 1.27 1.27)) hide)
    )
    (property "ki_keywords" "8051 microcontroller PWM UART SPI I2C ADC QSOP24" (id 4) (at 0 0 0)
      (effects (font (size 1.27 1.27)) hide)
    )
    (property "ki_description" "8051-compatible microcontroller, 25 MHz, 2.2 to 3.6V, 8K flash, 512B RAM, -40 to +85 C, QSOP24" (id 5) (at 0 0 0)
      (effects (font (size 1.27 1.27)) hide)
    )
    (property "ki_fp_filters" "QSOP*P0.635mm*" (id 6) (at 0 0 0)
      (effects (font (size 1.27 1.27)) hide)
    )
    (symbol "EFM8BB10F8G-A-QSOP24_0_1"
      (rectangle (start -13.97 13.97) (end 13.97 -13.97) (stroke (width 0.254)) (fill (type background)))
      (pin unconnected line (at 0 2.54 0) (length 3.81) (name "NC") (number "1") hide)
      (pin bidirectional line (at 17.78 -5.08 180) (length 3.81) (name "P1.6") (number "10"))
      (pin bidirectional line (at 17.78 -2.54 180) (length 3.81) (name "P1.5") (number "11"))
      (pin bidirectional line (at 17.78 -12.7 180) (length 3.81) (name "P2.1") (number "12"))
      (pin unconnected line (at 0 0 0) (length 3.81) (name "NC") (number "13") hide)
      (pin bidirectional line (at 17.78 0 180) (length 3.81) (name "P1.4") (number "14"))
      (pin bidirectional line (at 17.78 2.54 180) (length 3.81) (name "P1.3") (number "15"))
      (pin bidirectional line (at 17.78 5.08 180) (length 3.81) (name "P1.2") (number "16"))
      (pin bidirectional line (at 17.78 7.62 180) (length 3.81) (name "P1.1") (number "17"))
      (pin bidirectional line (at 17.78 10.16 180) (length 3.81) (name "P1.0") (number "18"))
      (pin bidirectional line (at -17.78 -10.16 0) (length 3.81) (name "P0.7") (number "19"))
      (pin bidirectional line (at -17.78 2.54 0) (length 3.81) (name "P0.2") (number "2"))
      (pin bidirectional line (at -17.78 -7.62 0) (length 3.81) (name "P0.6") (number "20"))
      (pin bidirectional line (at -17.78 -5.08 0) (length 3.81) (name "P0.5") (number "21"))
      (pin bidirectional line (at -17.78 -2.54 0) (length 3.81) (name "P0.4") (number "22"))
      (pin bidirectional line (at -17.78 0 0) (length 3.81) (name "P0.3") (number "23"))
      (pin unconnected line (at 0 -2.54 0) (length 3.81) (name "NC") (number "24") hide)
      (pin bidirectional line (at -17.78 5.08 0) (length 3.81) (name "P0.1") (number "3"))
      (pin bidirectional line (at -17.78 7.62 0) (length 3.81) (name "P0.0") (number "4"))
      (pin power_in line (at 0 -17.78 90) (length 3.81) (name "GND") (number "5"))
      (pin power_in line (at 0 17.78 270) (length 3.81) (name "VDD") (number "6"))
      (pin input line (at -17.78 10.16 0) (length 3.81) (name "RSTb/C2CK") (number "7"))
      (pin bidirectional line (at 17.78 -10.16 180) (length 3.81) (name "P2.0/C2D") (number "8"))
      (pin bidirectional line (at 17.78 -7.62 180) (length 3.81) (name "P1.7") (number "9"))
    )
  )
  (symbol "MCU_SiliconLabs:EFM8BB10F8I-A-QSOP24" (extends "EFM8BB10F8G-A-QSOP24")
    (property "Value" "EFM8BB10F8I-A-QSOP24" (id 1) (at 1.27 15.24 0)
      (effects (font (size 1.27 1.27)) (justify left))
    )
    (property "Datasheet" "https://www.silabs.com/documents/public/data-sheets/efm8bb1-datasheet.pdf" (id 3) (at 0 0 0)
      (effects (font (size 1.27 1.27)) hide)
    )
    (property "ki_keywords" "8051 microcontroller PWM UART SPI I2C ADC QSOP24" (id 4) (at 0 0 0)
      (effects (font (size 1.27 1.27)) hide)
    )
    (property "ki_description" "8051-compatible microcontroller, 25 MHz, 2.2 to 3.6V, 8K flash, 512B RAM, -40 to +125 C, QSOP24" (id 5) (at 0 0 0)
      (effects (font (size 1.27 1.27)) hide)
    )
  )
  (symbol "MCU_SiliconLabs:EFM8BB10F8G-A-SOIC16"
    (property "Reference" "U" (id 0) (at -13.97 15.24 0)
      (effects (font (size 1.27 1.27)) (justify left))
    )
    (property "Value" "EFM8BB10F8G-A-SOIC16" (id 1) (at 1.27 15.24 0)
      (effects (font (size 1.27 1.27)) (justify left))
    )
    (property "Footprint" "Package_SO:SOIC-16_3.9x9.9mm_P1.27mm" (id 2) (at 0 20.32 0)
      (effects (font (size 1.27 1.27)) hide)
    )
    (property "Datasheet" "https://www.silabs.com/documents/public/data-sheets/efm8bb1-datasheet.pdf" (id 3) (at 0 0 0)
      (effects (font (size 1.27 1.27)) hide)
    )
    (property "ki_keywords" "8051 microcontroller PWM UART SPI I2C ADC SOIC16" (id 4) (at 0 0 0)
      (effects (font (size 1.27 1.27)) hide)
    )
    (property "ki_description" "8051-compatible microcontroller, 25 MHz, 2.2 to 3.6V, 8K flash, 512B RAM, -40 to +85 C, SOIC16" (id 5) (at 0 0 0)
      (effects (font (size 1.27 1.27)) hide)
    )
    (property "ki_fp_filters" "SOIC*3.9x9.9mm*P1.27mm*" (id 6) (at 0 0 0)
      (effects (font (size 1.27 1.27)) hide)
    )
    (symbol "EFM8BB10F8G-A-SOIC16_0_1"
      (rectangle (start -13.97 13.97) (end 13.97 -13.97) (stroke (width 0.254)) (fill (type background)))
      (pin bidirectional line (at -17.78 2.54 0) (length 3.81) (name "P0.2") (number "1"))
      (pin bidirectional line (at 17.78 7.62 180) (length 3.81) (name "P1.1") (number "10"))
      (pin bidirectional line (at 17.78 10.16 180) (length 3.81) (name "P1.0") (number "11"))
      (pin bidirectional line (at -17.78 -10.16 0) (length 3.81) (name "P0.7") (number "12"))
      (pin bidirectional line (at -17.78 -7.62 0) (length 3.81) (name "P0.6") (number "13"))
      (pin bidirectional line (at -17.78 -5.08 0) (length 3.81) (name "P0.5") (number "14"))
      (pin bidirectional line (at -17.78 -2.54 0) (length 3.81) (name "P0.4") (number "15"))
      (pin bidirectional line (at -17.78 0 0) (length 3.81) (name "P0.3") (number "16"))
      (pin bidirectional line (at -17.78 5.08 0) (length 3.81) (name "P0.1") (number "2"))
      (pin bidirectional line (at -17.78 7.62 0) (length 3.81) (name "P0.0") (number "3"))
      (pin power_in line (at 0 -17.78 90) (length 3.81) (name "GND") (number "4"))
      (pin power_in line (at 0 17.78 270) (length 3.81) (name "VDD") (number "5"))
      (pin input line (at -17.78 10.16 0) (length 3.81) (name "RSTb/C2CK") (number "6"))
      (pin bidirectional line (at 17.78 0 180) (length 3.81) (name "P2.0/C2D") (number "7"))
      (pin bidirectional line (at 17.78 2.54 180) (length 3.81) (name "P1.3") (number "8"))
      (pin bidirectional line (at 17.78 5.08 180) (length 3.81) (name "P1.2") (number "9"))
    )
  )
  (symbol "MCU_SiliconLabs:EFM8BB10F8I-A-SOIC16" (extends "EFM8BB10F8G-A-SOIC16")
    (property "Value" "EFM8BB10F8I-A-SOIC16" (id 1) (at 1.27 15.24 0)
      (effects (font (size 1.27 1.27)) (justify left))
    )
    (property "Datasheet" "https://www.silabs.com/documents/public/data-sheets/efm8bb1-datasheet.pdf" (id 3) (at 0 0 0)
      (effects (font (size 1.27 1.27)) hide)
    )
    (property "ki_keywords" "8051 microcontroller PWM UART SPI I2C ADC SOIC16" (id 4) (at 0 0 0)
      (effects (font (size 1.27 1.27)) hide)
    )
    (property "ki_description" "8051-compatible microcontroller, 25 MHz, 2.2 to 3.6V, 8K flash, 512B RAM, -40 to +125 C, SOIC16" (id 5) (at 0 0 0)
      (effects (font (size 1.27 1.27)) hide)
    )
  )
)
