(kicad_symbol_lib (version 20200126) (host kicad_symbol_editor "(5.99.0-1517-ga8407fba4)")
  (symbol "MCU_Microchip_SAMA:ATSAMA5D21" (pin_names (offset 0.508))
    (property "Reference" "U" (id 0) (at 0 63.5 0))
    (property "Value" "ATSAMA5D21" (id 1) (at 0 60.96 0))
    (property "Footprint" "Package_BGA:Microchip_TFBGA-196_11x11mm_Layout14x14_P0.75mm_SMD" (id 2) (at 0 -2.54 0)
      (effects (font (size 1.27 1.27)) hide)
    )
    (property "Datasheet" "http://ww1.microchip.com/downloads/en/DeviceDoc/SAMA5D2-Series-Data-Sheet-DS60001476C.pdf" (id 3) (at -11.43 22.86 0)
      (effects (font (size 1.27 1.27)) hide)
    )
    (property "ki_locked" "" (id 4) (at 0 0 0))
    (property "ki_keywords" "MPU Cortex-A5 Cortex A5 Linux DDR DRAM BGA" (id 5) (at 0 0 0)
      (effects (font (size 1.27 1.27)) hide)
    )
    (property "ki_description" "ARM Cortex-A5 MPU, 500 MHz max, 1x SDIO/SD-CARD/eMMC/QSPI memory, 128 kB SRAM, 16-bit bus DDR2/DDR3 RAM, 1.1-1.32 V, 72 GPIO, TFBGA-196" (id 6) (at 0 0 0)
      (effects (font (size 1.27 1.27)) hide)
    )
    (property "ki_fp_filters" "Microchip*TFBGA*11x11mm*P0.75mm*" (id 7) (at 0 0 0)
      (effects (font (size 1.27 1.27)) hide)
    )
    (symbol "ATSAMA5D21_1_1"
      (rectangle (start 1.27 20.32) (end -5.08 -17.78)(fill (type background)))
      (pin bidirectional line (at 5.08 0 180) (length 3.81) (name "PA25") (number "L10"))
      (pin bidirectional line (at 5.08 17.78 180) (length 3.81) (name "PA18") (number "L9"))
      (pin bidirectional line (at 5.08 10.16 180) (length 3.81) (name "PA21") (number "M10"))
      (pin bidirectional line (at 5.08 -7.62 180) (length 3.81) (name "PA28") (number "M11"))
      (pin bidirectional line (at 5.08 -15.24 180) (length 3.81) (name "PA31") (number "M12"))
      (pin bidirectional line (at 5.08 12.7 180) (length 3.81) (name "PA20") (number "M9"))
      (pin bidirectional line (at 5.08 2.54 180) (length 3.81) (name "PA24") (number "N10"))
      (pin bidirectional line (at 5.08 -10.16 180) (length 3.81) (name "PA29") (number "N11"))
      (pin bidirectional line (at 5.08 -12.7 180) (length 3.81) (name "PA30") (number "N12"))
      (pin bidirectional line (at 5.08 15.24 180) (length 3.81) (name "PA19") (number "N9"))
      (pin bidirectional line (at 5.08 5.08 180) (length 3.81) (name "PA23") (number "P10"))
      (pin bidirectional line (at 5.08 -2.54 180) (length 3.81) (name "PA26") (number "P11"))
      (pin bidirectional line (at 5.08 -5.08 180) (length 3.81) (name "PA27") (number "P12"))
      (pin bidirectional line (at 5.08 7.62 180) (length 3.81) (name "PA22") (number "P9"))
    )
    (symbol "ATSAMA5D21_2_1"
      (rectangle (start -5.08 43.18) (end 1.27 -40.64) (stroke (width 0.254)) (fill (type background)))
      (pin bidirectional line (at 5.08 15.24 180) (length 3.81) (name "PB10") (number "A1"))
      (pin bidirectional line (at 5.08 20.32 180) (length 3.81) (name "PB8") (number "A2"))
      (pin bidirectional line (at 5.08 25.4 180) (length 3.81) (name "PB6") (number "A3"))
      (pin bidirectional line (at 5.08 30.48 180) (length 3.81) (name "PB4") (number "A4"))
      (pin bidirectional line (at 5.08 38.1 180) (length 3.81) (name "PB1") (number "A5"))
      (pin bidirectional line (at 5.08 40.64 180) (length 3.81) (name "PB0") (number "A6"))
      (pin bidirectional line (at 5.08 12.7 180) (length 3.81) (name "PB11") (number "B1"))
      (pin bidirectional line (at 5.08 10.16 180) (length 3.81) (name "PB12") (number "B2"))
      (pin bidirectional line (at 5.08 17.78 180) (length 3.81) (name "PB9") (number "B3"))
      (pin bidirectional line (at 5.08 22.86 180) (length 3.81) (name "PB7") (number "B4"))
      (pin bidirectional line (at 5.08 33.02 180) (length 3.81) (name "PB3") (number "B5"))
      (pin bidirectional line (at 5.08 35.56 180) (length 3.81) (name "PB2") (number "B6"))
      (pin bidirectional line (at 5.08 7.62 180) (length 3.81) (name "PB13") (number "C1"))
      (pin bidirectional line (at 5.08 -2.54 180) (length 3.81) (name "PB17") (number "C2"))
      (pin bidirectional line (at 5.08 -10.16 180) (length 3.81) (name "PB20") (number "C3"))
      (pin bidirectional line (at 5.08 -7.62 180) (length 3.81) (name "PB19") (number "C4"))
      (pin bidirectional line (at 5.08 0 180) (length 3.81) (name "PB16") (number "C5"))
      (pin bidirectional line (at 5.08 -12.7 180) (length 3.81) (name "PB21") (number "D1"))
      (pin bidirectional line (at 5.08 -15.24 180) (length 3.81) (name "PB22") (number "D2"))
      (pin bidirectional line (at 5.08 -20.32 180) (length 3.81) (name "PB24") (number "D3"))
      (pin bidirectional line (at 5.08 -5.08 180) (length 3.81) (name "PB18") (number "D4"))
      (pin bidirectional line (at 5.08 5.08 180) (length 3.81) (name "PB14") (number "D5"))
      (pin bidirectional line (at 5.08 27.94 180) (length 3.81) (name "PB5") (number "D6"))
      (pin bidirectional line (at 5.08 -17.78 180) (length 3.81) (name "PB23") (number "E1"))
      (pin bidirectional line (at 5.08 -25.4 180) (length 3.81) (name "PB26") (number "E2"))
      (pin bidirectional line (at 5.08 -22.86 180) (length 3.81) (name "PB25") (number "E3"))
      (pin bidirectional line (at 5.08 2.54 180) (length 3.81) (name "PB15") (number "E5"))
      (pin bidirectional line (at 5.08 -27.94 180) (length 3.81) (name "PB27") (number "E6"))
      (pin bidirectional line (at 5.08 -30.48 180) (length 3.81) (name "PB28") (number "F1"))
      (pin bidirectional line (at 5.08 -35.56 180) (length 3.81) (name "PB30") (number "F2"))
      (pin bidirectional line (at 5.08 -33.02 180) (length 3.81) (name "PB29") (number "F6"))
      (pin bidirectional line (at 5.08 -38.1 180) (length 3.81) (name "PB31") (number "F7"))
    )
    (symbol "ATSAMA5D21_3_1"
      (rectangle (start -5.08 -12.7) (end 1.27 12.7) (stroke (width 0.254)) (fill (type background)))
      (pin bidirectional line (at 5.08 -2.54 180) (length 3.81) (name "PC5") (number "J8"))
      (pin bidirectional line (at 5.08 -10.16 180) (length 3.81) (name "PC8") (number "J9"))
      (pin bidirectional line (at 5.08 2.54 180) (length 3.81) (name "PC3") (number "K10"))
      (pin bidirectional line (at 5.08 10.16 180) (length 3.81) (name "PC0") (number "M13"))
      (pin bidirectional line (at 5.08 -7.62 180) (length 3.81) (name "PC7") (number "M14"))
      (pin bidirectional line (at 5.08 5.08 180) (length 3.81) (name "PC2") (number "N13"))
      (pin bidirectional line (at 5.08 -5.08 180) (length 3.81) (name "PC6") (number "N14"))
      (pin bidirectional line (at 5.08 7.62 180) (length 3.81) (name "PC1") (number "P13"))
      (pin bidirectional line (at 5.08 0 180) (length 3.81) (name "PC4") (number "P14"))
    )
    (symbol "ATSAMA5D21_4_1"
      (rectangle (start -5.08 22.86) (end 1.27 -22.86) (stroke (width 0.254)) (fill (type background)))
      (pin bidirectional line (at 5.08 17.78 180) (length 3.81) (name "PD8") (number "F3"))
      (pin bidirectional line (at 5.08 20.32 180) (length 3.81) (name "PD7") (number "F5"))
      (pin bidirectional line (at 5.08 -2.54 180) (length 3.81) (name "PD16") (number "G1"))
      (pin bidirectional line (at 5.08 -5.08 180) (length 3.81) (name "PD17") (number "G2"))
      (pin bidirectional line (at 5.08 -7.62 180) (length 3.81) (name "PD18") (number "G3"))
      (pin bidirectional line (at 5.08 12.7 180) (length 3.81) (name "PD10") (number "G4"))
      (pin bidirectional line (at 5.08 15.24 180) (length 3.81) (name "PD9") (number "G5"))
      (pin bidirectional line (at 5.08 2.54 180) (length 3.81) (name "PD14") (number "G6"))
      (pin bidirectional line (at 5.08 10.16 180) (length 3.81) (name "PD11") (number "H1"))
      (pin bidirectional line (at 5.08 5.08 180) (length 3.81) (name "PD13") (number "H3"))
      (pin bidirectional line (at 5.08 -10.16 180) (length 3.81) (name "PD19") (number "H4"))
      (pin bidirectional line (at 5.08 0 180) (length 3.81) (name "PD15") (number "H5"))
      (pin bidirectional line (at 5.08 7.62 180) (length 3.81) (name "PD12") (number "H6"))
      (pin bidirectional line (at 5.08 -12.7 180) (length 3.81) (name "PD20") (number "J1"))
      (pin bidirectional line (at 5.08 -17.78 180) (length 3.81) (name "PD22") (number "J3"))
      (pin bidirectional line (at 5.08 -15.24 180) (length 3.81) (name "PD21") (number "K1"))
      (pin bidirectional line (at 5.08 -20.32 180) (length 3.81) (name "PD23") (number "K2"))
    )
    (symbol "ATSAMA5D21_5_1"
      (rectangle (start -13.97 11.43) (end 11.43 -8.89)(fill (type background)))
      (pin power_in line (at -7.62 15.24 270) (length 3.81) (name "VDDIOP0") (number "D7"))
      (pin power_in line (at -7.62 -12.7 90) (length 3.81) (name "GNDIOP0") (number "E4"))
      (pin passive line (at -7.62 -12.7 90) (length 3.81) (name "GNDIOP0") (number "E7") hide)
      (pin power_in line (at -10.16 15.24 270) (length 3.81) (name "VDDCORE") (number "E8"))
      (pin passive line (at -7.62 15.24 270) (length 3.81) (name "VDDIOP0") (number "F4") hide)
      (pin power_in line (at -10.16 -12.7 90) (length 3.81) (name "GNDCORE") (number "F8"))
      (pin passive line (at -10.16 -12.7 90) (length 3.81) (name "GNDCORE") (number "G7") hide)
      (pin passive line (at -10.16 15.24 270) (length 3.81) (name "VDDCORE") (number "G8") hide)
      (pin passive line (at -10.16 -12.7 90) (length 3.81) (name "GNDCORE") (number "G9") hide)
      (pin passive line (at 7.62 15.24 270) (length 3.81) (name "VDDANA") (number "H2") hide)
      (pin passive line (at -10.16 -12.7 90) (length 3.81) (name "GNDCORE") (number "H7") hide)
      (pin passive line (at -10.16 15.24 270) (length 3.81) (name "VDDCORE") (number "H8") hide)
      (pin passive line (at -10.16 15.24 270) (length 3.81) (name "VDDCORE") (number "H9") hide)
      (pin passive line (at 7.62 -12.7 90) (length 3.81) (name "GNDANA") (number "J2") hide)
      (pin passive line (at -10.16 -12.7 90) (length 3.81) (name "GNDCORE") (number "J4") hide)
      (pin passive line (at -10.16 15.24 270) (length 3.81) (name "VDDCORE") (number "J5") hide)
      (pin power_in line (at 7.62 15.24 270) (length 3.81) (name "VDDANA") (number "K3"))
      (pin power_in line (at 7.62 -12.7 90) (length 3.81) (name "GNDANA") (number "K4"))
      (pin power_in line (at -5.08 15.24 270) (length 3.81) (name "VDDIOP1") (number "K8"))
      (pin power_in line (at -5.08 -12.7 90) (length 3.81) (name "GNDIOP1") (number "K9"))
      (pin passive line (at -5.08 15.24 270) (length 3.81) (name "VDDIOP1") (number "L11") hide)
      (pin passive line (at -5.08 -12.7 90) (length 3.81) (name "GNDIOP1") (number "L12") hide)
      (pin power_in line (at 5.08 15.24 270) (length 3.81) (name "ADVREF") (number "L2"))
      (pin power_in line (at 2.54 -12.7 90) (length 3.81) (name "GNDDPLL") (number "L6"))
      (pin power_in line (at 0 15.24 270) (length 3.81) (name "VDDPLLA") (number "P3"))
      (pin power_in line (at 0 -12.7 90) (length 3.81) (name "GNDPLLA") (number "P4"))
    )
    (symbol "ATSAMA5D21_6_1"
      (rectangle (start -16.51 44.45) (end 13.97 -46.99)(fill (type background)))
      (pin bidirectional line (at -20.32 20.32 0) (length 3.81) (name "DDR_D6") (number "A10"))
      (pin output line (at 17.78 7.62 180) (length 3.81) (name "DDR_A11") (number "A11"))
      (pin output line (at 17.78 27.94 180) (length 3.81) (name "DDR_A3") (number "A12"))
      (pin output line (at 17.78 -2.54 180) (length 3.81) (name "DDR_CLK") (number "A13"))
      (pin output line (at 17.78 -15.24 180) (length 3.81) (name "DDR_WE") (number "A14"))
      (pin bidirectional line (at -20.32 33.02 0) (length 3.81) (name "DDR_D1") (number "A7"))
      (pin output line (at 17.78 -33.02 180) (length 3.81) (name "DDR_DQSN0") (number "A8"))
      (pin bidirectional line (at -20.32 25.4 0) (length 3.81) (name "DDR_D4") (number "A9"))
      (pin bidirectional line (at -20.32 17.78 0) (length 3.81) (name "DDR_D7") (number "B10"))
      (pin output line (at 17.78 5.08 180) (length 3.81) (name "DDR_A12") (number "B11"))
      (pin output line (at 17.78 30.48 180) (length 3.81) (name "DDR_A2") (number "B12"))
      (pin output line (at 17.78 -5.08 180) (length 3.81) (name "DDR_CLKN") (number "B13"))
      (pin output line (at 17.78 20.32 180) (length 3.81) (name "DDR_A6") (number "B14"))
      (pin bidirectional line (at -20.32 35.56 0) (length 3.81) (name "DDR_D0") (number "B7"))
      (pin output line (at 17.78 -27.94 180) (length 3.81) (name "DDR_DQS0") (number "B8"))
      (pin bidirectional line (at -20.32 27.94 0) (length 3.81) (name "DDR_D3") (number "B9"))
      (pin output line (at 17.78 15.24 180) (length 3.81) (name "DDR_A8") (number "C10"))
      (pin output line (at 17.78 33.02 180) (length 3.81) (name "DDR_A1") (number "C11"))
      (pin power_in line (at 0 48.26 270) (length 3.81) (name "DDR_VREF") (number "C12"))
      (pin output line (at 17.78 -20.32 180) (length 3.81) (name "DDR_CAS") (number "C13"))
      (pin output line (at 17.78 -17.78 180) (length 3.81) (name "DDR_RAS") (number "C14"))
      (pin power_in line (at -5.08 48.26 270) (length 3.81) (name "VDDIODDR") (number "C6"))
      (pin power_in line (at -5.08 -50.8 90) (length 3.81) (name "GNDIODDR") (number "C7"))
      (pin bidirectional line (at -20.32 30.48 0) (length 3.81) (name "DDR_D2") (number "C8"))
      (pin bidirectional line (at -20.32 22.86 0) (length 3.81) (name "DDR_D5") (number "C9"))
      (pin output line (at 17.78 12.7 180) (length 3.81) (name "DDR_A9") (number "D10"))
      (pin output line (at 17.78 25.4 180) (length 3.81) (name "DDR_A4") (number "D11"))
      (pin passive line (at -5.08 -50.8 90) (length 3.81) (name "GNDIODDR") (number "D12") hide)
      (pin output line (at 17.78 40.64 180) (length 3.81) (name "~DDR_RESET") (number "D13"))
      (pin output line (at 17.78 22.86 180) (length 3.81) (name "DDR_A5") (number "D14"))
      (pin output line (at 17.78 -22.86 180) (length 3.81) (name "DDR_DQM0") (number "D8"))
      (pin output line (at 17.78 17.78 180) (length 3.81) (name "DDR_A7") (number "D9"))
      (pin passive line (at -5.08 48.26 270) (length 3.81) (name "VDDIODDR") (number "E10") hide)
      (pin output line (at 17.78 35.56 180) (length 3.81) (name "DDR_A0") (number "E11"))
      (pin passive line (at -5.08 48.26 270) (length 3.81) (name "VDDIODDR") (number "E12") hide)
      (pin output line (at 17.78 2.54 180) (length 3.81) (name "DDR_A13") (number "E13"))
      (pin output line (at 17.78 -7.62 180) (length 3.81) (name "DDR_CKE") (number "E14"))
      (pin passive line (at -5.08 -50.8 90) (length 3.81) (name "GNDIODDR") (number "E9") hide)
      (pin input line (at -20.32 40.64 0) (length 3.81) (name "DDR_CAL") (number "F10"))
      (pin output line (at 17.78 -12.7 180) (length 3.81) (name "DDR_CS") (number "F11"))
      (pin passive line (at -5.08 -50.8 90) (length 3.81) (name "GNDIODDR") (number "F12") hide)
      (pin output line (at 17.78 -38.1 180) (length 3.81) (name "DDR_BA0") (number "F13"))
      (pin output line (at 17.78 -43.18 180) (length 3.81) (name "DDR_BA2") (number "F14"))
      (pin output line (at 17.78 10.16 180) (length 3.81) (name "DDR_A10") (number "F9"))
      (pin passive line (at -5.08 48.26 270) (length 3.81) (name "VDDIODDR") (number "G10") hide)
      (pin passive line (at -5.08 -50.8 90) (length 3.81) (name "GNDIODDR") (number "G11") hide)
      (pin passive line (at -5.08 48.26 270) (length 3.81) (name "VDDIODDR") (number "G12") hide)
      (pin output line (at 17.78 -40.64 180) (length 3.81) (name "DDR_BA1") (number "G13"))
      (pin output line (at 17.78 -25.4 180) (length 3.81) (name "DDR_DQM1") (number "G14"))
      (pin passive line (at -5.08 -50.8 90) (length 3.81) (name "GNDIODDR") (number "H10") hide)
      (pin passive line (at -5.08 48.26 270) (length 3.81) (name "VDDIODDR") (number "H11") hide)
      (pin passive line (at 0 48.26 270) (length 3.81) (name "DDR_VREF") (number "H12") hide)
      (pin bidirectional line (at -20.32 15.24 0) (length 3.81) (name "DDR_D8") (number "H13"))
      (pin bidirectional line (at -20.32 12.7 0) (length 3.81) (name "DDR_D9") (number "H14"))
      (pin passive line (at -5.08 48.26 270) (length 3.81) (name "VDDIODDR") (number "J10") hide)
      (pin passive line (at -5.08 -50.8 90) (length 3.81) (name "GNDIODDR") (number "J11") hide)
      (pin bidirectional line (at -20.32 0 0) (length 3.81) (name "DDR_D14") (number "J12"))
      (pin bidirectional line (at -20.32 10.16 0) (length 3.81) (name "DDR_D10") (number "J13"))
      (pin bidirectional line (at -20.32 7.62 0) (length 3.81) (name "DDR_D11") (number "J14"))
      (pin bidirectional line (at -20.32 -2.54 0) (length 3.81) (name "DDR_D15") (number "K12"))
      (pin output line (at 17.78 -35.56 180) (length 3.81) (name "DDR_DQSN1") (number "K13"))
      (pin output line (at 17.78 -30.48 180) (length 3.81) (name "DDR_DQS1") (number "K14"))
      (pin bidirectional line (at -20.32 5.08 0) (length 3.81) (name "DDR_D12") (number "L13"))
      (pin bidirectional line (at -20.32 2.54 0) (length 3.81) (name "DDR_D13") (number "L14"))
    )
    (symbol "ATSAMA5D21_7_1"
      (rectangle (start -13.97 11.43) (end 11.43 -11.43)(fill (type background)))
      (pin power_in line (at -5.08 15.24 270) (length 3.81) (name "VDDFUSE") (number "K11"))
      (pin power_in line (at 0 15.24 270) (length 3.81) (name "VDDUTMII") (number "K7"))
      (pin power_in line (at 2.54 15.24 270) (length 3.81) (name "VBG") (number "L7"))
      (pin power_in line (at 0 -15.24 90) (length 3.81) (name "GNDUTMII") (number "L8"))
      (pin power_in line (at -2.54 15.24 270) (length 3.81) (name "VDDUTMIC") (number "M7"))
      (pin power_in line (at -2.54 -15.24 90) (length 3.81) (name "GNDUTMIC") (number "M8"))
      (pin bidirectional line (at -17.78 0 0) (length 3.81) (name "HHSDPA") (number "N7"))
      (pin bidirectional line (at 15.24 0 180) (length 3.81) (name "HHSDPB") (number "N8"))
      (pin bidirectional line (at -17.78 -2.54 0) (length 3.81) (name "HHSDMA") (number "P7"))
      (pin bidirectional line (at 15.24 -2.54 180) (length 3.81) (name "HHSDMB") (number "P8"))
    )
    (symbol "ATSAMA5D21_8_1"
      (rectangle (start -11.43 16.51) (end 11.43 -16.51)(fill (type background)))
      (pin bidirectional line (at 15.24 12.7 180) (length 3.81) (name "PIOBU0") (number "K5"))
      (pin output line (at -15.24 7.62 0) (length 3.81) (name "XOUT32") (number "L1"))
      (pin bidirectional line (at 15.24 10.16 180) (length 3.81) (name "PIOBU1") (number "L3"))
      (pin input line (at -15.24 -2.54 0) (length 3.81) (name "JTAGSEL") (number "L4"))
      (pin bidirectional line (at 15.24 2.54 180) (length 3.81) (name "PIOBU4") (number "L5"))
      (pin input line (at -15.24 12.7 0) (length 3.81) (name "XIN32") (number "M1"))
      (pin input line (at -15.24 0 0) (length 3.81) (name "TST") (number "M2"))
      (pin bidirectional line (at 15.24 7.62 180) (length 3.81) (name "PIOBU2") (number "M3"))
      (pin power_in line (at 0 20.32 270) (length 3.81) (name "VDDBU") (number "M4"))
      (pin power_in line (at 0 -20.32 90) (length 3.81) (name "GNDBU") (number "M5"))
      (pin bidirectional line (at 15.24 0 180) (length 3.81) (name "PIOBU5") (number "M6"))
      (pin output line (at 15.24 -5.08 180) (length 3.81) (name "SHDN") (number "N1"))
      (pin input line (at -15.24 -10.16 0) (length 3.81) (name "COMPP") (number "N2"))
      (pin input line (at -15.24 2.54 0) (length 3.81) (name "~RST") (number "N3"))
      (pin bidirectional line (at 15.24 5.08 180) (length 3.81) (name "PIOBU3") (number "N4"))
      (pin input line (at -15.24 -5.08 0) (length 3.81) (name "WKUP") (number "P1"))
      (pin input line (at -15.24 -12.7 0) (length 3.81) (name "COMPN") (number "P2"))
    )
    (symbol "ATSAMA5D21_9_1"
      (rectangle (start -7.62 16.51) (end 3.81 -16.51)(fill (type background)))
      (pin power_in line (at -2.54 -20.32 90) (length 3.81) (name "GNDAUDIOPLL") (number "J6"))
      (pin output line (at 7.62 0 180) (length 3.81) (name "CLK_AUDIO") (number "J7"))
      (pin power_in line (at -2.54 20.32 270) (length 3.81) (name "VDDAUDIOPLL") (number "K6"))
    )
    (symbol "ATSAMA5D21_10_1"
      (rectangle (start -3.81 6.35) (end 6.35 -6.35)(fill (type background)))
      (pin power_in line (at 0 10.16 270) (length 3.81) (name "VDDOSC") (number "N5"))
      (pin power_in line (at -2.54 -10.16 90) (length 3.81) (name "GNDOSC") (number "N6"))
      (pin input line (at 10.16 2.54 180) (length 3.81) (name "XIN") (number "P5"))
      (pin output line (at 10.16 -2.54 180) (length 3.81) (name "XOUT") (number "P6"))
    )
  )
)
