(kicad_symbol_lib (version 20200126) (host kicad_symbol_editor "(5.99.0-1517-ga8407fba4)")
  (symbol "MCU_Parallax:P8X32A-D40"
    (property "Reference" "U" (id 0) (at -13.97 25.4 0)
      (effects (font (size 1.27 1.27)) (justify left))
    )
    (property "Value" "P8X32A-D40" (id 1) (at 1.27 25.4 0)
      (effects (font (size 1.27 1.27)) (justify left))
    )
    (property "Footprint" "Package_DIP:DIP-40_W15.24mm" (id 2) (at 0 30.48 0)
      (effects (font (size 1.27 1.27)) hide)
    )
    (property "Datasheet" "https://www.parallax.com/sites/default/files/downloads/P8X32A-Propeller-Datasheet-v1.4.0_0.pdf" (id 3) (at 0 0 0)
      (effects (font (size 1.27 1.27)) hide)
    )
    (property "ki_keywords" "microcontroller multicore Parallax Propeller DIP" (id 4) (at 0 0 0)
      (effects (font (size 1.27 1.27)) hide)
    )
    (property "ki_description" "Parallax Propeller 8 core, 32 bit, 80 MHz microcontroller, 3.3VDC, 40-pin DIP" (id 5) (at 0 0 0)
      (effects (font (size 1.27 1.27)) hide)
    )
    (property "ki_fp_filters" "DIP*40*W15.24mm*" (id 6) (at 0 0 0)
      (effects (font (size 1.27 1.27)) hide)
    )
    (symbol "P8X32A-D40_0_1"
      (text "RX" (at 8.89 -22.86 0)
        (effects (font (size 1.27 1.27)) (justify right))
      )
      (text "SCL" (at 8.89 -15.24 0)
        (effects (font (size 1.27 1.27)) (justify right))
      )
      (text "SDA" (at 8.89 -17.78 0)
        (effects (font (size 1.27 1.27)) (justify right))
      )
      (text "TX" (at 8.89 -20.32 0)
        (effects (font (size 1.27 1.27)) (justify right))
      )
      (rectangle (start -13.97 24.13) (end 13.97 -24.13) (stroke (width 0.254)) (fill (type background)))
      (pin bidirectional line (at -17.78 15.24 0) (length 3.81) (name "P0") (number "1"))
      (pin bidirectional line (at -17.78 12.7 0) (length 3.81) (name "P1") (number "2"))
      (pin bidirectional line (at -17.78 10.16 0) (length 3.81) (name "P2") (number "3"))
      (pin bidirectional line (at -17.78 7.62 0) (length 3.81) (name "P3") (number "4"))
      (pin bidirectional line (at -17.78 5.08 0) (length 3.81) (name "P4") (number "5"))
      (pin bidirectional line (at -17.78 2.54 0) (length 3.81) (name "P5") (number "6"))
      (pin bidirectional line (at -17.78 0 0) (length 3.81) (name "P6") (number "7"))
      (pin bidirectional line (at -17.78 -2.54 0) (length 3.81) (name "P7") (number "8"))
      (pin power_in line (at -2.54 -27.94 90) (length 3.81) (name "VSS") (number "9"))
      (pin input line (at -17.78 20.32 0) (length 3.81) (name "~BOE") (number "10"))
      (pin bidirectional line (at -17.78 -22.86 0) (length 3.81) (name "P15") (number "20"))
      (pin input line (at 17.78 22.86 180) (length 3.81) (name "XI") (number "30"))
      (pin bidirectional line (at 17.78 -22.86 180) (length 3.81) (name "P31") (number "40"))
      (pin bidirectional line (at -17.78 22.86 0) (length 3.81) (name "~RES") (number "11"))
      (pin bidirectional line (at 17.78 15.24 180) (length 3.81) (name "P16") (number "21"))
      (pin output line (at 17.78 20.32 180) (length 3.81) (name "XO") (number "31"))
      (pin power_in line (at -2.54 27.94 270) (length 3.81) (name "VDD") (number "12"))
      (pin bidirectional line (at 17.78 12.7 180) (length 3.81) (name "P17") (number "22"))
      (pin power_in line (at 0 27.94 270) (length 3.81) (name "VDD") (number "32"))
      (pin bidirectional line (at -17.78 -5.08 0) (length 3.81) (name "P8") (number "13"))
      (pin bidirectional line (at 17.78 10.16 180) (length 3.81) (name "P18") (number "23"))
      (pin bidirectional line (at 17.78 -5.08 180) (length 3.81) (name "P24") (number "33"))
      (pin bidirectional line (at -17.78 -7.62 0) (length 3.81) (name "P9") (number "14"))
      (pin bidirectional line (at 17.78 7.62 180) (length 3.81) (name "P19") (number "24"))
      (pin bidirectional line (at 17.78 -7.62 180) (length 3.81) (name "P25") (number "34"))
      (pin bidirectional line (at -17.78 -10.16 0) (length 3.81) (name "P10") (number "15"))
      (pin bidirectional line (at 17.78 5.08 180) (length 3.81) (name "P20") (number "25"))
      (pin bidirectional line (at 17.78 -10.16 180) (length 3.81) (name "P26") (number "35"))
      (pin bidirectional line (at -17.78 -12.7 0) (length 3.81) (name "P11") (number "16"))
      (pin bidirectional line (at 17.78 2.54 180) (length 3.81) (name "P21") (number "26"))
      (pin bidirectional line (at 17.78 -12.7 180) (length 3.81) (name "P27") (number "36"))
      (pin bidirectional line (at -17.78 -15.24 0) (length 3.81) (name "P12") (number "17"))
      (pin bidirectional line (at 17.78 0 180) (length 3.81) (name "P22") (number "27"))
      (pin bidirectional line (at 17.78 -15.24 180) (length 3.81) (name "P28") (number "37"))
      (pin bidirectional line (at -17.78 -17.78 0) (length 3.81) (name "P13") (number "18"))
      (pin bidirectional line (at 17.78 -2.54 180) (length 3.81) (name "P23") (number "28"))
      (pin bidirectional line (at 17.78 -17.78 180) (length 3.81) (name "P29") (number "38"))
      (pin bidirectional line (at -17.78 -20.32 0) (length 3.81) (name "P14") (number "19"))
      (pin power_in line (at 0 -27.94 90) (length 3.81) (name "VSS") (number "29"))
      (pin bidirectional line (at 17.78 -20.32 180) (length 3.81) (name "P30") (number "39"))
    )
  )
  (symbol "MCU_Parallax:P8X32A-M44"
    (property "Reference" "U" (id 0) (at -13.97 25.4 0)
      (effects (font (size 1.27 1.27)) (justify left))
    )
    (property "Value" "P8X32A-M44" (id 1) (at 3.81 25.4 0)
      (effects (font (size 1.27 1.27)) (justify left))
    )
    (property "Footprint" "Package_DFN_QFN:QFN-44-1EP_9x9mm_P0.65mm_EP7.5x7.5mm" (id 2) (at 0 30.48 0)
      (effects (font (size 1.27 1.27)) hide)
    )
    (property "Datasheet" "https://www.parallax.com/sites/default/files/downloads/P8X32A-Propeller-Datasheet-v1.4.0_0.pdf" (id 3) (at 0 0 0)
      (effects (font (size 1.27 1.27)) hide)
    )
    (property "ki_keywords" "microcontroller multicore Parallax Propeller QFN" (id 4) (at 0 0 0)
      (effects (font (size 1.27 1.27)) hide)
    )
    (property "ki_description" "Parallax Propeller 8 core, 32 bit, 80 MHz microcontroller, 3.3VDC, 44-pin QFN" (id 5) (at 0 0 0)
      (effects (font (size 1.27 1.27)) hide)
    )
    (property "ki_fp_filters" "QFN*44*1EP*9x9mm*P0.65mm*" (id 6) (at 0 0 0)
      (effects (font (size 1.27 1.27)) hide)
    )
    (symbol "P8X32A-M44_0_1"
      (text "RX" (at 8.89 -22.86 0)
        (effects (font (size 1.27 1.27)) (justify right))
      )
      (text "SCL" (at 8.89 -15.24 0)
        (effects (font (size 1.27 1.27)) (justify right))
      )
      (text "SDA" (at 8.89 -17.78 0)
        (effects (font (size 1.27 1.27)) (justify right))
      )
      (text "TX" (at 8.89 -20.32 0)
        (effects (font (size 1.27 1.27)) (justify right))
      )
      (rectangle (start -13.97 24.13) (end 13.97 -24.13) (stroke (width 0.254)) (fill (type background)))
      (pin bidirectional line (at -17.78 5.08 0) (length 3.81) (name "P4") (number "1"))
      (pin bidirectional line (at -17.78 2.54 0) (length 3.81) (name "P5") (number "2"))
      (pin bidirectional line (at -17.78 0 0) (length 3.81) (name "P6") (number "3"))
      (pin bidirectional line (at -17.78 -2.54 0) (length 3.81) (name "P7") (number "4"))
      (pin power_in line (at -5.08 -27.94 90) (length 3.81) (name "VSS") (number "5"))
      (pin input line (at -17.78 20.32 0) (length 3.81) (name "~BOE") (number "6"))
      (pin bidirectional line (at -17.78 22.86 0) (length 3.81) (name "~RES") (number "7"))
      (pin power_in line (at -5.08 27.94 270) (length 3.81) (name "VDD") (number "8"))
      (pin bidirectional line (at -17.78 -5.08 0) (length 3.81) (name "P8") (number "9"))
      (pin bidirectional line (at -17.78 -7.62 0) (length 3.81) (name "P9") (number "10"))
      (pin bidirectional line (at 17.78 12.7 180) (length 3.81) (name "P17") (number "20"))
      (pin power_in line (at 0 27.94 270) (length 3.81) (name "VDD") (number "30"))
      (pin power_in line (at 2.54 27.94 270) (length 3.81) (name "VDD") (number "40"))
      (pin bidirectional line (at -17.78 -10.16 0) (length 3.81) (name "P10") (number "11"))
      (pin bidirectional line (at 17.78 10.16 180) (length 3.81) (name "P18") (number "21"))
      (pin bidirectional line (at 17.78 -5.08 180) (length 3.81) (name "P24") (number "31"))
      (pin bidirectional line (at -17.78 15.24 0) (length 3.81) (name "P0") (number "41"))
      (pin bidirectional line (at -17.78 -12.7 0) (length 3.81) (name "P11") (number "12"))
      (pin bidirectional line (at 17.78 7.62 180) (length 3.81) (name "P19") (number "22"))
      (pin bidirectional line (at 17.78 -7.62 180) (length 3.81) (name "P25") (number "32"))
      (pin bidirectional line (at -17.78 12.7 0) (length 3.81) (name "P1") (number "42"))
      (pin bidirectional line (at -17.78 -15.24 0) (length 3.81) (name "P12") (number "13"))
      (pin bidirectional line (at 17.78 5.08 180) (length 3.81) (name "P20") (number "23"))
      (pin bidirectional line (at 17.78 -10.16 180) (length 3.81) (name "P26") (number "33"))
      (pin bidirectional line (at -17.78 10.16 0) (length 3.81) (name "P2") (number "43"))
      (pin bidirectional line (at -17.78 -17.78 0) (length 3.81) (name "P13") (number "14"))
      (pin bidirectional line (at 17.78 2.54 180) (length 3.81) (name "P21") (number "24"))
      (pin bidirectional line (at 17.78 -12.7 180) (length 3.81) (name "P27") (number "34"))
      (pin bidirectional line (at -17.78 7.62 0) (length 3.81) (name "P3") (number "44"))
      (pin bidirectional line (at -17.78 -20.32 0) (length 3.81) (name "P14") (number "15"))
      (pin bidirectional line (at 17.78 0 180) (length 3.81) (name "P22") (number "25"))
      (pin bidirectional line (at 17.78 -15.24 180) (length 3.81) (name "P28") (number "35"))
      (pin power_in line (at 5.08 -27.94 90) (length 3.81) (name "VSS") (number "45"))
      (pin bidirectional line (at -17.78 -22.86 0) (length 3.81) (name "P15") (number "16"))
      (pin bidirectional line (at 17.78 -2.54 180) (length 3.81) (name "P23") (number "26"))
      (pin bidirectional line (at 17.78 -17.78 180) (length 3.81) (name "P29") (number "36"))
      (pin power_in line (at -2.54 -27.94 90) (length 3.81) (name "VSS") (number "17"))
      (pin power_in line (at 0 -27.94 90) (length 3.81) (name "VSS") (number "27"))
      (pin bidirectional line (at 17.78 -20.32 180) (length 3.81) (name "P30") (number "37"))
      (pin power_in line (at -2.54 27.94 270) (length 3.81) (name "VDD") (number "18"))
      (pin input line (at 17.78 22.86 180) (length 3.81) (name "XI") (number "28"))
      (pin bidirectional line (at 17.78 -22.86 180) (length 3.81) (name "P31") (number "38"))
      (pin bidirectional line (at 17.78 15.24 180) (length 3.81) (name "P16") (number "19"))
      (pin output line (at 17.78 20.32 180) (length 3.81) (name "XO") (number "29"))
      (pin power_in line (at 2.54 -27.94 90) (length 3.81) (name "VSS") (number "39"))
    )
  )
  (symbol "MCU_Parallax:P8X32A-Q44"
    (property "Reference" "U" (id 0) (at -13.97 25.4 0)
      (effects (font (size 1.27 1.27)) (justify left))
    )
    (property "Value" "P8X32A-Q44" (id 1) (at 3.81 25.4 0)
      (effects (font (size 1.27 1.27)) (justify left))
    )
    (property "Footprint" "Package_QFP:LQFP-44_10x10mm_P0.8mm" (id 2) (at 0 30.48 0)
      (effects (font (size 1.27 1.27)) hide)
    )
    (property "Datasheet" "https://www.parallax.com/sites/default/files/downloads/P8X32A-Propeller-Datasheet-v1.4.0_0.pdf" (id 3) (at 0 0 0)
      (effects (font (size 1.27 1.27)) hide)
    )
    (property "ki_keywords" "microcontroller multicore Parallax Propeller LQFP" (id 4) (at 0 0 0)
      (effects (font (size 1.27 1.27)) hide)
    )
    (property "ki_description" "Parallax Propeller 8 core, 32 bit, 80 MHz microcontroller, 3.3VDC, 44-pin LQFP" (id 5) (at 0 0 0)
      (effects (font (size 1.27 1.27)) hide)
    )
    (property "ki_fp_filters" "LQFP*44*10x10mm*P0.8mm*" (id 6) (at 0 0 0)
      (effects (font (size 1.27 1.27)) hide)
    )
    (symbol "P8X32A-Q44_0_1"
      (text "RX" (at 8.89 -22.86 0)
        (effects (font (size 1.27 1.27)) (justify right))
      )
      (text "SCL" (at 8.89 -15.24 0)
        (effects (font (size 1.27 1.27)) (justify right))
      )
      (text "SDA" (at 8.89 -17.78 0)
        (effects (font (size 1.27 1.27)) (justify right))
      )
      (text "TX" (at 8.89 -20.32 0)
        (effects (font (size 1.27 1.27)) (justify right))
      )
      (rectangle (start -13.97 24.13) (end 13.97 -24.13) (stroke (width 0.254)) (fill (type background)))
      (pin bidirectional line (at -17.78 5.08 0) (length 3.81) (name "P4") (number "1"))
      (pin bidirectional line (at -17.78 2.54 0) (length 3.81) (name "P5") (number "2"))
      (pin bidirectional line (at -17.78 0 0) (length 3.81) (name "P6") (number "3"))
      (pin bidirectional line (at -17.78 -2.54 0) (length 3.81) (name "P7") (number "4"))
      (pin power_in line (at -5.08 -27.94 90) (length 3.81) (name "VSS") (number "5"))
      (pin input line (at -17.78 20.32 0) (length 3.81) (name "~BOE") (number "6"))
      (pin bidirectional line (at -17.78 22.86 0) (length 3.81) (name "~RES") (number "7"))
      (pin power_in line (at -5.08 27.94 270) (length 3.81) (name "VDD") (number "8"))
      (pin bidirectional line (at -17.78 -5.08 0) (length 3.81) (name "P8") (number "9"))
      (pin bidirectional line (at -17.78 -7.62 0) (length 3.81) (name "P9") (number "10"))
      (pin bidirectional line (at 17.78 12.7 180) (length 3.81) (name "P17") (number "20"))
      (pin power_in line (at 0 27.94 270) (length 3.81) (name "VDD") (number "30"))
      (pin power_in line (at 2.54 27.94 270) (length 3.81) (name "VDD") (number "40"))
      (pin bidirectional line (at -17.78 -10.16 0) (length 3.81) (name "P10") (number "11"))
      (pin bidirectional line (at 17.78 10.16 180) (length 3.81) (name "P18") (number "21"))
      (pin bidirectional line (at 17.78 -5.08 180) (length 3.81) (name "P24") (number "31"))
      (pin bidirectional line (at -17.78 15.24 0) (length 3.81) (name "P0") (number "41"))
      (pin bidirectional line (at -17.78 -12.7 0) (length 3.81) (name "P11") (number "12"))
      (pin bidirectional line (at 17.78 7.62 180) (length 3.81) (name "P19") (number "22"))
      (pin bidirectional line (at 17.78 -7.62 180) (length 3.81) (name "P25") (number "32"))
      (pin bidirectional line (at -17.78 12.7 0) (length 3.81) (name "P1") (number "42"))
      (pin bidirectional line (at -17.78 -15.24 0) (length 3.81) (name "P12") (number "13"))
      (pin bidirectional line (at 17.78 5.08 180) (length 3.81) (name "P20") (number "23"))
      (pin bidirectional line (at 17.78 -10.16 180) (length 3.81) (name "P26") (number "33"))
      (pin bidirectional line (at -17.78 10.16 0) (length 3.81) (name "P2") (number "43"))
      (pin bidirectional line (at -17.78 -17.78 0) (length 3.81) (name "P13") (number "14"))
      (pin bidirectional line (at 17.78 2.54 180) (length 3.81) (name "P21") (number "24"))
      (pin bidirectional line (at 17.78 -12.7 180) (length 3.81) (name "P27") (number "34"))
      (pin bidirectional line (at -17.78 7.62 0) (length 3.81) (name "P3") (number "44"))
      (pin bidirectional line (at -17.78 -20.32 0) (length 3.81) (name "P14") (number "15"))
      (pin bidirectional line (at 17.78 0 180) (length 3.81) (name "P22") (number "25"))
      (pin bidirectional line (at 17.78 -15.24 180) (length 3.81) (name "P28") (number "35"))
      (pin bidirectional line (at -17.78 -22.86 0) (length 3.81) (name "P15") (number "16"))
      (pin bidirectional line (at 17.78 -2.54 180) (length 3.81) (name "P23") (number "26"))
      (pin bidirectional line (at 17.78 -17.78 180) (length 3.81) (name "P29") (number "36"))
      (pin power_in line (at -2.54 -27.94 90) (length 3.81) (name "VSS") (number "17"))
      (pin power_in line (at 0 -27.94 90) (length 3.81) (name "VSS") (number "27"))
      (pin bidirectional line (at 17.78 -20.32 180) (length 3.81) (name "P30") (number "37"))
      (pin power_in line (at -2.54 27.94 270) (length 3.81) (name "VDD") (number "18"))
      (pin input line (at 17.78 22.86 180) (length 3.81) (name "XI") (number "28"))
      (pin bidirectional line (at 17.78 -22.86 180) (length 3.81) (name "P31") (number "38"))
      (pin bidirectional line (at 17.78 15.24 180) (length 3.81) (name "P16") (number "19"))
      (pin output line (at 17.78 20.32 180) (length 3.81) (name "XO") (number "29"))
      (pin power_in line (at 2.54 -27.94 90) (length 3.81) (name "VSS") (number "39"))
    )
  )
)
