(kicad_symbol_lib (version 20200126) (host kicad_symbol_editor "(5.99.0-1517-ga8407fba4)")
  (symbol "MCU_Microchip_8051:AT89C2051-12PU" (pin_names (offset 0.508))
    (property "Reference" "U" (id 0) (at -12.7 26.67 0)
      (effects (font (size 1.27 1.27)) (justify left bottom))
    )
    (property "Value" "AT89C2051-12PU" (id 1) (at 2.54 -26.67 0)
      (effects (font (size 1.27 1.27)) (justify left top))
    )
    (property "Footprint" "Package_DIP:DIP-20_W7.62mm" (id 2) (at 0 0 0)
      (effects (font (size 1.27 1.27) italic) hide)
    )
    (property "Datasheet" "http://ww1.microchip.com/downloads/en/DeviceDoc/doc0368.pdf" (id 3) (at 0 0 0)
      (effects (font (size 1.27 1.27)) hide)
    )
    (property "ki_keywords" "MCS-51 8bit Flash Microcontroller" (id 4) (at 0 0 0)
      (effects (font (size 1.27 1.27)) hide)
    )
    (property "ki_description" "12MHz, 2kB Flash, 128B SRAM, DIP-20" (id 5) (at 0 0 0)
      (effects (font (size 1.27 1.27)) hide)
    )
    (property "ki_fp_filters" "DIP*W7.62mm*" (id 6) (at 0 0 0)
      (effects (font (size 1.27 1.27)) hide)
    )
    (symbol "AT89C2051-12PU_0_1"
      (rectangle (start -12.7 -25.4) (end 12.7 25.4) (stroke (width 0.254)) (fill (type background)))
    )
    (symbol "AT89C2051-12PU_1_1"
      (pin input line (at -15.24 20.32 0) (length 2.54) (name "RST/VPP") (number "1"))
      (pin power_in line (at 0 -27.94 90) (length 2.54) (name "GND") (number "10"))
      (pin bidirectional line (at 15.24 -17.78 180) (length 2.54) (name "P3.7") (number "11"))
      (pin bidirectional line (at 15.24 20.32 180) (length 2.54) (name "P1.0") (number "12"))
      (pin bidirectional line (at 15.24 17.78 180) (length 2.54) (name "P1.1") (number "13"))
      (pin bidirectional line (at 15.24 15.24 180) (length 2.54) (name "P1.2") (number "14"))
      (pin bidirectional line (at 15.24 12.7 180) (length 2.54) (name "P1.3") (number "15"))
      (pin bidirectional line (at 15.24 10.16 180) (length 2.54) (name "P1.4") (number "16"))
      (pin bidirectional line (at 15.24 7.62 180) (length 2.54) (name "P1.5") (number "17"))
      (pin bidirectional line (at 15.24 5.08 180) (length 2.54) (name "P1.6") (number "18"))
      (pin bidirectional line (at 15.24 2.54 180) (length 2.54) (name "P1.7") (number "19"))
      (pin bidirectional line (at 15.24 -2.54 180) (length 2.54) (name "P3.0") (number "2"))
      (pin power_in line (at 0 27.94 270) (length 2.54) (name "VCC") (number "20"))
      (pin bidirectional line (at 15.24 -5.08 180) (length 2.54) (name "P3.1") (number "3"))
      (pin output line (at -15.24 10.16 0) (length 2.54) (name "XTAL2") (number "4"))
      (pin input line (at -15.24 15.24 0) (length 2.54) (name "XTAL1") (number "5"))
      (pin bidirectional line (at 15.24 -7.62 180) (length 2.54) (name "P3.2") (number "6"))
      (pin bidirectional line (at 15.24 -10.16 180) (length 2.54) (name "P3.3") (number "7"))
      (pin bidirectional line (at 15.24 -12.7 180) (length 2.54) (name "P3.4") (number "8"))
      (pin bidirectional line (at 15.24 -15.24 180) (length 2.54) (name "P3.5") (number "9"))
    )
  )
  (symbol "MCU_Microchip_8051:AT89C2051-24PU" (extends "AT89C2051-12PU")
    (property "Value" "AT89C2051-24PU" (id 1) (at 2.54 -26.67 0)
      (effects (font (size 1.27 1.27)) (justify left top))
    )
    (property "Datasheet" "http://ww1.microchip.com/downloads/en/DeviceDoc/doc0368.pdf" (id 3) (at 0 0 0)
      (effects (font (size 1.27 1.27)) hide)
    )
    (property "ki_keywords" "MCS-51 8bit Flash Microcontroller" (id 4) (at 0 0 0)
      (effects (font (size 1.27 1.27)) hide)
    )
    (property "ki_description" "24MHz, 2kB Flash, 128B SRAM, DIP-20" (id 5) (at 0 0 0)
      (effects (font (size 1.27 1.27)) hide)
    )
  )
  (symbol "MCU_Microchip_8051:AT89C4051-12PU" (extends "AT89C2051-12PU")
    (property "Value" "AT89C4051-12PU" (id 1) (at 2.54 -26.67 0)
      (effects (font (size 1.27 1.27)) (justify left top))
    )
    (property "Datasheet" "http://ww1.microchip.com/downloads/en/DeviceDoc/doc1001.pdf" (id 3) (at 0 0 0)
      (effects (font (size 1.27 1.27)) hide)
    )
    (property "ki_keywords" "MCS-51 8bit Flash Microcontroller" (id 4) (at 0 0 0)
      (effects (font (size 1.27 1.27)) hide)
    )
    (property "ki_description" "12MHz, 4kB Flash, 128B SRAM, DIP-20" (id 5) (at 0 0 0)
      (effects (font (size 1.27 1.27)) hide)
    )
  )
  (symbol "MCU_Microchip_8051:AT89C4051-24PU" (extends "AT89C2051-12PU")
    (property "Value" "AT89C4051-24PU" (id 1) (at 2.54 -26.67 0)
      (effects (font (size 1.27 1.27)) (justify left top))
    )
    (property "Datasheet" "http://ww1.microchip.com/downloads/en/DeviceDoc/doc1001.pdf" (id 3) (at 0 0 0)
      (effects (font (size 1.27 1.27)) hide)
    )
    (property "ki_keywords" "MCS-51 8bit Flash Microcontroller" (id 4) (at 0 0 0)
      (effects (font (size 1.27 1.27)) hide)
    )
    (property "ki_description" "24MHz, 4kB Flash, 128B SRAM, DIP-20" (id 5) (at 0 0 0)
      (effects (font (size 1.27 1.27)) hide)
    )
  )
  (symbol "MCU_Microchip_8051:AT89S2051-24PU" (extends "AT89C2051-12PU")
    (property "Value" "AT89S2051-24PU" (id 1) (at 2.54 -26.67 0)
      (effects (font (size 1.27 1.27)) (justify left top))
    )
    (property "Datasheet" "http://ww1.microchip.com/downloads/en/DeviceDoc/doc3390.pdf" (id 3) (at 0 0 0)
      (effects (font (size 1.27 1.27)) hide)
    )
    (property "ki_keywords" "MCS-51 8bit Flash Microcontroller" (id 4) (at 0 0 0)
      (effects (font (size 1.27 1.27)) hide)
    )
    (property "ki_description" "24MHz, 2kB Flash, 256B SRAM, DIP-20" (id 5) (at 0 0 0)
      (effects (font (size 1.27 1.27)) hide)
    )
  )
  (symbol "MCU_Microchip_8051:AT89S4051-24PU" (extends "AT89C2051-12PU")
    (property "Value" "AT89S4051-24PU" (id 1) (at 2.54 -26.67 0)
      (effects (font (size 1.27 1.27)) (justify left top))
    )
    (property "Datasheet" "http://ww1.microchip.com/downloads/en/DeviceDoc/doc3390.pdf" (id 3) (at 0 0 0)
      (effects (font (size 1.27 1.27)) hide)
    )
    (property "ki_keywords" "MCS-51 8bit Flash Microcontroller" (id 4) (at 0 0 0)
      (effects (font (size 1.27 1.27)) hide)
    )
    (property "ki_description" "24MHz, 4kB Flash, 256B SRAM, DIP-20" (id 5) (at 0 0 0)
      (effects (font (size 1.27 1.27)) hide)
    )
  )
  (symbol "MCU_Microchip_8051:AT89C2051-12SU" (pin_names (offset 0.508))
    (property "Reference" "U" (id 0) (at -12.7 26.67 0)
      (effects (font (size 1.27 1.27)) (justify left bottom))
    )
    (property "Value" "AT89C2051-12SU" (id 1) (at 2.54 -26.67 0)
      (effects (font (size 1.27 1.27)) (justify left top))
    )
    (property "Footprint" "Package_SO:SOIC-20W_7.5x12.8mm_P1.27mm" (id 2) (at 0 0 0)
      (effects (font (size 1.27 1.27) italic) hide)
    )
    (property "Datasheet" "http://ww1.microchip.com/downloads/en/DeviceDoc/doc0368.pdf" (id 3) (at 0 0 0)
      (effects (font (size 1.27 1.27)) hide)
    )
    (property "ki_keywords" "MCS-51 8bit Flash Microcontroller" (id 4) (at 0 0 0)
      (effects (font (size 1.27 1.27)) hide)
    )
    (property "ki_description" "12MHz, 2kB Flash, 128B SRAM, SOIC-20" (id 5) (at 0 0 0)
      (effects (font (size 1.27 1.27)) hide)
    )
    (property "ki_fp_filters" "SOIC*7.5x12.8mm*P1.27mm*" (id 6) (at 0 0 0)
      (effects (font (size 1.27 1.27)) hide)
    )
    (symbol "AT89C2051-12SU_0_1"
      (rectangle (start -12.7 -25.4) (end 12.7 25.4) (stroke (width 0.254)) (fill (type background)))
    )
    (symbol "AT89C2051-12SU_1_1"
      (pin input line (at -15.24 20.32 0) (length 2.54) (name "RST/VPP") (number "1"))
      (pin power_in line (at 0 -27.94 90) (length 2.54) (name "GND") (number "10"))
      (pin bidirectional line (at 15.24 -17.78 180) (length 2.54) (name "P3.7") (number "11"))
      (pin bidirectional line (at 15.24 20.32 180) (length 2.54) (name "P1.0") (number "12"))
      (pin bidirectional line (at 15.24 17.78 180) (length 2.54) (name "P1.1") (number "13"))
      (pin bidirectional line (at 15.24 15.24 180) (length 2.54) (name "P1.2") (number "14"))
      (pin bidirectional line (at 15.24 12.7 180) (length 2.54) (name "P1.3") (number "15"))
      (pin bidirectional line (at 15.24 10.16 180) (length 2.54) (name "P1.4") (number "16"))
      (pin bidirectional line (at 15.24 7.62 180) (length 2.54) (name "P1.5") (number "17"))
      (pin bidirectional line (at 15.24 5.08 180) (length 2.54) (name "P1.6") (number "18"))
      (pin bidirectional line (at 15.24 2.54 180) (length 2.54) (name "P1.7") (number "19"))
      (pin bidirectional line (at 15.24 -2.54 180) (length 2.54) (name "P3.0") (number "2"))
      (pin power_in line (at 0 27.94 270) (length 2.54) (name "VCC") (number "20"))
      (pin bidirectional line (at 15.24 -5.08 180) (length 2.54) (name "P3.1") (number "3"))
      (pin output line (at -15.24 10.16 0) (length 2.54) (name "XTAL2") (number "4"))
      (pin input line (at -15.24 15.24 0) (length 2.54) (name "XTAL1") (number "5"))
      (pin bidirectional line (at 15.24 -7.62 180) (length 2.54) (name "P3.2") (number "6"))
      (pin bidirectional line (at 15.24 -10.16 180) (length 2.54) (name "P3.3") (number "7"))
      (pin bidirectional line (at 15.24 -12.7 180) (length 2.54) (name "P3.4") (number "8"))
      (pin bidirectional line (at 15.24 -15.24 180) (length 2.54) (name "P3.5") (number "9"))
    )
  )
  (symbol "MCU_Microchip_8051:AT89C2051-24SU" (extends "AT89C2051-12SU")
    (property "Value" "AT89C2051-24SU" (id 1) (at 2.54 -26.67 0)
      (effects (font (size 1.27 1.27)) (justify left top))
    )
    (property "Datasheet" "http://ww1.microchip.com/downloads/en/DeviceDoc/doc0368.pdf" (id 3) (at 0 0 0)
      (effects (font (size 1.27 1.27)) hide)
    )
    (property "ki_keywords" "MCS-51 8bit Flash Microcontroller" (id 4) (at 0 0 0)
      (effects (font (size 1.27 1.27)) hide)
    )
    (property "ki_description" "24MHz, 2kB Flash, 128B SRAM, SOIC-20" (id 5) (at 0 0 0)
      (effects (font (size 1.27 1.27)) hide)
    )
  )
  (symbol "MCU_Microchip_8051:AT89C4051-12SU" (extends "AT89C2051-12SU")
    (property "Value" "AT89C4051-12SU" (id 1) (at 2.54 -26.67 0)
      (effects (font (size 1.27 1.27)) (justify left top))
    )
    (property "Datasheet" "http://ww1.microchip.com/downloads/en/DeviceDoc/doc1001.pdf" (id 3) (at 0 0 0)
      (effects (font (size 1.27 1.27)) hide)
    )
    (property "ki_keywords" "MCS-51 8bit Flash Microcontroller" (id 4) (at 0 0 0)
      (effects (font (size 1.27 1.27)) hide)
    )
    (property "ki_description" "12MHz, 4kB Flash, 128B SRAM, SOIC-20" (id 5) (at 0 0 0)
      (effects (font (size 1.27 1.27)) hide)
    )
  )
  (symbol "MCU_Microchip_8051:AT89C4051-24SU" (extends "AT89C2051-12SU")
    (property "Value" "AT89C4051-24SU" (id 1) (at 2.54 -26.67 0)
      (effects (font (size 1.27 1.27)) (justify left top))
    )
    (property "Datasheet" "http://ww1.microchip.com/downloads/en/DeviceDoc/doc1001.pdf" (id 3) (at 0 0 0)
      (effects (font (size 1.27 1.27)) hide)
    )
    (property "ki_keywords" "MCS-51 8bit Flash Microcontroller" (id 4) (at 0 0 0)
      (effects (font (size 1.27 1.27)) hide)
    )
    (property "ki_description" "24MHz, 4kB Flash, 128B SRAM, SOIC-20" (id 5) (at 0 0 0)
      (effects (font (size 1.27 1.27)) hide)
    )
  )
  (symbol "MCU_Microchip_8051:AT89S2051-24SU" (extends "AT89C2051-12SU")
    (property "Value" "AT89S2051-24SU" (id 1) (at 2.54 -26.67 0)
      (effects (font (size 1.27 1.27)) (justify left top))
    )
    (property "Datasheet" "http://ww1.microchip.com/downloads/en/DeviceDoc/doc3390.pdf" (id 3) (at 0 0 0)
      (effects (font (size 1.27 1.27)) hide)
    )
    (property "ki_keywords" "MCS-51 8bit Flash Microcontroller" (id 4) (at 0 0 0)
      (effects (font (size 1.27 1.27)) hide)
    )
    (property "ki_description" "24MHz, 2kB Flash, 256B SRAM, SOIC-20" (id 5) (at 0 0 0)
      (effects (font (size 1.27 1.27)) hide)
    )
  )
  (symbol "MCU_Microchip_8051:AT89S4051-24SU" (extends "AT89C2051-12SU")
    (property "Value" "AT89S4051-24SU" (id 1) (at 2.54 -26.67 0)
      (effects (font (size 1.27 1.27)) (justify left top))
    )
    (property "Datasheet" "http://ww1.microchip.com/downloads/en/DeviceDoc/doc3390.pdf" (id 3) (at 0 0 0)
      (effects (font (size 1.27 1.27)) hide)
    )
    (property "ki_keywords" "MCS-51 8bit Flash Microcontroller" (id 4) (at 0 0 0)
      (effects (font (size 1.27 1.27)) hide)
    )
    (property "ki_description" "24MHz, 4kB Flash, 256B SRAM, SOIC-20" (id 5) (at 0 0 0)
      (effects (font (size 1.27 1.27)) hide)
    )
  )
)
