(kicad_symbol_lib (version 20200126) (host kicad_symbol_editor "(5.99.0-1517-ga8407fba4)")
  (symbol "Memory_Controller:CH376T"
    (property "Reference" "U" (id 0) (at -11.43 20.32 0)
      (effects (font (size 1.27 1.27)) (justify left))
    )
    (property "Value" "CH376T" (id 1) (at 6.35 20.32 0)
      (effects (font (size 1.27 1.27)) (justify left))
    )
    (property "Footprint" "Package_SO:SSOP-20_5.3x7.2mm_P0.65mm" (id 2) (at 0 -25.4 0)
      (effects (font (size 1.27 1.27) italic) hide)
    )
    (property "Datasheet" "http://iteadstudio.com/store/images/produce/Platform/FPGA/BlackGold/CH376DS1.PDF" (id 3) (at 0 2.54 0)
      (effects (font (size 1.27 1.27)) hide)
    )
    (property "ki_keywords" "File Management USB Flash Card SD Interface" (id 4) (at 0 0 0)
      (effects (font (size 1.27 1.27)) hide)
    )
    (property "ki_description" "File Management USB Flash Card SD Interface, SSOP-20" (id 5) (at 0 0 0)
      (effects (font (size 1.27 1.27)) hide)
    )
    (property "ki_fp_filters" "SSOP*5.3x7.2mm*P0.65mm*" (id 6) (at 0 0 0)
      (effects (font (size 1.27 1.27)) hide)
    )
    (symbol "CH376T_0_1"
      (rectangle (start -11.43 19.05) (end 11.43 -19.05) (stroke (width 0.254)) (fill (type background)))
    )
    (symbol "CH376T_1_1"
      (pin output line (at -15.24 -7.62 0) (length 3.81) (name "~INT~") (number "1"))
      (pin input line (at -15.24 15.24 0) (length 3.81) (name "RSTI") (number "2"))
      (pin input line (at -15.24 -2.54 0) (length 3.81) (name "~SPI~") (number "3"))
      (pin input line (at -15.24 -15.24 0) (length 3.81) (name "TXD") (number "4"))
      (pin bidirectional line (at -15.24 -12.7 0) (length 3.81) (name "RXD") (number "5"))
      (pin input line (at 15.24 7.62 180) (length 3.81) (name "SD_DI") (number "6"))
      (pin power_in line (at 2.54 22.86 270) (length 3.81) (name "V3") (number "7"))
      (pin bidirectional line (at 15.24 15.24 180) (length 3.81) (name "UD+") (number "8"))
      (pin bidirectional line (at 15.24 12.7 180) (length 3.81) (name "UD-") (number "9"))
      (pin power_in line (at 0 -22.86 90) (length 3.81) (name "GND") (number "10"))
      (pin power_in line (at -2.54 22.86 270) (length 3.81) (name "VCC") (number "20"))
      (pin input line (at 15.24 -7.62 180) (length 3.81) (name "XI") (number "11"))
      (pin output line (at 15.24 -15.24 180) (length 3.81) (name "XO") (number "12"))
      (pin input line (at -15.24 2.54 0) (length 3.81) (name "~SCS") (number "13"))
      (pin input line (at -15.24 5.08 0) (length 3.81) (name "SCK") (number "14"))
      (pin input line (at -15.24 10.16 0) (length 3.81) (name "SDI") (number "15"))
      (pin output line (at -15.24 7.62 0) (length 3.81) (name "SDO") (number "16"))
      (pin open_collector line (at 15.24 0 180) (length 3.81) (name "SD_CS") (number "17"))
      (pin output line (at 15.24 5.08 180) (length 3.81) (name "SD_DO") (number "18"))
      (pin output line (at 15.24 2.54 180) (length 3.81) (name "SD_CK") (number "19"))
    )
  )
)
