(kicad_symbol_lib (version 20200126) (host kicad_symbol_editor "(5.99.0-1517-ga8407fba4)")
  (symbol "Memory_NVRAM:47L04" (pin_names (offset 0.508))
    (property "Reference" "U" (id 0) (at -6.35 6.35 0))
    (property "Value" "47L04" (id 1) (at 7.62 6.35 0))
    (property "Footprint" "" (id 2) (at 0 -11.43 0)
      (effects (font (size 1.27 1.27)) hide)
    )
    (property "Datasheet" "http://ww1.microchip.com/downloads/en/DeviceDoc/20005371C.pdf" (id 3) (at 6.35 8.89 0)
      (effects (font (size 1.27 1.27)) hide)
    )
    (property "ki_keywords" "4kb 3V I2C serial EERAM SRAM EEPROM" (id 4) (at 0 0 0)
      (effects (font (size 1.27 1.27)) hide)
    )
    (property "ki_description" "4kbit I2C serial EERAM, SRAM with EEPROM backup, 2.7-3.6V, DIP-8/SOIC-8/TSSOP-8" (id 5) (at 0 0 0)
      (effects (font (size 1.27 1.27)) hide)
    )
    (property "ki_fp_filters" "DIP*W7.62mm*\nSOIC*3.9x4.9mm*P1.27mm*\nTSSOP*4.4x3mm*P0.65mm*" (id 6) (at 0 0 0)
      (effects (font (size 1.27 1.27)) hide)
    )
    (symbol "47L04_1_1"
      (rectangle (start -7.62 5.08) (end 7.62 -7.62) (stroke (width 0.254)) (fill (type background)))
      (pin power_in line (at 2.54 7.62 270) (length 2.54) (name "VCAP") (number "1"))
      (pin input line (at 10.16 0 180) (length 2.54) (name "A1") (number "2"))
      (pin input line (at 10.16 -2.54 180) (length 2.54) (name "A2") (number "3"))
      (pin power_in line (at 0 -10.16 90) (length 2.54) (name "VSS") (number "4"))
      (pin bidirectional line (at -10.16 0 0) (length 2.54) (name "SDA") (number "5"))
      (pin input line (at -10.16 2.54 0) (length 2.54) (name "SCL") (number "6"))
      (pin input line (at -10.16 -5.08 0) (length 2.54) (name "HS") (number "7"))
      (pin power_in line (at 0 7.62 270) (length 2.54) (name "VCC") (number "8"))
    )
  )
  (symbol "Memory_NVRAM:47C04" (extends "47L04")
    (property "Value" "47C04" (id 1) (at 7.62 6.35 0))
    (property "Datasheet" "http://ww1.microchip.com/downloads/en/DeviceDoc/20005371C.pdf" (id 3) (at 6.35 8.89 0)
      (effects (font (size 1.27 1.27)) hide)
    )
    (property "ki_keywords" "4kb 5V I2C serial EERAM SRAM EEPROM" (id 4) (at 0 0 0)
      (effects (font (size 1.27 1.27)) hide)
    )
    (property "ki_description" "4kbit I2C serial EERAM, SRAM with EEPROM backup, 4.5-5.5V, DIP-8/SOIC-8/TSSOP-8" (id 5) (at 0 0 0)
      (effects (font (size 1.27 1.27)) hide)
    )
  )
  (symbol "Memory_NVRAM:47C16" (extends "47L04")
    (property "Value" "47C16" (id 1) (at 7.62 6.35 0))
    (property "Datasheet" "http://ww1.microchip.com/downloads/en/DeviceDoc/20005371C.pdf" (id 3) (at 6.35 8.89 0)
      (effects (font (size 1.27 1.27)) hide)
    )
    (property "ki_keywords" "16kb 5V I2C serial EERAM SRAM EEPROM" (id 4) (at 0 0 0)
      (effects (font (size 1.27 1.27)) hide)
    )
    (property "ki_description" "16kbit I2C serial EERAM, SRAM with EEPROM backup, 4.5-5.5V, DIP-8/SOIC-8/TSSOP-8" (id 5) (at 0 0 0)
      (effects (font (size 1.27 1.27)) hide)
    )
  )
  (symbol "Memory_NVRAM:47L16" (extends "47L04")
    (property "Value" "47L16" (id 1) (at 7.62 6.35 0))
    (property "Datasheet" "http://ww1.microchip.com/downloads/en/DeviceDoc/20005371C.pdf" (id 3) (at 6.35 8.89 0)
      (effects (font (size 1.27 1.27)) hide)
    )
    (property "ki_keywords" "16kb 3V I2C serial EERAM SRAM EEPROM" (id 4) (at 0 0 0)
      (effects (font (size 1.27 1.27)) hide)
    )
    (property "ki_description" "16kbit I2C serial EERAM, SRAM with EEPROM backup, 2.7-3.6V, DIP-8/SOIC-8/TSSOP-8" (id 5) (at 0 0 0)
      (effects (font (size 1.27 1.27)) hide)
    )
  )
  (symbol "Memory_NVRAM:FM16W08-SG"
    (property "Reference" "U" (id 0) (at -7.62 17.78 0))
    (property "Value" "FM16W08-SG" (id 1) (at 1.27 17.78 0)
      (effects (font (size 1.27 1.27)) (justify left))
    )
    (property "Footprint" "Package_SO:SOIC-28W_7.5x17.9mm_P1.27mm" (id 2) (at 0 0 0)
      (effects (font (size 1.27 1.27)) hide)
    )
    (property "Datasheet" "http://www.cypress.com/file/41731/download" (id 3) (at 0 0 0)
      (effects (font (size 1.27 1.27)) hide)
    )
    (property "ki_keywords" "FRAM 5V Parallel" (id 4) (at 0 0 0)
      (effects (font (size 1.27 1.27)) hide)
    )
    (property "ki_description" "64Kb FRAM nonvolatile memory, SOIC-28" (id 5) (at 0 0 0)
      (effects (font (size 1.27 1.27)) hide)
    )
    (property "ki_fp_filters" "SOIC?28*7.5x17.9mm*P1.27mm*" (id 6) (at 0 0 0)
      (effects (font (size 1.27 1.27)) hide)
    )
    (symbol "FM16W08-SG_0_1"
      (rectangle (start -8.89 16.51) (end 8.89 -16.51) (stroke (width 0.254)) (fill (type background)))
    )
    (symbol "FM16W08-SG_1_1"
      (pin input line (at -12.7 15.24 0) (length 3.81) (name "A0") (number "10"))
      (pin bidirectional line (at 12.7 15.24 180) (length 3.81) (name "DQ0") (number "11"))
      (pin bidirectional line (at 12.7 12.7 180) (length 3.81) (name "DQ1") (number "12"))
      (pin bidirectional line (at 12.7 10.16 180) (length 3.81) (name "DQ2") (number "13"))
      (pin power_in line (at 0 -20.32 90) (length 3.81) (name "VSS") (number "14"))
      (pin bidirectional line (at 12.7 7.62 180) (length 3.81) (name "DQ3") (number "15"))
      (pin bidirectional line (at 12.7 5.08 180) (length 3.81) (name "DQ4") (number "16"))
      (pin bidirectional line (at 12.7 2.54 180) (length 3.81) (name "DQ5") (number "17"))
      (pin bidirectional line (at 12.7 0 180) (length 3.81) (name "DQ6") (number "18"))
      (pin bidirectional line (at 12.7 -2.54 180) (length 3.81) (name "DQ7") (number "19"))
      (pin input line (at -12.7 -15.24 0) (length 3.81) (name "A12") (number "2"))
      (pin input line (at 12.7 -15.24 180) (length 3.81) (name "~CE~") (number "20"))
      (pin input line (at -12.7 -10.16 0) (length 3.81) (name "A10") (number "21"))
      (pin input line (at 12.7 -7.62 180) (length 3.81) (name "~OE~") (number "22"))
      (pin input line (at -12.7 -12.7 0) (length 3.81) (name "A11") (number "23"))
      (pin input line (at -12.7 -7.62 0) (length 3.81) (name "A9") (number "24"))
      (pin input line (at -12.7 -5.08 0) (length 3.81) (name "A8") (number "25"))
      (pin input line (at 12.7 -10.16 180) (length 3.81) (name "~WE~") (number "27"))
      (pin power_in line (at 0 20.32 270) (length 3.81) (name "VDD") (number "28"))
      (pin input line (at -12.7 -2.54 0) (length 3.81) (name "A7") (number "3"))
      (pin input line (at -12.7 0 0) (length 3.81) (name "A6") (number "4"))
      (pin input line (at -12.7 2.54 0) (length 3.81) (name "A5") (number "5"))
      (pin input line (at -12.7 5.08 0) (length 3.81) (name "A4") (number "6"))
      (pin input line (at -12.7 7.62 0) (length 3.81) (name "A3") (number "7"))
      (pin input line (at -12.7 10.16 0) (length 3.81) (name "A2") (number "8"))
      (pin input line (at -12.7 12.7 0) (length 3.81) (name "A1") (number "9"))
    )
  )
  (symbol "Memory_NVRAM:FM1608B-SG" (extends "FM16W08-SG")
    (property "Value" "FM1608B-SG" (id 1) (at 1.27 17.78 0)
      (effects (font (size 1.27 1.27)) (justify left))
    )
    (property "Datasheet" "http://www.cypress.com/file/41731/download" (id 3) (at 0 0 0)
      (effects (font (size 1.27 1.27)) hide)
    )
    (property "ki_keywords" "FRAM 5V Parallel" (id 4) (at 0 0 0)
      (effects (font (size 1.27 1.27)) hide)
    )
    (property "ki_description" "64Kb FRAM nonvolatile memory, SOIC-28" (id 5) (at 0 0 0)
      (effects (font (size 1.27 1.27)) hide)
    )
  )
  (symbol "Memory_NVRAM:FM18W08-SG"
    (property "Reference" "U" (id 0) (at -7.62 20.32 0))
    (property "Value" "FM18W08-SG" (id 1) (at 1.27 20.32 0)
      (effects (font (size 1.27 1.27)) (justify left))
    )
    (property "Footprint" "Package_SO:SOIC-28W_7.5x17.9mm_P1.27mm" (id 2) (at 0 0 0)
      (effects (font (size 1.27 1.27)) hide)
    )
    (property "Datasheet" "http://www.cypress.com/file/136521/download" (id 3) (at 0 0 0)
      (effects (font (size 1.27 1.27)) hide)
    )
    (property "ki_keywords" "FRAM 5V Parallel" (id 4) (at 0 0 0)
      (effects (font (size 1.27 1.27)) hide)
    )
    (property "ki_description" "256k FRAM nonvolatile memory, SOIC-28" (id 5) (at 0 0 0)
      (effects (font (size 1.27 1.27)) hide)
    )
    (property "ki_fp_filters" "SOIC*7.5x17.9mm*P1.27mm*" (id 6) (at 0 0 0)
      (effects (font (size 1.27 1.27)) hide)
    )
    (symbol "FM18W08-SG_0_1"
      (rectangle (start -8.89 19.05) (end 8.89 -19.05) (stroke (width 0.254)) (fill (type background)))
    )
    (symbol "FM18W08-SG_1_1"
      (pin input line (at -12.7 -17.78 0) (length 3.81) (name "A14") (number "1"))
      (pin input line (at -12.7 17.78 0) (length 3.81) (name "A0") (number "10"))
      (pin bidirectional line (at 12.7 17.78 180) (length 3.81) (name "DQ0") (number "11"))
      (pin bidirectional line (at 12.7 15.24 180) (length 3.81) (name "DQ1") (number "12"))
      (pin bidirectional line (at 12.7 12.7 180) (length 3.81) (name "DQ2") (number "13"))
      (pin power_in line (at 0 -22.86 90) (length 3.81) (name "VSS") (number "14"))
      (pin bidirectional line (at 12.7 10.16 180) (length 3.81) (name "DQ3") (number "15"))
      (pin bidirectional line (at 12.7 7.62 180) (length 3.81) (name "DQ4") (number "16"))
      (pin bidirectional line (at 12.7 5.08 180) (length 3.81) (name "DQ5") (number "17"))
      (pin bidirectional line (at 12.7 2.54 180) (length 3.81) (name "DQ6") (number "18"))
      (pin bidirectional line (at 12.7 0 180) (length 3.81) (name "DQ7") (number "19"))
      (pin input line (at -12.7 -12.7 0) (length 3.81) (name "A12") (number "2"))
      (pin input line (at 12.7 -17.78 180) (length 3.81) (name "~CE~") (number "20"))
      (pin input line (at -12.7 -7.62 0) (length 3.81) (name "A10") (number "21"))
      (pin input line (at 12.7 -10.16 180) (length 3.81) (name "~OE~") (number "22"))
      (pin input line (at -12.7 -10.16 0) (length 3.81) (name "A11") (number "23"))
      (pin input line (at -12.7 -5.08 0) (length 3.81) (name "A9") (number "24"))
      (pin input line (at -12.7 -2.54 0) (length 3.81) (name "A8") (number "25"))
      (pin input line (at -12.7 -15.24 0) (length 3.81) (name "A13") (number "26"))
      (pin input line (at 12.7 -12.7 180) (length 3.81) (name "~WE~") (number "27"))
      (pin power_in line (at 0 22.86 270) (length 3.81) (name "VDD") (number "28"))
      (pin input line (at -12.7 0 0) (length 3.81) (name "A7") (number "3"))
      (pin input line (at -12.7 2.54 0) (length 3.81) (name "A6") (number "4"))
      (pin input line (at -12.7 5.08 0) (length 3.81) (name "A5") (number "5"))
      (pin input line (at -12.7 7.62 0) (length 3.81) (name "A4") (number "6"))
      (pin input line (at -12.7 10.16 0) (length 3.81) (name "A3") (number "7"))
      (pin input line (at -12.7 12.7 0) (length 3.81) (name "A2") (number "8"))
      (pin input line (at -12.7 15.24 0) (length 3.81) (name "A1") (number "9"))
    )
  )
  (symbol "Memory_NVRAM:FM1808B-SG" (extends "FM18W08-SG")
    (property "Value" "FM1808B-SG" (id 1) (at 1.27 20.32 0)
      (effects (font (size 1.27 1.27)) (justify left))
    )
    (property "Datasheet" "http://www.cypress.com/file/136521/download" (id 3) (at 0 0 0)
      (effects (font (size 1.27 1.27)) hide)
    )
    (property "ki_keywords" "FRAM 5V Parallel" (id 4) (at 0 0 0)
      (effects (font (size 1.27 1.27)) hide)
    )
    (property "ki_description" "256k FRAM nonvolatile memory, SOIC-28" (id 5) (at 0 0 0)
      (effects (font (size 1.27 1.27)) hide)
    )
  )
  (symbol "Memory_NVRAM:FM24C64B"
    (property "Reference" "U" (id 0) (at -5.08 8.89 0))
    (property "Value" "FM24C64B" (id 1) (at 6.35 -8.89 0))
    (property "Footprint" "Package_SO:SOIC-8_3.9x4.9mm_P1.27mm" (id 2) (at 0 0 0)
      (effects (font (size 1.27 1.27)) hide)
    )
    (property "Datasheet" "http://www.cypress.com/file/41651/download" (id 3) (at -5.08 8.89 0)
      (effects (font (size 1.27 1.27)) hide)
    )
    (property "ki_keywords" "FRAM I2C Serial 5V FRAM NVRAM" (id 4) (at 0 0 0)
      (effects (font (size 1.27 1.27)) hide)
    )
    (property "ki_description" "64Kb serial FRAM nonvolatile Memory, SOIC-8" (id 5) (at 0 0 0)
      (effects (font (size 1.27 1.27)) hide)
    )
    (property "ki_fp_filters" "SOIC*3.9x4.9mm*P1.27mm*" (id 6) (at 0 0 0)
      (effects (font (size 1.27 1.27)) hide)
    )
    (symbol "FM24C64B_0_1"
      (rectangle (start -7.62 7.62) (end 7.62 -7.62) (stroke (width 0.254)) (fill (type background)))
    )
    (symbol "FM24C64B_1_1"
      (pin input line (at -10.16 5.08 0) (length 2.54) (name "A0") (number "1"))
      (pin input line (at -10.16 2.54 0) (length 2.54) (name "A1") (number "2"))
      (pin input line (at -10.16 0 0) (length 2.54) (name "A2") (number "3"))
      (pin power_in line (at 0 -10.16 90) (length 2.54) (name "VSS") (number "4"))
      (pin bidirectional line (at 10.16 2.54 180) (length 2.54) (name "SDA") (number "5"))
      (pin input line (at 10.16 -2.54 180) (length 2.54) (name "SCL") (number "6"))
      (pin input line (at -10.16 -5.08 0) (length 2.54) (name "WP") (number "7"))
      (pin power_in line (at 0 10.16 270) (length 2.54) (name "VDD") (number "8"))
    )
  )
  (symbol "Memory_NVRAM:FM24C64C" (extends "FM24C64B")
    (property "Value" "FM24C64C" (id 1) (at 6.35 -8.89 0))
    (property "Datasheet" "http://www.cypress.com/file/41651/download" (id 3) (at -5.08 8.89 0)
      (effects (font (size 1.27 1.27)) hide)
    )
    (property "ki_keywords" "FRAM I2C Serial 5V FRAM NVRAM" (id 4) (at 0 0 0)
      (effects (font (size 1.27 1.27)) hide)
    )
    (property "ki_description" "64Kb serial FRAM nonvolatile Memory, SOIC-8" (id 5) (at 0 0 0)
      (effects (font (size 1.27 1.27)) hide)
    )
  )
  (symbol "Memory_NVRAM:MB85RS16"
    (property "Reference" "U" (id 0) (at -7.62 6.35 0)
      (effects (font (size 1.27 1.27)) (justify left))
    )
    (property "Value" "MB85RS16" (id 1) (at 1.27 6.35 0)
      (effects (font (size 1.27 1.27)) (justify left))
    )
    (property "Footprint" "" (id 2) (at -8.89 -1.27 0)
      (effects (font (size 1.27 1.27)) hide)
    )
    (property "Datasheet" "http://www.fujitsu.com/downloads/MICRO/fsa/pdf/products/memory/fram/MB85RS16-DS501-00014-6v0-E.pdf" (id 3) (at -8.89 -1.27 0)
      (effects (font (size 1.27 1.27)) hide)
    )
    (property "ki_keywords" "FRAM SPI 3.3V" (id 4) (at 0 0 0)
      (effects (font (size 1.27 1.27)) hide)
    )
    (property "ki_description" "FRAM memory with SPI interface, SOIC-8 SON-8" (id 5) (at 0 0 0)
      (effects (font (size 1.27 1.27)) hide)
    )
    (property "ki_fp_filters" "SOIC*3.9x5.05mm*P1.27mm*\n*SON*2x3mm*P0.50mm*" (id 6) (at 0 0 0)
      (effects (font (size 1.27 1.27)) hide)
    )
    (symbol "MB85RS16_0_1"
      (rectangle (start -7.62 5.08) (end 7.62 -5.08) (stroke (width 0.254)) (fill (type background)))
    )
    (symbol "MB85RS16_1_1"
      (pin input line (at -10.16 -2.54 0) (length 2.54) (name "~CS") (number "1"))
      (pin output line (at 10.16 -2.54 180) (length 2.54) (name "SO") (number "2"))
      (pin input line (at -10.16 2.54 0) (length 2.54) (name "~WP") (number "3"))
      (pin power_in line (at 0 -7.62 90) (length 2.54) (name "GND") (number "4"))
      (pin input line (at 10.16 0 180) (length 2.54) (name "SI") (number "5"))
      (pin input line (at 10.16 2.54 180) (length 2.54) (name "SCK") (number "6"))
      (pin input line (at -10.16 0 0) (length 2.54) (name "~HOLD") (number "7"))
      (pin power_in line (at 0 7.62 270) (length 2.54) (name "VDD") (number "8"))
    )
  )
  (symbol "Memory_NVRAM:MB85RS128B" (extends "MB85RS16")
    (property "Value" "MB85RS128B" (id 1) (at 1.27 6.35 0)
      (effects (font (size 1.27 1.27)) (justify left))
    )
    (property "Datasheet" "http://www.fujitsu.com/downloads/MICRO/fsa/pdf/products/memory/fram/MB85RS16-DS501-00014-6v0-E.pdf" (id 3) (at -8.89 -1.27 0)
      (effects (font (size 1.27 1.27)) hide)
    )
    (property "ki_keywords" "FRAM SPI 3.3V" (id 4) (at 0 0 0)
      (effects (font (size 1.27 1.27)) hide)
    )
    (property "ki_description" "FRAM memory with SPI interface, SOIC-8 SON-8" (id 5) (at 0 0 0)
      (effects (font (size 1.27 1.27)) hide)
    )
  )
  (symbol "Memory_NVRAM:MB85RS1MT" (extends "MB85RS16")
    (property "Value" "MB85RS1MT" (id 1) (at 1.27 6.35 0)
      (effects (font (size 1.27 1.27)) (justify left))
    )
    (property "Datasheet" "http://www.fujitsu.com/downloads/MICRO/fsa/pdf/products/memory/fram/MB85RS16-DS501-00014-6v0-E.pdf" (id 3) (at -8.89 -1.27 0)
      (effects (font (size 1.27 1.27)) hide)
    )
    (property "ki_keywords" "FRAM SPI 3.3V" (id 4) (at 0 0 0)
      (effects (font (size 1.27 1.27)) hide)
    )
    (property "ki_description" "FRAM memory with SPI interface, SOIC-8 SON-8" (id 5) (at 0 0 0)
      (effects (font (size 1.27 1.27)) hide)
    )
  )
  (symbol "Memory_NVRAM:MB85RS256B" (extends "MB85RS16")
    (property "Value" "MB85RS256B" (id 1) (at 1.27 6.35 0)
      (effects (font (size 1.27 1.27)) (justify left))
    )
    (property "Datasheet" "http://www.fujitsu.com/downloads/MICRO/fsa/pdf/products/memory/fram/MB85RS16-DS501-00014-6v0-E.pdf" (id 3) (at -8.89 -1.27 0)
      (effects (font (size 1.27 1.27)) hide)
    )
    (property "ki_keywords" "FRAM SPI 3.3V" (id 4) (at 0 0 0)
      (effects (font (size 1.27 1.27)) hide)
    )
    (property "ki_description" "FRAM memory with SPI interface, SOIC-8 SON-8" (id 5) (at 0 0 0)
      (effects (font (size 1.27 1.27)) hide)
    )
  )
  (symbol "Memory_NVRAM:MB85RS2MT" (extends "MB85RS16")
    (property "Value" "MB85RS2MT" (id 1) (at 1.27 6.35 0)
      (effects (font (size 1.27 1.27)) (justify left))
    )
    (property "Datasheet" "http://www.fujitsu.com/downloads/MICRO/fsa/pdf/products/memory/fram/MB85RS16-DS501-00014-6v0-E.pdf" (id 3) (at -8.89 -1.27 0)
      (effects (font (size 1.27 1.27)) hide)
    )
    (property "ki_keywords" "FRAM SPI 3.3V" (id 4) (at 0 0 0)
      (effects (font (size 1.27 1.27)) hide)
    )
    (property "ki_description" "FRAM memory with SPI interface, SOIC-8 SON-8" (id 5) (at 0 0 0)
      (effects (font (size 1.27 1.27)) hide)
    )
  )
  (symbol "Memory_NVRAM:MB85RS512T" (extends "MB85RS16")
    (property "Value" "MB85RS512T" (id 1) (at 1.27 6.35 0)
      (effects (font (size 1.27 1.27)) (justify left))
    )
    (property "Datasheet" "http://www.fujitsu.com/downloads/MICRO/fsa/pdf/products/memory/fram/MB85RS16-DS501-00014-6v0-E.pdf" (id 3) (at -8.89 -1.27 0)
      (effects (font (size 1.27 1.27)) hide)
    )
    (property "ki_keywords" "FRAM SPI 3.3V" (id 4) (at 0 0 0)
      (effects (font (size 1.27 1.27)) hide)
    )
    (property "ki_description" "FRAM memory with SPI interface, SOIC-8 SON-8" (id 5) (at 0 0 0)
      (effects (font (size 1.27 1.27)) hide)
    )
  )
  (symbol "Memory_NVRAM:MB85RS64" (extends "MB85RS16")
    (property "Value" "MB85RS64" (id 1) (at 1.27 6.35 0)
      (effects (font (size 1.27 1.27)) (justify left))
    )
    (property "Datasheet" "http://www.fujitsu.com/downloads/MICRO/fme/fram/datasheet-MB85RS64.pdf" (id 3) (at -8.89 -1.27 0)
      (effects (font (size 1.27 1.27)) hide)
    )
    (property "ki_keywords" "FRAM SPI 3.3V" (id 4) (at 0 0 0)
      (effects (font (size 1.27 1.27)) hide)
    )
    (property "ki_description" "FRAM memory with SPI interface, SOIC-8 SON-8" (id 5) (at 0 0 0)
      (effects (font (size 1.27 1.27)) hide)
    )
  )
  (symbol "Memory_NVRAM:MR20H40"
    (property "Reference" "U" (id 0) (at -7.62 8.89 0)
      (effects (font (size 1.27 1.27)) (justify left))
    )
    (property "Value" "MR20H40" (id 1) (at 1.27 8.89 0)
      (effects (font (size 1.27 1.27)) (justify left))
    )
    (property "Footprint" "" (id 2) (at 0 0 0)
      (effects (font (size 1.27 1.27)) hide)
    )
    (property "Datasheet" "https://www.everspin.com/file/217/download" (id 3) (at -7.62 7.62 0)
      (effects (font (size 1.27 1.27)) hide)
    )
    (property "ki_keywords" "MRAM SPI EEPROM 3.3V" (id 4) (at 0 0 0)
      (effects (font (size 1.27 1.27)) hide)
    )
    (property "ki_description" "4Mb MRAM memory with SPI interface, DFN-8" (id 5) (at 0 0 0)
      (effects (font (size 1.27 1.27)) hide)
    )
    (property "ki_fp_filters" "DFN*6x5mm*P1.27mm*" (id 6) (at 0 0 0)
      (effects (font (size 1.27 1.27)) hide)
    )
    (symbol "MR20H40_0_1"
      (rectangle (start -7.62 7.62) (end 7.62 -7.62) (stroke (width 0.254)) (fill (type background)))
    )
    (symbol "MR20H40_1_1"
      (pin input line (at -10.16 -2.54 0) (length 2.54) (name "~CS") (number "1"))
      (pin output line (at 10.16 0 180) (length 2.54) (name "SO") (number "2"))
      (pin input line (at -10.16 2.54 0) (length 2.54) (name "~WP") (number "3"))
      (pin power_in line (at 0 -10.16 90) (length 2.54) (name "VSS") (number "4"))
      (pin input line (at 10.16 -2.54 180) (length 2.54) (name "SI") (number "5"))
      (pin input line (at 10.16 2.54 180) (length 2.54) (name "SCK") (number "6"))
      (pin input line (at -10.16 0 0) (length 2.54) (name "~HOLD") (number "7"))
      (pin power_in line (at 0 10.16 270) (length 2.54) (name "VDD") (number "8"))
      (pin power_in line (at -2.54 -10.16 90) (length 2.54) (name "PAD") (number "9"))
    )
  )
  (symbol "Memory_NVRAM:MR25H40" (extends "MR20H40")
    (property "Value" "MR25H40" (id 1) (at 1.27 8.89 0)
      (effects (font (size 1.27 1.27)) (justify left))
    )
    (property "Datasheet" "https://www.everspin.com/file/217/download" (id 3) (at -7.62 7.62 0)
      (effects (font (size 1.27 1.27)) hide)
    )
    (property "ki_keywords" "MRAM SPI EEPROM 3.3V" (id 4) (at 0 0 0)
      (effects (font (size 1.27 1.27)) hide)
    )
    (property "ki_description" "4Mb MRAM memory with SPI interface, DFN-8" (id 5) (at 0 0 0)
      (effects (font (size 1.27 1.27)) hide)
    )
  )
)
