(kicad_symbol_lib (version 20200126) (host kicad_symbol_editor "(5.99.0-1517-ga8407fba4)")
  (symbol "Reference_Current:LM134H" (pin_names (offset 0.508))
    (property "Reference" "U" (id 0) (at 0.635 6.35 0)
      (effects (font (size 1.27 1.27)) (justify left))
    )
    (property "Value" "LM134H" (id 1) (at 0.635 4.445 0)
      (effects (font (size 1.27 1.27)) (justify left))
    )
    (property "Footprint" "Package_TO_SOT_THT:TO-46-3" (id 2) (at 0.635 -4.445 0)
      (effects (font (size 1.27 1.27) italic) (justify left) hide)
    )
    (property "Datasheet" "http://www.ti.com/lit/ds/symlink/lm134.pdf" (id 3) (at 0 0 0)
      (effects (font (size 1.27 1.27) italic) hide)
    )
    (property "ki_keywords" "Adjustable Current Source 10mA" (id 4) (at 0 0 0)
      (effects (font (size 1.27 1.27)) hide)
    )
    (property "ki_description" " 1μA to 10mA 3-Terminal Adjustable Current Source, TO-46" (id 5) (at 0 0 0)
      (effects (font (size 1.27 1.27)) hide)
    )
    (property "ki_fp_filters" "TO?46*" (id 6) (at 0 0 0)
      (effects (font (size 1.27 1.27)) hide)
    )
    (symbol "LM134H_0_1"
      (circle (center 0 -0.635) (radius 1.27))
      (circle (center 0 0.635) (radius 1.27))
      (rectangle (start -2.54 3.175) (end 2.54 -3.175) (stroke (width 0.254)) (fill (type background)))
      (polyline
        (pts (xy -1.143 -2.413) (xy -0.381 -2.413))
      )
      (polyline
        (pts (xy -1.016 2.413) (xy -0.254 2.413))
      )
      (polyline
        (pts (xy -0.635 2.794) (xy -0.635 2.032))
      )
      (polyline
        (pts (xy 0 -1.905) (xy 0 -3.81))
      )
      (polyline
        (pts (xy 0 1.397) (xy 0 -1.397))
        (stroke (width 0.254))
      )
      (polyline
        (pts (xy 0 3.81) (xy 0 1.905))
      )
      (polyline
        (pts (xy 2.54 0) (xy 1.27 0))
      )
      (polyline
        (pts (xy 0 -1.397) (xy -0.254 -0.889) (xy 0.254 -0.889) (xy 0 -1.397))
        (stroke (width 0.254))
      )
      (polyline
        (pts (xy 1.27 0) (xy 2.159 0.254) (xy 2.159 -0.254) (xy 1.27 0))
      )
    )
    (symbol "LM134H_1_1"
      (pin passive line (at 5.08 0 180) (length 2.54) (name "~") (number "1"))
      (pin passive line (at 0 5.08 270) (length 2.54) (name "~") (number "2"))
      (pin passive line (at 0 -5.08 90) (length 2.54) (name "~") (number "3"))
    )
  )
  (symbol "Reference_Current:LM334M" (pin_names (offset 0.508))
    (property "Reference" "U" (id 0) (at 0.635 6.35 0)
      (effects (font (size 1.27 1.27)) (justify left))
    )
    (property "Value" "LM334M" (id 1) (at 0.635 4.445 0)
      (effects (font (size 1.27 1.27)) (justify left))
    )
    (property "Footprint" "Package_SO:SOIC-8_3.9x4.9mm_P1.27mm" (id 2) (at 0.635 -3.81 0)
      (effects (font (size 1.27 1.27) italic) (justify left) hide)
    )
    (property "Datasheet" "http://www.ti.com/lit/ds/symlink/lm134.pdf" (id 3) (at 0 0 0)
      (effects (font (size 1.27 1.27) italic) hide)
    )
    (property "ki_keywords" "Adjustable Current Source 10mA" (id 4) (at 0 0 0)
      (effects (font (size 1.27 1.27)) hide)
    )
    (property "ki_description" "1μA to 10mA 3-Terminal Adjustable Current Source, SO-8" (id 5) (at 0 0 0)
      (effects (font (size 1.27 1.27)) hide)
    )
    (property "ki_fp_filters" "SOIC*3.9x4.9m*P1.27mm*" (id 6) (at 0 0 0)
      (effects (font (size 1.27 1.27)) hide)
    )
    (symbol "LM334M_0_1"
      (circle (center 0 -0.635) (radius 1.27))
      (circle (center 0 0.635) (radius 1.27))
      (rectangle (start -2.286 3.048) (end 2.54 -2.794) (stroke (width 0.254)) (fill (type background)))
      (polyline
        (pts (xy -1.143 -2.413) (xy -0.381 -2.413))
      )
      (polyline
        (pts (xy -1.016 2.413) (xy -0.254 2.413))
      )
      (polyline
        (pts (xy -0.635 2.794) (xy -0.635 2.032))
      )
      (polyline
        (pts (xy 0 -1.905) (xy 0 -3.175))
      )
      (polyline
        (pts (xy 0 1.397) (xy 0 -1.397))
        (stroke (width 0.254))
      )
      (polyline
        (pts (xy 0 3.81) (xy 0 1.905))
      )
      (polyline
        (pts (xy 5.08 0) (xy 1.27 0))
      )
      (polyline
        (pts (xy 0 -1.397) (xy -0.254 -0.889) (xy 0.254 -0.889) (xy 0 -1.397))
        (stroke (width 0.254))
      )
      (polyline
        (pts (xy 1.27 0) (xy 2.159 0.254) (xy 2.159 -0.254) (xy 1.27 0))
      )
    )
    (symbol "LM334M_1_1"
      (pin passive line (at 5.08 0 180) (length 2.54) (name "~") (number "1"))
      (pin passive line (at 0 -5.08 90) (length 2.54) (name "~") (number "2"))
      (pin passive line (at 0 -5.08 90) (length 2.54) (name "~") (number "3") hide)
      (pin passive line (at 0 5.08 270) (length 2.54) (name "~") (number "4"))
      (pin passive line (at 0 -5.08 90) (length 2.54) (name "~") (number "6") hide)
      (pin passive line (at 0 -5.08 90) (length 2.54) (name "~") (number "7") hide)
    )
  )
  (symbol "Reference_Current:LM334SM" (pin_names (offset 0.508))
    (property "Reference" "U" (id 0) (at 0.635 6.35 0)
      (effects (font (size 1.27 1.27)) (justify left))
    )
    (property "Value" "LM334SM" (id 1) (at 0.635 4.445 0)
      (effects (font (size 1.27 1.27)) (justify left))
    )
    (property "Footprint" "Package_SO:SOIC-8_3.9x4.9mm_P1.27mm" (id 2) (at 0.635 -4.445 0)
      (effects (font (size 1.27 1.27) italic) (justify left) hide)
    )
    (property "Datasheet" "http://www.ti.com/lit/ds/symlink/lm134.pdf" (id 3) (at 0 0 0)
      (effects (font (size 1.27 1.27) italic) hide)
    )
    (property "ki_keywords" "Adjustable Current Source 10mA" (id 4) (at 0 0 0)
      (effects (font (size 1.27 1.27)) hide)
    )
    (property "ki_description" "1μA to 10mA 3-Terminal Adjustable Current Source, SO-8 Alternate" (id 5) (at 0 0 0)
      (effects (font (size 1.27 1.27)) hide)
    )
    (property "ki_fp_filters" "SOIC*3.9x4.9m*P1.27mm*" (id 6) (at 0 0 0)
      (effects (font (size 1.27 1.27)) hide)
    )
    (symbol "LM334SM_0_1"
      (circle (center 0 -0.635) (radius 1.27))
      (circle (center 0 0.635) (radius 1.27))
      (rectangle (start -2.54 3.175) (end 2.54 -3.175) (stroke (width 0.254)) (fill (type background)))
      (polyline
        (pts (xy -1.143 -2.413) (xy -0.381 -2.413))
      )
      (polyline
        (pts (xy -1.016 2.413) (xy -0.254 2.413))
      )
      (polyline
        (pts (xy -0.635 2.794) (xy -0.635 2.032))
      )
      (polyline
        (pts (xy 0 -1.905) (xy 0 -3.81))
      )
      (polyline
        (pts (xy 0 1.397) (xy 0 -1.397))
        (stroke (width 0.254))
      )
      (polyline
        (pts (xy 0 3.81) (xy 0 1.905))
      )
      (polyline
        (pts (xy 2.54 0) (xy 1.27 0))
      )
      (polyline
        (pts (xy 0 -1.397) (xy -0.254 -0.889) (xy 0.254 -0.889) (xy 0 -1.397))
        (stroke (width 0.254))
      )
      (polyline
        (pts (xy 1.27 0) (xy 2.159 0.254) (xy 2.159 -0.254) (xy 1.27 0))
      )
    )
    (symbol "LM334SM_1_1"
      (pin passive line (at 0 -5.08 90) (length 2.54) (name "~") (number "1"))
      (pin passive line (at 5.08 0 180) (length 2.54) (name "~") (number "2"))
      (pin passive line (at 0 5.08 270) (length 2.54) (name "~") (number "3"))
    )
  )
  (symbol "Reference_Current:LM334Z" (pin_names (offset 0.508))
    (property "Reference" "U" (id 0) (at 0.635 6.35 0)
      (effects (font (size 1.27 1.27)) (justify left))
    )
    (property "Value" "LM334Z" (id 1) (at 0.635 4.445 0)
      (effects (font (size 1.27 1.27)) (justify left))
    )
    (property "Footprint" "Package_TO_SOT_THT:TO-92_Inline" (id 2) (at 0.635 -4.445 0)
      (effects (font (size 1.27 1.27) italic) (justify left) hide)
    )
    (property "Datasheet" "http://www.ti.com/lit/ds/symlink/lm134.pdf" (id 3) (at 0 0 0)
      (effects (font (size 1.27 1.27) italic) hide)
    )
    (property "ki_keywords" "Adjustable Current Source 10mA" (id 4) (at 0 0 0)
      (effects (font (size 1.27 1.27)) hide)
    )
    (property "ki_description" "1μA to 10mA 3-Terminal Adjustable Current Source, TO-92" (id 5) (at 0 0 0)
      (effects (font (size 1.27 1.27)) hide)
    )
    (property "ki_fp_filters" "TO*92*Inline*" (id 6) (at 0 0 0)
      (effects (font (size 1.27 1.27)) hide)
    )
    (symbol "LM334Z_0_1"
      (circle (center 0 -0.635) (radius 1.27))
      (circle (center 0 0.635) (radius 1.27))
      (rectangle (start -2.54 3.175) (end 2.54 -3.175) (stroke (width 0.254)) (fill (type background)))
      (polyline
        (pts (xy -1.143 -2.413) (xy -0.381 -2.413))
      )
      (polyline
        (pts (xy -1.016 2.413) (xy -0.254 2.413))
      )
      (polyline
        (pts (xy -0.635 2.794) (xy -0.635 2.032))
      )
      (polyline
        (pts (xy 0 -1.905) (xy 0 -5.08))
      )
      (polyline
        (pts (xy 0 1.397) (xy 0 -1.397))
        (stroke (width 0.254))
      )
      (polyline
        (pts (xy 0 5.08) (xy 0 1.905))
      )
      (polyline
        (pts (xy 2.54 0) (xy 1.27 0))
      )
      (polyline
        (pts (xy 0 -1.397) (xy -0.254 -0.889) (xy 0.254 -0.889) (xy 0 -1.397))
        (stroke (width 0.254))
      )
      (polyline
        (pts (xy 1.27 0) (xy 2.159 0.254) (xy 2.159 -0.254) (xy 1.27 0))
      )
    )
    (symbol "LM334Z_1_1"
      (pin passive line (at 0 5.08 270) (length 2.54) (name "~") (number "1"))
      (pin passive line (at 5.08 0 180) (length 2.54) (name "~") (number "2"))
      (pin passive line (at 0 -5.08 90) (length 2.54) (name "~") (number "3"))
    )
  )
  (symbol "Reference_Current:LM234Z-3" (extends "LM334Z")
    (property "Value" "LM234Z-3" (id 1) (at 0.635 4.445 0)
      (effects (font (size 1.27 1.27)) (justify left))
    )
    (property "Datasheet" "http://www.ti.com/lit/ds/symlink/lm134.pdf" (id 3) (at 0 0 0)
      (effects (font (size 1.27 1.27) italic) hide)
    )
    (property "ki_keywords" "Adjustable Current Source 10mA" (id 4) (at 0 0 0)
      (effects (font (size 1.27 1.27)) hide)
    )
    (property "ki_description" "1μA to 10mA 3-Terminal Adjustable Current Source, TO-92" (id 5) (at 0 0 0)
      (effects (font (size 1.27 1.27)) hide)
    )
  )
  (symbol "Reference_Current:LM234Z-6" (extends "LM334Z")
    (property "Value" "LM234Z-6" (id 1) (at 0.635 4.445 0)
      (effects (font (size 1.27 1.27)) (justify left))
    )
    (property "Datasheet" "http://www.ti.com/lit/ds/symlink/lm134.pdf" (id 3) (at 0 0 0)
      (effects (font (size 1.27 1.27) italic) hide)
    )
    (property "ki_keywords" "Adjustable Current Source 10mA" (id 4) (at 0 0 0)
      (effects (font (size 1.27 1.27)) hide)
    )
    (property "ki_description" "1μA to 10mA 3-Terminal Adjustable Current Source, TO-92" (id 5) (at 0 0 0)
      (effects (font (size 1.27 1.27)) hide)
    )
  )
  (symbol "Reference_Current:LM334Z-LFT1" (extends "LM334Z")
    (property "Value" "LM334Z-LFT1" (id 1) (at 0.635 4.445 0)
      (effects (font (size 1.27 1.27)) (justify left))
    )
    (property "Datasheet" "http://www.ti.com/lit/ds/symlink/lm134.pdf" (id 3) (at 0 0 0)
      (effects (font (size 1.27 1.27) italic) hide)
    )
    (property "ki_keywords" "Adjustable Current Source 10mA" (id 4) (at 0 0 0)
      (effects (font (size 1.27 1.27)) hide)
    )
    (property "ki_description" "1μA to 10mA 3-Terminal Adjustable Current Source, TO-92" (id 5) (at 0 0 0)
      (effects (font (size 1.27 1.27)) hide)
    )
  )
  (symbol "Reference_Current:LT3092xDD" (pin_names (offset 0.508))
    (property "Reference" "U" (id 0) (at 0.635 6.35 0)
      (effects (font (size 1.27 1.27)) (justify left))
    )
    (property "Value" "LT3092xDD" (id 1) (at 0.635 4.445 0)
      (effects (font (size 1.27 1.27)) (justify left))
    )
    (property "Footprint" "Package_DFN_QFN:DFN-8-1EP_3x3mm_P0.5mm_EP1.66x2.38mm" (id 2) (at 0.635 -3.81 0)
      (effects (font (size 1.27 1.27) italic) (justify left) hide)
    )
    (property "Datasheet" "https://www.analog.com/media/en/technical-documentation/data-sheets/3092fc.pdf" (id 3) (at 0 0 0)
      (effects (font (size 1.27 1.27) italic) hide)
    )
    (property "ki_keywords" "current source" (id 4) (at 0 0 0)
      (effects (font (size 1.27 1.27)) hide)
    )
    (property "ki_description" "200mA 2-Terminal Programmable Current Source, DFN-8" (id 5) (at 0 0 0)
      (effects (font (size 1.27 1.27)) hide)
    )
    (property "ki_fp_filters" "DFN*1EP*3x3mm*P0.5mm*" (id 6) (at 0 0 0)
      (effects (font (size 1.27 1.27)) hide)
    )
    (symbol "LT3092xDD_0_1"
      (circle (center 0 -0.635) (radius 1.27))
      (circle (center 0 0.635) (radius 1.27))
      (rectangle (start -2.286 3.048) (end 2.54 -2.794) (stroke (width 0.254)) (fill (type background)))
      (polyline
        (pts (xy -1.143 -2.413) (xy -0.381 -2.413))
      )
      (polyline
        (pts (xy -1.016 2.413) (xy -0.254 2.413))
      )
      (polyline
        (pts (xy -0.635 2.794) (xy -0.635 2.032))
      )
      (polyline
        (pts (xy 0 -1.905) (xy 0 -3.175))
      )
      (polyline
        (pts (xy 0 1.397) (xy 0 -1.397))
        (stroke (width 0.254))
      )
      (polyline
        (pts (xy 0 3.81) (xy 0 1.905))
      )
      (polyline
        (pts (xy 2.54 0) (xy 1.27 0))
      )
      (polyline
        (pts (xy 0 -1.397) (xy -0.254 -0.889) (xy 0.254 -0.889) (xy 0 -1.397))
        (stroke (width 0.254))
      )
      (polyline
        (pts (xy 1.27 0) (xy 2.159 0.254) (xy 2.159 -0.254) (xy 1.27 0))
      )
    )
    (symbol "LT3092xDD_1_1"
      (pin passive line (at 0 -5.08 90) (length 2.54) (name "~") (number "1") hide)
      (pin passive line (at 0 -5.08 90) (length 2.54) (name "~") (number "2"))
      (pin unconnected line (at -1.27 2.54 0) (length 2.54) (name "NC") (number "3") hide)
      (pin passive line (at 5.08 0 180) (length 2.54) (name "~") (number "4"))
      (pin unconnected line (at -1.27 0 0) (length 2.54) (name "NC") (number "5") hide)
      (pin unconnected line (at -1.27 -2.54 0) (length 2.54) (name "NC") (number "6") hide)
      (pin passive line (at 0 5.08 270) (length 2.54) (name "~") (number "7"))
      (pin passive line (at 0 5.08 270) (length 2.54) (name "~") (number "8") hide)
      (pin passive line (at 0 -5.08 90) (length 2.54) (name "~") (number "9") hide)
    )
  )
  (symbol "Reference_Current:LT3092xST" (pin_names (offset 0.508))
    (property "Reference" "U" (id 0) (at 0.635 6.35 0)
      (effects (font (size 1.27 1.27)) (justify left))
    )
    (property "Value" "LT3092xST" (id 1) (at 0.635 4.445 0)
      (effects (font (size 1.27 1.27)) (justify left))
    )
    (property "Footprint" "Package_TO_SOT_SMD:SOT-223-3_TabPin2" (id 2) (at 0.635 -3.81 0)
      (effects (font (size 1.27 1.27) italic) (justify left) hide)
    )
    (property "Datasheet" "https://www.analog.com/media/en/technical-documentation/data-sheets/3092fc.pdf" (id 3) (at 0 0 0)
      (effects (font (size 1.27 1.27) italic) hide)
    )
    (property "ki_keywords" "current source" (id 4) (at 0 0 0)
      (effects (font (size 1.27 1.27)) hide)
    )
    (property "ki_description" "200mA 2-Terminal Programmable Current Source, SOT-223" (id 5) (at 0 0 0)
      (effects (font (size 1.27 1.27)) hide)
    )
    (property "ki_fp_filters" "SOT*223*TabPin2*" (id 6) (at 0 0 0)
      (effects (font (size 1.27 1.27)) hide)
    )
    (symbol "LT3092xST_0_1"
      (circle (center 0 -0.635) (radius 1.27))
      (circle (center 0 0.635) (radius 1.27))
      (rectangle (start -2.286 3.048) (end 2.54 -2.794) (stroke (width 0.254)) (fill (type background)))
      (polyline
        (pts (xy -1.143 -2.413) (xy -0.381 -2.413))
      )
      (polyline
        (pts (xy -1.016 2.413) (xy -0.254 2.413))
      )
      (polyline
        (pts (xy -0.635 2.794) (xy -0.635 2.032))
      )
      (polyline
        (pts (xy 0 -1.905) (xy 0 -3.175))
      )
      (polyline
        (pts (xy 0 1.397) (xy 0 -1.397))
        (stroke (width 0.254))
      )
      (polyline
        (pts (xy 0 3.81) (xy 0 1.905))
      )
      (polyline
        (pts (xy 5.08 0) (xy 1.27 0))
      )
      (polyline
        (pts (xy 0 -1.397) (xy -0.254 -0.889) (xy 0.254 -0.889) (xy 0 -1.397))
        (stroke (width 0.254))
      )
      (polyline
        (pts (xy 1.27 0) (xy 2.159 0.254) (xy 2.159 -0.254) (xy 1.27 0))
      )
    )
    (symbol "LT3092xST_1_1"
      (pin passive line (at 5.08 0 180) (length 2.54) (name "~") (number "1"))
      (pin passive line (at 0 -5.08 90) (length 2.54) (name "~") (number "2"))
      (pin passive line (at 0 5.08 270) (length 2.54) (name "~") (number "3"))
    )
  )
  (symbol "Reference_Current:LT3092xTS8" (pin_names (offset 0.508))
    (property "Reference" "U" (id 0) (at 0.635 6.35 0)
      (effects (font (size 1.27 1.27)) (justify left))
    )
    (property "Value" "LT3092xTS8" (id 1) (at 0.635 4.445 0)
      (effects (font (size 1.27 1.27)) (justify left))
    )
    (property "Footprint" "Package_TO_SOT_SMD:TSOT-23-8" (id 2) (at 0.635 -3.81 0)
      (effects (font (size 1.27 1.27) italic) (justify left) hide)
    )
    (property "Datasheet" "https://www.analog.com/media/en/technical-documentation/data-sheets/3092fc.pdf" (id 3) (at 0 0 0)
      (effects (font (size 1.27 1.27) italic) hide)
    )
    (property "ki_keywords" "current source" (id 4) (at 0 0 0)
      (effects (font (size 1.27 1.27)) hide)
    )
    (property "ki_description" "200mA 2-Terminal Programmable Current Source, TSOT-23-8" (id 5) (at 0 0 0)
      (effects (font (size 1.27 1.27)) hide)
    )
    (property "ki_fp_filters" "TSOT?23*" (id 6) (at 0 0 0)
      (effects (font (size 1.27 1.27)) hide)
    )
    (symbol "LT3092xTS8_0_1"
      (circle (center 0 -0.635) (radius 1.27))
      (circle (center 0 0.635) (radius 1.27))
      (rectangle (start -2.286 3.048) (end 2.54 -2.794) (stroke (width 0.254)) (fill (type background)))
      (polyline
        (pts (xy -1.143 -2.413) (xy -0.381 -2.413))
      )
      (polyline
        (pts (xy -1.016 2.413) (xy -0.254 2.413))
      )
      (polyline
        (pts (xy -0.635 2.794) (xy -0.635 2.032))
      )
      (polyline
        (pts (xy 0 -1.905) (xy 0 -3.175))
      )
      (polyline
        (pts (xy 0 1.397) (xy 0 -1.397))
        (stroke (width 0.254))
      )
      (polyline
        (pts (xy 0 3.81) (xy 0 1.905))
      )
      (polyline
        (pts (xy 2.54 0) (xy 1.27 0))
      )
      (polyline
        (pts (xy 0 -1.397) (xy -0.254 -0.889) (xy 0.254 -0.889) (xy 0 -1.397))
        (stroke (width 0.254))
      )
      (polyline
        (pts (xy 1.27 0) (xy 2.159 0.254) (xy 2.159 -0.254) (xy 1.27 0))
      )
    )
    (symbol "LT3092xTS8_1_1"
      (pin unconnected line (at -1.27 2.54 0) (length 2.54) (name "NC") (number "1") hide)
      (pin passive line (at 0 -5.08 90) (length 2.54) (name "~") (number "2"))
      (pin passive line (at 0 -5.08 90) (length 2.54) (name "~") (number "3") hide)
      (pin passive line (at 0 -5.08 90) (length 2.54) (name "~") (number "4") hide)
      (pin passive line (at 5.08 0 180) (length 2.54) (name "~") (number "5"))
      (pin unconnected line (at -1.27 0 0) (length 2.54) (name "NC") (number "6") hide)
      (pin passive line (at 0 5.08 270) (length 2.54) (name "~") (number "7"))
      (pin passive line (at 0 5.08 270) (length 2.54) (name "~") (number "8") hide)
    )
  )
  (symbol "Reference_Current:PSSI2021SAY" (pin_names (offset 0.508))
    (property "Reference" "U" (id 0) (at 1.27 8.255 0)
      (effects (font (size 1.27 1.27)) (justify left))
    )
    (property "Value" "PSSI2021SAY" (id 1) (at 1.27 6.35 0)
      (effects (font (size 1.27 1.27) italic) (justify left))
    )
    (property "Footprint" "Package_TO_SOT_SMD:SOT-353_SC-70-5" (id 2) (at 0 -5.08 0)
      (effects (font (size 1.27 1.27) italic) hide)
    )
    (property "Datasheet" "https://assets.nexperia.com/documents/data-sheet/PSSI2021SAY.pdf" (id 3) (at 7.62 0 0)
      (effects (font (size 1.27 1.27) italic) hide)
    )
    (property "ki_keywords" "iref adjustable" (id 4) (at 0 0 0)
      (effects (font (size 1.27 1.27)) hide)
    )
    (property "ki_description" "Constant current source, Io 15µA to 50mA, SOT-353" (id 5) (at 0 0 0)
      (effects (font (size 1.27 1.27)) hide)
    )
    (property "ki_fp_filters" "SOT?353*" (id 6) (at 0 0 0)
      (effects (font (size 1.27 1.27)) hide)
    )
    (symbol "PSSI2021SAY_1_1"
      (circle (center 0 1.905) (radius 1.27))
      (circle (center 0 3.175) (radius 1.27))
      (rectangle (start -2.54 5.08) (end 2.54 -5.08) (stroke (width 0.254)) (fill (type background)))
      (polyline
        (pts (xy -1.778 0.508) (xy -1.016 0.508))
      )
      (polyline
        (pts (xy -1.778 4.445) (xy -1.016 4.445))
      )
      (polyline
        (pts (xy -1.397 4.826) (xy -1.397 4.064))
      )
      (polyline
        (pts (xy 0 3.937) (xy 0 1.143))
        (stroke (width 0.254))
      )
      (polyline
        (pts (xy 0 5.08) (xy 0 4.445))
      )
      (polyline
        (pts (xy 2.54 0) (xy 0 0) (xy 0 0.635))
      )
      (polyline
        (pts (xy 0 1.016) (xy -0.254 1.524) (xy 0.254 1.524) (xy 0 1.016))
        (stroke (width 0.254))
      )
      (polyline
        (pts (xy 2.54 2.54) (xy 1.778 2.54) (xy 1.778 2.667) (xy 1.524 2.54)
             (xy 1.778 2.413) (xy 1.778 2.54)
        )
      )
      (pin unconnected line (at -2.54 -2.54 0) (length 2.54) (name "NC") (number "1") hide)
      (pin power_in line (at 0 -7.62 90) (length 2.54)
        (name "GND" (effects (font (size 1.016 1.016))))
        (number "3")
      )
      (pin passive line (at 5.08 2.54 180) (length 2.54) (name "~") (number "4"))
      (pin power_in line (at 0 7.62 270) (length 2.54) (name "~") (number "5"))
    )
    (symbol "PSSI2021SAY_0_1"
      (pin power_out line (at 5.08 0 180) (length 2.54) (name "~") (number "2"))
    )
  )
  (symbol "Reference_Current:REF200AU" (pin_names (offset 0.508))
    (property "Reference" "U" (id 0) (at -3.175 4.445 0)
      (effects (font (size 1.27 1.27)) (justify right))
    )
    (property "Value" "REF200AU" (id 1) (at -3.175 2.54 0)
      (effects (font (size 1.27 1.27) italic) (justify right))
    )
    (property "Footprint" "Package_SO:SOIC-8_3.9x4.9mm_P1.27mm" (id 2) (at -3.175 0.635 0)
      (effects (font (size 1.27 1.27) italic) (justify right) hide)
    )
    (property "Datasheet" "www.ti.com/lit/ds/symlink/ref200.pdf" (id 3) (at 7.62 0 0)
      (effects (font (size 1.27 1.27) italic) hide)
    )
    (property "ki_locked" "" (id 4) (at 0 0 0))
    (property "ki_keywords" "Current Source/Sink 100μA" (id 5) (at 0 0 0)
      (effects (font (size 1.27 1.27)) hide)
    )
    (property "ki_description" "2x100μA Current Sources/Sinks with Current Mirror, SO-8" (id 6) (at 0 0 0)
      (effects (font (size 1.27 1.27)) hide)
    )
    (property "ki_fp_filters" "SOIC*3.9x4.9mm*P1.27mm*" (id 7) (at 0 0 0)
      (effects (font (size 1.27 1.27)) hide)
    )
    (symbol "REF200AU_1_1"
      (circle (center 0 -0.635) (radius 1.27))
      (circle (center 0 0.635) (radius 1.27))
      (rectangle (start -2.54 5.08) (end 3.81 -5.08) (stroke (width 0.254)) (fill (type background)))
      (polyline
        (pts (xy -1.143 -2.413) (xy -0.381 -2.413))
      )
      (polyline
        (pts (xy -1.016 2.413) (xy -0.254 2.413))
      )
      (polyline
        (pts (xy -0.635 2.794) (xy -0.635 2.032))
      )
      (polyline
        (pts (xy 0 -1.905) (xy 0 -5.08))
      )
      (polyline
        (pts (xy 0 1.397) (xy 0 -1.397))
        (stroke (width 0.254))
      )
      (polyline
        (pts (xy 0 5.08) (xy 0 1.905))
      )
      (polyline
        (pts (xy 0 -1.397) (xy -0.254 -0.889) (xy 0.254 -0.889) (xy 0 -1.397))
        (stroke (width 0.254))
      )
      (pin passive line (at 0 -7.62 90) (length 2.54) (name "~") (number "1"))
      (pin passive line (at 0 7.62 270) (length 2.54) (name "~") (number "8"))
    )
    (symbol "REF200AU_2_1"
      (circle (center 0 -0.635) (radius 1.27))
      (circle (center 0 0.635) (radius 1.27))
      (rectangle (start -2.54 5.08) (end 3.81 -5.08) (stroke (width 0.254)) (fill (type background)))
      (polyline
        (pts (xy -1.143 -2.413) (xy -0.381 -2.413))
      )
      (polyline
        (pts (xy -1.016 2.413) (xy -0.254 2.413))
      )
      (polyline
        (pts (xy -0.635 2.794) (xy -0.635 2.032))
      )
      (polyline
        (pts (xy 0 -1.905) (xy 0 -5.08))
      )
      (polyline
        (pts (xy 0 1.397) (xy 0 -1.397))
        (stroke (width 0.254))
      )
      (polyline
        (pts (xy 0 5.08) (xy 0 1.905))
      )
      (polyline
        (pts (xy 0 -1.397) (xy -0.254 -0.889) (xy 0.254 -0.889) (xy 0 -1.397))
        (stroke (width 0.254))
      )
      (pin passive line (at 0 -7.62 90) (length 2.54) (name "~") (number "2"))
      (pin passive line (at 0 7.62 270) (length 2.54) (name "~") (number "7"))
    )
    (symbol "REF200AU_3_1"
      (circle (center 0 -2.54) (radius 0.1524))
      (circle (center 0 3.81) (radius 0.1524))
      (circle (center 3.81 0) (radius 0.1524))
      (rectangle (start -2.54 5.08) (end 8.89 -5.08) (stroke (width 0.254)) (fill (type background)))
      (polyline
        (pts (xy 0 3.81) (xy 0 5.08))
      )
      (polyline
        (pts (xy 1.27 -1.27) (xy 1.27 1.27))
      )
      (polyline
        (pts (xy 1.27 0) (xy 6.35 0))
      )
      (polyline
        (pts (xy 6.35 1.27) (xy 6.35 -1.27))
      )
      (polyline
        (pts (xy 0 -5.08) (xy 0 -1.27) (xy 1.27 -0.635))
      )
      (polyline
        (pts (xy 0 3.81) (xy 3.81 3.81) (xy 3.81 0))
      )
      (polyline
        (pts (xy 1.27 0.635) (xy 0 1.27) (xy 0 3.81))
      )
      (polyline
        (pts (xy 7.62 5.08) (xy 7.62 1.27) (xy 6.35 0.635))
      )
      (polyline
        (pts (xy 0 -1.27) (xy 0.6096 -0.762) (xy 0.762 -1.1176) (xy 0 -1.27))
      )
      (polyline
        (pts (xy 6.35 -0.635) (xy 7.62 -1.27) (xy 7.62 -2.54) (xy 0 -2.54))
      )
      (polyline
        (pts (xy 7.62 -1.27) (xy 7.0104 -0.762) (xy 6.858 -1.1176) (xy 7.62 -1.27))
      )
      (pin passive line (at 0 -7.62 90) (length 2.54) (name "~") (number "3"))
      (pin passive line (at 7.62 7.62 270) (length 2.54) (name "~") (number "4"))
      (pin passive line (at 0 7.62 270) (length 2.54) (name "~") (number "5"))
    )
    (symbol "REF200AU_0_1"
      (pin passive line (at 2.54 -7.62 90) (length 2.54) (name "S") (number "6"))
    )
  )
)
