(kicad_symbol_lib (version 20200126) (host kicad_symbol_editor "(5.99.0-1517-ga8407fba4)")
  (symbol "RF:ADC-10-1R" (pin_names (offset 0.508))
    (property "Reference" "U" (id 0) (at -6.35 7.62 0))
    (property "Value" "ADC-10-1R" (id 1) (at 6.35 7.62 0))
    (property "Footprint" "RF_Mini-Circuits:Mini-Circuits_CD542_LandPatternPL-094" (id 2) (at 2.54 -11.43 0)
      (effects (font (size 1.27 1.27)) hide)
    )
    (property "Datasheet" "https://www.minicircuits.com/pdfs/ADC-10-1R.pdf" (id 3) (at 5.08 -8.89 0)
      (effects (font (size 1.27 1.27)) hide)
    )
    (property "ki_keywords" "Directional Coupler" (id 4) (at 0 0 0)
      (effects (font (size 1.27 1.27)) hide)
    )
    (property "ki_description" "Directional Coupler, 5 to 900 MHz, 10 dB Coupling, 50 Ohm, Mini-Circuits CD542" (id 5) (at 0 0 0)
      (effects (font (size 1.27 1.27)) hide)
    )
    (property "ki_fp_filters" "Mini?Circuits*CD542*" (id 6) (at 0 0 0)
      (effects (font (size 1.27 1.27)) hide)
    )
    (symbol "ADC-10-1R_0_1"
      (rectangle (start -6.35 6.35) (end 6.35 -6.35) (stroke (width 0.254)) (fill (type background)))
      (polyline
        (pts (xy -6.35 2.54) (xy 6.35 2.54))
        (stroke (width 0.508))
      )
      (polyline
        (pts (xy 6.35 -2.54) (xy 5.08 -3.81))
        (stroke (width 0.254))
      )
      (polyline
        (pts (xy 6.35 -2.54) (xy 5.08 -1.27))
        (stroke (width 0.254))
      )
      (polyline
        (pts (xy 6.35 -2.54) (xy 3.81 -2.54) (xy 3.81 0) (xy -3.81 0)
             (xy -3.81 -2.54)
        )
        (stroke (width 0.254))
      )
    )
    (symbol "ADC-10-1R_1_1"
      (pin input line (at -10.16 2.54 0) (length 3.81) (name "IN") (number "1"))
      (pin power_in line (at -5.08 -10.16 90) (length 3.81) (name "GND") (number "2"))
      (pin output line (at 10.16 -2.54 180) (length 3.81) (name "CPL") (number "3"))
      (pin unconnected line (at 6.35 0 180) (length 3.81) (name "NC") (number "4") hide)
      (pin passive line (at -5.08 -10.16 90) (length 3.81) (name "GND") (number "5") hide)
      (pin output line (at 10.16 2.54 180) (length 3.81) (name "OUT") (number "6"))
    )
  )
  (symbol "RF:ADE-6" (pin_names (offset 0.508))
    (property "Reference" "U" (id 0) (at -6.35 7.62 0))
    (property "Value" "ADE-6" (id 1) (at 6.35 7.62 0))
    (property "Footprint" "RF_Mini-Circuits:Mini-Circuits_CD542_LandPatternPL-052" (id 2) (at 1.905 -9.525 0)
      (effects (font (size 1.27 1.27)) hide)
    )
    (property "Datasheet" "www.minicircuits.com/pdfs/ADE-6.pdf" (id 3) (at 4.445 -6.985 0)
      (effects (font (size 1.27 1.27)) hide)
    )
    (property "ki_keywords" "mixer rf" (id 4) (at 0 0 0)
      (effects (font (size 1.27 1.27)) hide)
    )
    (property "ki_description" "Mixer, +7 dBm LO, 0.05 to 250 MHz" (id 5) (at 0 0 0)
      (effects (font (size 1.27 1.27)) hide)
    )
    (property "ki_fp_filters" "Mini?Circuits*CD542*" (id 6) (at 0 0 0)
      (effects (font (size 1.27 1.27)) hide)
    )
    (symbol "ADE-6_0_1"
      (circle (center 0 0) (radius 5.08))
      (rectangle (start -6.35 6.35) (end 6.35 -6.35) (stroke (width 0.254)) (fill (type background)))
      (polyline
        (pts (xy -3.175 -3.81) (xy 3.175 3.81))
      )
      (polyline
        (pts (xy 3.81 -3.175) (xy -3.175 3.81))
      )
    )
    (symbol "ADE-6_1_1"
      (pin power_in line (at -5.08 -10.16 90) (length 3.81) (name "GND") (number "1"))
      (pin output line (at 10.16 0 180) (length 5.08) (name "IF") (number "2"))
      (pin input line (at -10.16 0 0) (length 5.08) (name "RF") (number "3"))
      (pin passive line (at -5.08 -10.16 90) (length 3.81) (name "GND") (number "4") hide)
      (pin passive line (at -5.08 -10.16 90) (length 3.81) (name "GND") (number "5") hide)
      (pin input line (at 0 -10.16 90) (length 5.08) (name "LO") (number "6"))
    )
  )
  (symbol "RF:ADP-2-1W" (pin_names (offset 0.508))
    (property "Reference" "U" (id 0) (at -6.35 7.62 0))
    (property "Value" "ADP-2-1W" (id 1) (at 6.35 7.62 0))
    (property "Footprint" "RF_Mini-Circuits:Mini-Circuits_CD636_LandPatternPL-035" (id 2) (at -3.81 -11.43 0)
      (effects (font (size 1.27 1.27)) hide)
    )
    (property "Datasheet" "https://www.minicircuits.com/pdfs/ADP-2-1W.pdf" (id 3) (at -1.27 -8.89 0)
      (effects (font (size 1.27 1.27)) hide)
    )
    (property "ki_keywords" "splitter combiner" (id 4) (at 0 0 0)
      (effects (font (size 1.27 1.27)) hide)
    )
    (property "ki_description" "Power splitter combiner, 1 to 650 MHz, 2 way 0-degree, 50 ohm, Mini-Circuits CD636" (id 5) (at 0 0 0)
      (effects (font (size 1.27 1.27)) hide)
    )
    (property "ki_fp_filters" "Mini?Circuits*CD636*" (id 6) (at 0 0 0)
      (effects (font (size 1.27 1.27)) hide)
    )
    (symbol "ADP-2-1W_0_1"
      (rectangle (start -6.35 6.35) (end 6.35 -6.35) (stroke (width 0.254)) (fill (type background)))
      (polyline
        (pts (xy 0 0) (xy 5.08 -5.08))
        (stroke (width 0.508))
      )
      (polyline
        (pts (xy -5.08 0) (xy 0 0) (xy 5.08 5.08))
        (stroke (width 0.508))
      )
    )
    (symbol "ADP-2-1W_1_1"
      (pin passive line (at -10.16 0 0) (length 5.08) (name "SUM") (number "1"))
      (pin unconnected line (at 5.08 2.54 180) (length 5.08) (name "NC") (number "2") hide)
      (pin passive line (at 10.16 5.08 180) (length 5.08) (name "PORT1") (number "3"))
      (pin passive line (at 10.16 -5.08 180) (length 5.08) (name "PORT2") (number "4"))
      (pin unconnected line (at 5.08 -2.54 180) (length 5.08) (name "NC") (number "5") hide)
      (pin passive line (at -5.08 -10.16 90) (length 3.81) (name "GND") (number "6"))
    )
  )
  (symbol "RF:AMK-2-13" (pin_names (offset 0.508))
    (property "Reference" "U" (id 0) (at -6.35 7.62 0))
    (property "Value" "AMK-2-13" (id 1) (at 6.35 7.62 0))
    (property "Footprint" "RF_Mini-Circuits:Mini-Circuits_CD542_LandPatternPL-052" (id 2) (at -6.35 -8.89 0)
      (effects (font (size 1.27 1.27)) hide)
    )
    (property "Datasheet" "https://www.minicircuits.com/pdfs/AMK-2-13+.pdf" (id 3) (at -3.81 -6.35 0)
      (effects (font (size 1.27 1.27)) hide)
    )
    (property "ki_keywords" "frequency multiplier" (id 4) (at 0 0 0)
      (effects (font (size 1.27 1.27)) hide)
    )
    (property "ki_description" "2x Frequency Multiplier, output 20 to 1000 MHz, 50 Ohm, Mini-Circuits CD542" (id 5) (at 0 0 0)
      (effects (font (size 1.27 1.27)) hide)
    )
    (property "ki_fp_filters" "Mini?Circuits*CD542*" (id 6) (at 0 0 0)
      (effects (font (size 1.27 1.27)) hide)
    )
    (symbol "AMK-2-13_0_0"
      (text "2x" (at 0 3.81 0)
        (effects (font (size 1.27 1.27)))
      )
    )
    (symbol "AMK-2-13_0_1"
      (rectangle (start -6.35 6.35) (end 6.35 -6.35) (stroke (width 0.254)) (fill (type background)))
    )
    (symbol "AMK-2-13_1_1"
      (pin power_in line (at 0 -10.16 90) (length 3.81) (name "GND") (number "1"))
      (pin unconnected line (at -6.35 -2.54 0) (length 2.54) (name "NC") (number "2") hide)
      (pin input line (at -10.16 0 0) (length 3.81) (name "F_IN") (number "3"))
      (pin passive line (at 0 -10.16 90) (length 3.81) (name "GND") (number "4") hide)
      (pin passive line (at 0 -10.16 90) (length 3.81) (name "GND") (number "5") hide)
      (pin output line (at 10.16 0 180) (length 3.81) (name "2F_OUT") (number "6"))
    )
  )
  (symbol "RF:AX5043" (pin_names (offset 0.508))
    (property "Reference" "U" (id 0) (at -8.89 21.59 0))
    (property "Value" "AX5043" (id 1) (at 8.89 21.59 0))
    (property "Footprint" "Package_DFN_QFN:QFN-28-1EP_5x5mm_P0.5mm_EP3.35x3.35mm" (id 2) (at 53.34 36.83 0)
      (effects (font (size 1.27 1.27)) hide)
    )
    (property "Datasheet" "https://www.onsemi.com/pub/Collateral/AX5043-D.PDF" (id 3) (at 34.29 34.29 0)
      (effects (font (size 1.27 1.27)) hide)
    )
    (property "ki_keywords" "RF, tranceiver" (id 4) (at 0 0 0)
      (effects (font (size 1.27 1.27)) hide)
    )
    (property "ki_description" "Advanced High Performance ASK and FSK Narrow-band Transceiver for 27 - 1050 MHz Range" (id 5) (at 0 0 0)
      (effects (font (size 1.27 1.27)) hide)
    )
    (property "ki_fp_filters" "QFN?28*5x5mm*P0.5mm*" (id 6) (at 0 0 0)
      (effects (font (size 1.27 1.27)) hide)
    )
    (symbol "AX5043_1_0"
      (rectangle (start -10.16 -20.32) (end 10.16 20.32) (stroke (width 0.254)) (fill (type background)))
    )
    (symbol "AX5043_1_1"
      (pin power_out line (at 2.54 22.86 270) (length 2.54) (name "VDD_ANA") (number "1"))
      (pin passive line (at -12.7 -15.24 0) (length 2.54) (name "L1") (number "10"))
      (pin bidirectional line (at 12.7 -15.24 180) (length 2.54) (name "DATA") (number "11"))
      (pin bidirectional line (at 12.7 -12.7 180) (length 2.54) (name "DCLK") (number "12"))
      (pin bidirectional line (at 12.7 -10.16 180) (length 2.54) (name "SYSCLK") (number "13"))
      (pin input line (at -12.7 -5.08 0) (length 2.54) (name "SEL") (number "14"))
      (pin input line (at -12.7 2.54 0) (length 2.54) (name "CLK") (number "15"))
      (pin output line (at -12.7 0 0) (length 2.54) (name "MISO") (number "16"))
      (pin input line (at -12.7 -2.54 0) (length 2.54) (name "MOSI") (number "17"))
      (pin unconnected line (at -2.54 -20.32 90) (length 2.54) (name "NC") (number "18") hide)
      (pin output line (at 12.7 5.08 180) (length 2.54) (name "IRQ") (number "19"))
      (pin power_in line (at 0 -22.86 90) (length 2.54) (name "GND") (number "2"))
      (pin bidirectional line (at 12.7 7.62 180) (length 2.54) (name "PWRAMP") (number "20"))
      (pin bidirectional line (at 12.7 10.16 180) (length 2.54) (name "ANTSEL") (number "21"))
      (pin unconnected line (at 2.54 -20.32 90) (length 2.54) (name "NC") (number "22") hide)
      (pin power_in line (at 0 22.86 270) (length 2.54) (name "VDD_IO") (number "23"))
      (pin unconnected line (at -5.08 -20.32 90) (length 2.54) (name "NC") (number "24") hide)
      (pin input line (at -12.7 10.16 0) (length 2.54) (name "GPADC1") (number "25"))
      (pin input line (at -12.7 7.62 0) (length 2.54) (name "GPADC2") (number "26"))
      (pin input line (at -12.7 17.78 0) (length 2.54) (name "CLK16N") (number "27"))
      (pin input line (at -12.7 15.24 0) (length 2.54) (name "CLK16P") (number "28"))
      (pin passive line (at 0 -22.86 90) (length 2.54) (name "GND") (number "29") hide)
      (pin bidirectional line (at 12.7 -5.08 180) (length 2.54) (name "ANTP") (number "3"))
      (pin bidirectional line (at 12.7 -2.54 180) (length 2.54) (name "ANTN") (number "4"))
      (pin output line (at 12.7 0 180) (length 2.54) (name "ANTP1") (number "5"))
      (pin passive line (at 0 -22.86 90) (length 2.54) (name "GND") (number "6") hide)
      (pin power_out line (at 5.08 22.86 270) (length 2.54) (name "VDD_ANA") (number "7"))
      (pin input line (at -12.7 -10.16 0) (length 2.54) (name "FILT") (number "8"))
      (pin passive line (at -12.7 -12.7 0) (length 2.54) (name "L2") (number "9"))
    )
  )
  (symbol "RF:CC1000"
    (property "Reference" "U" (id 0) (at -24.13 17.78 0)
      (effects (font (size 1.27 1.27)) (justify left))
    )
    (property "Value" "CC1000" (id 1) (at -24.13 15.24 0)
      (effects (font (size 1.27 1.27)) (justify left))
    )
    (property "Footprint" "Package_SO:TSSOP-28_4.4x9.7mm_P0.65mm" (id 2) (at 8.89 15.24 0)
      (effects (font (size 1.27 1.27) italic) (justify left) hide)
    )
    (property "Datasheet" "www.ti.com/lit/ds/symlink/cc1000.pdf" (id 3) (at -1.27 2.54 0)
      (effects (font (size 1.27 1.27)) hide)
    )
    (property "ki_keywords" "Low Power RF Transciever" (id 4) (at 0 0 0)
      (effects (font (size 1.27 1.27)) hide)
    )
    (property "ki_description" "Single Chip Low Power RF Transceiver, TSSOP-28" (id 5) (at 0 0 0)
      (effects (font (size 1.27 1.27)) hide)
    )
    (property "ki_fp_filters" "TSSOP*4.4x9.7mm*P0.65mm*" (id 6) (at 0 0 0)
      (effects (font (size 1.27 1.27)) hide)
    )
    (symbol "CC1000_0_1"
      (rectangle (start -24.13 13.97) (end 24.13 -13.97) (stroke (width 0.254)) (fill (type background)))
    )
    (symbol "CC1000_1_1"
      (pin power_in line (at 0 17.78 270) (length 3.81) (name "AVDD") (number "1"))
      (pin passive line (at 27.94 0 180) (length 3.81) (name "L1") (number "10"))
      (pin passive line (at 27.94 -5.08 180) (length 3.81) (name "L2") (number "11"))
      (pin passive line (at 27.94 -10.16 180) (length 3.81) (name "CHP_OUT") (number "12"))
      (pin passive line (at 27.94 -12.7 180) (length 3.81) (name "R_BIAS") (number "13"))
      (pin power_in line (at 7.62 -17.78 90) (length 3.81) (name "AGND") (number "14"))
      (pin power_in line (at 7.62 17.78 270) (length 3.81) (name "AVDD") (number "15"))
      (pin power_in line (at 10.16 -17.78 90) (length 3.81) (name "AGND") (number "16"))
      (pin passive line (at -27.94 -10.16 0) (length 3.81) (name "XOSC_Q2") (number "17"))
      (pin passive line (at -27.94 -7.62 0) (length 3.81) (name "XOSC_Q1") (number "18"))
      (pin power_in line (at 12.7 -17.78 90) (length 3.81) (name "AGND") (number "19"))
      (pin power_in line (at -2.54 -17.78 90) (length 3.81) (name "AGND") (number "2"))
      (pin power_in line (at -10.16 -17.78 90) (length 3.81) (name "DGND") (number "20"))
      (pin power_in line (at -7.62 17.78 270) (length 3.81) (name "DVDD") (number "21"))
      (pin power_in line (at -7.62 -17.78 90) (length 3.81) (name "DGND") (number "22"))
      (pin bidirectional line (at -27.94 2.54 0) (length 3.81) (name "DIO") (number "23"))
      (pin output clock (at -27.94 0 0) (length 3.81) (name "DCLK") (number "24"))
      (pin input clock (at -27.94 7.62 0) (length 3.81) (name "PCLK") (number "25"))
      (pin bidirectional line (at -27.94 10.16 0) (length 3.81) (name "PDATA") (number "26"))
      (pin input line (at -27.94 5.08 0) (length 3.81) (name "PALE") (number "27"))
      (pin passive line (at -27.94 -2.54 0) (length 3.81) (name "RSSI/IF") (number "28"))
      (pin passive line (at 27.94 10.16 180) (length 3.81) (name "RF_IN") (number "3"))
      (pin passive line (at 27.94 5.08 180) (length 3.81) (name "RF_OUT") (number "4"))
      (pin power_in line (at 2.54 17.78 270) (length 3.81) (name "AVDD") (number "5"))
      (pin power_in line (at 0 -17.78 90) (length 3.81) (name "AGND") (number "6"))
      (pin power_in line (at 2.54 -17.78 90) (length 3.81) (name "AGND") (number "7"))
      (pin power_in line (at 5.08 -17.78 90) (length 3.81) (name "AGND") (number "8"))
      (pin power_in line (at 5.08 17.78 270) (length 3.81) (name "AVDD") (number "9"))
    )
  )
  (symbol "RF:CC1200"
    (property "Reference" "U" (id 0) (at -12.7 29.21 0))
    (property "Value" "CC1200" (id 1) (at -10.16 -29.21 0))
    (property "Footprint" "Package_DFN_QFN:QFN-32-1EP_5x5mm_P0.5mm_EP3.45x3.45mm" (id 2) (at 15.24 29.21 0)
      (effects (font (size 1.27 1.27)) hide)
    )
    (property "Datasheet" "http://www.ti.com/lit/ds/symlink/cc1200.pdf" (id 3) (at -12.7 29.21 0)
      (effects (font (size 1.27 1.27)) hide)
    )
    (property "ki_keywords" "RF Tx Rx" (id 4) (at 0 0 0)
      (effects (font (size 1.27 1.27)) hide)
    )
    (property "ki_description" "Low-Power, High-Performance RF Transceiver, QFN-32" (id 5) (at 0 0 0)
      (effects (font (size 1.27 1.27)) hide)
    )
    (property "ki_fp_filters" "QFN*5x5mm*P0.5mm*" (id 6) (at 0 0 0)
      (effects (font (size 1.27 1.27)) hide)
    )
    (symbol "CC1200_0_1"
      (rectangle (start -13.97 27.94) (end 13.97 -27.94) (stroke (width 0.254)) (fill (type background)))
    )
    (symbol "CC1200_1_1"
      (pin power_in line (at 17.78 20.32 180) (length 3.81) (name "VDD_GUARD") (number "1"))
      (pin bidirectional line (at -17.78 7.62 0) (length 3.81) (name "GPIO0") (number "10"))
      (pin input line (at -17.78 20.32 0) (length 3.81) (name "~CS~") (number "11"))
      (pin power_in line (at 17.78 22.86 180) (length 3.81) (name "DVDD") (number "12"))
      (pin power_in line (at 17.78 15.24 180) (length 3.81) (name "AVDD_IF") (number "13"))
      (pin passive line (at -17.78 -12.7 0) (length 3.81) (name "RBIAS") (number "14"))
      (pin power_in line (at 17.78 12.7 180) (length 3.81) (name "AVDD_RF") (number "15"))
      (pin passive line (at 17.78 -25.4 180) (length 3.81) (name "PA") (number "17"))
      (pin passive line (at 17.78 -20.32 180) (length 3.81) (name "TRX_SW") (number "18"))
      (pin passive line (at 17.78 -15.24 180) (length 3.81) (name "LNA_P") (number "19"))
      (pin input line (at -17.78 25.4 0) (length 3.81) (name "~RESET~") (number "2"))
      (pin passive line (at 17.78 -17.78 180) (length 3.81) (name "LNA_N") (number "20"))
      (pin power_out line (at 17.78 -5.08 180) (length 3.81) (name "DCPL_VCO") (number "21"))
      (pin power_in line (at 17.78 5.08 180) (length 3.81) (name "AVDD_SYNTH1") (number "22"))
      (pin passive line (at -17.78 -17.78 0) (length 3.81) (name "LPF0") (number "23"))
      (pin passive line (at -17.78 -20.32 0) (length 3.81) (name "LPF1") (number "24"))
      (pin power_in line (at 17.78 10.16 180) (length 3.81) (name "AVDD_PFD_CHP") (number "25"))
      (pin power_out line (at 17.78 -7.62 180) (length 3.81) (name "DCPL_PFD_CHP") (number "26"))
      (pin power_in line (at 17.78 2.54 180) (length 3.81) (name "AVDD_SYNTH2") (number "27"))
      (pin power_in line (at 17.78 7.62 180) (length 3.81) (name "AVDD_XOSC") (number "28"))
      (pin power_out line (at 17.78 -10.16 180) (length 3.81) (name "DCPL_XOSC") (number "29"))
      (pin bidirectional line (at -17.78 2.54 0) (length 3.81) (name "GPIO3") (number "3"))
      (pin passive line (at -17.78 -2.54 0) (length 3.81) (name "XOSC_Q1") (number "30"))
      (pin passive line (at -17.78 -5.08 0) (length 3.81) (name "XOSC_Q2") (number "31"))
      (pin input line (at -17.78 -7.62 0) (length 3.81) (name "EXT_XOSC") (number "32"))
      (pin power_in line (at -17.78 -25.4 0) (length 3.81) (name "GND_EP") (number "33"))
      (pin bidirectional line (at -17.78 5.08 0) (length 3.81) (name "GPIO2") (number "4"))
      (pin power_in line (at 17.78 25.4 180) (length 3.81) (name "DVDD") (number "5"))
      (pin power_out line (at 17.78 -2.54 180) (length 3.81) (name "DCPL") (number "6"))
      (pin input line (at -17.78 15.24 0) (length 3.81) (name "SI") (number "7"))
      (pin input line (at -17.78 17.78 0) (length 3.81) (name "SCLK") (number "8"))
      (pin bidirectional line (at -17.78 12.7 0) (length 3.81) (name "SO(GPIO1)") (number "9"))
    )
  )
  (symbol "RF:CC2500"
    (property "Reference" "U" (id 0) (at -16.51 13.97 0))
    (property "Value" "CC2500" (id 1) (at 13.97 13.97 0))
    (property "Footprint" "Package_DFN_QFN:Texas_S-PVQFN-N20_EP2.4x2.4mm" (id 2) (at 1.27 -17.78 0)
      (effects (font (size 1.27 1.27)) hide)
    )
    (property "Datasheet" "http://www.ti.com/lit/ds/symlink/cc2500.pdf" (id 3) (at 5.08 15.24 0)
      (effects (font (size 1.27 1.27)) hide)
    )
    (property "ki_keywords" "Low Power RF Transciever" (id 4) (at 0 0 0)
      (effects (font (size 1.27 1.27)) hide)
    )
    (property "ki_description" "Single Chip Low Power RF Transceiver, QFN-20" (id 5) (at 0 0 0)
      (effects (font (size 1.27 1.27)) hide)
    )
    (property "ki_fp_filters" "*QFN*4x4mm*0.5mm*" (id 6) (at 0 0 0)
      (effects (font (size 1.27 1.27)) hide)
    )
    (symbol "CC2500_0_1"
      (rectangle (start -17.78 12.7) (end 17.78 -12.7) (stroke (width 0.254)) (fill (type background)))
    )
    (symbol "CC2500_1_1"
      (pin input line (at -20.32 10.16 0) (length 2.54) (name "SCLK") (number "1"))
      (pin passive line (at -20.32 -5.08 0) (length 2.54) (name "XOSC_Q2") (number "10"))
      (pin passive line (at 2.54 15.24 270) (length 2.54) (name "AVDD") (number "11") hide)
      (pin passive line (at 20.32 0 180) (length 2.54) (name "RF_P") (number "12"))
      (pin passive line (at 20.32 -2.54 180) (length 2.54) (name "RF_N") (number "13"))
      (pin passive line (at 2.54 15.24 270) (length 2.54) (name "AVDD") (number "14") hide)
      (pin passive line (at 2.54 15.24 270) (length 2.54) (name "AVDD") (number "15") hide)
      (pin power_in line (at 0 -15.24 90) (length 2.54) (name "GND") (number "16"))
      (pin passive line (at -20.32 -10.16 0) (length 2.54) (name "RBIAS") (number "17"))
      (pin power_in line (at 0 15.24 270) (length 2.54) (name "VDD_GUARD") (number "18"))
      (pin passive line (at 0 -15.24 90) (length 2.54) (name "GND") (number "19") hide)
      (pin bidirectional line (at -20.32 7.62 0) (length 2.54) (name "SO(GDO1)") (number "2"))
      (pin input line (at -20.32 2.54 0) (length 2.54) (name "SI") (number "20"))
      (pin passive line (at 0 -15.24 90) (length 2.54) (name "GND") (number "21") hide)
      (pin bidirectional line (at 20.32 10.16 180) (length 2.54) (name "GDO2") (number "3"))
      (pin power_in line (at -2.54 15.24 270) (length 2.54) (name "DVDD") (number "4"))
      (pin power_out line (at 20.32 -10.16 180) (length 2.54) (name "DCOUPL") (number "5"))
      (pin bidirectional line (at 20.32 7.62 180) (length 2.54) (name "GDO0(ATEST)") (number "6"))
      (pin input line (at -20.32 5.08 0) (length 2.54) (name "~CS~") (number "7"))
      (pin passive line (at -20.32 -2.54 0) (length 2.54) (name "XOSC_Q1") (number "8"))
      (pin power_in line (at 2.54 15.24 270) (length 2.54) (name "AVDD") (number "9"))
    )
  )
  (symbol "RF:DC4759J5020AHF-1" (pin_names (offset 0.508))
    (property "Reference" "U" (id 0) (at -6.35 6.35 0))
    (property "Value" "DC4759J5020AHF-1" (id 1) (at 5.08 6.35 0))
    (property "Footprint" "RF_Converter:Anaren_0805_2012Metric-6" (id 2) (at 1.27 0 0)
      (effects (font (size 1.27 1.27)) hide)
    )
    (property "Datasheet" "https://cdn.anaren.com/product-documents/Xinger/DirectionalCouplers/DC4759J5020AHF/DC4759J5020AHF_DataSheet(Rev_E).pdf" (id 3) (at 0.254 0 0)
      (effects (font (size 1.27 1.27)) hide)
    )
    (property "ki_keywords" "RF coupler" (id 4) (at 0 0 0)
      (effects (font (size 1.27 1.27)) hide)
    )
    (property "ki_description" "4.7-5.9GHz 20dB Directional Coupler, Configuration 1, Anaren 0805" (id 5) (at 0 0 0)
      (effects (font (size 1.27 1.27)) hide)
    )
    (property "ki_fp_filters" "Anaren*0805*2012Metric*" (id 6) (at 0 0 0)
      (effects (font (size 1.27 1.27)) hide)
    )
    (symbol "DC4759J5020AHF-1_0_1"
      (rectangle (start -7.62 5.08) (end 7.62 -5.08) (stroke (width 0.254)) (fill (type background)))
    )
    (symbol "DC4759J5020AHF-1_1_1"
      (polyline
        (pts (xy -3.81 -1.27) (xy 3.81 -1.27))
        (stroke (width 0.254))
      )
      (polyline
        (pts (xy -3.81 1.27) (xy 3.81 1.27))
        (stroke (width 0.254))
      )
      (polyline
        (pts (xy -2.54 -1.27) (xy -2.032 -1.778))
        (stroke (width 0.254))
      )
      (polyline
        (pts (xy -2.54 1.778) (xy -2.032 1.27))
        (stroke (width 0.254))
      )
      (polyline
        (pts (xy -2.032 -0.762) (xy -2.54 -1.27))
        (stroke (width 0.254))
      )
      (polyline
        (pts (xy -2.032 1.27) (xy -2.54 0.762))
        (stroke (width 0.254))
      )
      (polyline
        (pts (xy -1.27 1.27) (xy 1.27 -1.27))
        (stroke (width 0.254))
      )
      (polyline
        (pts (xy 1.27 1.27) (xy -1.27 -1.27))
        (stroke (width 0.254))
      )
      (polyline
        (pts (xy 2.032 1.778) (xy 2.54 1.27))
        (stroke (width 0.254))
      )
      (polyline
        (pts (xy 2.286 -0.762) (xy 2.794 -1.27))
        (stroke (width 0.254))
      )
      (polyline
        (pts (xy 2.54 1.27) (xy 2.032 0.762))
        (stroke (width 0.254))
      )
      (polyline
        (pts (xy 2.794 -1.27) (xy 2.286 -1.778))
        (stroke (width 0.254))
      )
      (pin output line (at 10.16 2.54 180) (length 2.54)
        (name "Direct" (effects (font (size 1.016 1.016))))
        (number "1")
      )
      (pin output line (at -10.16 -2.54 0) (length 2.54)
        (name "Isolated" (effects (font (size 1.016 1.016))))
        (number "2")
      )
      (pin power_in line (at 0 -7.62 90) (length 2.54)
        (name "GND" (effects (font (size 1.016 1.016))))
        (number "3")
      )
      (pin passive line (at 0 -7.62 90) (length 2.54)
        (name "GND" (effects (font (size 1.016 1.016))))
        (number "4")
         hide      )
      (pin output line (at 10.16 -2.54 180) (length 2.54)
        (name "Coupled" (effects (font (size 1.016 1.016))))
        (number "5")
      )
      (pin input line (at -10.16 2.54 0) (length 2.54)
        (name "Input" (effects (font (size 1.016 1.016))))
        (number "6")
      )
    )
  )
  (symbol "RF:DC4759J5020AHF-2" (pin_names (offset 0.508))
    (property "Reference" "U" (id 0) (at -6.35 6.35 0))
    (property "Value" "DC4759J5020AHF-2" (id 1) (at 5.08 6.35 0))
    (property "Footprint" "RF_Converter:Anaren_0805_2012Metric-6" (id 2) (at 1.27 0 0)
      (effects (font (size 1.27 1.27)) hide)
    )
    (property "Datasheet" "https://cdn.anaren.com/product-documents/Xinger/DirectionalCouplers/DC4759J5020AHF/DC4759J5020AHF_DataSheet(Rev_E).pdf" (id 3) (at 0.254 0 0)
      (effects (font (size 1.27 1.27)) hide)
    )
    (property "ki_keywords" "RF coupler" (id 4) (at 0 0 0)
      (effects (font (size 1.27 1.27)) hide)
    )
    (property "ki_description" "4.7-5.9GHz 20dB Directional Coupler, Configuration 2, Anaren 0805" (id 5) (at 0 0 0)
      (effects (font (size 1.27 1.27)) hide)
    )
    (property "ki_fp_filters" "Anaren*0805*2012Metric*" (id 6) (at 0 0 0)
      (effects (font (size 1.27 1.27)) hide)
    )
    (symbol "DC4759J5020AHF-2_0_1"
      (rectangle (start -7.62 5.08) (end 7.62 -5.08) (stroke (width 0.254)) (fill (type background)))
    )
    (symbol "DC4759J5020AHF-2_1_1"
      (polyline
        (pts (xy -3.81 -1.27) (xy 3.81 -1.27))
        (stroke (width 0.254))
      )
      (polyline
        (pts (xy -3.81 1.27) (xy 3.81 1.27))
        (stroke (width 0.254))
      )
      (polyline
        (pts (xy -2.54 -1.27) (xy -2.032 -1.778))
        (stroke (width 0.254))
      )
      (polyline
        (pts (xy -2.54 1.778) (xy -2.032 1.27))
        (stroke (width 0.254))
      )
      (polyline
        (pts (xy -2.032 -0.762) (xy -2.54 -1.27))
        (stroke (width 0.254))
      )
      (polyline
        (pts (xy -2.032 1.27) (xy -2.54 0.762))
        (stroke (width 0.254))
      )
      (polyline
        (pts (xy -1.27 1.27) (xy 1.27 -1.27))
        (stroke (width 0.254))
      )
      (polyline
        (pts (xy 1.27 1.27) (xy -1.27 -1.27))
        (stroke (width 0.254))
      )
      (polyline
        (pts (xy 2.032 1.778) (xy 2.54 1.27))
        (stroke (width 0.254))
      )
      (polyline
        (pts (xy 2.286 -0.762) (xy 2.794 -1.27))
        (stroke (width 0.254))
      )
      (polyline
        (pts (xy 2.54 1.27) (xy 2.032 0.762))
        (stroke (width 0.254))
      )
      (polyline
        (pts (xy 2.794 -1.27) (xy 2.286 -1.778))
        (stroke (width 0.254))
      )
      (pin input line (at -10.16 2.54 0) (length 2.54)
        (name "Input" (effects (font (size 1.016 1.016))))
        (number "1")
      )
      (pin output line (at 10.16 -2.54 180) (length 2.54)
        (name "Coupled" (effects (font (size 1.016 1.016))))
        (number "2")
      )
      (pin power_in line (at 0 -7.62 90) (length 2.54)
        (name "GND" (effects (font (size 1.016 1.016))))
        (number "3")
      )
      (pin passive line (at 0 -7.62 90) (length 2.54)
        (name "GND" (effects (font (size 1.016 1.016))))
        (number "4")
         hide      )
      (pin output line (at -10.16 -2.54 0) (length 2.54)
        (name "Isolated" (effects (font (size 1.016 1.016))))
        (number "5")
      )
      (pin output line (at 10.16 2.54 180) (length 2.54)
        (name "Direct" (effects (font (size 1.016 1.016))))
        (number "6")
      )
    )
  )
  (symbol "RF:HMC394LP4" (pin_names (offset 0.508))
    (property "Reference" "U" (id 0) (at -10.16 13.97 0))
    (property "Value" "HMC394LP4" (id 1) (at 11.43 13.97 0))
    (property "Footprint" "Package_DFN_QFN:QFN-24-1EP_4x4mm_P0.5mm_EP2.8x2.8mm" (id 2) (at 0 -19.05 0)
      (effects (font (size 1.27 1.27)) hide)
    )
    (property "Datasheet" "https://www.analog.com/media/en/technical-documentation/data-sheets/hmc394.pdf" (id 3) (at 0 5.08 0)
      (effects (font (size 1.27 1.27)) hide)
    )
    (property "ki_keywords" "counter prescaler programmable frequency divider" (id 4) (at 0 0 0)
      (effects (font (size 1.27 1.27)) hide)
    )
    (property "ki_description" "GaAs HBT Programmable 5-bit Counter, DC - 2.2 GHz, QFN-24-1EP" (id 5) (at 0 0 0)
      (effects (font (size 1.27 1.27)) hide)
    )
    (property "ki_fp_filters" "QFN*1EP*4x4mm*P0.5mm*" (id 6) (at 0 0 0)
      (effects (font (size 1.27 1.27)) hide)
    )
    (symbol "HMC394LP4_0_1"
      (rectangle (start -10.16 12.7) (end 10.16 -12.7) (stroke (width 0.254)) (fill (type background)))
    )
    (symbol "HMC394LP4_1_1"
      (pin input line (at -12.7 0 0) (length 2.54) (name "A0") (number "1"))
      (pin passive line (at 0 -15.24 90) (length 2.54) (name "GND") (number "10") hide)
      (pin passive line (at 0 -15.24 90) (length 2.54) (name "GND") (number "11") hide)
      (pin passive line (at 0 -15.24 90) (length 2.54) (name "GND") (number "12") hide)
      (pin input line (at -12.7 5.08 0) (length 2.54) (name "~IN") (number "13"))
      (pin input line (at -12.7 10.16 0) (length 2.54) (name "IN") (number "14"))
      (pin passive line (at 0 -15.24 90) (length 2.54) (name "GND") (number "15") hide)
      (pin output line (at 12.7 10.16 180) (length 2.54) (name "OUT") (number "16"))
      (pin output line (at 12.7 5.08 180) (length 2.54) (name "~OUT") (number "17"))
      (pin passive line (at 0 -15.24 90) (length 2.54) (name "GND") (number "18") hide)
      (pin passive line (at 0 -15.24 90) (length 2.54) (name "GND") (number "19") hide)
      (pin input line (at -12.7 -2.54 0) (length 2.54) (name "A1") (number "2"))
      (pin passive line (at 0 -15.24 90) (length 2.54) (name "GND") (number "20") hide)
      (pin passive line (at 0 -15.24 90) (length 2.54) (name "GND") (number "21") hide)
      (pin passive line (at 0 -15.24 90) (length 2.54) (name "GND") (number "22") hide)
      (pin power_in line (at 2.54 15.24 270) (length 2.54) (name "VCC") (number "23"))
      (pin power_in line (at 5.08 15.24 270) (length 2.54) (name "VCC") (number "24"))
      (pin passive line (at 0 -15.24 90) (length 2.54) (name "GND") (number "25") hide)
      (pin input line (at -12.7 -5.08 0) (length 2.54) (name "A2") (number "3"))
      (pin input line (at -12.7 -7.62 0) (length 2.54) (name "A3") (number "4"))
      (pin input line (at -12.7 -10.16 0) (length 2.54) (name "A4") (number "5"))
      (pin power_in line (at 0 -15.24 90) (length 2.54) (name "GND") (number "6"))
      (pin power_in line (at -5.08 15.24 270) (length 2.54) (name "VCC") (number "7"))
      (pin power_in line (at -2.54 15.24 270) (length 2.54) (name "VCC") (number "8"))
      (pin passive line (at 0 -15.24 90) (length 2.54) (name "GND") (number "9") hide)
    )
  )
  (symbol "RF:HMC431" (pin_names (offset 0.508))
    (property "Reference" "U" (id 0) (at -6.35 6.35 0))
    (property "Value" "HMC431" (id 1) (at 5.08 6.35 0))
    (property "Footprint" "Package_DFN_QFN:QFN-24-1EP_4x4mm_P0.5mm_EP2.8x2.8mm" (id 2) (at 0 0 0)
      (effects (font (size 1.27 1.27)) hide)
    )
    (property "Datasheet" "https://www.analog.com/media/en/technical-documentation/data-sheets/hmc431.pdf" (id 3) (at 0 0 0)
      (effects (font (size 1.27 1.27)) hide)
    )
    (property "ki_keywords" "vco rf" (id 4) (at 0 0 0)
      (effects (font (size 1.27 1.27)) hide)
    )
    (property "ki_description" "5.5-6.1GHz VCO, QFN-24" (id 5) (at 0 0 0)
      (effects (font (size 1.27 1.27)) hide)
    )
    (property "ki_fp_filters" "QFN*1EP*4x4mm*P0.5mm*" (id 6) (at 0 0 0)
      (effects (font (size 1.27 1.27)) hide)
    )
    (symbol "HMC431_0_1"
      (arc (start -6.604 2.794) (end -5.334 2.794) (radius (at -5.969 2.794) (length 0.635) (angles -179.9 -0.1)))
      (arc (start -4.064 2.794) (end -5.334 2.794) (radius (at -4.699 2.794) (length 0.635) (angles 0.1 179.9)))
      (arc (start -4.064 2.794) (end -2.794 2.794) (radius (at -3.429 2.794) (length 0.635) (angles -179.9 -0.1)))
      (arc (start -1.524 2.794) (end -2.794 2.794) (radius (at -2.159 2.794) (length 0.635) (angles 0.1 179.9)))
      (rectangle (start -7.62 5.08) (end 7.62 -5.08) (stroke (width 0.254)) (fill (type background)))
    )
    (symbol "HMC431_1_1"
      (pin passive line (at -10.16 -2.54 0) (length 2.54) (name "NC") (number "1"))
      (pin passive line (at -10.16 -2.54 0) (length 2.54) (name "NC") (number "10") hide)
      (pin passive line (at -10.16 -2.54 0) (length 2.54) (name "NC") (number "11") hide)
      (pin passive line (at -10.16 -2.54 0) (length 2.54) (name "NC") (number "12") hide)
      (pin passive line (at -10.16 -2.54 0) (length 2.54) (name "NC") (number "13") hide)
      (pin passive line (at -10.16 -2.54 0) (length 2.54) (name "NC") (number "14") hide)
      (pin power_in line (at 0 -7.62 90) (length 2.54) (name "GND") (number "15"))
      (pin output line (at 10.16 0 180) (length 2.54) (name "RFOUT") (number "16"))
      (pin passive line (at -10.16 -2.54 0) (length 2.54) (name "NC") (number "17") hide)
      (pin passive line (at -10.16 -2.54 0) (length 2.54) (name "NC") (number "18") hide)
      (pin passive line (at -10.16 -2.54 0) (length 2.54) (name "NC") (number "19") hide)
      (pin passive line (at -10.16 -2.54 0) (length 2.54) (name "NC") (number "2") hide)
      (pin power_in line (at 0 7.62 270) (length 2.54) (name "VCC") (number "20"))
      (pin passive line (at -10.16 -2.54 0) (length 2.54) (name "NC") (number "21") hide)
      (pin input line (at -10.16 0 0) (length 2.54) (name "VTUNE") (number "22"))
      (pin passive line (at -10.16 -2.54 0) (length 2.54) (name "NC") (number "23") hide)
      (pin passive line (at -10.16 -2.54 0) (length 2.54) (name "NC") (number "24") hide)
      (pin passive line (at 0 -7.62 90) (length 2.54) (name "GND") (number "25") hide)
      (pin passive line (at -10.16 -2.54 0) (length 2.54) (name "NC") (number "3") hide)
      (pin passive line (at -10.16 -2.54 0) (length 2.54) (name "NC") (number "4") hide)
      (pin passive line (at -10.16 -2.54 0) (length 2.54) (name "NC") (number "5") hide)
      (pin passive line (at -10.16 -2.54 0) (length 2.54) (name "NC") (number "6") hide)
      (pin passive line (at -10.16 -2.54 0) (length 2.54) (name "NC") (number "7") hide)
      (pin passive line (at -10.16 -2.54 0) (length 2.54) (name "NC") (number "8") hide)
      (pin passive line (at -10.16 -2.54 0) (length 2.54) (name "NC") (number "9") hide)
    )
  )
  (symbol "RF:LAT-3" (pin_names (offset 0.508))
    (property "Reference" "U" (id 0) (at -6.35 7.62 0))
    (property "Value" "LAT-3" (id 1) (at 6.35 7.62 0))
    (property "Footprint" "RF_Mini-Circuits:Mini-Circuits_MMM168_LandPatternPL-225" (id 2) (at 0 -11.43 0)
      (effects (font (size 1.27 1.27)) hide)
    )
    (property "Datasheet" "https://www.minicircuits.com/pdfs/LAT-3+.pdf" (id 3) (at 0 0.635 0)
      (effects (font (size 1.27 1.27)) hide)
    )
    (property "ki_keywords" "attenuator rf" (id 4) (at 0 0 0)
      (effects (font (size 1.27 1.27)) hide)
    )
    (property "ki_description" "Attenuator, 3dB, 0.5W, DC to 2500 MHz, 50 Ohm, Mini-Circuits MMM168" (id 5) (at 0 0 0)
      (effects (font (size 1.27 1.27)) hide)
    )
    (property "ki_fp_filters" "Mini?Circuits*MMM168*" (id 6) (at 0 0 0)
      (effects (font (size 1.27 1.27)) hide)
    )
    (symbol "LAT-3_0_1"
      (rectangle (start -6.35 6.35) (end 6.35 -6.35) (stroke (width 0.254)) (fill (type background)))
      (polyline
        (pts (xy 0 -5.715) (xy 0 -4.445) (xy -1.27 -3.175) (xy 1.27 -1.905)
             (xy -1.27 -0.635) (xy 1.27 0.635) (xy -1.27 1.905) (xy 1.27 3.175)
             (xy 0 4.445) (xy 0 5.715)
        )
        (stroke (width 0.254))
      )
    )
    (symbol "LAT-3_1_1"
      (pin power_in line (at -5.08 -10.16 90) (length 3.81) (name "GND") (number "1"))
      (pin output line (at 10.16 0 180) (length 3.81) (name "OUT") (number "2"))
      (pin passive line (at -5.08 -10.16 90) (length 3.81) (name "GND") (number "3") hide)
      (pin input line (at -10.16 0 0) (length 3.81) (name "IN") (number "4"))
    )
  )
  (symbol "RF:LRPS-2-1" (pin_names (offset 0.508))
    (property "Reference" "U" (id 0) (at -6.35 7.62 0))
    (property "Value" "LRPS-2-1" (id 1) (at 6.35 7.62 0))
    (property "Footprint" "RF_Mini-Circuits:Mini-Circuits_QQQ130_LandPattern_PL-236_ClockwisePinNumbering" (id 2) (at 0 -11.43 0)
      (effects (font (size 1.27 1.27)) hide)
    )
    (property "Datasheet" "https://www.minicircuits.com/pdfs/LRPS-2-1.pdf" (id 3) (at -1.27 -8.89 0)
      (effects (font (size 1.27 1.27)) hide)
    )
    (property "ki_keywords" "power splitter combiner" (id 4) (at 0 0 0)
      (effects (font (size 1.27 1.27)) hide)
    )
    (property "ki_description" "Power Splitter/Combiner, 5 to 500 MHz, 50 Ohm" (id 5) (at 0 0 0)
      (effects (font (size 1.27 1.27)) hide)
    )
    (property "ki_fp_filters" "Mini?Circuits*QQQ130*" (id 6) (at 0 0 0)
      (effects (font (size 1.27 1.27)) hide)
    )
    (symbol "LRPS-2-1_0_1"
      (rectangle (start -6.35 6.35) (end 6.35 -6.35) (stroke (width 0.254)) (fill (type background)))
      (polyline
        (pts (xy 0 0) (xy 5.08 -5.08))
        (stroke (width 0.508))
      )
      (polyline
        (pts (xy -5.08 0) (xy 0 0) (xy 5.08 5.08))
        (stroke (width 0.508))
      )
    )
    (symbol "LRPS-2-1_1_1"
      (pin passive line (at -5.08 -10.16 90) (length 3.81) (name "GND") (number "1"))
      (pin unconnected line (at 5.08 2.54 180) (length 5.08) (name "NC") (number "2") hide)
      (pin passive line (at 10.16 -5.08 180) (length 5.08) (name "PORT2") (number "3"))
      (pin passive line (at 10.16 5.08 180) (length 5.08) (name "PORT1") (number "4"))
      (pin unconnected line (at 5.08 -2.54 180) (length 5.08) (name "NC") (number "5") hide)
      (pin passive line (at -10.16 0 0) (length 5.08) (name "SUM") (number "6"))
    )
  )
  (symbol "RF:MAADSS0008" (pin_names (offset 0.508))
    (property "Reference" "U" (id 0) (at -7.62 6.35 0))
    (property "Value" "MAADSS0008" (id 1) (at 3.81 6.35 0))
    (property "Footprint" "Package_TO_SOT_SMD:SOT-23-5" (id 2) (at 1.27 0 0)
      (effects (font (size 1.27 1.27)) hide)
    )
    (property "Datasheet" "http://cdn.macom.com/datasheets/maadss0008.pdf" (id 3) (at 1.778 -2.413 0)
      (effects (font (size 1.27 1.27)) hide)
    )
    (property "ki_keywords" "RF attenuator" (id 4) (at 0 0 0)
      (effects (font (size 1.27 1.27)) hide)
    )
    (property "ki_description" "0-2GHz, 15dB step attenuator, SOT-23-5" (id 5) (at 0 0 0)
      (effects (font (size 1.27 1.27)) hide)
    )
    (property "ki_fp_filters" "SOT*23*5*" (id 6) (at 0 0 0)
      (effects (font (size 1.27 1.27)) hide)
    )
    (symbol "MAADSS0008_0_1"
      (rectangle (start -7.62 5.08) (end 7.62 -7.62) (stroke (width 0.254)) (fill (type background)))
    )
    (symbol "MAADSS0008_1_1"
      (pin passive line (at -10.16 2.54 0) (length 2.54) (name "RF1") (number "1"))
      (pin passive line (at 0 -10.16 90) (length 2.54) (name "GND") (number "2"))
      (pin passive line (at 10.16 2.54 180) (length 2.54) (name "RF2") (number "3"))
      (pin input line (at -10.16 -2.54 0) (length 2.54) (name "V1") (number "4"))
      (pin input line (at -10.16 -5.08 0) (length 2.54) (name "V2") (number "5"))
    )
  )
  (symbol "RF:MAAVSS0004" (pin_names (offset 0.508))
    (property "Reference" "U" (id 0) (at 0 8.89 0))
    (property "Value" "MAAVSS0004" (id 1) (at 0 6.35 0))
    (property "Footprint" "Package_SO:SOIC-14_3.9x8.7mm_P1.27mm" (id 2) (at 0 0 0)
      (effects (font (size 1.27 1.27)) hide)
    )
    (property "Datasheet" "https://cdn.macom.com/datasheets/MAAVSS0004.pdf" (id 3) (at 0 0 0)
      (effects (font (size 1.27 1.27)) hide)
    )
    (property "ki_keywords" "VVA" (id 4) (at 0 0 0)
      (effects (font (size 1.27 1.27)) hide)
    )
    (property "ki_description" "DC-2GHz, 35dB, Voltage Variable Absorptive Attenuator, SOIC-14" (id 5) (at 0 0 0)
      (effects (font (size 1.27 1.27)) hide)
    )
    (property "ki_fp_filters" "SOIC*3.9x8.7mm*P1.27mm*" (id 6) (at 0 0 0)
      (effects (font (size 1.27 1.27)) hide)
    )
    (symbol "MAAVSS0004_0_1"
      (rectangle (start -5.08 5.08) (end 5.08 -5.08) (stroke (width 0.254)) (fill (type background)))
    )
    (symbol "MAAVSS0004_1_1"
      (pin input line (at -7.62 -2.54 0) (length 2.54) (name "VC") (number "1"))
      (pin passive line (at 0 -7.62 90) (length 2.54) (name "GND") (number "10") hide)
      (pin passive line (at 0 -7.62 90) (length 2.54) (name "GND") (number "11") hide)
      (pin passive line (at 0 -7.62 90) (length 2.54) (name "GND") (number "12") hide)
      (pin passive line (at 0 -7.62 90) (length 2.54) (name "GND") (number "13") hide)
      (pin passive line (at -7.62 2.54 0) (length 2.54) (name "RF1") (number "14"))
      (pin power_in line (at 0 -7.62 90) (length 2.54) (name "GND") (number "2"))
      (pin passive line (at 0 -7.62 90) (length 2.54) (name "GND") (number "3") hide)
      (pin passive line (at 0 -7.62 90) (length 2.54) (name "GND") (number "4") hide)
      (pin passive line (at 0 -7.62 90) (length 2.54) (name "GND") (number "5") hide)
      (pin passive line (at 0 -7.62 90) (length 2.54) (name "GND") (number "6") hide)
      (pin passive line (at 0 -7.62 90) (length 2.54) (name "GND") (number "7") hide)
      (pin passive line (at 7.62 2.54 180) (length 2.54) (name "RF2") (number "8"))
      (pin passive line (at 0 -7.62 90) (length 2.54) (name "GND") (number "9") hide)
    )
  )
  (symbol "RF:MC12080" (pin_names (offset 0.508))
    (property "Reference" "U" (id 0) (at -5.08 10.16 0))
    (property "Value" "MC12080" (id 1) (at 5.08 10.16 0))
    (property "Footprint" "Package_SO:SOIC-8_3.9x4.9mm_P1.27mm" (id 2) (at 0 -13.97 0)
      (effects (font (size 1.27 1.27)) hide)
    )
    (property "Datasheet" "https://www.onsemi.com/pub/Collateral/MC12080-D.PDF" (id 3) (at 0 0 0)
      (effects (font (size 1.27 1.27)) hide)
    )
    (property "ki_keywords" "prescaler frequency divider" (id 4) (at 0 0 0)
      (effects (font (size 1.27 1.27)) hide)
    )
    (property "ki_description" "1.1 GHz Prescaler, divide by 10 20 40 80, SOIC-8" (id 5) (at 0 0 0)
      (effects (font (size 1.27 1.27)) hide)
    )
    (property "ki_fp_filters" "SOIC*3.9x4.9mm*P1.27mm*" (id 6) (at 0 0 0)
      (effects (font (size 1.27 1.27)) hide)
    )
    (symbol "MC12080_0_1"
      (rectangle (start -6.35 8.89) (end 6.35 -8.89) (stroke (width 0.254)) (fill (type background)))
    )
    (symbol "MC12080_1_1"
      (pin input line (at -10.16 2.54 0) (length 3.81) (name "IN") (number "1"))
      (pin power_in line (at 0 12.7 270) (length 3.81) (name "VCC") (number "2"))
      (pin input line (at 10.16 5.08 180) (length 3.81) (name "SW1") (number "3"))
      (pin output line (at 10.16 -5.08 180) (length 3.81) (name "OUT") (number "4"))
      (pin power_in line (at 0 -12.7 90) (length 3.81) (name "GND") (number "5"))
      (pin input line (at 10.16 2.54 180) (length 3.81) (name "SW2") (number "6"))
      (pin input line (at 10.16 0 180) (length 3.81) (name "SW3") (number "7"))
      (pin input line (at -10.16 -2.54 0) (length 3.81) (name "~IN") (number "8"))
    )
  )
  (symbol "RF:MC12093D" (pin_names (offset 0.508))
    (property "Reference" "U" (id 0) (at -5.08 10.16 0))
    (property "Value" "MC12093D" (id 1) (at 5.08 10.16 0))
    (property "Footprint" "Package_SO:SOIC-8_3.9x4.9mm_P1.27mm" (id 2) (at 0 -13.97 0)
      (effects (font (size 1.27 1.27)) hide)
    )
    (property "Datasheet" "https://www.onsemi.com/pub/Collateral/MC12093-D.PDF" (id 3) (at 0 0 0)
      (effects (font (size 1.27 1.27)) hide)
    )
    (property "ki_keywords" "prescaler frequency divider" (id 4) (at 0 0 0)
      (effects (font (size 1.27 1.27)) hide)
    )
    (property "ki_description" "/2, /4, /8, 1.1 GHz Low Power Prescaler with Stand‐By Mode, SOIC-8" (id 5) (at 0 0 0)
      (effects (font (size 1.27 1.27)) hide)
    )
    (property "ki_fp_filters" "SOIC*3.9x4.9mm*P1.27mm*" (id 6) (at 0 0 0)
      (effects (font (size 1.27 1.27)) hide)
    )
    (symbol "MC12093D_0_1"
      (rectangle (start -6.35 8.89) (end 6.35 -8.89) (stroke (width 0.254)) (fill (type background)))
    )
    (symbol "MC12093D_1_1"
      (pin input line (at -10.16 2.54 0) (length 3.81) (name "IN") (number "1"))
      (pin power_in line (at 0 12.7 270) (length 3.81) (name "VCC") (number "2"))
      (pin input line (at 10.16 0 180) (length 3.81) (name "SW2") (number "3"))
      (pin output line (at 10.16 -5.08 180) (length 3.81) (name "OUT") (number "4"))
      (pin power_in line (at 0 -12.7 90) (length 3.81) (name "GND") (number "5"))
      (pin input line (at 10.16 2.54 180) (length 3.81) (name "SW1") (number "6"))
      (pin input line (at 10.16 5.08 180) (length 3.81) (name "SB") (number "7"))
      (pin input line (at -10.16 -2.54 0) (length 3.81) (name "~IN") (number "8"))
    )
  )
  (symbol "RF:MICRF112YMM" (pin_names (offset 0.508))
    (property "Reference" "U" (id 0) (at -7.62 16.51 0)
      (effects (font (size 1.27 1.27)) (justify left))
    )
    (property "Value" "MICRF112YMM" (id 1) (at 1.27 16.51 0)
      (effects (font (size 1.27 1.27)) (justify left))
    )
    (property "Footprint" "Package_SO:MSOP-10_3x3mm_P0.5mm" (id 2) (at 0 -19.05 0)
      (effects (font (size 1.27 1.27)) hide)
    )
    (property "Datasheet" "http://ww1.microchip.com/downloads/en/DeviceDoc/MICRF112.pdf" (id 3) (at -7.62 1.27 0)
      (effects (font (size 1.27 1.27)) hide)
    )
    (property "ki_keywords" "ask fsk ism transmitter" (id 4) (at 0 0 0)
      (effects (font (size 1.27 1.27)) hide)
    )
    (property "ki_description" "ASK/FSK Transmitter, 1.8-3.6V, 300-450MHz, +10dBm, MSOP-10" (id 5) (at 0 0 0)
      (effects (font (size 1.27 1.27)) hide)
    )
    (property "ki_fp_filters" "MSOP*3x3mm*P0.5mm*" (id 6) (at 0 0 0)
      (effects (font (size 1.27 1.27)) hide)
    )
    (symbol "MICRF112YMM_0_1"
      (polyline
        (pts (xy 7.62 15.24) (xy -7.62 15.24) (xy -7.62 -15.24) (xy 7.62 -15.24)
             (xy 7.62 15.24)
        )
        (stroke (width 0.254)) (fill (type background))
      )
    )
    (symbol "MICRF112YMM_1_1"
      (pin input line (at -10.16 7.62 0) (length 2.54) (name "ASK") (number "1"))
      (pin power_in line (at 0 17.78 270) (length 2.54) (name "VDD") (number "10"))
      (pin input line (at -10.16 2.54 0) (length 2.54) (name "XTLIN") (number "2"))
      (pin output line (at -10.16 0 0) (length 2.54) (name "XTLOUT") (number "3"))
      (pin power_in line (at -2.54 -17.78 90) (length 2.54) (name "VSS") (number "4"))
      (pin passive line (at -10.16 -5.08 0) (length 2.54) (name "XTAL_MOD") (number "5"))
      (pin input line (at -10.16 10.16 0) (length 2.54) (name "FSK") (number "6"))
      (pin input line (at 10.16 10.16 180) (length 2.54) (name "EN") (number "7"))
      (pin power_in line (at 2.54 -17.78 90) (length 2.54) (name "VSSPA") (number "8"))
      (pin output line (at 10.16 2.54 180) (length 2.54) (name "PAOUT") (number "9"))
    )
  )
  (symbol "RF:MICRF220AYQS" (pin_names (offset 0.508))
    (property "Reference" "U" (id 0) (at -7.62 16.51 0)
      (effects (font (size 1.27 1.27)) (justify left))
    )
    (property "Value" "MICRF220AYQS" (id 1) (at 1.27 16.51 0)
      (effects (font (size 1.27 1.27)) (justify left))
    )
    (property "Footprint" "Package_SO:QSOP-16_3.9x4.9mm_P0.635mm" (id 2) (at 0 -20.32 0)
      (effects (font (size 1.27 1.27)) hide)
    )
    (property "Datasheet" "http://ww1.microchip.com/downloads/en/DeviceDoc/micrf220.pdf" (id 3) (at 8.89 19.05 0)
      (effects (font (size 1.27 1.27)) hide)
    )
    (property "ki_keywords" "ask receiver" (id 4) (at 0 0 0)
      (effects (font (size 1.27 1.27)) hide)
    )
    (property "ki_description" "ASK Receiver 3.0-3.6V, 300-450MHz, -110dBm, QSOP-16" (id 5) (at 0 0 0)
      (effects (font (size 1.27 1.27)) hide)
    )
    (property "ki_fp_filters" "QSOP*3.9x4.9mm*P0.635mm*" (id 6) (at 0 0 0)
      (effects (font (size 1.27 1.27)) hide)
    )
    (symbol "MICRF220AYQS_0_1"
      (polyline
        (pts (xy -7.62 15.24) (xy 7.62 15.24) (xy 7.62 -15.24) (xy -7.62 -15.24)
             (xy -7.62 15.24)
        )
        (fill (type background))
      )
    )
    (symbol "MICRF220AYQS_1_1"
      (pin input line (at -10.16 7.62 0) (length 2.54) (name "RO1") (number "1"))
      (pin output line (at 10.16 12.7 180) (length 2.54) (name "DO") (number "10"))
      (pin input line (at 10.16 0 180) (length 2.54) (name "SEL1") (number "11"))
      (pin input line (at -10.16 0 0) (length 2.54) (name "CTH") (number "12"))
      (pin input line (at -10.16 -2.54 0) (length 2.54) (name "CAGC") (number "13"))
      (pin output line (at 10.16 7.62 180) (length 2.54) (name "RSSI") (number "14"))
      (pin unconnected line (at 7.62 -5.08 180) (length 2.54) (name "NC") (number "15") hide)
      (pin output line (at -10.16 5.08 0) (length 2.54) (name "RO2") (number "16"))
      (pin power_in line (at -2.54 -17.78 90) (length 2.54) (name "GNDRF") (number "2"))
      (pin input line (at -10.16 12.7 0) (length 2.54) (name "ANT") (number "3"))
      (pin passive line (at -2.54 -17.78 90) (length 2.54) (name "GNDRF") (number "4") hide)
      (pin power_in line (at 0 17.78 270) (length 2.54) (name "VDD") (number "5"))
      (pin input line (at -10.16 -7.62 0) (length 2.54) (name "SQ") (number "6"))
      (pin input line (at 10.16 2.54 180) (length 2.54) (name "SEL0") (number "7"))
      (pin input line (at 10.16 -7.62 180) (length 2.54) (name "~SHDN") (number "8"))
      (pin power_in line (at 2.54 -17.78 90) (length 2.54) (name "GND") (number "9"))
    )
  )
  (symbol "RF:NRF24L01"
    (property "Reference" "U" (id 0) (at -11.43 17.78 0)
      (effects (font (size 1.27 1.27)) (justify left))
    )
    (property "Value" "NRF24L01" (id 1) (at 5.08 17.78 0)
      (effects (font (size 1.27 1.27)) (justify left))
    )
    (property "Footprint" "Package_DFN_QFN:QFN-20-1EP_4x4mm_P0.5mm_EP2.5x2.5mm" (id 2) (at 5.08 20.32 0)
      (effects (font (size 1.27 1.27) italic) (justify left) hide)
    )
    (property "Datasheet" "http://www.nordicsemi.com/eng/content/download/2730/34105/file/nRF24L01_Product_Specification_v2_0.pdf" (id 3) (at 0 2.54 0)
      (effects (font (size 1.27 1.27)) hide)
    )
    (property "ki_keywords" "Low Power RF Transciever" (id 4) (at 0 0 0)
      (effects (font (size 1.27 1.27)) hide)
    )
    (property "ki_description" "Ultra low power 2.4GHz RF Transceiver, QFN-20" (id 5) (at 0 0 0)
      (effects (font (size 1.27 1.27)) hide)
    )
    (property "ki_fp_filters" "QFN*4x4*0.5mm*" (id 6) (at 0 0 0)
      (effects (font (size 1.27 1.27)) hide)
    )
    (symbol "NRF24L01_0_1"
      (arc (start -1.27 7.62) (end 2.54 3.81) (radius (at 0 5.08) (length 2.8448) (angles 116.6 -26.6))
        (stroke (width 0.254))
      )
      (arc (start 0 6.35) (end 1.27 5.08) (radius (at 0 5.1054) (length 1.2446) (angles 90 -1.1))
        (stroke (width 0.254))
      )
      (arc (start -0.635 6.985) (end 1.905 4.445) (radius (at 0 5.1054) (length 1.9812) (angles 108.7 -19.1))
        (stroke (width 0.254))
      )
      (circle (center 0 5.08) (radius 0.635) (stroke (width 0.254)) (fill (type outline)))
      (rectangle (start -11.43 16.51) (end 11.43 -16.51) (stroke (width 0.254)) (fill (type background)))
      (rectangle (start 11.43 -13.97) (end 11.43 -13.97))
      (polyline
        (pts (xy 0 4.445) (xy 0 1.27))
        (stroke (width 0.254))
      )
    )
    (symbol "NRF24L01_1_1"
      (pin input line (at -15.24 0 0) (length 3.81) (name "CE") (number "1"))
      (pin passive line (at 15.24 -7.62 180) (length 3.81) (name "XC1") (number "10"))
      (pin power_out line (at 15.24 12.7 180) (length 3.81) (name "VDD_PA") (number "11"))
      (pin passive line (at 15.24 7.62 180) (length 3.81) (name "ANT1") (number "12"))
      (pin passive line (at 15.24 2.54 180) (length 3.81) (name "ANT2") (number "13"))
      (pin power_in line (at 0 -20.32 90) (length 3.81) (name "VSS") (number "14"))
      (pin power_in line (at 0 20.32 270) (length 3.81) (name "VDD") (number "15"))
      (pin passive line (at -15.24 -7.62 0) (length 3.81) (name "IREF") (number "16"))
      (pin power_in line (at 2.54 -20.32 90) (length 3.81) (name "VSS") (number "17"))
      (pin power_in line (at 2.54 20.32 270) (length 3.81) (name "VDD") (number "18"))
      (pin power_out line (at -15.24 -12.7 0) (length 3.81) (name "DVDD") (number "19"))
      (pin input line (at -15.24 5.08 0) (length 3.81) (name "CSN") (number "2"))
      (pin power_in line (at 5.08 -20.32 90) (length 3.81) (name "VSS") (number "20"))
      (pin input clock (at -15.24 7.62 0) (length 3.81) (name "SCK") (number "3"))
      (pin input line (at -15.24 12.7 0) (length 3.81) (name "MOSI") (number "4"))
      (pin output line (at -15.24 10.16 0) (length 3.81) (name "MISO") (number "5"))
      (pin output line (at -15.24 -2.54 0) (length 3.81) (name "IRQ") (number "6"))
      (pin power_in line (at -2.54 20.32 270) (length 3.81) (name "VDD") (number "7"))
      (pin power_in line (at -2.54 -20.32 90) (length 3.81) (name "VSS") (number "8"))
      (pin passive line (at 15.24 -12.7 180) (length 3.81) (name "XC2") (number "9"))
    )
  )
  (symbol "RF:nRF24L01P" (extends "NRF24L01")
    (property "Value" "nRF24L01P" (id 1) (at 5.08 17.78 0)
      (effects (font (size 1.27 1.27)) (justify left))
    )
    (property "Datasheet" "http://www.nordicsemi.com/eng/content/download/2726/34069/file/nRF24L01P_Product_Specification_1_0.pdf" (id 3) (at 0 2.54 0)
      (effects (font (size 1.27 1.27)) hide)
    )
    (property "ki_keywords" "Low Power RF Transciever" (id 4) (at 0 0 0)
      (effects (font (size 1.27 1.27)) hide)
    )
    (property "ki_description" "nRF24L01+, Ultra low power 2.4GHz RF Transceiver, QFN20 4x4mm" (id 5) (at 0 0 0)
      (effects (font (size 1.27 1.27)) hide)
    )
  )
  (symbol "RF:NRF24L01_Breakout"
    (property "Reference" "U" (id 0) (at -8.89 12.7 0)
      (effects (font (size 1.27 1.27)) (justify left))
    )
    (property "Value" "NRF24L01_Breakout" (id 1) (at 3.81 12.7 0)
      (effects (font (size 1.27 1.27)) (justify left))
    )
    (property "Footprint" "RF_Module:nRF24L01_Breakout" (id 2) (at 3.81 15.24 0)
      (effects (font (size 1.27 1.27) italic) (justify left) hide)
    )
    (property "Datasheet" "http://www.nordicsemi.com/eng/content/download/2730/34105/file/nRF24L01_Product_Specification_v2_0.pdf" (id 3) (at 0 -2.54 0)
      (effects (font (size 1.27 1.27)) hide)
    )
    (property "ki_keywords" "Low Power RF Transciever breakout carrier" (id 4) (at 0 0 0)
      (effects (font (size 1.27 1.27)) hide)
    )
    (property "ki_description" "Ultra low power 2.4GHz RF Transceiver, Carrier PCB" (id 5) (at 0 0 0)
      (effects (font (size 1.27 1.27)) hide)
    )
    (property "ki_fp_filters" "nRF24L01*Breakout*" (id 6) (at 0 0 0)
      (effects (font (size 1.27 1.27)) hide)
    )
    (symbol "NRF24L01_Breakout_0_1"
      (arc (start 3.175 5.08) (end 6.985 1.27) (radius (at 4.445 2.54) (length 2.8448) (angles 116.6 -26.6))
        (stroke (width 0.254))
      )
      (arc (start 4.445 3.81) (end 5.715 2.54) (radius (at 4.445 2.5654) (length 1.2446) (angles 90 -1.1))
        (stroke (width 0.254))
      )
      (arc (start 3.81 4.445) (end 6.35 1.905) (radius (at 4.445 2.5654) (length 1.9812) (angles 108.7 -19.1))
        (stroke (width 0.254))
      )
      (circle (center 4.445 2.54) (radius 0.635) (stroke (width 0.254)) (fill (type outline)))
      (rectangle (start -8.89 11.43) (end 8.89 -11.43) (stroke (width 0.254)) (fill (type background)))
      (polyline
        (pts (xy 4.445 1.905) (xy 4.445 -1.27))
        (stroke (width 0.254))
      )
    )
    (symbol "NRF24L01_Breakout_1_1"
      (pin power_in line (at 0 -15.24 90) (length 3.81) (name "GND") (number "1"))
      (pin power_in line (at 0 15.24 270) (length 3.81) (name "VCC") (number "2"))
      (pin input line (at -12.7 -5.08 0) (length 3.81) (name "CE") (number "3"))
      (pin input line (at -12.7 0 0) (length 3.81) (name "~CSN") (number "4"))
      (pin input clock (at -12.7 2.54 0) (length 3.81) (name "SCK") (number "5"))
      (pin input line (at -12.7 7.62 0) (length 3.81) (name "MOSI") (number "6"))
      (pin output line (at -12.7 5.08 0) (length 3.81) (name "MISO") (number "7"))
      (pin output line (at -12.7 -7.62 0) (length 3.81) (name "IRQ") (number "8"))
    )
  )
  (symbol "RF:PAT1220-C-0DB" (pin_names (offset 0.508))
    (property "Reference" "U" (id 0) (at -6.35 6.35 0))
    (property "Value" "PAT1220-C-0DB" (id 1) (at 5.08 6.35 0))
    (property "Footprint" "RF_Converter:RF_Attenuator_Susumu_PAT1220" (id 2) (at 0 0 0)
      (effects (font (size 1.27 1.27)) hide)
    )
    (property "Datasheet" "https://www.susumu.co.jp/common/pdf/n_catalog_partition16_en.pdf" (id 3) (at -6.35 6.35 0)
      (effects (font (size 1.27 1.27)) hide)
    )
    (property "ki_keywords" "RF attenuator" (id 4) (at 0 0 0)
      (effects (font (size 1.27 1.27)) hide)
    )
    (property "ki_description" "10GHz RF Attenuator, 50ohm Matched Impedance, 0dB Attenuation, PAT1220" (id 5) (at 0 0 0)
      (effects (font (size 1.27 1.27)) hide)
    )
    (property "ki_fp_filters" "RF*Attenuator*Susumu*PAT1220*" (id 6) (at 0 0 0)
      (effects (font (size 1.27 1.27)) hide)
    )
    (symbol "PAT1220-C-0DB_0_1"
      (rectangle (start -7.62 5.08) (end 7.62 -5.08) (stroke (width 0.254)) (fill (type background)))
      (polyline
        (pts (xy -3.937 -3.048) (xy 3.937 -3.048))
      )
      (polyline
        (pts (xy -3.937 1.27) (xy -3.937 2.54))
      )
      (polyline
        (pts (xy -1.524 2.54) (xy -7.62 2.54))
      )
      (polyline
        (pts (xy 0 -5.08) (xy 0 -3.048))
      )
      (polyline
        (pts (xy 3.937 1.27) (xy 3.937 2.54))
      )
      (pin passive line (at 0 -7.62 90) (length 2.54) (name "~") (number "3"))
    )
    (symbol "PAT1220-C-0DB_1_1"
      (rectangle (start -4.572 -1.778) (end -3.302 1.27))
      (rectangle (start -1.524 3.175) (end 1.524 1.905))
      (rectangle (start 3.302 -1.778) (end 4.572 1.27))
      (polyline
        (pts (xy -3.937 -3.048) (xy -3.937 -1.778))
      )
      (polyline
        (pts (xy 3.937 -3.048) (xy 3.937 -1.778))
      )
      (polyline
        (pts (xy 7.62 2.54) (xy 1.524 2.54))
      )
      (pin passive line (at -10.16 2.54 0) (length 2.54) (name "~") (number "1"))
      (pin passive line (at 10.16 2.54 180) (length 2.54) (name "~") (number "2"))
    )
  )
  (symbol "RF:PAT1220-C-10DB" (extends "PAT1220-C-0DB")
    (property "Value" "PAT1220-C-10DB" (id 1) (at 5.08 6.35 0))
    (property "Datasheet" "https://www.susumu.co.jp/common/pdf/n_catalog_partition16_en.pdf" (id 3) (at -6.35 6.35 0)
      (effects (font (size 1.27 1.27)) hide)
    )
    (property "ki_keywords" "RF attenuator" (id 4) (at 0 0 0)
      (effects (font (size 1.27 1.27)) hide)
    )
    (property "ki_description" "10GHz RF Attenuator, 50ohm Matched Impedance, 10dB Attenuation, PAT1220" (id 5) (at 0 0 0)
      (effects (font (size 1.27 1.27)) hide)
    )
  )
  (symbol "RF:PAT1220-C-1DB" (extends "PAT1220-C-0DB")
    (property "Value" "PAT1220-C-1DB" (id 1) (at 5.08 6.35 0))
    (property "Datasheet" "https://www.susumu.co.jp/common/pdf/n_catalog_partition16_en.pdf" (id 3) (at -6.35 6.35 0)
      (effects (font (size 1.27 1.27)) hide)
    )
    (property "ki_keywords" "RF attenuator" (id 4) (at 0 0 0)
      (effects (font (size 1.27 1.27)) hide)
    )
    (property "ki_description" "10GHz RF Attenuator, 50ohm Matched Impedance, 1dB Attenuation, PAT1220" (id 5) (at 0 0 0)
      (effects (font (size 1.27 1.27)) hide)
    )
  )
  (symbol "RF:PAT1220-C-2DB" (extends "PAT1220-C-0DB")
    (property "Value" "PAT1220-C-2DB" (id 1) (at 5.08 6.35 0))
    (property "Datasheet" "https://www.susumu.co.jp/common/pdf/n_catalog_partition16_en.pdf" (id 3) (at -6.35 6.35 0)
      (effects (font (size 1.27 1.27)) hide)
    )
    (property "ki_keywords" "RF attenuator" (id 4) (at 0 0 0)
      (effects (font (size 1.27 1.27)) hide)
    )
    (property "ki_description" "10GHz RF Attenuator, 50ohm Matched Impedance, 2dB Attenuation, PAT1220" (id 5) (at 0 0 0)
      (effects (font (size 1.27 1.27)) hide)
    )
  )
  (symbol "RF:PAT1220-C-3DB" (extends "PAT1220-C-0DB")
    (property "Value" "PAT1220-C-3DB" (id 1) (at 5.08 6.35 0))
    (property "Datasheet" "https://www.susumu.co.jp/common/pdf/n_catalog_partition16_en.pdf" (id 3) (at -6.35 6.35 0)
      (effects (font (size 1.27 1.27)) hide)
    )
    (property "ki_keywords" "RF attenuator" (id 4) (at 0 0 0)
      (effects (font (size 1.27 1.27)) hide)
    )
    (property "ki_description" "10GHz RF Attenuator, 50ohm Matched Impedance, 3dB Attenuation, PAT1220" (id 5) (at 0 0 0)
      (effects (font (size 1.27 1.27)) hide)
    )
  )
  (symbol "RF:PAT1220-C-4DB" (extends "PAT1220-C-0DB")
    (property "Value" "PAT1220-C-4DB" (id 1) (at 5.08 6.35 0))
    (property "Datasheet" "https://www.susumu.co.jp/common/pdf/n_catalog_partition16_en.pdf" (id 3) (at -6.35 6.35 0)
      (effects (font (size 1.27 1.27)) hide)
    )
    (property "ki_keywords" "RF attenuator" (id 4) (at 0 0 0)
      (effects (font (size 1.27 1.27)) hide)
    )
    (property "ki_description" "10GHz RF Attenuator, 50ohm Matched Impedance, 4dB Attenuation, PAT1220" (id 5) (at 0 0 0)
      (effects (font (size 1.27 1.27)) hide)
    )
  )
  (symbol "RF:PAT1220-C-5DB" (extends "PAT1220-C-0DB")
    (property "Value" "PAT1220-C-5DB" (id 1) (at 5.08 6.35 0))
    (property "Datasheet" "https://www.susumu.co.jp/common/pdf/n_catalog_partition16_en.pdf" (id 3) (at -6.35 6.35 0)
      (effects (font (size 1.27 1.27)) hide)
    )
    (property "ki_keywords" "RF attenuator" (id 4) (at 0 0 0)
      (effects (font (size 1.27 1.27)) hide)
    )
    (property "ki_description" "10GHz RF Attenuator, 50ohm Matched Impedance, 5dB Attenuation, PAT1220" (id 5) (at 0 0 0)
      (effects (font (size 1.27 1.27)) hide)
    )
  )
  (symbol "RF:PAT1220-C-6DB" (extends "PAT1220-C-0DB")
    (property "Value" "PAT1220-C-6DB" (id 1) (at 5.08 6.35 0))
    (property "Datasheet" "https://www.susumu.co.jp/common/pdf/n_catalog_partition16_en.pdf" (id 3) (at -6.35 6.35 0)
      (effects (font (size 1.27 1.27)) hide)
    )
    (property "ki_keywords" "RF attenuator" (id 4) (at 0 0 0)
      (effects (font (size 1.27 1.27)) hide)
    )
    (property "ki_description" "10GHz RF Attenuator, 50ohm Matched Impedance, 6dB Attenuation, PAT1220" (id 5) (at 0 0 0)
      (effects (font (size 1.27 1.27)) hide)
    )
  )
  (symbol "RF:PAT1220-C-7DB" (extends "PAT1220-C-0DB")
    (property "Value" "PAT1220-C-7DB" (id 1) (at 5.08 6.35 0))
    (property "Datasheet" "https://www.susumu.co.jp/common/pdf/n_catalog_partition16_en.pdf" (id 3) (at -6.35 6.35 0)
      (effects (font (size 1.27 1.27)) hide)
    )
    (property "ki_keywords" "RF attenuator" (id 4) (at 0 0 0)
      (effects (font (size 1.27 1.27)) hide)
    )
    (property "ki_description" "10GHz RF Attenuator, 50ohm Matched Impedance, 7dB Attenuation, PAT1220" (id 5) (at 0 0 0)
      (effects (font (size 1.27 1.27)) hide)
    )
  )
  (symbol "RF:PAT1220-C-8DB" (extends "PAT1220-C-0DB")
    (property "Value" "PAT1220-C-8DB" (id 1) (at 5.08 6.35 0))
    (property "Datasheet" "https://www.susumu.co.jp/common/pdf/n_catalog_partition16_en.pdf" (id 3) (at -6.35 6.35 0)
      (effects (font (size 1.27 1.27)) hide)
    )
    (property "ki_keywords" "RF attenuator" (id 4) (at 0 0 0)
      (effects (font (size 1.27 1.27)) hide)
    )
    (property "ki_description" "10GHz RF Attenuator, 50ohm Matched Impedance, 8dB Attenuation, PAT1220" (id 5) (at 0 0 0)
      (effects (font (size 1.27 1.27)) hide)
    )
  )
  (symbol "RF:PAT1220-C-9DB" (extends "PAT1220-C-0DB")
    (property "Value" "PAT1220-C-9DB" (id 1) (at 5.08 6.35 0))
    (property "Datasheet" "https://www.susumu.co.jp/common/pdf/n_catalog_partition16_en.pdf" (id 3) (at -6.35 6.35 0)
      (effects (font (size 1.27 1.27)) hide)
    )
    (property "ki_keywords" "RF attenuator" (id 4) (at 0 0 0)
      (effects (font (size 1.27 1.27)) hide)
    )
    (property "ki_description" "10GHz RF Attenuator, 50ohm Matched Impedance, 9dB Attenuation, PAT1220" (id 5) (at 0 0 0)
      (effects (font (size 1.27 1.27)) hide)
    )
  )
  (symbol "RF:PD4859J5050S2HF" (pin_names (offset 0.508))
    (property "Reference" "U" (id 0) (at -6.35 6.35 0))
    (property "Value" "PD4859J5050S2HF" (id 1) (at 6.35 6.35 0))
    (property "Footprint" "RF_Converter:Anaren_0805_2012Metric-6" (id 2) (at 0 -10.16 0)
      (effects (font (size 1.27 1.27)) hide)
    )
    (property "Datasheet" "https://cdn.anaren.com/product-documents/Xinger/PowerDividers/PD4859J5050S2HF/PD4859J5050S2HF_DataSheet(Rev_D).pdf" (id 3) (at -6.35 6.35 0)
      (effects (font (size 1.27 1.27)) hide)
    )
    (property "ki_keywords" "rf power divider wilkinson" (id 4) (at 0 0 0)
      (effects (font (size 1.27 1.27)) hide)
    )
    (property "ki_description" "4.8-5.9GHz Wilkinson Power Divider, Anaren 0805" (id 5) (at 0 0 0)
      (effects (font (size 1.27 1.27)) hide)
    )
    (property "ki_fp_filters" "Anaren*0805*2012Metric*" (id 6) (at 0 0 0)
      (effects (font (size 1.27 1.27)) hide)
    )
    (symbol "PD4859J5050S2HF_0_1"
      (rectangle (start -7.62 5.08) (end 7.62 -5.08) (stroke (width 0.254)) (fill (type background)))
      (polyline
        (pts (xy -2.54 0) (xy 0 0))
        (stroke (width 0.254))
      )
      (polyline
        (pts (xy 0 0) (xy 2.54 -1.27))
        (stroke (width 0.254))
      )
      (polyline
        (pts (xy 0 0) (xy 2.54 1.27))
        (stroke (width 0.254))
      )
    )
    (symbol "PD4859J5050S2HF_1_1"
      (pin power_in line (at 0 -7.62 90) (length 2.54)
        (name "GND" (effects (font (size 1.016 1.016))))
        (number "1")
      )
      (pin input line (at -10.16 0 0) (length 2.54)
        (name "Input" (effects (font (size 1.016 1.016))))
        (number "2")
      )
      (pin passive line (at 0 -7.62 90) (length 2.54)
        (name "GND" (effects (font (size 1.016 1.016))))
        (number "3")
         hide      )
      (pin output line (at 10.16 2.54 180) (length 2.54)
        (name "Output1" (effects (font (size 1.016 1.016))))
        (number "4")
      )
      (pin passive line (at 0 -7.62 90) (length 2.54)
        (name "GND" (effects (font (size 1.016 1.016))))
        (number "5")
         hide      )
      (pin output line (at 10.16 -2.54 180) (length 2.54)
        (name "Output2" (effects (font (size 1.016 1.016))))
        (number "6")
      )
    )
  )
  (symbol "RF:RMK-3-451" (pin_names (offset 0.508))
    (property "Reference" "U" (id 0) (at -6.35 7.62 0))
    (property "Value" "RMK-3-451" (id 1) (at 6.35 7.62 0))
    (property "Footprint" "RF_Mini-Circuits:Mini-Circuits_TT1224_LandPatternPL-258_ClockwisePinNumbering" (id 2) (at -6.35 -8.89 0)
      (effects (font (size 1.27 1.27)) hide)
    )
    (property "Datasheet" "https://www.minicircuits.com/pdfs/RMK-3-451+.pdf" (id 3) (at -3.81 -6.35 0)
      (effects (font (size 1.27 1.27)) hide)
    )
    (property "ki_keywords" "frequency multiplier" (id 4) (at 0 0 0)
      (effects (font (size 1.27 1.27)) hide)
    )
    (property "ki_description" "3x Frequency Multiplier, output 300 to 450 MHz, 50 Ohm, Mini-Circuits TT1224" (id 5) (at 0 0 0)
      (effects (font (size 1.27 1.27)) hide)
    )
    (property "ki_fp_filters" "Mini?Circuits*TT1224*" (id 6) (at 0 0 0)
      (effects (font (size 1.27 1.27)) hide)
    )
    (symbol "RMK-3-451_0_0"
      (text "3x" (at 0 3.81 0)
        (effects (font (size 1.27 1.27)))
      )
    )
    (symbol "RMK-3-451_0_1"
      (rectangle (start -6.35 6.35) (end 6.35 -6.35) (stroke (width 0.254)) (fill (type background)))
    )
    (symbol "RMK-3-451_1_1"
      (pin input line (at -10.16 0 0) (length 3.81) (name "F_IN") (number "1"))
      (pin power_in line (at -5.08 -10.16 90) (length 3.81) (name "GND") (number "2"))
      (pin passive line (at -5.08 -10.16 90) (length 3.81) (name "GND") (number "3") hide)
      (pin output line (at 10.16 0 180) (length 3.81) (name "3F_OUT") (number "4"))
      (pin passive line (at -5.08 -10.16 90) (length 3.81) (name "GND") (number "5") hide)
      (pin passive line (at -5.08 -10.16 90) (length 3.81) (name "GND") (number "6") hide)
    )
  )
  (symbol "RF:RMK-5-51" (pin_names (offset 0.508))
    (property "Reference" "U" (id 0) (at -6.35 7.62 0))
    (property "Value" "RMK-5-51" (id 1) (at 6.35 7.62 0))
    (property "Footprint" "RF_Mini-Circuits:Mini-Circuits_TT1224_LandPatternPL-258_ClockwisePinNumbering" (id 2) (at -6.35 -8.89 0)
      (effects (font (size 1.27 1.27)) hide)
    )
    (property "Datasheet" "https://www.minicircuits.com/pdfs/RMK-5-51+.pdf" (id 3) (at -3.81 -6.35 0)
      (effects (font (size 1.27 1.27)) hide)
    )
    (property "ki_keywords" "frequency multiplier" (id 4) (at 0 0 0)
      (effects (font (size 1.27 1.27)) hide)
    )
    (property "ki_description" "5x Frequency Multiplier, Output 37.5 to 52.5 MHz, 50 Ohm, Mini-Circuits TT1224" (id 5) (at 0 0 0)
      (effects (font (size 1.27 1.27)) hide)
    )
    (property "ki_fp_filters" "Mini?Circuits*TT1224*" (id 6) (at 0 0 0)
      (effects (font (size 1.27 1.27)) hide)
    )
    (symbol "RMK-5-51_0_0"
      (text "5x" (at 0 3.81 0)
        (effects (font (size 1.27 1.27)))
      )
    )
    (symbol "RMK-5-51_0_1"
      (rectangle (start -6.35 6.35) (end 6.35 -6.35) (stroke (width 0.254)) (fill (type background)))
    )
    (symbol "RMK-5-51_1_1"
      (pin input line (at -10.16 0 0) (length 3.81) (name "F_IN") (number "1"))
      (pin power_in line (at -5.08 -10.16 90) (length 3.81) (name "GND") (number "2"))
      (pin passive line (at -5.08 -10.16 90) (length 3.81) (name "GND") (number "3") hide)
      (pin output line (at 10.16 0 180) (length 3.81) (name "5F_OUT") (number "4"))
      (pin passive line (at -5.08 -10.16 90) (length 3.81) (name "GND") (number "5") hide)
      (pin passive line (at -5.08 -10.16 90) (length 3.81) (name "GND") (number "6") hide)
    )
  )
  (symbol "RF:SE5004L" (pin_names (offset 0.508))
    (property "Reference" "U" (id 0) (at -11.43 13.97 0))
    (property "Value" "SE5004L" (id 1) (at 12.7 13.97 0))
    (property "Footprint" "Package_DFN_QFN:QFN-20-1EP_4x4mm_P0.5mm_EP2.5x2.5mm" (id 2) (at 0 0 0)
      (effects (font (size 1.27 1.27)) hide)
    )
    (property "Datasheet" "https://www.skyworksinc.com/-/media/SkyWorks/Documents/Products/601-700/SE5004L_202393B.pdf" (id 3) (at 0 0 0)
      (effects (font (size 1.27 1.27)) hide)
    )
    (property "ki_keywords" "RF Power Amplifier" (id 4) (at 0 0 0)
      (effects (font (size 1.27 1.27)) hide)
    )
    (property "ki_description" "5 GHz, 26dBm Power Amplifier with Power Detector, QFN-20" (id 5) (at 0 0 0)
      (effects (font (size 1.27 1.27)) hide)
    )
    (property "ki_fp_filters" "QFN*4x4mm*P0.5mm*" (id 6) (at 0 0 0)
      (effects (font (size 1.27 1.27)) hide)
    )
    (symbol "SE5004L_0_1"
      (rectangle (start -12.7 12.7) (end 12.7 -12.7) (stroke (width 0.254)) (fill (type background)))
    )
    (symbol "SE5004L_1_1"
      (pin power_in line (at 0 -15.24 90) (length 2.54) (name "GND") (number "1"))
      (pin output line (at 15.24 0 180) (length 2.54) (name "DET") (number "10"))
      (pin passive line (at 0 -15.24 90) (length 2.54) (name "GND") (number "11") hide)
      (pin passive line (at 0 -15.24 90) (length 2.54) (name "GND") (number "12") hide)
      (pin output line (at 15.24 -7.62 180) (length 2.54) (name "RFOUT") (number "13"))
      (pin passive line (at 0 -15.24 90) (length 2.54) (name "GND") (number "14") hide)
      (pin passive line (at 0 -15.24 90) (length 2.54) (name "GND") (number "15") hide)
      (pin passive line (at 0 -15.24 90) (length 2.54) (name "GND") (number "16") hide)
      (pin passive line (at 0 -15.24 90) (length 2.54) (name "GND") (number "17") hide)
      (pin power_in line (at 7.62 15.24 270) (length 2.54) (name "VCC3") (number "18"))
      (pin power_in line (at 0 15.24 270) (length 2.54) (name "VCC2") (number "19"))
      (pin passive line (at 0 -15.24 90) (length 2.54) (name "GND") (number "2") hide)
      (pin power_in line (at -7.62 15.24 270) (length 2.54) (name "VCC1") (number "20"))
      (pin passive line (at 0 -15.24 90) (length 2.54) (name "GND") (number "21") hide)
      (pin input line (at -15.24 -7.62 0) (length 2.54) (name "RFIN") (number "3"))
      (pin passive line (at 0 -15.24 90) (length 2.54) (name "GND") (number "4") hide)
      (pin input line (at -15.24 -2.54 0) (length 2.54) (name "VREF") (number "5"))
      (pin passive line (at -15.24 5.08 0) (length 2.54) (name "SP1") (number "6"))
      (pin passive line (at -15.24 2.54 0) (length 2.54) (name "SP2") (number "7"))
      (pin power_in line (at -2.54 15.24 270) (length 2.54) (name "VCC2") (number "8"))
      (pin power_in line (at 5.08 15.24 270) (length 2.54) (name "VCC3") (number "9"))
    )
  )
  (symbol "RF:SX1272"
    (property "Reference" "U" (id 0) (at -15.24 25.4 0)
      (effects (font (size 1.27 1.27)) (justify left))
    )
    (property "Value" "SX1272" (id 1) (at -15.24 22.86 0)
      (effects (font (size 1.27 1.27)) (justify left))
    )
    (property "Footprint" "Package_DFN_QFN:QFN-28-1EP_6x6mm_P0.65mm_EP4.8x4.8mm" (id 2) (at 0 -7.62 0)
      (effects (font (size 1.27 1.27)) hide)
    )
    (property "Datasheet" "https://www.semtech.com/uploads/documents/sx1272.pdf" (id 3) (at 0 -5.08 0)
      (effects (font (size 1.27 1.27)) hide)
    )
    (property "ki_keywords" "low-power lora transceiver" (id 4) (at 0 0 0)
      (effects (font (size 1.27 1.27)) hide)
    )
    (property "ki_description" "860 MHz to 1020 MHz Low Power Long Range Transceiver, spreading factor from 6 to 12, LoRA, QFN-28" (id 5) (at 0 0 0)
      (effects (font (size 1.27 1.27)) hide)
    )
    (property "ki_fp_filters" "QFN*1EP*6x6mm*P0.65mm*" (id 6) (at 0 0 0)
      (effects (font (size 1.27 1.27)) hide)
    )
    (symbol "SX1272_0_1"
      (rectangle (start -11.43 21.59) (end 11.43 -24.13) (stroke (width 0.254)) (fill (type background)))
    )
    (symbol "SX1272_1_1"
      (pin power_in line (at -5.08 25.4 270) (length 3.81) (name "VBAT1") (number "1"))
      (pin bidirectional line (at 15.24 0 180) (length 3.81) (name "DIO1") (number "10"))
      (pin bidirectional line (at 15.24 -2.54 180) (length 3.81) (name "DIO2") (number "11"))
      (pin bidirectional line (at 15.24 -5.08 180) (length 3.81) (name "DIO3") (number "12"))
      (pin bidirectional line (at 15.24 -7.62 180) (length 3.81) (name "DIO4") (number "13"))
      (pin bidirectional line (at 15.24 -10.16 180) (length 3.81) (name "DIO5") (number "14"))
      (pin power_in line (at -2.54 25.4 270) (length 3.81) (name "VBAT2") (number "15"))
      (pin power_in line (at 2.54 -27.94 90) (length 3.81) (name "GND") (number "16"))
      (pin input line (at -15.24 -12.7 0) (length 3.81) (name "SCK") (number "17"))
      (pin output line (at -15.24 -15.24 0) (length 3.81) (name "MISO") (number "18"))
      (pin input line (at -15.24 -17.78 0) (length 3.81) (name "MOSI") (number "19"))
      (pin power_in line (at 2.54 25.4 270) (length 3.81) (name "VR_ANA") (number "2"))
      (pin input line (at -15.24 -20.32 0) (length 3.81) (name "~CS~") (number "20"))
      (pin output line (at 15.24 -15.24 180) (length 3.81) (name "RF_MOD/NC") (number "21"))
      (pin passive line (at 2.54 -27.94 90) (length 3.81) (name "GND") (number "22") hide)
      (pin output line (at 15.24 -17.78 180) (length 3.81) (name "RXTX") (number "23"))
      (pin input line (at -15.24 0 0) (length 3.81) (name "RFO") (number "24"))
      (pin output line (at -15.24 -2.54 0) (length 3.81) (name "RFI") (number "25"))
      (pin passive line (at 2.54 -27.94 90) (length 3.81) (name "GND") (number "26") hide)
      (pin power_out line (at 15.24 10.16 180) (length 3.81) (name "PA_BOOST") (number "27"))
      (pin power_out line (at 15.24 7.62 180) (length 3.81) (name "VR_PA") (number "28"))
      (pin power_in line (at -2.54 -27.94 90) (length 3.81) (name "EP") (number "29"))
      (pin power_in line (at 5.08 25.4 270) (length 3.81) (name "VR_DIG") (number "3"))
      (pin bidirectional line (at -15.24 15.24 0) (length 3.81) (name "XTA") (number "4"))
      (pin bidirectional line (at -15.24 12.7 0) (length 3.81) (name "XTB") (number "5"))
      (pin input line (at -15.24 10.16 0) (length 3.81) (name "RESET") (number "6"))
      (pin unconnected line (at -15.24 5.08 0) (length 3.81) (name "NC") (number "7") hide)
      (pin unconnected line (at -15.24 2.54 0) (length 3.81) (name "NC") (number "8") hide)
      (pin bidirectional line (at 15.24 2.54 180) (length 3.81) (name "DIO0") (number "9"))
    )
  )
  (symbol "RF:SX1273" (extends "SX1272")
    (property "Value" "SX1273" (id 1) (at -15.24 22.86 0)
      (effects (font (size 1.27 1.27)) (justify left))
    )
    (property "Datasheet" "https://www.semtech.com/uploads/documents/sx1272.pdf" (id 3) (at 0 -5.08 0)
      (effects (font (size 1.27 1.27)) hide)
    )
    (property "ki_keywords" "low-power lora transceiver" (id 4) (at 0 0 0)
      (effects (font (size 1.27 1.27)) hide)
    )
    (property "ki_description" "860 MHz to 1020 MHz Low Power Long Range Transceiver, spreading factor from 6 to 9, LoRA, QFN-28" (id 5) (at 0 0 0)
      (effects (font (size 1.27 1.27)) hide)
    )
  )
  (symbol "RF:SYPD-2" (pin_names (offset 0.508))
    (property "Reference" "U" (id 0) (at -6.35 7.62 0))
    (property "Value" "SYPD-2" (id 1) (at 6.35 7.62 0))
    (property "Footprint" "RF_Mini-Circuits:Mini-Circuits_TTT167_LandPatternPL-079" (id 2) (at 2.54 -10.16 0)
      (effects (font (size 1.27 1.27)) hide)
    )
    (property "Datasheet" "https://www.minicircuits.com/pdfs/SYPD-2.pdf" (id 3) (at 5.08 -7.62 0)
      (effects (font (size 1.27 1.27)) hide)
    )
    (property "ki_keywords" "phase detector" (id 4) (at 0 0 0)
      (effects (font (size 1.27 1.27)) hide)
    )
    (property "ki_description" "Phase Detector, 10 to 200 MHz, 50 Ohm, Mini-Cicuits TTT167" (id 5) (at 0 0 0)
      (effects (font (size 1.27 1.27)) hide)
    )
    (property "ki_fp_filters" "Mini?Circuits*TTT167*" (id 6) (at 0 0 0)
      (effects (font (size 1.27 1.27)) hide)
    )
    (symbol "SYPD-2_0_1"
      (circle (center 0 0) (radius 5.08) (stroke (width 0.127)))
      (rectangle (start -6.35 6.35) (end 6.35 -6.35) (stroke (width 0.254)) (fill (type background)))
      (polyline
        (pts (xy -3.175 -3.81) (xy 3.175 3.81))
        (stroke (width 0.127))
      )
      (polyline
        (pts (xy 3.81 -3.175) (xy -3.175 3.81))
        (stroke (width 0.127))
      )
    )
    (symbol "SYPD-2_1_1"
      (pin input line (at -10.16 0 0) (length 5.08) (name "RF1") (number "1"))
      (pin input line (at 10.16 0 180) (length 5.08) (name "RF2") (number "2"))
      (pin output line (at 0 -10.16 90) (length 5.08) (name "DC") (number "3"))
      (pin power_in line (at -5.08 -10.16 90) (length 3.81) (name "GND") (number "4"))
      (pin passive line (at -5.08 -10.16 90) (length 3.81) (name "GND") (number "5") hide)
      (pin passive line (at -5.08 -10.16 90) (length 3.81) (name "GND") (number "6") hide)
    )
  )
  (symbol "RF:SYPD-1" (extends "SYPD-2")
    (property "Value" "SYPD-1" (id 1) (at 6.35 7.62 0))
    (property "Datasheet" "https://www.minicircuits.com/pdfs/SYPD-1+.pdf" (id 3) (at 5.08 -7.62 0)
      (effects (font (size 1.27 1.27)) hide)
    )
    (property "ki_keywords" "Phase Detector" (id 4) (at 0 0 0)
      (effects (font (size 1.27 1.27)) hide)
    )
    (property "ki_description" "Phase Detector, 1 to 100 MHz, 50 Ohm, Mini-Cicuits TTT167" (id 5) (at 0 0 0)
      (effects (font (size 1.27 1.27)) hide)
    )
  )
  (symbol "RF:SYPD-52" (extends "SYPD-2")
    (property "Value" "SYPD-52" (id 1) (at 6.35 7.62 0))
    (property "Datasheet" "https://www.minicircuits.com/pdfs/SYPD-52+.pdf" (id 3) (at 5.08 -7.62 0)
      (effects (font (size 1.27 1.27)) hide)
    )
    (property "ki_keywords" "Phase Detector" (id 4) (at 0 0 0)
      (effects (font (size 1.27 1.27)) hide)
    )
    (property "ki_description" "Phase Detector, 400 to 500 MHz, 50 Ohm, Mini-Cicuits TTT167" (id 5) (at 0 0 0)
      (effects (font (size 1.27 1.27)) hide)
    )
  )
  (symbol "RF:Si4460" (pin_names (offset 0.508))
    (property "Reference" "U" (id 0) (at -6.35 16.51 0))
    (property "Value" "Si4460" (id 1) (at 6.35 16.51 0))
    (property "Footprint" "Package_DFN_QFN:QFN-20-1EP_4x4mm_P0.5mm_EP2.6x2.6mm_ThermalVias" (id 2) (at 0 30.48 0)
      (effects (font (size 1.27 1.27)) hide)
    )
    (property "Datasheet" "https://www.silabs.com/documents/public/data-sheets/Si4464-63-61-60.pdf" (id 3) (at -7.62 -2.54 0)
      (effects (font (size 1.27 1.27)) hide)
    )
    (property "ki_keywords" "transceiver sub-ghz radio ism" (id 4) (at 0 0 0)
      (effects (font (size 1.27 1.27)) hide)
    )
    (property "ki_description" "High-Performance, Low-Current Sub-GHz Transceiver, +13dBm, Major bands 142-1050 MHz, QFN-20" (id 5) (at 0 0 0)
      (effects (font (size 1.27 1.27)) hide)
    )
    (property "ki_fp_filters" "QFN*1EP*4x4mm*P0.5mm*" (id 6) (at 0 0 0)
      (effects (font (size 1.27 1.27)) hide)
    )
    (symbol "Si4460_0_1"
      (rectangle (start -7.62 15.24) (end 7.62 -15.24)(fill (type background)))
      (rectangle (start 10.16 -15.24) (end 10.16 -15.24))
    )
    (symbol "Si4460_1_1"
      (pin input line (at -10.16 12.7 0) (length 2.54) (name "SDN") (number "1"))
      (pin bidirectional line (at 10.16 -7.62 180) (length 2.54) (name "GPIO1") (number "10"))
      (pin open_collector line (at -10.16 -12.7 0) (length 2.54) (name "~IRQ") (number "11"))
      (pin input line (at -10.16 -2.54 0) (length 2.54) (name "SCLK") (number "12"))
      (pin output line (at -10.16 -7.62 0) (length 2.54) (name "SDO") (number "13"))
      (pin input line (at -10.16 -5.08 0) (length 2.54) (name "SDI") (number "14"))
      (pin input line (at -10.16 -10.16 0) (length 2.54) (name "~SEL") (number "15"))
      (pin passive line (at -10.16 2.54 0) (length 2.54) (name "XOUT") (number "16"))
      (pin input line (at -10.16 7.62 0) (length 2.54) (name "XIN") (number "17"))
      (pin power_in line (at 0 -17.78 90) (length 2.54) (name "GND") (number "18"))
      (pin bidirectional line (at 10.16 -10.16 180) (length 2.54) (name "GPIO2") (number "19"))
      (pin input line (at 10.16 2.54 180) (length 2.54) (name "RXp") (number "2"))
      (pin bidirectional line (at 10.16 -12.7 180) (length 2.54) (name "GPIO3") (number "20"))
      (pin power_in line (at 0 -17.78 90) (length 2.54) (name "GND") (number "21") hide)
      (pin input line (at 10.16 0 180) (length 2.54) (name "RXn") (number "3"))
      (pin output line (at 10.16 12.7 180) (length 2.54) (name "TX") (number "4"))
      (pin unconnected line (at 7.62 -15.24 180) (length 2.54) (name "NC") (number "5") hide)
      (pin power_in line (at 0 17.78 270) (length 2.54) (name "VDD") (number "6"))
      (pin output line (at 10.16 7.62 180) (length 2.54) (name "TXRAMP") (number "7"))
      (pin power_in line (at 2.54 17.78 270) (length 2.54) (name "VDD") (number "8"))
      (pin bidirectional line (at 10.16 -5.08 180) (length 2.54) (name "GPIO0") (number "9"))
    )
  )
  (symbol "RF:Si4461" (extends "Si4460")
    (property "Value" "Si4461" (id 1) (at 6.35 16.51 0))
    (property "Datasheet" "https://www.silabs.com/documents/public/data-sheets/Si4464-63-61-60.pdf" (id 3) (at -7.62 -2.54 0)
      (effects (font (size 1.27 1.27)) hide)
    )
    (property "ki_keywords" "transceiver sub-ghz radio ism" (id 4) (at 0 0 0)
      (effects (font (size 1.27 1.27)) hide)
    )
    (property "ki_description" "High-Performance, Low-Current Sub-GHz Transceiver, +16dBm, Major bands 142-1050 MHz, QFN-20" (id 5) (at 0 0 0)
      (effects (font (size 1.27 1.27)) hide)
    )
  )
  (symbol "RF:Si4463" (extends "Si4460")
    (property "Value" "Si4463" (id 1) (at 6.35 16.51 0))
    (property "Datasheet" "https://www.silabs.com/documents/public/data-sheets/Si4464-63-61-60.pdf" (id 3) (at -7.62 -2.54 0)
      (effects (font (size 1.27 1.27)) hide)
    )
    (property "ki_keywords" "transceiver sub-ghz radio ism" (id 4) (at 0 0 0)
      (effects (font (size 1.27 1.27)) hide)
    )
    (property "ki_description" "High-Performance, Low-Current Sub-GHz Transceiver, +20dBm, Major bands 142-1050 MHz, QFN-20" (id 5) (at 0 0 0)
      (effects (font (size 1.27 1.27)) hide)
    )
  )
  (symbol "RF:Si4464" (extends "Si4460")
    (property "Value" "Si4464" (id 1) (at 6.35 16.51 0))
    (property "Datasheet" "https://www.silabs.com/documents/public/data-sheets/Si4464-63-61-60.pdf" (id 3) (at -7.62 -2.54 0)
      (effects (font (size 1.27 1.27)) hide)
    )
    (property "ki_keywords" "transceiver sub-ghz radio ism" (id 4) (at 0 0 0)
      (effects (font (size 1.27 1.27)) hide)
    )
    (property "ki_description" "High-Performance, Low-Current Sub-GHz Transceiver, +20dBm, Banded 119-960 MHz, QFN-20" (id 5) (at 0 0 0)
      (effects (font (size 1.27 1.27)) hide)
    )
  )
  (symbol "RF:TCP-2-10X" (pin_names (offset 0.508))
    (property "Reference" "U" (id 0) (at -6.35 7.62 0))
    (property "Value" "TCP-2-10X" (id 1) (at 6.35 7.62 0))
    (property "Footprint" "RF_Mini-Circuits:Mini-Circuits_DB1627" (id 2) (at -3.81 -11.43 0)
      (effects (font (size 1.27 1.27)) hide)
    )
    (property "Datasheet" "https://www.minicircuits.com/pdfs/TCP-2-10X+.pdf" (id 3) (at -1.27 -8.89 0)
      (effects (font (size 1.27 1.27)) hide)
    )
    (property "ki_keywords" "splitter combiner" (id 4) (at 0 0 0)
      (effects (font (size 1.27 1.27)) hide)
    )
    (property "ki_description" "Power splitter combiner, 5 to 1000 MHz, 2 way 0-degree, 50 ohm, Mini-Circuits DB1627" (id 5) (at 0 0 0)
      (effects (font (size 1.27 1.27)) hide)
    )
    (property "ki_fp_filters" "Mini?Circuits*DB1627*" (id 6) (at 0 0 0)
      (effects (font (size 1.27 1.27)) hide)
    )
    (symbol "TCP-2-10X_0_1"
      (rectangle (start -6.35 6.35) (end 6.35 -6.35) (stroke (width 0.254)) (fill (type background)))
      (polyline
        (pts (xy 0 0) (xy 5.08 -5.08))
        (stroke (width 0.508))
      )
      (polyline
        (pts (xy -5.08 0) (xy 0 0) (xy 5.08 5.08))
        (stroke (width 0.508))
      )
    )
    (symbol "TCP-2-10X_1_1"
      (pin passive line (at -5.08 -10.16 90) (length 3.81) (name "GND") (number "1"))
      (pin passive line (at -10.16 2.54 0) (length 3.81) (name "CON") (number "2") hide)
      (pin passive line (at 10.16 5.08 180) (length 5.08) (name "PORT1") (number "3"))
      (pin passive line (at 10.16 -5.08 180) (length 5.08) (name "PORT2") (number "4"))
      (pin passive line (at -10.16 2.54 0) (length 3.81) (name "CON") (number "5"))
      (pin passive line (at -10.16 0 0) (length 5.08) (name "SUM") (number "6"))
    )
  )
)
