(kicad_symbol_lib (version 20200126) (host kicad_symbol_editor "(5.99.0-1517-ga8407fba4)")
  (symbol "RF_RFID:HTRC11001T"
    (property "Reference" "U" (id 0) (at -11.43 17.78 0)
      (effects (font (size 1.27 1.27)) (justify left))
    )
    (property "Value" "HTRC11001T" (id 1) (at 2.54 17.78 0)
      (effects (font (size 1.27 1.27)) (justify left))
    )
    (property "Footprint" "Package_SO:SOIC-14_3.9x8.7mm_P1.27mm" (id 2) (at -13.97 15.24 0)
      (effects (font (size 1.27 1.27) italic) hide)
    )
    (property "Datasheet" "https://www.nxp.com/docs/en/data-sheet/037031.pdf" (id 3) (at 0 0 0)
      (effects (font (size 1.27 1.27)) hide)
    )
    (property "ki_keywords" "HITAG RFID" (id 4) (at 0 0 0)
      (effects (font (size 1.27 1.27)) hide)
    )
    (property "ki_description" "HITAG RF Reader Device, SOIC-14" (id 5) (at 0 0 0)
      (effects (font (size 1.27 1.27)) hide)
    )
    (property "ki_fp_filters" "SOIC*3.9x8.7mm*P1.27mm*" (id 6) (at 0 0 0)
      (effects (font (size 1.27 1.27)) hide)
    )
    (symbol "HTRC11001T_0_1"
      (rectangle (start -11.43 16.51) (end 11.43 -16.51) (stroke (width 0.254)) (fill (type background)))
    )
    (symbol "HTRC11001T_1_1"
      (pin power_in line (at 0 -20.32 90) (length 3.81) (name "VSS") (number "1"))
      (pin output line (at -15.24 5.08 0) (length 3.81) (name "DOUT") (number "10"))
      (pin passive line (at 15.24 -7.62 180) (length 3.81) (name "CEXT") (number "12"))
      (pin passive line (at 15.24 -12.7 180) (length 3.81) (name "QGND") (number "13"))
      (pin input line (at 15.24 0 180) (length 3.81) (name "RX") (number "14"))
      (pin output line (at 15.24 7.62 180) (length 3.81) (name "TX2") (number "2"))
      (pin power_in line (at 0 20.32 270) (length 3.81) (name "VDD") (number "3"))
      (pin output line (at 15.24 12.7 180) (length 3.81) (name "TX1") (number "4"))
      (pin input line (at -15.24 0 0) (length 3.81) (name "MODE") (number "5"))
      (pin input line (at -15.24 -7.62 0) (length 3.81) (name "XTAL1") (number "6"))
      (pin output line (at -15.24 -12.7 0) (length 3.81) (name "XTAL2") (number "7"))
      (pin input clock (at -15.24 12.7 0) (length 3.81) (name "SCLK") (number "8"))
      (pin input line (at -15.24 7.62 0) (length 3.81) (name "DIN") (number "9"))
    )
  )
)
