(kicad_symbol_lib (version 20200126) (host kicad_symbol_editor "(5.99.0-1517-ga8407fba4)")
  (symbol "Sensor_Voltage:LV25-P" (pin_names (offset 0.508))
    (property "Reference" "U" (id 0) (at -6.35 6.35 0))
    (property "Value" "LV25-P" (id 1) (at 5.08 6.35 0))
    (property "Footprint" "Sensor_Voltage:LEM_LV25-P" (id 2) (at 0 -10.16 0)
      (effects (font (size 1.27 1.27)) hide)
    )
    (property "Datasheet" "https://www.lem.com/sites/default/files/products_datasheets/lv_25-p.pdf" (id 3) (at 0 0 0)
      (effects (font (size 1.27 1.27)) hide)
    )
    (property "ki_keywords" "Voltage transducer" (id 4) (at 0 0 0)
      (effects (font (size 1.27 1.27)) hide)
    )
    (property "ki_description" "LEM Voltage transducer LV 25-P" (id 5) (at 0 0 0)
      (effects (font (size 1.27 1.27)) hide)
    )
    (property "ki_fp_filters" "LEM?LV25?P*" (id 6) (at 0 0 0)
      (effects (font (size 1.27 1.27)) hide)
    )
    (symbol "LV25-P_0_1"
      (arc (start -2.667 0) (end -2.667 1.27) (radius (at -2.667 0.635) (length 0.635) (angles -89.9 89.9)))
      (arc (start -0.889 -0.127) (end -0.889 -0.762) (radius (at -0.889 -0.4318) (length 0.3048) (angles 90.1 -90.1)))
      (arc (start -0.889 0.381) (end -0.889 -0.127) (radius (at -0.889 0.127) (length 0.254) (angles 90.1 -90.1)))
      (arc (start -0.889 1.016) (end -0.889 0.381) (radius (at -0.889 0.7112) (length 0.3048) (angles 90.1 -90.1)))
      (arc (start -0.889 1.651) (end -0.889 1.016) (radius (at -0.889 1.3462) (length 0.3048) (angles 90.1 -90.1)))
      (circle (center -0.889 -1.778) (radius 0.5588))
      (rectangle (start 7.62 -5.08) (end -7.62 5.08) (stroke (width 0.254)) (fill (type background)))
      (polyline
        (pts (xy -2.667 0) (xy -2.667 -2.54))
      )
      (polyline
        (pts (xy -2.667 2.54) (xy -2.667 1.27))
      )
      (polyline
        (pts (xy -1.397 -1.778) (xy -0.381 -1.778))
      )
      (polyline
        (pts (xy -0.889 -2.413) (xy -0.889 -3.048))
      )
      (polyline
        (pts (xy -0.889 -1.143) (xy -0.889 -0.762))
      )
      (polyline
        (pts (xy -0.889 1.651) (xy 4.318 1.651))
      )
      (polyline
        (pts (xy -2.921 -0.889) (xy -2.286 -0.889) (xy -2.667 -1.397) (xy -3.048 -0.889))
        (fill (type outline))
      )
      (polyline
        (pts (xy 3.302 1.651) (xy 2.921 2.032) (xy 2.921 1.27) (xy 3.302 1.651))
        (fill (type outline))
      )
    )
    (symbol "LV25-P_1_1"
      (pin input line (at -10.16 2.54 0) (length 2.54) (name "HV+") (number "1"))
      (pin input line (at -10.16 -2.54 0) (length 2.54) (name "HV-") (number "3"))
      (pin output line (at 10.16 0 180) (length 2.54) (name "M") (number "4"))
      (pin power_in line (at 0 7.62 270) (length 2.54) (name "V+") (number "5"))
      (pin power_in line (at 0 -7.62 90) (length 2.54) (name "V-") (number "6"))
    )
  )
)
