(kicad_symbol_lib (version 20200126) (host kicad_symbol_editor "(5.99.0-1517-ga8407fba4)")
  (symbol "Sensor_Touch:AT42QT1010-M" (pin_names (offset 0.508))
    (property "Reference" "U" (id 0) (at -2.54 8.255 0)
      (effects (font (size 1.27 1.27)) (justify right))
    )
    (property "Value" "AT42QT1010-M" (id 1) (at -2.54 6.35 0)
      (effects (font (size 1.27 1.27)) (justify right))
    )
    (property "Footprint" "Package_DFN_QFN:DFN-8-1EP_2x2mm_P0.5mm_EP0.9x1.5mm" (id 2) (at 1.27 -6.35 0)
      (effects (font (size 1.27 1.27)) (justify left) hide)
    )
    (property "Datasheet" "http://ww1.microchip.com/downloads/en/DeviceDoc/40001946A.pdf" (id 3) (at 6.858 13.97 0)
      (effects (font (size 1.27 1.27)) hide)
    )
    (property "ki_keywords" "Touch QTouch Sensor Key" (id 4) (at 0 0 0)
      (effects (font (size 1.27 1.27)) hide)
    )
    (property "ki_description" "Single-key Touch Sensor, UDFN-8" (id 5) (at 0 0 0)
      (effects (font (size 1.27 1.27)) hide)
    )
    (property "ki_fp_filters" "DFN*1EP*2x2mm*P0.5mm*" (id 6) (at 0 0 0)
      (effects (font (size 1.27 1.27)) hide)
    )
    (symbol "AT42QT1010-M_0_1"
      (rectangle (start -7.62 5.08) (end 7.62 -5.08) (stroke (width 0.254)) (fill (type background)))
    )
    (symbol "AT42QT1010-M_1_1"
      (pin passive line (at 10.16 2.54 180) (length 2.54) (name "SNSK") (number "1"))
      (pin unconnected line (at -7.62 0 0) (length 2.54) (name "NC") (number "2") hide)
      (pin unconnected line (at 7.62 0 180) (length 2.54) (name "NC") (number "3") hide)
      (pin power_in line (at 0 -7.62 90) (length 2.54) (name "VSS") (number "4"))
      (pin output line (at -10.16 -2.54 0) (length 2.54) (name "OUT") (number "5"))
      (pin input line (at -10.16 2.54 0) (length 2.54) (name "SYNC") (number "6"))
      (pin power_in line (at 0 7.62 270) (length 2.54) (name "VDD") (number "7"))
      (pin passive line (at 10.16 -2.54 180) (length 2.54) (name "SNS") (number "8"))
      (pin passive line (at 0 -7.62 90) (length 2.54) (name "VSS") (number "9") hide)
    )
  )
  (symbol "Sensor_Touch:AT42QT1011-M" (extends "AT42QT1010-M")
    (property "Value" "AT42QT1011-M" (id 1) (at -2.54 6.35 0)
      (effects (font (size 1.27 1.27)) (justify right))
    )
    (property "Datasheet" "http://ww1.microchip.com/downloads/en/DeviceDoc/40001947A.pdf" (id 3) (at 6.858 13.97 0)
      (effects (font (size 1.27 1.27)) hide)
    )
    (property "ki_keywords" "Touch QTouch Sensor Key" (id 4) (at 0 0 0)
      (effects (font (size 1.27 1.27)) hide)
    )
    (property "ki_description" "Single-key Touch Sensor, UDFN-8" (id 5) (at 0 0 0)
      (effects (font (size 1.27 1.27)) hide)
    )
  )
  (symbol "Sensor_Touch:AT42QT1010-TSHR" (pin_names (offset 0.508))
    (property "Reference" "U" (id 0) (at -2.54 8.255 0)
      (effects (font (size 1.27 1.27)) (justify right))
    )
    (property "Value" "AT42QT1010-TSHR" (id 1) (at -2.54 6.35 0)
      (effects (font (size 1.27 1.27)) (justify right))
    )
    (property "Footprint" "Package_TO_SOT_SMD:SOT-23-6" (id 2) (at 1.27 -6.35 0)
      (effects (font (size 1.27 1.27)) (justify left) hide)
    )
    (property "Datasheet" "http://ww1.microchip.com/downloads/en/DeviceDoc/40001946A.pdf" (id 3) (at 6.858 13.97 0)
      (effects (font (size 1.27 1.27)) hide)
    )
    (property "ki_keywords" "Touch QTouch Sensor Key" (id 4) (at 0 0 0)
      (effects (font (size 1.27 1.27)) hide)
    )
    (property "ki_description" "Single-key Touch Sensor, SOT-23-6" (id 5) (at 0 0 0)
      (effects (font (size 1.27 1.27)) hide)
    )
    (property "ki_fp_filters" "SOT?23*" (id 6) (at 0 0 0)
      (effects (font (size 1.27 1.27)) hide)
    )
    (symbol "AT42QT1010-TSHR_0_1"
      (rectangle (start -7.62 5.08) (end 7.62 -5.08) (stroke (width 0.254)) (fill (type background)))
    )
    (symbol "AT42QT1010-TSHR_1_1"
      (pin output line (at -10.16 -2.54 0) (length 2.54) (name "OUT") (number "1"))
      (pin power_in line (at 0 -7.62 90) (length 2.54) (name "VSS") (number "2"))
      (pin passive line (at 10.16 2.54 180) (length 2.54) (name "SNSK") (number "3"))
      (pin passive line (at 10.16 -2.54 180) (length 2.54) (name "SNS") (number "4"))
      (pin power_in line (at 0 7.62 270) (length 2.54) (name "VDD") (number "5"))
      (pin input line (at -10.16 2.54 0) (length 2.54) (name "SYNC") (number "6"))
    )
  )
  (symbol "Sensor_Touch:AT42QT1011-TSHR" (extends "AT42QT1010-TSHR")
    (property "Value" "AT42QT1011-TSHR" (id 1) (at -2.54 6.35 0)
      (effects (font (size 1.27 1.27)) (justify right))
    )
    (property "Datasheet" "http://ww1.microchip.com/downloads/en/DeviceDoc/40001947A.pdf" (id 3) (at 6.858 13.97 0)
      (effects (font (size 1.27 1.27)) hide)
    )
    (property "ki_keywords" "Touch QTouch Sensor Key" (id 4) (at 0 0 0)
      (effects (font (size 1.27 1.27)) hide)
    )
    (property "ki_description" "Single-key Touch Sensor, SOT-23-6" (id 5) (at 0 0 0)
      (effects (font (size 1.27 1.27)) hide)
    )
  )
  (symbol "Sensor_Touch:AT42QT1012-M" (pin_names (offset 0.508))
    (property "Reference" "U" (id 0) (at -2.54 8.89 0)
      (effects (font (size 1.27 1.27)) (justify right))
    )
    (property "Value" "AT42QT1012-M" (id 1) (at -2.54 6.35 0)
      (effects (font (size 1.27 1.27)) (justify right))
    )
    (property "Footprint" "Package_DFN_QFN:DFN-8-1EP_2x2mm_P0.5mm_EP0.9x1.5mm" (id 2) (at 0 0 0)
      (effects (font (size 1.27 1.27)) hide)
    )
    (property "Datasheet" "http://ww1.microchip.com/downloads/en/DeviceDoc/40001948A.pdf" (id 3) (at 0 0 0)
      (effects (font (size 1.27 1.27)) hide)
    )
    (property "ki_keywords" "Touch QTouch Sensor Key" (id 4) (at 0 0 0)
      (effects (font (size 1.27 1.27)) hide)
    )
    (property "ki_description" "Single-Key Touch Sensor IC, UDFN-8" (id 5) (at 0 0 0)
      (effects (font (size 1.27 1.27)) hide)
    )
    (property "ki_fp_filters" "DFN*1EP*2x2mm*P0.5mm*" (id 6) (at 0 0 0)
      (effects (font (size 1.27 1.27)) hide)
    )
    (symbol "AT42QT1012-M_0_1"
      (rectangle (start -7.62 5.08) (end 7.62 -5.08) (stroke (width 0.254)) (fill (type background)))
    )
    (symbol "AT42QT1012-M_1_1"
      (pin passive line (at 10.16 2.54 180) (length 2.54) (name "SNSK") (number "1"))
      (pin unconnected line (at -7.62 0 0) (length 2.54) (name "NC") (number "2") hide)
      (pin unconnected line (at 7.62 0 180) (length 2.54) (name "NC") (number "3") hide)
      (pin power_in line (at 0 -7.62 90) (length 2.54) (name "VSS") (number "4"))
      (pin output line (at -10.16 -2.54 0) (length 2.54) (name "OUT") (number "5"))
      (pin input line (at -10.16 2.54 0) (length 2.54) (name "TIME") (number "6"))
      (pin power_in line (at 0 7.62 270) (length 2.54) (name "VDD") (number "7"))
      (pin passive line (at 10.16 -2.54 180) (length 2.54) (name "SNS") (number "8"))
      (pin passive line (at 0 -7.62 90) (length 2.54) (name "VSS") (number "9") hide)
    )
  )
  (symbol "Sensor_Touch:AT42QT1012-T" (pin_names (offset 0.508))
    (property "Reference" "U" (id 0) (at -2.54 8.89 0)
      (effects (font (size 1.27 1.27)) (justify right))
    )
    (property "Value" "AT42QT1012-T" (id 1) (at -2.54 6.35 0)
      (effects (font (size 1.27 1.27)) (justify right))
    )
    (property "Footprint" "Package_TO_SOT_SMD:SOT-23-6" (id 2) (at 0 0 0)
      (effects (font (size 1.27 1.27)) hide)
    )
    (property "Datasheet" "http://ww1.microchip.com/downloads/en/DeviceDoc/40001948A.pdf" (id 3) (at 0 0 0)
      (effects (font (size 1.27 1.27)) hide)
    )
    (property "ki_keywords" "Touch QTouch Sensor Key" (id 4) (at 0 0 0)
      (effects (font (size 1.27 1.27)) hide)
    )
    (property "ki_description" "Single-Key Touch Sensor IC, SOT-23-6" (id 5) (at 0 0 0)
      (effects (font (size 1.27 1.27)) hide)
    )
    (property "ki_fp_filters" "SOT?23*" (id 6) (at 0 0 0)
      (effects (font (size 1.27 1.27)) hide)
    )
    (symbol "AT42QT1012-T_0_1"
      (rectangle (start -7.62 5.08) (end 7.62 -5.08) (stroke (width 0.254)) (fill (type background)))
    )
    (symbol "AT42QT1012-T_1_1"
      (pin output line (at -10.16 -2.54 0) (length 2.54) (name "OUT") (number "1"))
      (pin power_in line (at 0 -7.62 90) (length 2.54) (name "VSS") (number "2"))
      (pin passive line (at 10.16 2.54 180) (length 2.54) (name "SNSK") (number "3"))
      (pin passive line (at 10.16 -2.54 180) (length 2.54) (name "SNS") (number "4"))
      (pin power_in line (at 0 7.62 270) (length 2.54) (name "VDD") (number "5"))
      (pin input line (at -10.16 2.54 0) (length 2.54) (name "TIME") (number "6"))
    )
  )
  (symbol "Sensor_Touch:AT42QT1040-M" (pin_names (offset 0.508))
    (property "Reference" "U" (id 0) (at -2.54 19.05 0)
      (effects (font (size 1.27 1.27)) (justify right))
    )
    (property "Value" "AT42QT1040-M" (id 1) (at -2.54 16.51 0)
      (effects (font (size 1.27 1.27)) (justify right))
    )
    (property "Footprint" "Package_DFN_QFN:VQFN-20-1EP_3x3mm_P0.45mm_EP1.55x1.55mm" (id 2) (at 0 0 0)
      (effects (font (size 1.27 1.27)) hide)
    )
    (property "Datasheet" "http://ww1.microchip.com/downloads/en/DeviceDoc/Atmel-9524-AT42-QTouch-BSW-AT42QT1040_Datasheet.pdf" (id 3) (at 0 0 0)
      (effects (font (size 1.27 1.27)) hide)
    )
    (property "ki_keywords" "Touch QTouch Sensor Key" (id 4) (at 0 0 0)
      (effects (font (size 1.27 1.27)) hide)
    )
    (property "ki_description" "Four-key Touch Sensor IC, VQFN-20" (id 5) (at 0 0 0)
      (effects (font (size 1.27 1.27)) hide)
    )
    (property "ki_fp_filters" "VQFN*1EP*3x3mm*P0.45mm*" (id 6) (at 0 0 0)
      (effects (font (size 1.27 1.27)) hide)
    )
    (symbol "AT42QT1040-M_0_1"
      (rectangle (start -7.62 15.24) (end 7.62 -15.24) (stroke (width 0.254)) (fill (type background)))
    )
    (symbol "AT42QT1040-M_1_1"
      (pin passive line (at 10.16 -7.62 180) (length 2.54) (name "SNS2") (number "1"))
      (pin unconnected line (at -7.62 7.62 0) (length 2.54) (name "NC") (number "10") hide)
      (pin open_collector line (at -10.16 -2.54 0) (length 2.54) (name "~OUT0") (number "11"))
      (pin open_collector line (at -10.16 -5.08 0) (length 2.54) (name "~OUT1") (number "12"))
      (pin open_collector line (at -10.16 -10.16 0) (length 2.54) (name "~OUT3") (number "13"))
      (pin open_collector line (at -10.16 -7.62 0) (length 2.54) (name "~OUT2") (number "14"))
      (pin passive line (at 10.16 2.54 180) (length 2.54) (name "SNSK3") (number "15"))
      (pin passive line (at 10.16 -10.16 180) (length 2.54) (name "SNS3") (number "16"))
      (pin unconnected line (at -7.62 5.08 0) (length 2.54) (name "NC") (number "17") hide)
      (pin unconnected line (at -7.62 2.54 0) (length 2.54) (name "NC") (number "18") hide)
      (pin unconnected line (at -7.62 0 0) (length 2.54) (name "NC") (number "19") hide)
      (pin passive line (at 10.16 7.62 180) (length 2.54) (name "SNSK1") (number "2"))
      (pin passive line (at 10.16 5.08 180) (length 2.54) (name "SNSK2") (number "20"))
      (pin passive line (at 0 -17.78 90) (length 2.54) (name "VSS") (number "21") hide)
      (pin passive line (at 10.16 -5.08 180) (length 2.54) (name "SNS1") (number "3"))
      (pin passive line (at 10.16 10.16 180) (length 2.54) (name "SNSK0") (number "4"))
      (pin passive line (at 10.16 -2.54 180) (length 2.54) (name "SNS0") (number "5"))
      (pin unconnected line (at -7.62 12.7 0) (length 2.54) (name "NC") (number "6") hide)
      (pin unconnected line (at -7.62 10.16 0) (length 2.54) (name "NC") (number "7") hide)
      (pin power_in line (at 0 -17.78 90) (length 2.54) (name "VSS") (number "8"))
      (pin power_in line (at 0 17.78 270) (length 2.54) (name "VDD") (number "9"))
    )
  )
  (symbol "Sensor_Touch:AT42QT1050-M" (pin_names (offset 0.508))
    (property "Reference" "U" (id 0) (at -2.54 16.51 0)
      (effects (font (size 1.27 1.27)) (justify right))
    )
    (property "Value" "AT42QT1050-M" (id 1) (at -2.54 13.97 0)
      (effects (font (size 1.27 1.27)) (justify right))
    )
    (property "Footprint" "Package_DFN_QFN:VQFN-20-1EP_3x3mm_P0.45mm_EP1.55x1.55mm" (id 2) (at 0 0 0)
      (effects (font (size 1.27 1.27)) hide)
    )
    (property "Datasheet" "http://ww1.microchip.com/downloads/en/DeviceDoc/Atmel-9707-AT42-QTouch-BSW-AT42QT1050_Datasheet.pdf" (id 3) (at 0 0 0)
      (effects (font (size 1.27 1.27)) hide)
    )
    (property "ki_keywords" "Touch QTouch Sensor Key" (id 4) (at 0 0 0)
      (effects (font (size 1.27 1.27)) hide)
    )
    (property "ki_description" "Five-Key Touch Sensor, VQFN-20" (id 5) (at 0 0 0)
      (effects (font (size 1.27 1.27)) hide)
    )
    (property "ki_fp_filters" "VQFN*1EP*3x3mm*P0.45mm*" (id 6) (at 0 0 0)
      (effects (font (size 1.27 1.27)) hide)
    )
    (symbol "AT42QT1050-M_0_1"
      (rectangle (start -7.62 12.7) (end 7.62 -12.7) (stroke (width 0.254)) (fill (type background)))
    )
    (symbol "AT42QT1050-M_1_1"
      (pin passive line (at 10.16 0 180) (length 2.54) (name "KEY2") (number "1"))
      (pin unconnected line (at 7.62 10.16 180) (length 2.54) (name "NC") (number "10") hide)
      (pin input line (at -10.16 -7.62 0) (length 2.54) (name "ADDR_SEL") (number "11"))
      (pin bidirectional line (at -10.16 5.08 0) (length 2.54) (name "SDA") (number "12"))
      (pin input line (at -10.16 0 0) (length 2.54) (name "~RESET") (number "13"))
      (pin open_collector line (at -10.16 -2.54 0) (length 2.54) (name "~CHANGE") (number "14"))
      (pin input line (at -10.16 7.62 0) (length 2.54) (name "SCL") (number "15"))
      (pin passive line (at 10.16 -5.08 180) (length 2.54) (name "KEY4") (number "16"))
      (pin passive line (at 10.16 -2.54 180) (length 2.54) (name "KEY3") (number "17"))
      (pin unconnected line (at 7.62 7.62 180) (length 2.54) (name "NC") (number "18") hide)
      (pin unconnected line (at 7.62 -7.62 180) (length 2.54) (name "NC") (number "19") hide)
      (pin unconnected line (at -7.62 10.16 0) (length 2.54) (name "NC") (number "2") hide)
      (pin unconnected line (at 7.62 -10.16 180) (length 2.54) (name "NC") (number "20") hide)
      (pin passive line (at 0 -15.24 90) (length 2.54) (name "VSS") (number "21") hide)
      (pin passive line (at 10.16 2.54 180) (length 2.54) (name "KEY1") (number "3"))
      (pin passive line (at 10.16 5.08 180) (length 2.54) (name "KEY0") (number "4"))
      (pin unconnected line (at -7.62 2.54 0) (length 2.54) (name "NC") (number "5") hide)
      (pin unconnected line (at -7.62 -5.08 0) (length 2.54) (name "NC") (number "6") hide)
      (pin unconnected line (at -7.62 -10.16 0) (length 2.54) (name "NC") (number "7") hide)
      (pin power_in line (at 0 -15.24 90) (length 2.54) (name "VSS") (number "8"))
      (pin power_in line (at 0 15.24 270) (length 2.54) (name "VDD") (number "9"))
    )
  )
  (symbol "Sensor_Touch:AT42QT1050-U" (pin_names (offset 0.508))
    (property "Reference" "U" (id 0) (at -2.54 16.51 0)
      (effects (font (size 1.27 1.27)) (justify right))
    )
    (property "Value" "AT42QT1050-U" (id 1) (at -2.54 13.97 0)
      (effects (font (size 1.27 1.27)) (justify right))
    )
    (property "Footprint" "Package_CSP:WLCSP-12_1.403x1.555mm_P0.4mm_Stagger" (id 2) (at 0 0 0)
      (effects (font (size 1.27 1.27)) hide)
    )
    (property "Datasheet" "http://ww1.microchip.com/downloads/en/DeviceDoc/Atmel-9707-AT42-QTouch-BSW-AT42QT1050_Datasheet.pdf" (id 3) (at 0 0 0)
      (effects (font (size 1.27 1.27)) hide)
    )
    (property "ki_keywords" "Touch QTouch Sensor Key" (id 4) (at 0 0 0)
      (effects (font (size 1.27 1.27)) hide)
    )
    (property "ki_description" "Five-Key Touch Sensor, WLCSP-12" (id 5) (at 0 0 0)
      (effects (font (size 1.27 1.27)) hide)
    )
    (property "ki_fp_filters" "WLCSP*1.403x1.555mm*P0.4mm*" (id 6) (at 0 0 0)
      (effects (font (size 1.27 1.27)) hide)
    )
    (symbol "AT42QT1050-U_0_1"
      (rectangle (start -7.62 12.7) (end 7.62 -12.7) (stroke (width 0.254)) (fill (type background)))
    )
    (symbol "AT42QT1050-U_1_1"
      (pin passive line (at 10.16 0 180) (length 2.54) (name "KEY2") (number "A1"))
      (pin passive line (at 10.16 5.08 180) (length 2.54) (name "KEY0") (number "A3"))
      (pin passive line (at 10.16 2.54 180) (length 2.54) (name "KEY1") (number "A5"))
      (pin passive line (at 10.16 -5.08 180) (length 2.54) (name "KEY4") (number "B2"))
      (pin power_in line (at 0 -15.24 90) (length 2.54) (name "VSS") (number "B4"))
      (pin power_in line (at 0 15.24 270) (length 2.54) (name "VDD") (number "B6"))
      (pin passive line (at 10.16 -2.54 180) (length 2.54) (name "KEY3") (number "C1"))
      (pin input line (at -10.16 7.62 0) (length 2.54) (name "SCL") (number "C3"))
      (pin bidirectional line (at -10.16 5.08 0) (length 2.54) (name "SDA") (number "C5"))
      (pin open_collector line (at -10.16 -2.54 0) (length 2.54) (name "~CHANGE") (number "D2"))
      (pin input line (at -10.16 0 0) (length 2.54) (name "~RESET") (number "D4"))
      (pin input line (at -10.16 -7.62 0) (length 2.54) (name "ADDR_SEL") (number "D6"))
    )
  )
  (symbol "Sensor_Touch:AT42QT1060-M" (pin_names (offset 0.508))
    (property "Reference" "U" (id 0) (at -2.54 21.59 0)
      (effects (font (size 1.27 1.27)) (justify right))
    )
    (property "Value" "AT42QT1060-M" (id 1) (at -2.54 19.05 0)
      (effects (font (size 1.27 1.27)) (justify right))
    )
    (property "Footprint" "Package_DFN_QFN:VQFN-28-1EP_4x4mm_P0.45mm_EP2.4x2.4mm" (id 2) (at 0 0 0)
      (effects (font (size 1.27 1.27)) hide)
    )
    (property "Datasheet" "http://ww1.microchip.com/downloads/en/DeviceDoc/Atmel-9505-AT42-QTouch-BSW-AT42QT1060_Datasheet.pdf" (id 3) (at 0 0 0)
      (effects (font (size 1.27 1.27)) hide)
    )
    (property "ki_keywords" "Touch QTouch Sensor Key" (id 4) (at 0 0 0)
      (effects (font (size 1.27 1.27)) hide)
    )
    (property "ki_description" "Six-Key Touch Sensor IC, VQFN-28" (id 5) (at 0 0 0)
      (effects (font (size 1.27 1.27)) hide)
    )
    (property "ki_fp_filters" "VQFN*1EP*4x4mm*P0.45mm*" (id 6) (at 0 0 0)
      (effects (font (size 1.27 1.27)) hide)
    )
    (symbol "AT42QT1060-M_0_1"
      (rectangle (start 7.62 17.78) (end -7.62 -17.78) (stroke (width 0.254)) (fill (type background)))
    )
    (symbol "AT42QT1060-M_1_1"
      (pin passive line (at 10.16 -5.08 180) (length 2.54) (name "SNS1K") (number "1"))
      (pin passive line (at 10.16 15.24 180) (length 2.54) (name "SNS0") (number "10"))
      (pin passive line (at 10.16 12.7 180) (length 2.54) (name "SNS1") (number "11"))
      (pin passive line (at 10.16 10.16 180) (length 2.54) (name "SNS2") (number "12"))
      (pin passive line (at 10.16 7.62 180) (length 2.54) (name "SNS3") (number "13"))
      (pin passive line (at 10.16 5.08 180) (length 2.54) (name "SNS4") (number "14"))
      (pin passive line (at 10.16 2.54 180) (length 2.54) (name "SNS5") (number "15"))
      (pin passive line (at 0 20.32 270) (length 2.54) (name "VDD") (number "16") hide)
      (pin passive line (at 0 20.32 270) (length 2.54) (name "VDD") (number "17") hide)
      (pin passive line (at 0 -20.32 90) (length 2.54) (name "VSS") (number "18") hide)
      (pin bidirectional line (at -10.16 0 0) (length 2.54) (name "IO0") (number "19"))
      (pin passive line (at 10.16 -7.62 180) (length 2.54) (name "SNS2K") (number "2"))
      (pin bidirectional line (at -10.16 -2.54 0) (length 2.54) (name "IO1") (number "20"))
      (pin bidirectional line (at -10.16 -5.08 0) (length 2.54) (name "IO2") (number "21"))
      (pin open_collector line (at -10.16 5.08 0) (length 2.54) (name "~CHG") (number "22"))
      (pin bidirectional line (at -10.16 15.24 0) (length 2.54) (name "SDA") (number "23"))
      (pin input line (at -10.16 12.7 0) (length 2.54) (name "SCL") (number "24"))
      (pin input line (at -10.16 7.62 0) (length 2.54) (name "~RST") (number "25"))
      (pin bidirectional line (at -10.16 -7.62 0) (length 2.54) (name "IO3") (number "26"))
      (pin bidirectional line (at -10.16 -10.16 0) (length 2.54) (name "IO4") (number "27"))
      (pin passive line (at 10.16 -2.54 180) (length 2.54) (name "SNS0K") (number "28"))
      (pin passive line (at 0 -20.32 90) (length 2.54) (name "VSS") (number "29") hide)
      (pin power_in line (at 0 20.32 270) (length 2.54) (name "VDD") (number "3"))
      (pin power_in line (at 0 -20.32 90) (length 2.54) (name "VSS") (number "4"))
      (pin bidirectional line (at -10.16 -12.7 0) (length 2.54) (name "IO5") (number "5"))
      (pin bidirectional line (at -10.16 -15.24 0) (length 2.54) (name "IO6") (number "6"))
      (pin passive line (at 10.16 -10.16 180) (length 2.54) (name "SNS3K") (number "7"))
      (pin passive line (at 10.16 -12.7 180) (length 2.54) (name "SNS4K") (number "8"))
      (pin passive line (at 10.16 -15.24 180) (length 2.54) (name "SNS5K") (number "9"))
    )
  )
  (symbol "Sensor_Touch:AT42QT1070-M" (pin_names (offset 0.508))
    (property "Reference" "U" (id 0) (at -2.54 16.51 0)
      (effects (font (size 1.27 1.27)) (justify right))
    )
    (property "Value" "AT42QT1070-M" (id 1) (at -2.54 13.97 0)
      (effects (font (size 1.27 1.27)) (justify right))
    )
    (property "Footprint" "Package_DFN_QFN:VQFN-20-1EP_3x3mm_P0.45mm_EP1.55x1.55mm" (id 2) (at 0 0 0)
      (effects (font (size 1.27 1.27)) hide)
    )
    (property "Datasheet" "http://ww1.microchip.com/downloads/en/DeviceDoc/Atmel-9596-AT42-QTouch-BSW-AT42QT1070_Datasheet.pdf" (id 3) (at 0 0 0)
      (effects (font (size 1.27 1.27)) hide)
    )
    (property "ki_keywords" "Touch QTouch Sensor Key" (id 4) (at 0 0 0)
      (effects (font (size 1.27 1.27)) hide)
    )
    (property "ki_description" "Seven-key Touch Sensor IC, VQFN-20" (id 5) (at 0 0 0)
      (effects (font (size 1.27 1.27)) hide)
    )
    (property "ki_fp_filters" "VQFN*1EP*3x3mm*P0.45mm*" (id 6) (at 0 0 0)
      (effects (font (size 1.27 1.27)) hide)
    )
    (symbol "AT42QT1070-M_0_1"
      (rectangle (start -12.7 12.7) (end 12.7 -12.7) (stroke (width 0.254)) (fill (type background)))
    )
    (symbol "AT42QT1070-M_1_1"
      (pin passive line (at 15.24 -2.54 180) (length 2.54) (name "KEY4") (number "1"))
      (pin unconnected line (at -5.08 -12.7 90) (length 2.54) (name "NC") (number "10") hide)
      (pin input line (at -15.24 -7.62 0) (length 2.54) (name "MODE") (number "11"))
      (pin bidirectional line (at -15.24 7.62 0) (length 2.54) (name "SDA/OUT0") (number "12"))
      (pin input line (at -15.24 0 0) (length 2.54) (name "~RESET") (number "13"))
      (pin open_collector line (at -15.24 -2.54 0) (length 2.54) (name "~CHANGE~/OUT4") (number "14"))
      (pin bidirectional line (at -15.24 5.08 0) (length 2.54) (name "SCL/OUT3") (number "15"))
      (pin output line (at 15.24 -7.62 180) (length 2.54) (name "OUT2/KEY6") (number "16"))
      (pin output line (at 15.24 -5.08 180) (length 2.54) (name "OUT1/KEY5") (number "17"))
      (pin unconnected line (at 5.08 -12.7 90) (length 2.54) (name "NC") (number "18") hide)
      (pin unconnected line (at 7.62 -12.7 90) (length 2.54) (name "NC") (number "19") hide)
      (pin passive line (at 15.24 0 180) (length 2.54) (name "KEY3") (number "2"))
      (pin unconnected line (at 10.16 -12.7 90) (length 2.54) (name "NC") (number "20") hide)
      (pin passive line (at 0 -15.24 90) (length 2.54) (name "VSS") (number "21") hide)
      (pin passive line (at 15.24 2.54 180) (length 2.54) (name "KEY2") (number "3"))
      (pin passive line (at 15.24 5.08 180) (length 2.54) (name "KEY1") (number "4"))
      (pin passive line (at 15.24 7.62 180) (length 2.54) (name "KEY0") (number "5"))
      (pin unconnected line (at -10.16 -12.7 90) (length 2.54) (name "NC") (number "6") hide)
      (pin unconnected line (at -7.62 -12.7 90) (length 2.54) (name "NC") (number "7") hide)
      (pin power_in line (at 0 -15.24 90) (length 2.54) (name "VSS") (number "8"))
      (pin power_in line (at 0 15.24 270) (length 2.54) (name "VDD") (number "9"))
    )
  )
  (symbol "Sensor_Touch:AT42QT1070-S" (pin_names (offset 0.508))
    (property "Reference" "U" (id 0) (at -2.54 16.51 0)
      (effects (font (size 1.27 1.27)) (justify right))
    )
    (property "Value" "AT42QT1070-S" (id 1) (at -2.54 13.97 0)
      (effects (font (size 1.27 1.27)) (justify right))
    )
    (property "Footprint" "Package_SO:SOIC-14_3.9x8.7mm_P1.27mm" (id 2) (at 0 0 0)
      (effects (font (size 1.27 1.27)) hide)
    )
    (property "Datasheet" "http://ww1.microchip.com/downloads/en/DeviceDoc/Atmel-9596-AT42-QTouch-BSW-AT42QT1070_Datasheet.pdf" (id 3) (at 0 0 0)
      (effects (font (size 1.27 1.27)) hide)
    )
    (property "ki_keywords" "Touch QTouch Sensor Key" (id 4) (at 0 0 0)
      (effects (font (size 1.27 1.27)) hide)
    )
    (property "ki_description" "Seven-key Touch Sensor IC, SOIC-14" (id 5) (at 0 0 0)
      (effects (font (size 1.27 1.27)) hide)
    )
    (property "ki_fp_filters" "SOIC*3.9x8.7mm*P1.27mm*" (id 6) (at 0 0 0)
      (effects (font (size 1.27 1.27)) hide)
    )
    (symbol "AT42QT1070-S_0_1"
      (rectangle (start -12.7 12.7) (end 12.7 -12.7) (stroke (width 0.254)) (fill (type background)))
    )
    (symbol "AT42QT1070-S_1_1"
      (pin power_in line (at 0 15.24 270) (length 2.54) (name "VDD") (number "1"))
      (pin passive line (at 15.24 0 180) (length 2.54) (name "KEY3") (number "10"))
      (pin passive line (at 15.24 2.54 180) (length 2.54) (name "KEY2") (number "11"))
      (pin passive line (at 15.24 5.08 180) (length 2.54) (name "KEY1") (number "12"))
      (pin passive line (at 15.24 7.62 180) (length 2.54) (name "KEY0") (number "13"))
      (pin power_in line (at 0 -15.24 90) (length 2.54) (name "VSS") (number "14"))
      (pin input line (at -15.24 -7.62 0) (length 2.54) (name "MODE") (number "2"))
      (pin bidirectional line (at -15.24 7.62 0) (length 2.54) (name "SDA/OUT0") (number "3"))
      (pin input line (at -15.24 0 0) (length 2.54) (name "~RESET") (number "4"))
      (pin open_collector line (at -15.24 -2.54 0) (length 2.54) (name "~CHANGE~/OUT4") (number "5"))
      (pin bidirectional line (at -15.24 5.08 0) (length 2.54) (name "SCL/OUT3") (number "6"))
      (pin output line (at 15.24 -7.62 180) (length 2.54) (name "OUT2/KEY6") (number "7"))
      (pin output line (at 15.24 -5.08 180) (length 2.54) (name "OUT1/KEY5") (number "8"))
      (pin passive line (at 15.24 -2.54 180) (length 2.54) (name "KEY4") (number "9"))
    )
  )
  (symbol "Sensor_Touch:AT42QT1110-M" (pin_names (offset 0.508))
    (property "Reference" "U" (id 0) (at -2.54 39.37 0)
      (effects (font (size 1.27 1.27)) (justify right))
    )
    (property "Value" "AT42QT1110-M" (id 1) (at -2.54 36.83 0)
      (effects (font (size 1.27 1.27)) (justify right))
    )
    (property "Footprint" "Package_DFN_QFN:VQFN-32-1EP_5x5mm_P0.5mm_EP3.1x3.1mm" (id 2) (at 0 0 0)
      (effects (font (size 1.27 1.27)) hide)
    )
    (property "Datasheet" "http://ww1.microchip.com/downloads/en/DeviceDoc/Atmel-9520-AT42-QTouch-BSW-AT42QT1110_Datasheet.pdf" (id 3) (at 0 0 0)
      (effects (font (size 1.27 1.27)) hide)
    )
    (property "ki_keywords" "Touch QTouch Sensor Key" (id 4) (at 0 0 0)
      (effects (font (size 1.27 1.27)) hide)
    )
    (property "ki_description" "11-Key Touch Sensor IC, VQFN-32" (id 5) (at 0 0 0)
      (effects (font (size 1.27 1.27)) hide)
    )
    (property "ki_fp_filters" "VQFN*1EP*5x5mm*P0.5mm*" (id 6) (at 0 0 0)
      (effects (font (size 1.27 1.27)) hide)
    )
    (symbol "AT42QT1110-M_0_1"
      (rectangle (start -15.24 35.56) (end 15.24 -35.56) (stroke (width 0.254)) (fill (type background)))
    )
    (symbol "AT42QT1110-M_1_1"
      (pin passive line (at 17.78 27.94 180) (length 2.54) (name "SNS0K") (number "1"))
      (pin passive line (at 17.78 -12.7 180) (length 2.54) (name "SNS4") (number "10"))
      (pin passive line (at 17.78 17.78 180) (length 2.54) (name "SNS4K") (number "11"))
      (pin passive line (at 17.78 -15.24 180) (length 2.54) (name "SNS5") (number "12"))
      (pin passive line (at 17.78 15.24 180) (length 2.54) (name "SNS5K") (number "13"))
      (pin input line (at -17.78 20.32 0) (length 2.54) (name "~SS") (number "14"))
      (pin input line (at -17.78 27.94 0) (length 2.54) (name "MOSI") (number "15"))
      (pin output line (at -17.78 25.4 0) (length 2.54) (name "MISO") (number "16"))
      (pin input line (at -17.78 22.86 0) (length 2.54) (name "SCK") (number "17"))
      (pin passive line (at 0 38.1 270) (length 2.54) (name "VDD") (number "18") hide)
      (pin passive line (at 17.78 12.7 180) (length 2.54) (name "SNS6K") (number "19"))
      (pin passive line (at 17.78 -5.08 180) (length 2.54) (name "SNS1") (number "2"))
      (pin passive line (at 17.78 -17.78 180) (length 2.54) (name "SNS6") (number "20"))
      (pin passive line (at 0 -38.1 90) (length 2.54) (name "VSS") (number "21") hide)
      (pin bidirectional line (at 17.78 10.16 180) (length 2.54) (name "DETECT0/SNS7K") (number "22"))
      (pin bidirectional line (at 17.78 -20.32 180) (length 2.54) (name "DETECT1/SNS7") (number "23"))
      (pin bidirectional line (at 17.78 -22.86 180) (length 2.54) (name "DETECT2/SNS8") (number "24"))
      (pin bidirectional line (at 17.78 7.62 180) (length 2.54) (name "DETECT3/SNS8K") (number "25"))
      (pin bidirectional line (at 17.78 -25.4 180) (length 2.54) (name "DETECT4/SNS9") (number "26"))
      (pin bidirectional line (at 17.78 5.08 180) (length 2.54) (name "DETECT5/SNS9K") (number "27"))
      (pin open_collector line (at -17.78 15.24 0) (length 2.54) (name "~CHANGE") (number "28"))
      (pin input line (at -17.78 12.7 0) (length 2.54) (name "~RESET") (number "29"))
      (pin passive line (at 17.78 25.4 180) (length 2.54) (name "SNS1K") (number "3"))
      (pin bidirectional line (at 17.78 -27.94 180) (length 2.54) (name "DETECT6/SNS10") (number "30"))
      (pin bidirectional line (at 17.78 2.54 180) (length 2.54) (name "SYNC/SNS10K") (number "31"))
      (pin passive line (at 17.78 -2.54 180) (length 2.54) (name "SNS0") (number "32"))
      (pin passive line (at 0 -38.1 90) (length 2.54) (name "VSS") (number "33") hide)
      (pin power_in line (at 0 38.1 270) (length 2.54) (name "VDD") (number "4"))
      (pin power_in line (at 0 -38.1 90) (length 2.54) (name "VSS") (number "5"))
      (pin passive line (at 17.78 22.86 180) (length 2.54) (name "SNS2K") (number "6"))
      (pin passive line (at 17.78 -7.62 180) (length 2.54) (name "SNS2") (number "7"))
      (pin passive line (at 17.78 -10.16 180) (length 2.54) (name "SNS3") (number "8"))
      (pin passive line (at 17.78 20.32 180) (length 2.54) (name "SNS3K") (number "9"))
    )
  )
  (symbol "Sensor_Touch:CAP1206-x-AIA" (pin_names (offset 0.508))
    (property "Reference" "U" (id 0) (at -10.16 12.7 0))
    (property "Value" "CAP1206-x-AIA" (id 1) (at 8.89 12.7 0))
    (property "Footprint" "Package_DFN_QFN:DFN-10-1EP_3x3mm_P0.5mm_EP1.55x2.48mm" (id 2) (at 0 24.13 0)
      (effects (font (size 1.27 1.27)) hide)
    )
    (property "Datasheet" "http://ww1.microchip.com/downloads/en/DeviceDoc/00001567B.pdf" (id 3) (at -1.27 0 0)
      (effects (font (size 1.27 1.27)) hide)
    )
    (property "ki_keywords" "6 Channel Capacitive Touch Sensor" (id 4) (at 0 0 0)
      (effects (font (size 1.27 1.27)) hide)
    )
    (property "ki_description" "6-Channel Capacitive Touch Sensor, DFN-10" (id 5) (at 0 0 0)
      (effects (font (size 1.27 1.27)) hide)
    )
    (property "ki_fp_filters" "DFN*1EP*3x3mm*P0.5mm*" (id 6) (at 0 0 0)
      (effects (font (size 1.27 1.27)) hide)
    )
    (symbol "CAP1206-x-AIA_0_1"
      (rectangle (start -11.43 11.43) (end 11.43 -8.89) (stroke (width 0.254)) (fill (type background)))
    )
    (symbol "CAP1206-x-AIA_1_1"
      (pin passive line (at -15.24 7.62 0) (length 3.81) (name "CS1") (number "1"))
      (pin passive line (at -15.24 5.08 0) (length 3.81) (name "CS2") (number "10"))
      (pin power_in line (at 0 -12.7 90) (length 3.81) (name "GND") (number "11"))
      (pin open_collector line (at 15.24 -2.54 180) (length 3.81) (name "ALERT#") (number "2"))
      (pin bidirectional line (at 15.24 2.54 180) (length 3.81) (name "SMDATA") (number "3"))
      (pin input line (at 15.24 5.08 180) (length 3.81) (name "SMCLK") (number "4"))
      (pin power_in line (at 0 15.24 270) (length 3.81) (name "VDD") (number "5"))
      (pin passive line (at -15.24 -5.08 0) (length 3.81) (name "CS6") (number "6"))
      (pin passive line (at -15.24 -2.54 0) (length 3.81) (name "CS5") (number "7"))
      (pin passive line (at -15.24 0 0) (length 3.81) (name "CS4") (number "8"))
      (pin passive line (at -15.24 2.54 0) (length 3.81) (name "CS3") (number "9"))
    )
  )
  (symbol "Sensor_Touch:CAP1206-x-SL" (pin_names (offset 0.508))
    (property "Reference" "U" (id 0) (at -10.16 12.7 0))
    (property "Value" "CAP1206-x-SL" (id 1) (at 8.89 12.7 0))
    (property "Footprint" "Package_SO:SOIC-14_3.9x8.7mm_P1.27mm" (id 2) (at 0 24.13 0)
      (effects (font (size 1.27 1.27)) hide)
    )
    (property "Datasheet" "http://ww1.microchip.com/downloads/en/DeviceDoc/00001567B.pdf" (id 3) (at -1.27 0 0)
      (effects (font (size 1.27 1.27)) hide)
    )
    (property "ki_keywords" "6 Channel Capacitive Touch Sensor" (id 4) (at 0 0 0)
      (effects (font (size 1.27 1.27)) hide)
    )
    (property "ki_description" "6-Channel Capacitive Touch Sensor, SOIC-14" (id 5) (at 0 0 0)
      (effects (font (size 1.27 1.27)) hide)
    )
    (property "ki_fp_filters" "SOIC?14*3.9x8.7mm*P1.27mm*" (id 6) (at 0 0 0)
      (effects (font (size 1.27 1.27)) hide)
    )
    (symbol "CAP1206-x-SL_0_1"
      (rectangle (start -11.43 11.43) (end 11.43 -8.89) (stroke (width 0.254)) (fill (type background)))
    )
    (symbol "CAP1206-x-SL_1_1"
      (pin passive line (at -15.24 -2.54 0) (length 3.81) (name "CS5") (number "10"))
      (pin passive line (at -15.24 0 0) (length 3.81) (name "CS4") (number "11"))
      (pin passive line (at -15.24 2.54 0) (length 3.81) (name "CS3") (number "12"))
      (pin passive line (at -15.24 5.08 0) (length 3.81) (name "CS2") (number "13"))
      (pin passive line (at -15.24 7.62 0) (length 3.81) (name "CS1") (number "2"))
      (pin open_collector line (at 15.24 -2.54 180) (length 3.81) (name "ALERT#") (number "3"))
      (pin bidirectional line (at 15.24 2.54 180) (length 3.81) (name "SMDATA") (number "4"))
      (pin input line (at 15.24 5.08 180) (length 3.81) (name "SMCLK") (number "5"))
      (pin power_in line (at 0 15.24 270) (length 3.81) (name "VDD") (number "7"))
      (pin power_in line (at 0 -12.7 90) (length 3.81) (name "GND") (number "8"))
      (pin passive line (at -15.24 -5.08 0) (length 3.81) (name "CS6") (number "9"))
    )
  )
  (symbol "Sensor_Touch:CY8CMBR3002" (pin_names (offset 0.508))
    (property "Reference" "U" (id 0) (at -7.62 8.89 0)
      (effects (font (size 1.27 1.27)) (justify left))
    )
    (property "Value" "CY8CMBR3002" (id 1) (at 1.27 8.89 0)
      (effects (font (size 1.27 1.27)) (justify left))
    )
    (property "Footprint" "Package_SO:SOIC-8_3.9x4.9mm_P1.27mm" (id 2) (at 0 -13.97 0)
      (effects (font (size 1.27 1.27)) hide)
    )
    (property "Datasheet" "http://www.cypress.com/?docID=49119" (id 3) (at 0 0 0)
      (effects (font (size 1.27 1.27)) hide)
    )
    (property "ki_keywords" "Touch Sensor 2ch" (id 4) (at 0 0 0)
      (effects (font (size 1.27 1.27)) hide)
    )
    (property "ki_description" "CapSense Controller, 2 Sensors, SOIC-8" (id 5) (at 0 0 0)
      (effects (font (size 1.27 1.27)) hide)
    )
    (property "ki_fp_filters" "SOIC*3.9x4.9mm*P1.27mm*" (id 6) (at 0 0 0)
      (effects (font (size 1.27 1.27)) hide)
    )
    (symbol "CY8CMBR3002_0_1"
      (rectangle (start -7.62 7.62) (end 7.62 -7.62) (stroke (width 0.254)) (fill (type background)))
    )
    (symbol "CY8CMBR3002_1_1"
      (pin output line (at -10.16 -5.08 0) (length 2.54) (name "GPO1") (number "1"))
      (pin passive line (at 10.16 -5.08 180) (length 2.54) (name "CMOD") (number "2"))
      (pin passive line (at 10.16 5.08 180) (length 2.54) (name "VCC") (number "3"))
      (pin power_in line (at 0 10.16 270) (length 2.54) (name "VDD") (number "4"))
      (pin power_in line (at 0 -10.16 90) (length 2.54) (name "VSS") (number "5"))
      (pin passive line (at -10.16 2.54 0) (length 2.54) (name "CS1") (number "6"))
      (pin passive line (at -10.16 5.08 0) (length 2.54) (name "CS0") (number "7"))
      (pin output line (at -10.16 -2.54 0) (length 2.54) (name "GPO0") (number "8"))
    )
  )
  (symbol "Sensor_Touch:CY8CMBR3102" (pin_names (offset 0.508))
    (property "Reference" "U" (id 0) (at -7.62 8.89 0)
      (effects (font (size 1.27 1.27)) (justify left))
    )
    (property "Value" "CY8CMBR3102" (id 1) (at 1.27 8.89 0)
      (effects (font (size 1.27 1.27)) (justify left))
    )
    (property "Footprint" "Package_SO:SOIC-8_3.9x4.9mm_P1.27mm" (id 2) (at 0 -12.7 0)
      (effects (font (size 1.27 1.27)) hide)
    )
    (property "Datasheet" "http://www.cypress.com/?docID=49119" (id 3) (at 0 0 0)
      (effects (font (size 1.27 1.27)) hide)
    )
    (property "ki_keywords" "Touch Sensor 2ch" (id 4) (at 0 0 0)
      (effects (font (size 1.27 1.27)) hide)
    )
    (property "ki_description" "CapSense Controller, 2 Sensors, SOIC-8" (id 5) (at 0 0 0)
      (effects (font (size 1.27 1.27)) hide)
    )
    (property "ki_fp_filters" "SOIC*3.9x4.9mm*P1.27mm*" (id 6) (at 0 0 0)
      (effects (font (size 1.27 1.27)) hide)
    )
    (symbol "CY8CMBR3102_0_1"
      (rectangle (start -7.62 7.62) (end 7.62 -7.62) (stroke (width 0.254)) (fill (type background)))
    )
    (symbol "CY8CMBR3102_1_1"
      (pin input line (at 10.16 -2.54 180) (length 2.54) (name "SCL") (number "1"))
      (pin passive line (at 10.16 -5.08 180) (length 2.54) (name "CMOD") (number "2"))
      (pin passive line (at 10.16 5.08 180) (length 2.54) (name "VCC") (number "3"))
      (pin power_in line (at 0 10.16 270) (length 2.54) (name "VDD") (number "4"))
      (pin power_in line (at 0 -10.16 90) (length 2.54) (name "VSS") (number "5"))
      (pin passive line (at -10.16 2.54 0) (length 2.54) (name "CS1") (number "6"))
      (pin passive line (at -10.16 5.08 0) (length 2.54) (name "CS0") (number "7"))
      (pin bidirectional line (at 10.16 0 180) (length 2.54) (name "SDA") (number "8"))
    )
  )
  (symbol "Sensor_Touch:CY8CMBR3106S" (pin_names (offset 0.508))
    (property "Reference" "U" (id 0) (at -10.16 24.13 0)
      (effects (font (size 1.27 1.27)) (justify left))
    )
    (property "Value" "CY8CMBR3106S" (id 1) (at 1.27 24.13 0)
      (effects (font (size 1.27 1.27)) (justify left))
    )
    (property "Footprint" "Package_DFN_QFN:QFN-24-1EP_4x4mm_P0.5mm_EP2.6x2.6mm" (id 2) (at 0 -30.48 0)
      (effects (font (size 1.27 1.27)) hide)
    )
    (property "Datasheet" "http://www.cypress.com/?docID=49119" (id 3) (at 0 0 0)
      (effects (font (size 1.27 1.27)) hide)
    )
    (property "ki_keywords" "Touch Sensor 16ch Slider" (id 4) (at 0 0 0)
      (effects (font (size 1.27 1.27)) hide)
    )
    (property "ki_description" "CapSense Controller, 16 Sensors w/ Slider, QFN-24+EP" (id 5) (at 0 0 0)
      (effects (font (size 1.27 1.27)) hide)
    )
    (property "ki_fp_filters" "QFN*1EP*4x4mm*P0.5mm*" (id 6) (at 0 0 0)
      (effects (font (size 1.27 1.27)) hide)
    )
    (symbol "CY8CMBR3106S_0_1"
      (rectangle (start -10.16 22.86) (end 10.16 -22.86) (stroke (width 0.254)) (fill (type background)))
    )
    (symbol "CY8CMBR3106S_1_1"
      (pin passive line (at -12.7 20.32 0) (length 2.54) (name "CS0") (number "1"))
      (pin passive line (at -12.7 -12.7 0) (length 2.54) (name "SLD11") (number "10"))
      (pin passive line (at -12.7 -15.24 0) (length 2.54) (name "SLD12") (number "11"))
      (pin passive line (at -12.7 -17.78 0) (length 2.54) (name "SLD13") (number "12"))
      (pin passive line (at -12.7 -20.32 0) (length 2.54) (name "SLD14") (number "13"))
      (pin passive line (at -12.7 5.08 0) (length 2.54) (name "CS11") (number "14"))
      (pin passive line (at -12.7 2.54 0) (length 2.54) (name "CS12") (number "15"))
      (pin passive line (at -12.7 0 0) (length 2.54) (name "CS13") (number "16"))
      (pin passive line (at -12.7 -2.54 0) (length 2.54) (name "CS14") (number "17"))
      (pin passive line (at -12.7 -5.08 0) (length 2.54) (name "CS15") (number "18"))
      (pin passive line (at -12.7 7.62 0) (length 2.54) (name "CS5") (number "19"))
      (pin passive line (at -12.7 17.78 0) (length 2.54) (name "CS1") (number "2"))
      (pin passive line (at -12.7 10.16 0) (length 2.54) (name "CS4") (number "20"))
      (pin bidirectional line (at 12.7 15.24 180) (length 2.54) (name "SDA") (number "21"))
      (pin input line (at 12.7 12.7 180) (length 2.54) (name "SCL") (number "22"))
      (pin bidirectional line (at 12.7 5.08 180) (length 2.54) (name "~HI") (number "23"))
      (pin input line (at 12.7 7.62 180) (length 2.54) (name "~XRES") (number "24"))
      (pin passive line (at 2.54 -25.4 90) (length 2.54) (name "EP") (number "25"))
      (pin passive line (at -12.7 15.24 0) (length 2.54) (name "CS2") (number "3"))
      (pin passive line (at -12.7 12.7 0) (length 2.54) (name "CS3") (number "4"))
      (pin passive line (at 12.7 -20.32 180) (length 2.54) (name "CMOD") (number "5"))
      (pin passive line (at 12.7 20.32 180) (length 2.54) (name "VCC") (number "6"))
      (pin power_in line (at 0 25.4 270) (length 2.54) (name "VDD") (number "7"))
      (pin power_in line (at 0 -25.4 90) (length 2.54) (name "VSS") (number "8"))
      (pin passive line (at -12.7 -10.16 0) (length 2.54) (name "SLD10") (number "9"))
    )
  )
  (symbol "Sensor_Touch:CY8CMBR3108" (pin_names (offset 0.508))
    (property "Reference" "U" (id 0) (at -10.16 13.97 0)
      (effects (font (size 1.27 1.27)) (justify left))
    )
    (property "Value" "CY8CMBR3108" (id 1) (at 1.27 13.97 0)
      (effects (font (size 1.27 1.27)) (justify left))
    )
    (property "Footprint" "Package_DFN_QFN:QFN-16-1EP_3x3mm_P0.5mm_EP1.8x1.8mm" (id 2) (at 0 -17.78 0)
      (effects (font (size 1.27 1.27)) hide)
    )
    (property "Datasheet" "http://www.cypress.com/?docID=49119" (id 3) (at 0 0 0)
      (effects (font (size 1.27 1.27)) hide)
    )
    (property "ki_keywords" "Touch Sensor 8ch" (id 4) (at 0 0 0)
      (effects (font (size 1.27 1.27)) hide)
    )
    (property "ki_description" "CapSense Controller, 8 Sensors, QFN-16+EP" (id 5) (at 0 0 0)
      (effects (font (size 1.27 1.27)) hide)
    )
    (property "ki_fp_filters" "QFN*1EP*3x3mm*P0.5mm*" (id 6) (at 0 0 0)
      (effects (font (size 1.27 1.27)) hide)
    )
    (symbol "CY8CMBR3108_0_1"
      (rectangle (start -10.16 12.7) (end 10.16 -12.7) (stroke (width 0.254)) (fill (type background)))
    )
    (symbol "CY8CMBR3108_1_1"
      (pin passive line (at -12.7 10.16 0) (length 2.54) (name "CS0") (number "1"))
      (pin passive line (at -12.7 -5.08 0) (length 2.54) (name "CS6") (number "10"))
      (pin passive line (at -12.7 -7.62 0) (length 2.54) (name "CS7") (number "11"))
      (pin passive line (at -12.7 5.08 0) (length 2.54) (name "CS2") (number "12"))
      (pin passive line (at -12.7 2.54 0) (length 2.54) (name "CS3") (number "13"))
      (pin bidirectional line (at 12.7 5.08 180) (length 2.54) (name "SDA") (number "14"))
      (pin input line (at 12.7 2.54 180) (length 2.54) (name "SCL") (number "15"))
      (pin bidirectional line (at 12.7 -2.54 180) (length 2.54) (name "~HI") (number "16"))
      (pin passive line (at 0 -15.24 90) (length 2.54) (name "EP") (number "17"))
      (pin passive line (at -12.7 7.62 0) (length 2.54) (name "CS1") (number "2"))
      (pin passive line (at 12.7 -10.16 180) (length 2.54) (name "CMOD") (number "3"))
      (pin passive line (at 12.7 10.16 180) (length 2.54) (name "VCC") (number "4"))
      (pin power_in line (at 0 15.24 270) (length 2.54) (name "VDDIO") (number "5"))
      (pin power_in line (at -2.54 15.24 270) (length 2.54) (name "VDD") (number "6"))
      (pin power_in line (at -2.54 -15.24 90) (length 2.54) (name "VSS") (number "7"))
      (pin passive line (at -12.7 0 0) (length 2.54) (name "CS4") (number "8"))
      (pin passive line (at -12.7 -2.54 0) (length 2.54) (name "CS5") (number "9"))
    )
  )
  (symbol "Sensor_Touch:CY8CMBR3110" (pin_names (offset 0.508))
    (property "Reference" "U" (id 0) (at -7.62 16.51 0)
      (effects (font (size 1.27 1.27)) (justify left))
    )
    (property "Value" "CY8CMBR3110" (id 1) (at 1.27 16.51 0)
      (effects (font (size 1.27 1.27)) (justify left))
    )
    (property "Footprint" "Package_SO:SOIC-16_3.9x9.9mm_P1.27mm" (id 2) (at 0 -20.32 0)
      (effects (font (size 1.27 1.27)) hide)
    )
    (property "Datasheet" "http://www.cypress.com/?docID=49119" (id 3) (at 0 0 0)
      (effects (font (size 1.27 1.27)) hide)
    )
    (property "ki_keywords" "Touch Sensor 10ch" (id 4) (at 0 0 0)
      (effects (font (size 1.27 1.27)) hide)
    )
    (property "ki_description" "CapSense Controller, 10 Sensors, SOIC-16" (id 5) (at 0 0 0)
      (effects (font (size 1.27 1.27)) hide)
    )
    (property "ki_fp_filters" "SOIC*3.9x9.9mm*P1.27mm*" (id 6) (at 0 0 0)
      (effects (font (size 1.27 1.27)) hide)
    )
    (symbol "CY8CMBR3110_0_1"
      (rectangle (start -7.62 15.24) (end 7.62 -15.24) (stroke (width 0.254)) (fill (type background)))
    )
    (symbol "CY8CMBR3110_1_1"
      (pin bidirectional line (at 10.16 7.62 180) (length 2.54) (name "SDA") (number "1"))
      (pin passive line (at -10.16 -2.54 0) (length 2.54) (name "CS6") (number "10"))
      (pin passive line (at -10.16 -5.08 0) (length 2.54) (name "CS7") (number "11"))
      (pin passive line (at -10.16 -7.62 0) (length 2.54) (name "CS8") (number "12"))
      (pin passive line (at -10.16 7.62 0) (length 2.54) (name "CS2") (number "13"))
      (pin passive line (at -10.16 -10.16 0) (length 2.54) (name "CS9") (number "14"))
      (pin passive line (at -10.16 5.08 0) (length 2.54) (name "CS3") (number "15"))
      (pin passive line (at -10.16 2.54 0) (length 2.54) (name "CS4") (number "16"))
      (pin input line (at 10.16 5.08 180) (length 2.54) (name "SCL") (number "2"))
      (pin passive line (at -10.16 12.7 0) (length 2.54) (name "CS0") (number "3"))
      (pin passive line (at -10.16 10.16 0) (length 2.54) (name "CS1") (number "4"))
      (pin passive line (at 10.16 -12.7 180) (length 2.54) (name "CMOD") (number "5"))
      (pin passive line (at 10.16 12.7 180) (length 2.54) (name "VCC") (number "6"))
      (pin power_in line (at 0 17.78 270) (length 2.54) (name "VDD") (number "7"))
      (pin power_in line (at 0 -17.78 90) (length 2.54) (name "VSS") (number "8"))
      (pin passive line (at -10.16 0 0) (length 2.54) (name "CS5") (number "9"))
    )
  )
  (symbol "Sensor_Touch:CY8CMBR3116" (pin_names (offset 0.508))
    (property "Reference" "U" (id 0) (at -10.16 24.13 0)
      (effects (font (size 1.27 1.27)) (justify left))
    )
    (property "Value" "CY8CMBR3116" (id 1) (at 1.27 24.13 0)
      (effects (font (size 1.27 1.27)) (justify left))
    )
    (property "Footprint" "Package_DFN_QFN:QFN-24-1EP_4x4mm_P0.5mm_EP2.6x2.6mm" (id 2) (at 0 -29.21 0)
      (effects (font (size 1.27 1.27)) hide)
    )
    (property "Datasheet" "http://www.cypress.com/?docID=49119" (id 3) (at 0 0 0)
      (effects (font (size 1.27 1.27)) hide)
    )
    (property "ki_keywords" "Touch Sensor 16ch" (id 4) (at 0 0 0)
      (effects (font (size 1.27 1.27)) hide)
    )
    (property "ki_description" "CapSense Controller, 16 Sensors, QFN-24+EP" (id 5) (at 0 0 0)
      (effects (font (size 1.27 1.27)) hide)
    )
    (property "ki_fp_filters" "QFN*1EP*4x4mm*P0.5mm*" (id 6) (at 0 0 0)
      (effects (font (size 1.27 1.27)) hide)
    )
    (symbol "CY8CMBR3116_0_1"
      (rectangle (start -10.16 22.86) (end 10.16 -22.86) (stroke (width 0.254)) (fill (type background)))
    )
    (symbol "CY8CMBR3116_1_1"
      (pin passive line (at -12.7 20.32 0) (length 2.54) (name "CS0") (number "1"))
      (pin passive line (at -12.7 -15.24 0) (length 2.54) (name "CS14") (number "10"))
      (pin passive line (at -12.7 -12.7 0) (length 2.54) (name "CS13") (number "11"))
      (pin passive line (at -12.7 -10.16 0) (length 2.54) (name "CS12") (number "12"))
      (pin passive line (at -12.7 -7.62 0) (length 2.54) (name "CS11") (number "13"))
      (pin passive line (at -12.7 -5.08 0) (length 2.54) (name "CS10") (number "14"))
      (pin passive line (at -12.7 -2.54 0) (length 2.54) (name "CS9") (number "15"))
      (pin passive line (at -12.7 0 0) (length 2.54) (name "CS8") (number "16"))
      (pin passive line (at -12.7 2.54 0) (length 2.54) (name "CS7") (number "17"))
      (pin passive line (at -12.7 5.08 0) (length 2.54) (name "CS6") (number "18"))
      (pin passive line (at -12.7 7.62 0) (length 2.54) (name "CS5") (number "19"))
      (pin passive line (at -12.7 17.78 0) (length 2.54) (name "CS1") (number "2"))
      (pin passive line (at -12.7 10.16 0) (length 2.54) (name "CS4") (number "20"))
      (pin bidirectional line (at 12.7 15.24 180) (length 2.54) (name "SDA") (number "21"))
      (pin input line (at 12.7 12.7 180) (length 2.54) (name "SCL") (number "22"))
      (pin bidirectional line (at 12.7 5.08 180) (length 2.54) (name "~HI") (number "23"))
      (pin input line (at 12.7 7.62 180) (length 2.54) (name "~XRES") (number "24"))
      (pin passive line (at 2.54 -25.4 90) (length 2.54) (name "EP") (number "25"))
      (pin passive line (at -12.7 15.24 0) (length 2.54) (name "CS2") (number "3"))
      (pin passive line (at -12.7 12.7 0) (length 2.54) (name "CS3") (number "4"))
      (pin passive line (at 12.7 -20.32 180) (length 2.54) (name "CMOD") (number "5"))
      (pin passive line (at 12.7 20.32 180) (length 2.54) (name "VCC") (number "6"))
      (pin power_in line (at 0 25.4 270) (length 2.54) (name "VDD") (number "7"))
      (pin power_in line (at 0 -25.4 90) (length 2.54) (name "VSS") (number "8"))
      (pin passive line (at -12.7 -17.78 0) (length 2.54) (name "CS15") (number "9"))
    )
  )
  (symbol "Sensor_Touch:PCA8886"
    (property "Reference" "U" (id 0) (at 10.16 -8.89 0)
      (effects (font (size 1.27 1.27)) (justify right))
    )
    (property "Value" "PCA8886" (id 1) (at 10.16 8.89 0)
      (effects (font (size 1.27 1.27)) (justify right))
    )
    (property "Footprint" "Package_SO:TSSOP-16_4.4x5mm_P0.65mm" (id 2) (at -2.54 -8.89 0)
      (effects (font (size 1.27 1.27)) (justify right) hide)
    )
    (property "Datasheet" "http://www.nxp.com/docs/en/data-sheet/PCA8886.pdf" (id 3) (at 0 -3.81 0)
      (effects (font (size 1.27 1.27)) hide)
    )
    (property "ki_locked" "" (id 4) (at 0 0 0))
    (property "ki_keywords" "NXP capacitive touch sensor auto-calibration" (id 5) (at 0 0 0)
      (effects (font (size 1.27 1.27)) hide)
    )
    (property "ki_description" "Dual capacitive touch/proximity switch with auto-calibration, TSSOP-16" (id 6) (at 0 0 0)
      (effects (font (size 1.27 1.27)) hide)
    )
    (property "ki_fp_filters" "TSSOP*4.4x5mm*P0.65mm*" (id 7) (at 0 0 0)
      (effects (font (size 1.27 1.27)) hide)
    )
    (symbol "PCA8886_0_1"
      (rectangle (start 10.16 -7.62) (end -10.16 7.62) (stroke (width 0.254)) (fill (type background)))
    )
    (symbol "PCA8886_1_1"
      (pin input line (at -12.7 0 0) (length 2.54) (name "IN1") (number "1"))
      (pin power_in line (at 0 10.16 270) (length 2.54) (name "VDD1") (number "13"))
      (pin output line (at 12.7 2.54 180) (length 2.54) (name "OUT1") (number "14"))
      (pin bidirectional line (at 12.7 -5.08 180) (length 2.54) (name "CLIN1") (number "15"))
      (pin power_out line (at -2.54 10.16 270) (length 2.54) (name "VDD(int)1") (number "16"))
      (pin input line (at 12.7 5.08 180) (length 2.54) (name "TYPE1") (number "2"))
      (pin bidirectional line (at 12.7 -2.54 180) (length 2.54) (name "CPC1") (number "3"))
      (pin power_in line (at 0 -10.16 90) (length 2.54) (name "VSS1") (number "4"))
    )
    (symbol "PCA8886_2_1"
      (pin output line (at 12.7 2.54 180) (length 2.54) (name "OUT2") (number "10"))
      (pin bidirectional line (at 12.7 -5.08 180) (length 2.54) (name "CLIN2") (number "11"))
      (pin power_out line (at -2.54 10.16 270) (length 2.54) (name "VDD(int)2") (number "12"))
      (pin input line (at -12.7 0 0) (length 2.54) (name "IN2") (number "5"))
      (pin input line (at 12.7 5.08 180) (length 2.54) (name "TYPE2") (number "6"))
      (pin bidirectional line (at 12.7 -2.54 180) (length 2.54) (name "CPC2") (number "7"))
      (pin power_in line (at 0 -10.16 90) (length 2.54) (name "VSS2") (number "8"))
      (pin power_in line (at 0 10.16 270) (length 2.54) (name "VDD2") (number "9"))
    )
  )
  (symbol "Sensor_Touch:PCF8883"
    (property "Reference" "U" (id 0) (at 7.62 -8.89 0)
      (effects (font (size 1.27 1.27)) (justify right))
    )
    (property "Value" "PCF8883" (id 1) (at 1.27 8.89 0)
      (effects (font (size 1.27 1.27)) (justify left))
    )
    (property "Footprint" "" (id 2) (at -2.54 -8.89 0)
      (effects (font (size 1.27 1.27)) (justify right) hide)
    )
    (property "Datasheet" "http://www.nxp.com/docs/en/data-sheet/PCF8883.pdf" (id 3) (at 0 -3.81 0)
      (effects (font (size 1.27 1.27)) hide)
    )
    (property "ki_keywords" "NXP capacitive touch sensor auto-calibration" (id 4) (at 0 0 0)
      (effects (font (size 1.27 1.27)) hide)
    )
    (property "ki_description" "Capacitive touch/proximity switch with auto-calibration, SOIC-8/WLCSP-8" (id 5) (at 0 0 0)
      (effects (font (size 1.27 1.27)) hide)
    )
    (property "ki_fp_filters" "SOIC*3.9x4.9mm*P1.27mm*\nNXP*WLCSP*PCF8883*" (id 6) (at 0 0 0)
      (effects (font (size 1.27 1.27)) hide)
    )
    (symbol "PCF8883_0_1"
      (rectangle (start 7.62 -7.62) (end -7.62 7.62) (stroke (width 0.254)) (fill (type background)))
    )
    (symbol "PCF8883_1_1"
      (pin input line (at -10.16 0 0) (length 2.54) (name "IN") (number "1"))
      (pin input line (at 10.16 5.08 180) (length 2.54) (name "TYPE") (number "2"))
      (pin bidirectional line (at 10.16 -2.54 180) (length 2.54) (name "CPC") (number "3"))
      (pin power_in line (at 0 -10.16 90) (length 2.54) (name "VSS") (number "4"))
      (pin power_in line (at 0 10.16 270) (length 2.54) (name "VDD") (number "5"))
      (pin output line (at 10.16 2.54 180) (length 2.54) (name "OUT") (number "6"))
      (pin bidirectional line (at 10.16 -5.08 180) (length 2.54) (name "CLIN") (number "7"))
      (pin power_out line (at -2.54 10.16 270) (length 2.54) (name "VDD(int)") (number "8"))
    )
  )
)
