(kicad_symbol_lib (version 20200126) (host kicad_symbol_editor "(5.99.0-1517-ga8407fba4)")
  (symbol "Sensor_Motion:ADXL343" (pin_names (offset 0.508))
    (property "Reference" "U" (id 0) (at -8.89 11.43 0))
    (property "Value" "ADXL343" (id 1) (at -7.62 -11.43 0))
    (property "Footprint" "Package_LGA:LGA-14_3x5mm_P0.8mm_LayoutBorder1x6y" (id 2) (at 0 0 0)
      (effects (font (size 1.27 1.27)) hide)
    )
    (property "Datasheet" "https://www.analog.com/media/en/technical-documentation/data-sheets/ADXL343.pdf" (id 3) (at 0 0 0)
      (effects (font (size 1.27 1.27)) hide)
    )
    (property "ki_keywords" "3-axis accelerometer i2c spi mems" (id 4) (at 0 0 0)
      (effects (font (size 1.27 1.27)) hide)
    )
    (property "ki_description" "3-Axis MEMS Accelerometer, 2/4/8/16g range, I2C/SPI, LGA-14" (id 5) (at 0 0 0)
      (effects (font (size 1.27 1.27)) hide)
    )
    (property "ki_fp_filters" "*LGA*3x5mm*P0.8mm*" (id 6) (at 0 0 0)
      (effects (font (size 1.27 1.27)) hide)
    )
    (symbol "ADXL343_0_1"
      (rectangle (start -10.16 10.16) (end 10.16 -10.16) (stroke (width 0.254)) (fill (type background)))
    )
    (symbol "ADXL343_1_1"
      (pin power_in line (at 5.08 12.7 270) (length 2.54) (name "Vdd_I/O") (number "1"))
      (pin unconnected line (at -5.08 -10.16 90) (length 2.54) (name "NC") (number "10") hide)
      (pin passive line (at 5.08 -12.7 90) (length 2.54) (name "RES") (number "11"))
      (pin bidirectional line (at -12.7 2.54 0) (length 2.54) (name "SDO/ADDR") (number "12"))
      (pin bidirectional line (at -12.7 0 0) (length 2.54) (name "SDA/SDI/SDIO") (number "13"))
      (pin input line (at -12.7 -2.54 0) (length 2.54) (name "SCL/SCLK") (number "14"))
      (pin power_in line (at 0 -12.7 90) (length 2.54) (name "GND") (number "2"))
      (pin passive line (at -5.08 12.7 270) (length 2.54) (name "RES") (number "3"))
      (pin passive line (at 0 -12.7 90) (length 2.54) (name "GND") (number "4") hide)
      (pin passive line (at 0 -12.7 90) (length 2.54) (name "GND") (number "5") hide)
      (pin power_in line (at 0 12.7 270) (length 2.54) (name "Vs") (number "6"))
      (pin input line (at -12.7 -5.08 0) (length 2.54) (name "~CS") (number "7"))
      (pin output line (at 12.7 0 180) (length 2.54) (name "INT1") (number "8"))
      (pin output line (at 12.7 -2.54 180) (length 2.54) (name "INT2") (number "9"))
    )
  )
  (symbol "Sensor_Motion:BMF055" (pin_names (offset 0.508))
    (property "Reference" "U" (id 0) (at -16.51 21.59 0)
      (effects (font (size 1.27 1.27)) (justify right))
    )
    (property "Value" "BMF055" (id 1) (at 17.78 21.59 0)
      (effects (font (size 1.27 1.27)) (justify right))
    )
    (property "Footprint" "Package_LGA:LGA-28_5.2x3.8mm_P0.5mm" (id 2) (at 3.81 -21.59 0)
      (effects (font (size 1.27 1.27)) (justify left) hide)
    )
    (property "Datasheet" "https://ae-bst.resource.bosch.com/media/_tech/media/datasheets/BST-BMF055-DS000.pdf" (id 3) (at 0 5.08 0)
      (effects (font (size 1.27 1.27)) hide)
    )
    (property "ki_keywords" "9-axis motion sensor IMU SAMD20 ARM Cortex-M0+" (id 4) (at 0 0 0)
      (effects (font (size 1.27 1.27)) hide)
    )
    (property "ki_description" "Custom programmable 9-axis motion sensor" (id 5) (at 0 0 0)
      (effects (font (size 1.27 1.27)) hide)
    )
    (property "ki_fp_filters" "LGA*5.2x3.8mm*P0.5mm*" (id 6) (at 0 0 0)
      (effects (font (size 1.27 1.27)) hide)
    )
    (symbol "BMF055_0_1"
      (rectangle (start -17.78 20.32) (end 17.78 -20.32) (stroke (width 0.254)) (fill (type background)))
    )
    (symbol "BMF055_1_1"
      (pin bidirectional line (at -20.32 -2.54 0) (length 2.54) (name "PB03(ACC_GYRO_INT2)") (number "1"))
      (pin bidirectional line (at 20.32 12.7 180) (length 2.54) (name "PA28") (number "10"))
      (pin input line (at -20.32 17.78 0) (length 2.54) (name "~RESET") (number "11"))
      (pin bidirectional line (at 20.32 10.16 180) (length 2.54) (name "(GYRO_CSB)PA27") (number "12"))
      (pin bidirectional line (at -20.32 -10.16 0) (length 2.54) (name "PB23(ACC_GYRO_INT1)") (number "13"))
      (pin input line (at 20.32 7.62 180) (length 2.54) (name "PA24") (number "14"))
      (pin bidirectional line (at 20.32 5.08 180) (length 2.54) (name "PA23") (number "15"))
      (pin bidirectional line (at 20.32 2.54 180) (length 2.54) (name "PA22") (number "16"))
      (pin bidirectional line (at 20.32 0 180) (length 2.54) (name "PA21") (number "17"))
      (pin bidirectional line (at 20.32 -2.54 180) (length 2.54) (name "PA20") (number "18"))
      (pin bidirectional line (at -20.32 -7.62 0) (length 2.54) (name "PB17") (number "19"))
      (pin power_in line (at -2.54 -22.86 90) (length 2.54) (name "GND") (number "2"))
      (pin bidirectional line (at -20.32 -5.08 0) (length 2.54) (name "PB16") (number "20"))
      (pin bidirectional line (at 20.32 -5.08 180) (length 2.54) (name "(MISO)PA19") (number "21"))
      (pin bidirectional line (at 20.32 -7.62 180) (length 2.54) (name "(ACC_MAG_CSB)PA18") (number "22"))
      (pin bidirectional line (at 20.32 -10.16 180) (length 2.54) (name "(SCLK)PA17") (number "23"))
      (pin bidirectional line (at 20.32 -12.7 180) (length 2.54) (name "(MOSI)PA16") (number "24"))
      (pin power_in line (at 2.54 -22.86 90) (length 2.54) (name "GNDIO") (number "25"))
      (pin bidirectional line (at 20.32 -15.24 180) (length 2.54) (name "PA01") (number "26"))
      (pin bidirectional line (at 20.32 -17.78 180) (length 2.54) (name "PA00") (number "27"))
      (pin power_in line (at 2.54 22.86 270) (length 2.54) (name "VDDIO") (number "28"))
      (pin power_in line (at -2.54 22.86 270) (length 2.54) (name "VDD") (number "3"))
      (pin bidirectional line (at -20.32 0 0) (length 2.54) (name "PB02") (number "4"))
      (pin bidirectional line (at -20.32 2.54 0) (length 2.54) (name "PB01") (number "5"))
      (pin bidirectional line (at -20.32 5.08 0) (length 2.54) (name "PB00") (number "6"))
      (pin bidirectional line (at 20.32 17.78 180) (length 2.54) (name "(SWDIO)PA31") (number "7"))
      (pin bidirectional line (at 20.32 15.24 180) (length 2.54) (name "(SWCLK)PA30") (number "8"))
      (pin bidirectional line (at -20.32 15.24 0) (length 2.54) (name "CAP") (number "9"))
    )
  )
  (symbol "Sensor_Motion:BMI160" (pin_names (offset 0.508))
    (property "Reference" "U" (id 0) (at -10.16 8.89 0)
      (effects (font (size 1.27 1.27)) (justify left))
    )
    (property "Value" "BMI160" (id 1) (at 7.62 8.89 0)
      (effects (font (size 1.27 1.27)) (justify right))
    )
    (property "Footprint" "Package_LGA:Bosch_LGA-14_3x2.5mm_P0.5mm" (id 2) (at 0 0 0)
      (effects (font (size 1.27 1.27)) hide)
    )
    (property "Datasheet" "https://ae-bst.resource.bosch.com/media/_tech/media/datasheets/BST-BMI160-DS000.pdf" (id 3) (at -17.78 21.59 0)
      (effects (font (size 1.27 1.27)) hide)
    )
    (property "ki_keywords" "Bosh IMU small low power inertial measurement unit" (id 4) (at 0 0 0)
      (effects (font (size 1.27 1.27)) hide)
    )
    (property "ki_description" "Small, low power inertial measurement unit, LGA-14" (id 5) (at 0 0 0)
      (effects (font (size 1.27 1.27)) hide)
    )
    (property "ki_fp_filters" "Bosch*LGA*3x2.5mm*P0.5mm*" (id 6) (at 0 0 0)
      (effects (font (size 1.27 1.27)) hide)
    )
    (symbol "BMI160_1_1"
      (rectangle (start -10.16 7.62) (end 7.62 -10.16) (stroke (width 0.254)) (fill (type background)))
      (pin bidirectional line (at -12.7 5.08 0) (length 2.54) (name "SDO") (number "1"))
      (pin bidirectional line (at 10.16 -2.54 180) (length 2.54) (name "OCSB") (number "10"))
      (pin bidirectional line (at 10.16 -5.08 180) (length 2.54) (name "OSDO") (number "11"))
      (pin input line (at -12.7 -2.54 0) (length 2.54) (name "CSB") (number "12"))
      (pin input line (at -12.7 0 0) (length 2.54) (name "SCx") (number "13"))
      (pin bidirectional line (at -12.7 2.54 0) (length 2.54) (name "SDx") (number "14"))
      (pin bidirectional line (at 10.16 2.54 180) (length 2.54) (name "ASDx") (number "2"))
      (pin output line (at 10.16 0 180) (length 2.54) (name "ASCx") (number "3"))
      (pin bidirectional line (at -12.7 -5.08 0) (length 2.54) (name "INT1") (number "4"))
      (pin power_in line (at -2.54 10.16 270) (length 2.54) (name "VDDIO") (number "5"))
      (pin power_in line (at -2.54 -12.7 90) (length 2.54) (name "GNDIO") (number "6"))
      (pin power_in line (at 0 -12.7 90) (length 2.54) (name "GND") (number "7"))
      (pin power_in line (at 0 10.16 270) (length 2.54) (name "VDD") (number "8"))
      (pin bidirectional line (at -12.7 -7.62 0) (length 2.54) (name "INT2") (number "9"))
    )
  )
  (symbol "Sensor_Motion:BNO055" (pin_names (offset 0.508))
    (property "Reference" "U" (id 0) (at -11.43 16.51 0)
      (effects (font (size 1.27 1.27)) (justify right))
    )
    (property "Value" "BNO055" (id 1) (at 12.7 16.51 0)
      (effects (font (size 1.27 1.27)) (justify right))
    )
    (property "Footprint" "Package_LGA:LGA-28_5.2x3.8mm_P0.5mm" (id 2) (at 6.35 -16.51 0)
      (effects (font (size 1.27 1.27)) (justify left) hide)
    )
    (property "Datasheet" "https://ae-bst.resource.bosch.com/media/_tech/media/datasheets/BST_BNO055_DS000_14.pdf" (id 3) (at 0 5.08 0)
      (effects (font (size 1.27 1.27)) hide)
    )
    (property "ki_keywords" "IMU, Sensor Fusion, I2C, UART" (id 4) (at 0 0 0)
      (effects (font (size 1.27 1.27)) hide)
    )
    (property "ki_description" "Intelligent 9-axis absolute orientation sensor, LGA-28" (id 5) (at 0 0 0)
      (effects (font (size 1.27 1.27)) hide)
    )
    (property "ki_fp_filters" "LGA*5.2x3.8mm*P0.5mm*" (id 6) (at 0 0 0)
      (effects (font (size 1.27 1.27)) hide)
    )
    (symbol "BNO055_0_1"
      (rectangle (start -12.7 15.24) (end 12.7 -15.24) (stroke (width 0.254)) (fill (type background)))
    )
    (symbol "BNO055_1_1"
      (pin unconnected line (at -12.7 10.16 0) (length 2.54) (name "PIN1") (number "1") hide)
      (pin output line (at -15.24 0 0) (length 2.54) (name "BL_IND") (number "10"))
      (pin input line (at -15.24 12.7 0) (length 2.54) (name "~RESET") (number "11"))
      (pin unconnected line (at 12.7 10.16 180) (length 2.54) (name "PIN12") (number "12") hide)
      (pin unconnected line (at 12.7 7.62 180) (length 2.54) (name "PIN13") (number "13") hide)
      (pin output line (at -15.24 7.62 0) (length 2.54) (name "INT") (number "14"))
      (pin passive line (at 2.54 -17.78 90) (length 2.54) (name "GNDIO") (number "15") hide)
      (pin passive line (at 2.54 -17.78 90) (length 2.54) (name "GNDIO") (number "16") hide)
      (pin input line (at -15.24 -12.7 0) (length 2.54) (name "COM3") (number "17"))
      (pin bidirectional line (at -15.24 -10.16 0) (length 2.54) (name "COM2") (number "18"))
      (pin bidirectional line (at -15.24 -7.62 0) (length 2.54) (name "COM1") (number "19"))
      (pin power_in line (at -2.54 -17.78 90) (length 2.54) (name "GND") (number "2"))
      (pin bidirectional line (at -15.24 -5.08 0) (length 2.54) (name "COM0") (number "20"))
      (pin unconnected line (at 12.7 5.08 180) (length 2.54) (name "PIN21") (number "21") hide)
      (pin unconnected line (at 12.7 2.54 180) (length 2.54) (name "PIN22") (number "22") hide)
      (pin unconnected line (at 12.7 -2.54 180) (length 2.54) (name "PIN23") (number "23") hide)
      (pin unconnected line (at 12.7 -5.08 180) (length 2.54) (name "PIN24") (number "24") hide)
      (pin power_in line (at 2.54 -17.78 90) (length 2.54) (name "GNDIO") (number "25"))
      (pin output line (at 15.24 12.7 180) (length 2.54) (name "XOUT32") (number "26"))
      (pin input line (at 15.24 0 180) (length 2.54) (name "XIN32") (number "27"))
      (pin power_in line (at 2.54 17.78 270) (length 2.54) (name "VDDIO") (number "28"))
      (pin power_in line (at -2.54 17.78 270) (length 2.54) (name "VDD") (number "3"))
      (pin input line (at -15.24 2.54 0) (length 2.54) (name "~BOOT_LOAD_PIN") (number "4"))
      (pin input line (at 15.24 -10.16 180) (length 2.54) (name "PS1") (number "5"))
      (pin input line (at 15.24 -7.62 180) (length 2.54) (name "PS0") (number "6"))
      (pin unconnected line (at -12.7 5.08 0) (length 2.54) (name "PIN7") (number "7") hide)
      (pin unconnected line (at -12.7 -2.54 0) (length 2.54) (name "PIN8") (number "8") hide)
      (pin passive line (at 15.24 -12.7 180) (length 2.54) (name "CAP") (number "9"))
    )
  )
  (symbol "Sensor_Motion:ICM-20602" (pin_names (offset 0.508))
    (property "Reference" "U" (id 0) (at -10.16 11.43 0)
      (effects (font (size 1.27 1.27)) (justify left))
    )
    (property "Value" "ICM-20602" (id 1) (at 10.16 11.43 0))
    (property "Footprint" "Package_LGA:LGA-16_3x3mm_P0.5mm_LayoutBorder3x5y" (id 2) (at 0 6.35 0)
      (effects (font (size 1.27 1.27)) hide)
    )
    (property "Datasheet" "http://www.invensense.com/wp-content/uploads/2016/10/DS-000176-ICM-20602-v1.0.pdf" (id 3) (at 1.27 24.13 0)
      (effects (font (size 1.27 1.27)) hide)
    )
    (property "ki_keywords" "accelerometer gyro mems motion" (id 4) (at 0 0 0)
      (effects (font (size 1.27 1.27)) hide)
    )
    (property "ki_description" "High performance 6-Axis MEMS motion tracking, SPI/I2C interface, LGA-16" (id 5) (at 0 0 0)
      (effects (font (size 1.27 1.27)) hide)
    )
    (property "ki_fp_filters" "LGA*3x3mm*P0.5mm*" (id 6) (at 0 0 0)
      (effects (font (size 1.27 1.27)) hide)
    )
    (symbol "ICM-20602_0_1"
      (rectangle (start -10.16 10.16) (end 10.16 -10.16) (stroke (width 0.254)) (fill (type background)))
    )
    (symbol "ICM-20602_1_1"
      (pin power_in line (at 2.54 12.7 270) (length 2.54) (name "VDDIO") (number "1"))
      (pin passive line (at 0 -12.7 90) (length 2.54) (name "GND") (number "10") hide)
      (pin passive line (at 0 -12.7 90) (length 2.54) (name "GND") (number "11") hide)
      (pin passive line (at 0 -12.7 90) (length 2.54) (name "GND") (number "12") hide)
      (pin power_in line (at 0 -12.7 90) (length 2.54) (name "GND") (number "13"))
      (pin passive line (at 12.7 -2.54 180) (length 2.54) (name "REGOUT") (number "14"))
      (pin passive line (at 0 -12.7 90) (length 2.54) (name "GND") (number "15") hide)
      (pin power_in line (at 0 12.7 270) (length 2.54) (name "VDD") (number "16"))
      (pin input line (at -12.7 -2.54 0) (length 2.54) (name "SCL/SPC") (number "2"))
      (pin bidirectional line (at -12.7 0 0) (length 2.54) (name "SDA/SDI") (number "3"))
      (pin bidirectional line (at -12.7 2.54 0) (length 2.54) (name "SAO/SD0") (number "4"))
      (pin input line (at -12.7 -5.08 0) (length 2.54) (name "~CS") (number "5"))
      (pin output line (at 12.7 2.54 180) (length 2.54) (name "INT") (number "6"))
      (pin unconnected line (at -10.16 5.08 0) (length 2.54) (name "RESV") (number "7") hide)
      (pin input line (at 12.7 0 180) (length 2.54) (name "FSYNC") (number "8"))
      (pin passive line (at 0 -12.7 90) (length 2.54) (name "GND") (number "9") hide)
    )
  )
  (symbol "Sensor_Motion:ICM-20948" (pin_names (offset 0.508))
    (property "Reference" "U" (id 0) (at -11.43 16.51 0))
    (property "Value" "ICM-20948" (id 1) (at 7.62 -16.51 0))
    (property "Footprint" "Sensor_Motion:InvenSense_QFN-24_3x3mm_P0.4mm" (id 2) (at 0 -25.4 0)
      (effects (font (size 1.27 1.27)) hide)
    )
    (property "Datasheet" "http://www.invensense.com/wp-content/uploads/2016/06/DS-000189-ICM-20948-v1.3.pdf" (id 3) (at 0 -3.81 0)
      (effects (font (size 1.27 1.27)) hide)
    )
    (property "ki_keywords" "mems magnetometer" (id 4) (at 0 0 0)
      (effects (font (size 1.27 1.27)) hide)
    )
    (property "ki_description" "InvenSense 9-Axis Motion Sensor, Accelerometer, Gyroscope, Compass, I2C/SPI, QFN-24" (id 5) (at 0 0 0)
      (effects (font (size 1.27 1.27)) hide)
    )
    (property "ki_fp_filters" "InvenSense?QFN*3x3mm*P0.4mm*" (id 6) (at 0 0 0)
      (effects (font (size 1.27 1.27)) hide)
    )
    (symbol "ICM-20948_0_1"
      (rectangle (start -10.16 15.24) (end 10.16 -15.24) (stroke (width 0.254)) (fill (type background)))
    )
    (symbol "ICM-20948_1_1"
      (pin unconnected line (at -10.16 12.7 0) (length 2.54) (name "NC") (number "1") hide)
      (pin passive line (at 12.7 -5.08 180) (length 2.54) (name "REGOUT") (number "10"))
      (pin input line (at -12.7 -5.08 0) (length 2.54) (name "FSYNC") (number "11"))
      (pin output line (at -12.7 -7.62 0) (length 2.54) (name "INT1") (number "12"))
      (pin power_in line (at 2.54 17.78 270) (length 2.54) (name "VDD") (number "13"))
      (pin unconnected line (at 10.16 7.62 180) (length 2.54) (name "NC") (number "14") hide)
      (pin unconnected line (at 10.16 5.08 180) (length 2.54) (name "NC") (number "15") hide)
      (pin unconnected line (at 10.16 -7.62 180) (length 2.54) (name "NC") (number "16") hide)
      (pin unconnected line (at 10.16 -10.16 180) (length 2.54) (name "NC") (number "17") hide)
      (pin power_in line (at 0 -17.78 90) (length 2.54) (name "GND") (number "18"))
      (pin unconnected line (at 10.16 -12.7 180) (length 2.54) (name "RESV") (number "19") hide)
      (pin unconnected line (at -10.16 10.16 0) (length 2.54) (name "NC") (number "2") hide)
      (pin passive line (at 0 -17.78 90) (length 2.54) (name "GND") (number "20") hide)
      (pin bidirectional line (at 12.7 2.54 180) (length 2.54) (name "AUX_DA") (number "21"))
      (pin input line (at -12.7 0 0) (length 2.54) (name "~CS") (number "22"))
      (pin input line (at -12.7 2.54 0) (length 2.54) (name "SCL/SCLK") (number "23"))
      (pin bidirectional line (at -12.7 5.08 0) (length 2.54) (name "SDA/SDI") (number "24"))
      (pin unconnected line (at -10.16 -2.54 0) (length 2.54) (name "NC") (number "3") hide)
      (pin unconnected line (at -10.16 -10.16 0) (length 2.54) (name "NC") (number "4") hide)
      (pin unconnected line (at -10.16 -12.7 0) (length 2.54) (name "NC") (number "5") hide)
      (pin unconnected line (at 10.16 10.16 180) (length 2.54) (name "NC") (number "6") hide)
      (pin output line (at 12.7 0 180) (length 2.54) (name "AUX_CL") (number "7"))
      (pin power_in line (at -2.54 17.78 270) (length 2.54) (name "VDDIO") (number "8"))
      (pin bidirectional line (at -12.7 7.62 0) (length 2.54) (name "SDO/AD0") (number "9"))
    )
  )
  (symbol "Sensor_Motion:KX022-1020" (pin_names (offset 0.508))
    (property "Reference" "U" (id 0) (at -5.08 11.43 0)
      (effects (font (size 1.27 1.27)) (justify right))
    )
    (property "Value" "KX022-1020" (id 1) (at 3.81 11.43 0)
      (effects (font (size 1.27 1.27)) (justify left))
    )
    (property "Footprint" "Package_LGA:LGA-12_2x2mm_P0.5mm" (id 2) (at 3.81 13.97 0)
      (effects (font (size 1.27 1.27)) (justify left) hide)
    )
    (property "Datasheet" "http://kionixfs.kionix.com/en/datasheet/KX022-1020%20Specifications%20Rev%2012.0.pdf" (id 3) (at -8.89 0 0)
      (effects (font (size 1.27 1.27)) hide)
    )
    (property "ki_keywords" "3-axis accelerometer spi i2c mems" (id 4) (at 0 0 0)
      (effects (font (size 1.27 1.27)) hide)
    )
    (property "ki_description" "3-Axis Accelerometer, 2/4/8g range, 256 byte buffer, I2C/SPI interface, LGA-12" (id 5) (at 0 0 0)
      (effects (font (size 1.27 1.27)) hide)
    )
    (property "ki_fp_filters" "LGA*2x2mm*P0.5mm*" (id 6) (at 0 0 0)
      (effects (font (size 1.27 1.27)) hide)
    )
    (symbol "KX022-1020_0_1"
      (rectangle (start -7.62 10.16) (end 10.16 -10.16) (stroke (width 0.254)) (fill (type background)))
    )
    (symbol "KX022-1020_1_1"
      (pin bidirectional line (at -10.16 0 0) (length 2.54) (name "SDO/ADDR") (number "1"))
      (pin input line (at -10.16 5.08 0) (length 2.54) (name "~CS") (number "10"))
      (pin passive line (at 12.7 -5.08 180) (length 2.54) (name "NC") (number "11"))
      (pin input line (at -10.16 -2.54 0) (length 2.54) (name "SCLK/SCL") (number "12"))
      (pin bidirectional line (at -10.16 2.54 0) (length 2.54) (name "SDI/SDA") (number "2"))
      (pin power_in line (at 2.54 12.7 270) (length 2.54) (name "IO_VDD") (number "3"))
      (pin input line (at 12.7 -7.62 180) (length 2.54) (name "TRIG") (number "4"))
      (pin output line (at 12.7 2.54 180) (length 2.54) (name "INT1") (number "5"))
      (pin output line (at 12.7 0 180) (length 2.54) (name "INT2") (number "6"))
      (pin power_in line (at 0 12.7 270) (length 2.54) (name "VDD") (number "7"))
      (pin power_in line (at 0 -12.7 90) (length 2.54) (name "GND") (number "9"))
    )
  )
  (symbol "Sensor_Motion:KX122-1042" (extends "KX022-1020")
    (property "Value" "KX122-1042" (id 1) (at 3.81 11.43 0)
      (effects (font (size 1.27 1.27)) (justify left))
    )
    (property "Datasheet" "http://kionixfs.kionix.com/en/datasheet/KX112-1042-Specifications-Rev-6.0.pdf" (id 3) (at -8.89 0 0)
      (effects (font (size 1.27 1.27)) hide)
    )
    (property "ki_keywords" "3-axis accelerometer spi i2c mems" (id 4) (at 0 0 0)
      (effects (font (size 1.27 1.27)) hide)
    )
    (property "ki_description" "3-Axis Accelerometer, 2/4/8g range, 2048 byte buffer, I2C/SPI interface, LGA-12" (id 5) (at 0 0 0)
      (effects (font (size 1.27 1.27)) hide)
    )
  )
  (symbol "Sensor_Motion:KX222-1054" (extends "KX022-1020")
    (property "Value" "KX222-1054" (id 1) (at 3.81 11.43 0)
      (effects (font (size 1.27 1.27)) (justify left))
    )
    (property "Datasheet" "http://kionixfs.kionix.com/en/datasheet/KX222-1054-Specifications-Rev-2.0.pdf" (id 3) (at -8.89 0 0)
      (effects (font (size 1.27 1.27)) hide)
    )
    (property "ki_keywords" "3-axis accelerometer spi i2c mems" (id 4) (at 0 0 0)
      (effects (font (size 1.27 1.27)) hide)
    )
    (property "ki_description" "3-Axis Accelerometer, 8/16/32g range, 2048 byte buffer, I2C/SPI interface, LGA-12" (id 5) (at 0 0 0)
      (effects (font (size 1.27 1.27)) hide)
    )
  )
  (symbol "Sensor_Motion:L3GD20" (pin_names (offset 0.508))
    (property "Reference" "U" (id 0) (at 6.35 15.24 0)
      (effects (font (size 1.27 1.27)) (justify left))
    )
    (property "Value" "L3GD20" (id 1) (at 6.35 12.7 0)
      (effects (font (size 1.27 1.27)) (justify left))
    )
    (property "Footprint" "Package_LGA:LGA-16_4x4mm_P0.65mm_LayoutBorder4x4y" (id 2) (at 0 -19.05 0)
      (effects (font (size 1.27 1.27) italic) hide)
    )
    (property "Datasheet" "http://www.st.com/st-web-ui/static/active/en/resource/technical/document/datasheet/DM00036465.pdf" (id 3) (at 0 0 0)
      (effects (font (size 1.27 1.27)) hide)
    )
    (property "ki_keywords" "3-Axis MEMS Gyroscope" (id 4) (at 0 0 0)
      (effects (font (size 1.27 1.27)) hide)
    )
    (property "ki_description" "[Not recommended for new designs] 16-bit 3 Axis Digital MEMS Gyroscope, LGA-16" (id 5) (at 0 0 0)
      (effects (font (size 1.27 1.27)) hide)
    )
    (property "ki_fp_filters" "LGA*4x4mm*P0.65mm*LayoutBorder4x4y*" (id 6) (at 0 0 0)
      (effects (font (size 1.27 1.27)) hide)
    )
    (symbol "L3GD20_0_1"
      (rectangle (start -13.97 11.43) (end 13.97 -11.43) (stroke (width 0.254)) (fill (type background)))
    )
    (symbol "L3GD20_1_1"
      (pin power_in line (at -2.54 15.24 270) (length 3.81) (name "VDDIO") (number "1"))
      (pin passive line (at -17.78 -5.08 0) (length 3.81) (name "RES(GND)") (number "10"))
      (pin passive line (at -17.78 -7.62 0) (length 3.81) (name "RES(GND)") (number "11"))
      (pin passive line (at -17.78 -10.16 0) (length 3.81) (name "RES(GND)") (number "12"))
      (pin power_in line (at 0 -15.24 90) (length 3.81) (name "GND") (number "13"))
      (pin passive line (at -17.78 5.08 0) (length 3.81) (name "RES(CAP)") (number "14"))
      (pin passive line (at -17.78 10.16 0) (length 3.81) (name "RES(VDD)") (number "15"))
      (pin power_in line (at 2.54 15.24 270) (length 3.81) (name "VDD") (number "16"))
      (pin input line (at 17.78 7.62 180) (length 3.81) (name "SCL/SPC") (number "2"))
      (pin bidirectional line (at 17.78 5.08 180) (length 3.81) (name "SDA/SDI/SDO") (number "3"))
      (pin output line (at 17.78 2.54 180) (length 3.81) (name "SDO/SA0") (number "4"))
      (pin input line (at 17.78 0 180) (length 3.81) (name "CS") (number "5"))
      (pin output line (at 17.78 -7.62 180) (length 3.81) (name "DRDY/INT2") (number "6"))
      (pin output line (at 17.78 -5.08 180) (length 3.81) (name "INT1") (number "7"))
      (pin passive line (at -17.78 0 0) (length 3.81) (name "RES(GND)") (number "8"))
      (pin passive line (at -17.78 -2.54 0) (length 3.81) (name "RES(GND)") (number "9"))
    )
  )
  (symbol "Sensor_Motion:LIS2DH" (pin_names (offset 0.508))
    (property "Reference" "U" (id 0) (at -5.08 11.43 0)
      (effects (font (size 1.27 1.27)) (justify right))
    )
    (property "Value" "LIS2DH" (id 1) (at 3.81 11.43 0)
      (effects (font (size 1.27 1.27)) (justify left))
    )
    (property "Footprint" "Package_LGA:LGA-14_2x2mm_P0.35mm_LayoutBorder3x4y" (id 2) (at 0 -15.24 0)
      (effects (font (size 1.27 1.27)) hide)
    )
    (property "Datasheet" "http://www.st.com/web/en/resource/technical/document/datasheet/DM00042751.pdf" (id 3) (at -8.89 0 0)
      (effects (font (size 1.27 1.27)) hide)
    )
    (property "ki_keywords" "3-axis accelerometer spi mems" (id 4) (at 0 0 0)
      (effects (font (size 1.27 1.27)) hide)
    )
    (property "ki_description" "3-Axis Accelerometer, 2/4/8/16g range, I2C/SPI interface" (id 5) (at 0 0 0)
      (effects (font (size 1.27 1.27)) hide)
    )
    (property "ki_fp_filters" "LGA-*_2x2mm_P0.35mm*LayoutBorder3x4y*" (id 6) (at 0 0 0)
      (effects (font (size 1.27 1.27)) hide)
    )
    (symbol "LIS2DH_0_1"
      (rectangle (start -7.62 10.16) (end 10.16 -10.16) (stroke (width 0.254)) (fill (type background)))
    )
    (symbol "LIS2DH_1_1"
      (pin input line (at -10.16 -2.54 0) (length 2.54) (name "SCL/SPC") (number "1"))
      (pin power_in line (at -2.54 -12.7 90) (length 2.54) (name "GND") (number "10"))
      (pin power_in line (at 0 -12.7 90) (length 2.54) (name "GND") (number "11"))
      (pin power_in line (at 2.54 -12.7 90) (length 2.54) (name "GND") (number "12"))
      (pin power_in line (at 5.08 -12.7 90) (length 2.54) (name "GND") (number "13"))
      (pin power_in line (at 7.62 -12.7 90) (length 2.54) (name "GND") (number "14"))
      (pin bidirectional line (at -10.16 2.54 0) (length 2.54) (name "SDA/SDI") (number "2"))
      (pin bidirectional line (at -10.16 0 0) (length 2.54) (name "SA0/SDO") (number "3"))
      (pin input line (at -10.16 5.08 0) (length 2.54) (name "~CS") (number "4"))
      (pin output line (at 12.7 0 180) (length 2.54) (name "INT2") (number "5"))
      (pin output line (at 12.7 2.54 180) (length 2.54) (name "INT1") (number "6"))
      (pin power_in line (at 2.54 12.7 270) (length 2.54) (name "Vdd_IO") (number "7"))
      (pin power_in line (at 0 12.7 270) (length 2.54) (name "Vdd") (number "8"))
      (pin power_in line (at -5.08 -12.7 90) (length 2.54) (name "GND") (number "9"))
    )
  )
  (symbol "Sensor_Motion:LIS2HH12" (pin_names (offset 0.508))
    (property "Reference" "U" (id 0) (at -5.08 11.43 0)
      (effects (font (size 1.27 1.27)) (justify right))
    )
    (property "Value" "LIS2HH12" (id 1) (at 3.81 11.43 0)
      (effects (font (size 1.27 1.27)) (justify left))
    )
    (property "Footprint" "Package_LGA:LGA-12_2x2mm_P0.5mm" (id 2) (at 3.81 13.97 0)
      (effects (font (size 1.27 1.27)) (justify left) hide)
    )
    (property "Datasheet" "www.st.com/resource/en/datasheet/lis2hh12.pdf" (id 3) (at -8.89 0 0)
      (effects (font (size 1.27 1.27)) hide)
    )
    (property "ki_keywords" "3-axis accelerometer spi mems" (id 4) (at 0 0 0)
      (effects (font (size 1.27 1.27)) hide)
    )
    (property "ki_description" "3-Axis Accelerometer, 2/4/8g range, I2C/SPI interface" (id 5) (at 0 0 0)
      (effects (font (size 1.27 1.27)) hide)
    )
    (property "ki_fp_filters" "LGA*2x2mm*P0.5mm*" (id 6) (at 0 0 0)
      (effects (font (size 1.27 1.27)) hide)
    )
    (symbol "LIS2HH12_0_1"
      (rectangle (start -7.62 10.16) (end 10.16 -10.16) (stroke (width 0.254)) (fill (type background)))
    )
    (symbol "LIS2HH12_1_1"
      (pin input line (at -10.16 -2.54 0) (length 2.54) (name "SCL/SPC") (number "1"))
      (pin power_in line (at 2.54 12.7 270) (length 2.54) (name "Vdd_IO") (number "10"))
      (pin output line (at 12.7 0 180) (length 2.54) (name "INT2") (number "11"))
      (pin output line (at 12.7 2.54 180) (length 2.54) (name "INT1") (number "12"))
      (pin input line (at -10.16 5.08 0) (length 2.54) (name "~CS") (number "2"))
      (pin bidirectional line (at -10.16 0 0) (length 2.54) (name "SA0/SDO") (number "3"))
      (pin bidirectional line (at -10.16 2.54 0) (length 2.54) (name "SDA/SDI") (number "4"))
      (pin passive line (at 12.7 -7.62 180) (length 2.54) (name "RES") (number "5"))
      (pin power_in line (at -2.54 -12.7 90) (length 2.54) (name "GND") (number "6"))
      (pin power_in line (at 0 -12.7 90) (length 2.54) (name "GND") (number "7"))
      (pin power_in line (at 2.54 -12.7 90) (length 2.54) (name "GND") (number "8"))
      (pin power_in line (at 0 12.7 270) (length 2.54) (name "Vdd") (number "9"))
    )
  )
  (symbol "Sensor_Motion:LIS2DE12" (extends "LIS2HH12")
    (property "Value" "LIS2DE12" (id 1) (at 3.81 11.43 0)
      (effects (font (size 1.27 1.27)) (justify left))
    )
    (property "Datasheet" "https://www.st.com/resource/en/datasheet/lis2DE12.pdf" (id 3) (at -8.89 0 0)
      (effects (font (size 1.27 1.27)) hide)
    )
    (property "ki_keywords" "3-axis accelerometer spi mems" (id 4) (at 0 0 0)
      (effects (font (size 1.27 1.27)) hide)
    )
    (property "ki_description" "3-Axis Accelerometer, 2/4/8/16g range, I2C/SPI interface" (id 5) (at 0 0 0)
      (effects (font (size 1.27 1.27)) hide)
    )
  )
  (symbol "Sensor_Motion:LIS331HH" (pin_names (offset 0.508))
    (property "Reference" "U" (id 0) (at -7.62 11.43 0)
      (effects (font (size 1.27 1.27)) (justify left))
    )
    (property "Value" "LIS331HH" (id 1) (at 3.81 11.43 0)
      (effects (font (size 1.27 1.27)) (justify left))
    )
    (property "Footprint" "Package_LGA:LGA-16_3x3mm_P0.5mm_LayoutBorder3x5y" (id 2) (at 0 -15.24 0)
      (effects (font (size 1.27 1.27)) hide)
    )
    (property "Datasheet" "http://www.st.com/st-web-ui/static/active/en/resource/technical/document/datasheet/CD00250937.pdf" (id 3) (at -2.54 6.35 0)
      (effects (font (size 1.27 1.27)) hide)
    )
    (property "ki_keywords" "3-axis accelerometer spi i2c mems" (id 4) (at 0 0 0)
      (effects (font (size 1.27 1.27)) hide)
    )
    (property "ki_description" "3-Axis Accelerometer, 6/12/24g range, 1000Hz, I2C and SPI interface" (id 5) (at 0 0 0)
      (effects (font (size 1.27 1.27)) hide)
    )
    (property "ki_fp_filters" "LGA-*3x3mm*P0.5mm*LayoutBorder3x5y*" (id 6) (at 0 0 0)
      (effects (font (size 1.27 1.27)) hide)
    )
    (symbol "LIS331HH_0_1"
      (rectangle (start -7.62 10.16) (end 10.16 -10.16) (stroke (width 0.254)) (fill (type background)))
    )
    (symbol "LIS331HH_1_1"
      (pin power_in line (at 2.54 12.7 270) (length 2.54) (name "Vdd") (number "1"))
      (pin power_in line (at 5.08 -12.7 90) (length 2.54) (name "GND") (number "10"))
      (pin output line (at 12.7 2.54 180) (length 2.54) (name "INT1") (number "11"))
      (pin power_in line (at 0 -12.7 90) (length 2.54) (name "GND") (number "12"))
      (pin power_in line (at -2.54 -12.7 90) (length 2.54) (name "GND") (number "13"))
      (pin power_in line (at 0 12.7 270) (length 2.54) (name "Vdd") (number "14"))
      (pin power_in line (at -2.54 12.7 270) (length 2.54) (name "Vdd") (number "15"))
      (pin power_in line (at 2.54 -12.7 90) (length 2.54) (name "GND") (number "16"))
      (pin unconnected line (at 10.16 -2.54 180) (length 2.54) (name "NC") (number "2") hide)
      (pin unconnected line (at 10.16 -5.08 180) (length 2.54) (name "NC") (number "3") hide)
      (pin input line (at -10.16 -2.54 0) (length 2.54) (name "SCL/SPC") (number "4"))
      (pin power_in line (at -5.08 -12.7 90) (length 2.54) (name "GND") (number "5"))
      (pin bidirectional line (at -10.16 2.54 0) (length 2.54) (name "SDA/SDI") (number "6"))
      (pin output line (at -10.16 0 0) (length 2.54) (name "SA0/SDO") (number "7"))
      (pin input line (at -10.16 5.08 0) (length 2.54) (name "~CS") (number "8"))
      (pin output line (at 12.7 0 180) (length 2.54) (name "INT2") (number "9"))
    )
  )
  (symbol "Sensor_Motion:LIS3DH" (pin_names (offset 0.508))
    (property "Reference" "U" (id 0) (at -7.62 11.43 0))
    (property "Value" "LIS3DH" (id 1) (at 6.35 11.43 0))
    (property "Footprint" "Package_LGA:LGA-16_3x3mm_P0.5mm_LayoutBorder3x5y" (id 2) (at 2.54 -26.67 0)
      (effects (font (size 1.27 1.27)) hide)
    )
    (property "Datasheet" "https://www.st.com/resource/en/datasheet/cd00274221.pdf" (id 3) (at -5.08 -2.54 0)
      (effects (font (size 1.27 1.27)) hide)
    )
    (property "ki_keywords" "3-axis accelerometer i2c spi mems" (id 4) (at 0 0 0)
      (effects (font (size 1.27 1.27)) hide)
    )
    (property "ki_description" "3-Axis Accelerometer, 2/4/8/16g range, I2C/SPI interface, LGA-16" (id 5) (at 0 0 0)
      (effects (font (size 1.27 1.27)) hide)
    )
    (property "ki_fp_filters" "LGA*3x3mm*P0.5mm*LayoutBorder3x5y*" (id 6) (at 0 0 0)
      (effects (font (size 1.27 1.27)) hide)
    )
    (symbol "LIS3DH_0_1"
      (rectangle (start -10.16 10.16) (end 10.16 -12.7) (stroke (width 0.254)) (fill (type background)))
    )
    (symbol "LIS3DH_1_1"
      (pin power_in line (at -2.54 12.7 270) (length 2.54) (name "VDD_IO") (number "1"))
      (pin passive line (at 0 -15.24 90) (length 2.54) (name "GND") (number "10") hide)
      (pin output line (at -12.7 5.08 0) (length 2.54) (name "INT1") (number "11"))
      (pin power_in line (at 0 -15.24 90) (length 2.54) (name "GND") (number "12"))
      (pin input line (at 12.7 -2.54 180) (length 2.54) (name "ADC3") (number "13"))
      (pin power_in line (at 2.54 12.7 270) (length 2.54) (name "VDD") (number "14"))
      (pin input line (at 12.7 0 180) (length 2.54) (name "ADC2") (number "15"))
      (pin input line (at 12.7 2.54 180) (length 2.54) (name "ADC1") (number "16"))
      (pin unconnected line (at 10.16 5.08 180) (length 2.54) (name "NC") (number "2") hide)
      (pin unconnected line (at 10.16 7.62 180) (length 2.54) (name "NC") (number "3") hide)
      (pin input line (at -12.7 -5.08 0) (length 2.54) (name "SCL/SPC") (number "4"))
      (pin passive line (at 0 -15.24 90) (length 2.54) (name "GND") (number "5") hide)
      (pin bidirectional line (at -12.7 -2.54 0) (length 2.54) (name "SDA/SDI/SDO") (number "6"))
      (pin bidirectional line (at -12.7 0 0) (length 2.54) (name "SDO/SA0") (number "7"))
      (pin input line (at -12.7 -7.62 0) (length 2.54) (name "CS") (number "8"))
      (pin output line (at -12.7 2.54 0) (length 2.54) (name "INT2") (number "9"))
    )
  )
  (symbol "Sensor_Motion:LSM303C" (pin_names (offset 0.508))
    (property "Reference" "U" (id 0) (at -11.43 15.24 0)
      (effects (font (size 1.27 1.27)) (justify right))
    )
    (property "Value" "LSM303C" (id 1) (at -5.08 13.97 0)
      (effects (font (size 1.27 1.27)) (justify right top))
    )
    (property "Footprint" "" (id 2) (at -10.16 -17.78 0)
      (effects (font (size 1.27 1.27)) (justify left) hide)
    )
    (property "Datasheet" "www.st.com/resource/en/datasheet/lsm303c.pdf" (id 3) (at 2.54 -16.51 0)
      (effects (font (size 1.27 1.27)) hide)
    )
    (property "ki_keywords" "Accelerometer Magnetometer MEMS" (id 4) (at 0 0 0)
      (effects (font (size 1.27 1.27)) hide)
    )
    (property "ki_description" "I2C/SPI, 3D Accelerometer and 3D Magnetometer" (id 5) (at 0 0 0)
      (effects (font (size 1.27 1.27)) hide)
    )
    (property "ki_fp_filters" "LGA*2x2mm*P0.5mm*" (id 6) (at 0 0 0)
      (effects (font (size 1.27 1.27)) hide)
    )
    (symbol "LSM303C_0_1"
      (rectangle (start 13.97 11.43) (end -13.97 -11.43) (stroke (width 0.254)) (fill (type background)))
    )
    (symbol "LSM303C_1_1"
      (pin output line (at -17.78 5.08 0) (length 3.81) (name "SCL/SPC") (number "1"))
      (pin power_in line (at 0 15.24 270) (length 3.81) (name "VDDIO") (number "10"))
      (pin output line (at 17.78 5.08 180) (length 3.81) (name "DRDY_MAG") (number "11"))
      (pin output line (at 17.78 0 180) (length 3.81) (name "INT_XL") (number "12"))
      (pin input line (at -17.78 0 0) (length 3.81) (name "CS_XL") (number "2"))
      (pin input line (at -17.78 -2.54 0) (length 3.81) (name "CS_MAG") (number "3"))
      (pin bidirectional line (at -17.78 2.54 0) (length 3.81) (name "SDA/SDI/SDO") (number "4"))
      (pin passive line (at 17.78 -5.08 180) (length 3.81) (name "C1") (number "5"))
      (pin power_in line (at 0 -15.24 90) (length 3.81) (name "GND") (number "6"))
      (pin output line (at 17.78 2.54 180) (length 3.81) (name "INT_MAG") (number "7"))
      (pin power_in line (at 2.54 -15.24 90) (length 3.81) (name "GND") (number "8"))
      (pin power_in line (at 2.54 15.24 270) (length 3.81) (name "VDD") (number "9"))
    )
  )
  (symbol "Sensor_Motion:LSM303D" (pin_names (offset 0.508))
    (property "Reference" "U" (id 0) (at -5.08 17.145 0)
      (effects (font (size 1.27 1.27)) (justify right))
    )
    (property "Value" "LSM303D" (id 1) (at -5.08 15.24 0)
      (effects (font (size 1.27 1.27)) (justify right))
    )
    (property "Footprint" "Package_LGA:LGA-16_3x3mm_P0.5mm" (id 2) (at 6.35 -15.24 0)
      (effects (font (size 1.27 1.27)) (justify left) hide)
    )
    (property "Datasheet" "http://www.st.com/web/en/resource/technical/document/datasheet/DM00057547.pdf" (id 3) (at 3.81 19.05 0)
      (effects (font (size 1.27 1.27)) hide)
    )
    (property "ki_keywords" "Accelerometer Magnetometer MEMS" (id 4) (at 0 0 0)
      (effects (font (size 1.27 1.27)) hide)
    )
    (property "ki_description" "[not recommended for new designs] I2C/SPI, 3D Accelerometer and 3D Magnetometer" (id 5) (at 0 0 0)
      (effects (font (size 1.27 1.27)) hide)
    )
    (property "ki_fp_filters" "LGA*" (id 6) (at 0 0 0)
      (effects (font (size 1.27 1.27)) hide)
    )
    (symbol "LSM303D_0_1"
      (rectangle (start 8.89 13.97) (end -8.89 -13.97) (stroke (width 0.254)) (fill (type background)))
    )
    (symbol "LSM303D_1_1"
      (pin power_in line (at -2.54 17.78 270) (length 3.81) (name "VDDIO") (number "1"))
      (pin power_in line (at -2.54 -17.78 90) (length 3.81) (name "GND") (number "10"))
      (pin output line (at -12.7 -7.62 0) (length 3.81) (name "INT1") (number "11"))
      (pin power_in line (at 0 -17.78 90) (length 3.81) (name "GND") (number "12"))
      (pin power_in line (at 2.54 -17.78 90) (length 3.81) (name "GND") (number "13"))
      (pin power_in line (at 2.54 17.78 270) (length 3.81) (name "VDD") (number "14"))
      (pin passive line (at 12.7 -7.62 180) (length 3.81) (name "C1") (number "15"))
      (pin power_in line (at 5.08 -17.78 90) (length 3.81) (name "GND") (number "16"))
      (pin passive line (at 12.7 7.62 180) (length 3.81) (name "SETC") (number "2"))
      (pin passive line (at 12.7 -5.08 180) (length 3.81) (name "SETP") (number "3"))
      (pin input line (at -12.7 5.08 0) (length 3.81) (name "SCL/SPC") (number "4"))
      (pin power_in line (at -5.08 -17.78 90) (length 3.81) (name "GND") (number "5"))
      (pin bidirectional line (at -12.7 2.54 0) (length 3.81) (name "SDA/SDI/SDO") (number "6"))
      (pin output line (at -12.7 0 0) (length 3.81) (name "SDO/SAO") (number "7"))
      (pin input line (at -12.7 7.62 0) (length 3.81) (name "CS") (number "8"))
      (pin output line (at -12.7 -5.08 0) (length 3.81) (name "INT2") (number "9"))
    )
  )
  (symbol "Sensor_Motion:LSM303DLHC" (pin_names (offset 0.508))
    (property "Reference" "U" (id 0) (at -5.08 17.145 0)
      (effects (font (size 1.27 1.27)) (justify right))
    )
    (property "Value" "LSM303DLHC" (id 1) (at -5.08 15.24 0)
      (effects (font (size 1.27 1.27)) (justify right))
    )
    (property "Footprint" "Package_LGA:LGA-14_3x5mm_P0.8mm_LayoutBorder1x6y" (id 2) (at 3.81 -15.24 0)
      (effects (font (size 1.27 1.27)) (justify left) hide)
    )
    (property "Datasheet" "http://www.st.com/web/en/resource/technical/document/datasheet/DM00027543.pdf" (id 3) (at 3.81 19.05 0)
      (effects (font (size 1.27 1.27)) hide)
    )
    (property "ki_keywords" "Accelerometer Magnetometer MEMS" (id 4) (at 0 0 0)
      (effects (font (size 1.27 1.27)) hide)
    )
    (property "ki_description" "[not recommended for new designs] I2C, 3D Accelerometer and 3D Magnetometer" (id 5) (at 0 0 0)
      (effects (font (size 1.27 1.27)) hide)
    )
    (property "ki_fp_filters" "LGA*3x5mm*P0.8mm*LayoutBorder1x6y*" (id 6) (at 0 0 0)
      (effects (font (size 1.27 1.27)) hide)
    )
    (symbol "LSM303DLHC_0_1"
      (rectangle (start 8.89 13.97) (end -8.89 -13.97) (stroke (width 0.254)) (fill (type background)))
    )
    (symbol "LSM303DLHC_1_1"
      (pin power_in line (at -2.54 17.78 270) (length 3.81) (name "VDDIO") (number "1"))
      (pin power_in line (at 0 -17.78 90) (length 3.81) (name "GND") (number "10"))
      (pin power_in line (at 2.54 -17.78 90) (length 3.81) (name "GND") (number "11"))
      (pin passive line (at 12.7 -5.08 180) (length 3.81) (name "SETP") (number "12"))
      (pin passive line (at 12.7 7.62 180) (length 3.81) (name "SETC") (number "13"))
      (pin power_in line (at 2.54 17.78 270) (length 3.81) (name "VDD") (number "14"))
      (pin input line (at -12.7 7.62 0) (length 3.81) (name "SCL") (number "2"))
      (pin bidirectional line (at -12.7 5.08 0) (length 3.81) (name "SDA") (number "3"))
      (pin output line (at -12.7 -5.08 0) (length 3.81) (name "INT2") (number "4"))
      (pin output line (at -12.7 -7.62 0) (length 3.81) (name "INT1") (number "5"))
      (pin passive line (at 12.7 -7.62 180) (length 3.81) (name "C1") (number "6"))
      (pin power_in line (at -2.54 -17.78 90) (length 3.81) (name "GND") (number "7"))
      (pin unconnected line (at 7.62 -2.54 180) (length 3.81) (name "NC") (number "8") hide)
      (pin output line (at -12.7 0 0) (length 3.81) (name "DRDY") (number "9"))
    )
  )
  (symbol "Sensor_Motion:LSM6DS3" (pin_names (offset 0.508))
    (property "Reference" "U" (id 0) (at -11.43 15.24 0)
      (effects (font (size 1.27 1.27)) (justify left))
    )
    (property "Value" "LSM6DS3" (id 1) (at -11.43 12.7 0)
      (effects (font (size 1.27 1.27)) (justify left bottom))
    )
    (property "Footprint" "Package_LGA:LGA-14_3x2.5mm_P0.5mm_LayoutBorder3x4y" (id 2) (at -10.16 -17.78 0)
      (effects (font (size 1.27 1.27)) (justify left) hide)
    )
    (property "Datasheet" "www.st.com/resource/en/datasheet/lsm6ds3.pdf" (id 3) (at 2.54 -16.51 0)
      (effects (font (size 1.27 1.27)) hide)
    )
    (property "ki_keywords" "Accelerometer Gyroscope MEMS" (id 4) (at 0 0 0)
      (effects (font (size 1.27 1.27)) hide)
    )
    (property "ki_description" "I2C/SPI, iNEMO inertial module: always-on 3D accelerometer and 3D gyroscope" (id 5) (at 0 0 0)
      (effects (font (size 1.27 1.27)) hide)
    )
    (property "ki_fp_filters" "LGA*3x2.5mm*P0.5mm*LayoutBorder3x4y*" (id 6) (at 0 0 0)
      (effects (font (size 1.27 1.27)) hide)
    )
    (symbol "LSM6DS3_0_1"
      (rectangle (start 11.43 11.43) (end -11.43 -11.43) (stroke (width 0.254)) (fill (type background)))
    )
    (symbol "LSM6DS3_1_1"
      (pin bidirectional line (at -15.24 7.62 0) (length 3.81) (name "SDO/SA0") (number "1"))
      (pin unconnected line (at 10.16 -5.08 180) (length 3.81) (name "NC") (number "10") hide)
      (pin unconnected line (at 10.16 -2.54 180) (length 3.81) (name "NC") (number "11") hide)
      (pin input line (at -15.24 -7.62 0) (length 3.81) (name "CS") (number "12"))
      (pin input line (at -15.24 -5.08 0) (length 3.81) (name "SCL") (number "13"))
      (pin bidirectional line (at -15.24 -2.54 0) (length 3.81) (name "SDA") (number "14"))
      (pin bidirectional line (at -15.24 5.08 0) (length 3.81) (name "SDX") (number "2"))
      (pin input line (at -15.24 2.54 0) (length 3.81) (name "SCX") (number "3"))
      (pin output line (at 15.24 7.62 180) (length 3.81) (name "INT1") (number "4"))
      (pin power_in line (at 0 15.24 270) (length 3.81) (name "VDDIO") (number "5"))
      (pin power_in line (at 0 -15.24 90) (length 3.81) (name "GND") (number "6"))
      (pin power_in line (at 2.54 -15.24 90) (length 3.81) (name "GND") (number "7"))
      (pin power_in line (at 2.54 15.24 270) (length 3.81) (name "VDD") (number "8"))
      (pin output line (at 15.24 5.08 180) (length 3.81) (name "INT2") (number "9"))
    )
  )
  (symbol "Sensor_Motion:LSM9DS1" (pin_names (offset 0.508))
    (property "Reference" "U" (id 0) (at -15.24 21.59 0)
      (effects (font (size 1.27 1.27)) (justify left))
    )
    (property "Value" "LSM9DS1" (id 1) (at -15.24 19.05 0)
      (effects (font (size 1.27 1.27)) (justify left))
    )
    (property "Footprint" "Package_LGA:LGA-24L_3x3.5mm_P0.43mm" (id 2) (at 38.1 19.05 0)
      (effects (font (size 1.27 1.27)) hide)
    )
    (property "Datasheet" "http://www.st.com/content/ccc/resource/technical/document/datasheet/1e/3f/2a/d6/25/eb/48/46/DM00103319.pdf/files/DM00103319.pdf/jcr:content/translations/en.DM00103319.pdf" (id 3) (at 0 2.54 0)
      (effects (font (size 1.27 1.27)) hide)
    )
    (property "ki_keywords" "I2C SPI IMU accelerometer gyroscope magnetometer" (id 4) (at 0 0 0)
      (effects (font (size 1.27 1.27)) hide)
    )
    (property "ki_description" "I2C SPI 9 axis IMU accelerometer gyroscope magnetometer" (id 5) (at 0 0 0)
      (effects (font (size 1.27 1.27)) hide)
    )
    (property "ki_fp_filters" "LGA*3x3.5mm*P0.43mm*" (id 6) (at 0 0 0)
      (effects (font (size 1.27 1.27)) hide)
    )
    (symbol "LSM9DS1_0_1"
      (rectangle (start -15.24 17.78) (end 15.24 -17.78) (stroke (width 0.254)) (fill (type background)))
    )
    (symbol "LSM9DS1_1_1"
      (pin power_in line (at 0 20.32 270) (length 2.54) (name "VDDIO") (number "1"))
      (pin output line (at 17.78 2.54 180) (length 2.54) (name "INT_M") (number "10"))
      (pin output line (at -17.78 -2.54 0) (length 2.54) (name "INT1_A/G") (number "11"))
      (pin output line (at -17.78 -5.08 0) (length 2.54) (name "INT2_A/G") (number "12"))
      (pin input line (at -17.78 -7.62 0) (length 2.54) (name "DEN_A/G") (number "13"))
      (pin bidirectional line (at 17.78 -2.54 180) (length 2.54) (name "RES") (number "14"))
      (pin bidirectional line (at 17.78 -5.08 180) (length 2.54) (name "RES") (number "15"))
      (pin bidirectional line (at 17.78 -7.62 180) (length 2.54) (name "RES") (number "16"))
      (pin bidirectional line (at 17.78 -10.16 180) (length 2.54) (name "RES") (number "17"))
      (pin bidirectional line (at 17.78 -12.7 180) (length 2.54) (name "RES") (number "18"))
      (pin power_in line (at -2.54 -20.32 90) (length 2.54) (name "GND") (number "19"))
      (pin input line (at -17.78 10.16 0) (length 2.54) (name "SCL/SPC") (number "2"))
      (pin power_in line (at 2.54 -20.32 90) (length 2.54) (name "GND") (number "20"))
      (pin passive line (at -17.78 -12.7 0) (length 2.54) (name "CAP") (number "21"))
      (pin power_in line (at 7.62 20.32 270) (length 2.54) (name "VDD") (number "22"))
      (pin power_in line (at 10.16 20.32 270) (length 2.54) (name "VDD") (number "23"))
      (pin passive line (at -17.78 -15.24 0) (length 2.54) (name "C1") (number "24"))
      (pin power_in line (at 2.54 20.32 270) (length 2.54) (name "VDDIO") (number "3"))
      (pin bidirectional line (at -17.78 7.62 0) (length 2.54) (name "SDA/SDI/SDO") (number "4"))
      (pin output line (at -17.78 0 0) (length 2.54) (name "SDO_A/G") (number "5"))
      (pin output line (at 17.78 7.62 180) (length 2.54) (name "SDO_M") (number "6"))
      (pin input line (at -17.78 2.54 0) (length 2.54) (name "CS_A/G") (number "7"))
      (pin input line (at 17.78 10.16 180) (length 2.54) (name "CS_M") (number "8"))
      (pin output line (at 17.78 5.08 180) (length 2.54) (name "DRDY_M") (number "9"))
    )
  )
  (symbol "Sensor_Motion:MMA8653FCR1" (pin_names (offset 0.508))
    (property "Reference" "U" (id 0) (at -7.62 8.89 0)
      (effects (font (size 1.27 1.27)) (justify left))
    )
    (property "Value" "MMA8653FCR1" (id 1) (at 1.27 -8.89 0)
      (effects (font (size 1.27 1.27)) (justify left))
    )
    (property "Footprint" "Package_DFN_QFN:DFN-10_2x2mm_P0.4mm" (id 2) (at 1.27 -11.43 0)
      (effects (font (size 1.27 1.27)) (justify left) hide)
    )
    (property "Datasheet" "http://cache.freescale.com/files/sensors/doc/data_sheet/MMA8653FC.pdf" (id 3) (at -5.08 -1.27 0)
      (effects (font (size 1.27 1.27)) hide)
    )
    (property "ki_keywords" "Accelerometer I2C" (id 4) (at 0 0 0)
      (effects (font (size 1.27 1.27)) hide)
    )
    (property "ki_description" "3-Axis 10-bit Digital Accelerometer with I2C interface" (id 5) (at 0 0 0)
      (effects (font (size 1.27 1.27)) hide)
    )
    (property "ki_fp_filters" "DFN*2x2mm*P0.4mm*" (id 6) (at 0 0 0)
      (effects (font (size 1.27 1.27)) hide)
    )
    (symbol "MMA8653FCR1_0_1"
      (rectangle (start -7.62 7.62) (end 7.62 -7.62) (stroke (width 0.254)) (fill (type background)))
    )
    (symbol "MMA8653FCR1_1_1"
      (pin power_in line (at 0 10.16 270) (length 2.54) (name "Vdd") (number "1"))
      (pin input line (at -10.16 5.08 0) (length 2.54) (name "SDA") (number "10"))
      (pin input line (at -10.16 2.54 0) (length 2.54) (name "SCL") (number "2"))
      (pin output line (at 10.16 0 180) (length 2.54) (name "INT1") (number "3"))
      (pin input line (at -10.16 0 0) (length 2.54) (name "BYP") (number "4"))
      (pin output line (at 10.16 -2.54 180) (length 2.54) (name "INT2") (number "5"))
      (pin power_in line (at -5.08 -10.16 90) (length 2.54) (name "GND") (number "6"))
      (pin power_in line (at 0 -10.16 90) (length 2.54) (name "GND") (number "7"))
      (pin power_in line (at 2.54 10.16 270) (length 2.54) (name "Vddio") (number "8"))
      (pin power_in line (at -2.54 -10.16 90) (length 2.54) (name "GND") (number "9"))
    )
  )
  (symbol "Sensor_Motion:MPU-6000" (pin_names (offset 0.508))
    (property "Reference" "U" (id 0) (at -11.43 13.97 0))
    (property "Value" "MPU-6000" (id 1) (at 7.62 -13.97 0))
    (property "Footprint" "Sensor_Motion:InvenSense_QFN-24_4x4mm_P0.5mm" (id 2) (at 0 -20.32 0)
      (effects (font (size 1.27 1.27)) hide)
    )
    (property "Datasheet" "https://store.invensense.com/datasheets/invensense/MPU-6050_DataSheet_V3%204.pdf" (id 3) (at 0 -3.81 0)
      (effects (font (size 1.27 1.27)) hide)
    )
    (property "ki_keywords" "mems" (id 4) (at 0 0 0)
      (effects (font (size 1.27 1.27)) hide)
    )
    (property "ki_description" "InvenSense 6-Axis Motion Sensor, Gyroscope, Accelerometer, I2C/SPI" (id 5) (at 0 0 0)
      (effects (font (size 1.27 1.27)) hide)
    )
    (property "ki_fp_filters" "*QFN-24*4x4mm*P0.5mm*" (id 6) (at 0 0 0)
      (effects (font (size 1.27 1.27)) hide)
    )
    (symbol "MPU-6000_0_1"
      (rectangle (start -12.7 12.7) (end 12.7 -12.7) (stroke (width 0.254)) (fill (type background)))
    )
    (symbol "MPU-6000_1_1"
      (pin input clock (at -17.78 -7.62 0) (length 5.08) (name "CLKIN") (number "1"))
      (pin passive line (at 17.78 -7.62 180) (length 5.08) (name "REGOUT") (number "10"))
      (pin input line (at -17.78 -5.08 0) (length 5.08) (name "FSYNC") (number "11"))
      (pin output line (at 17.78 7.62 180) (length 5.08) (name "INT") (number "12"))
      (pin power_in line (at 0 17.78 270) (length 5.08) (name "VDD") (number "13"))
      (pin power_in line (at 0 -17.78 90) (length 5.08) (name "GND") (number "18"))
      (pin passive line (at 17.78 -5.08 180) (length 5.08) (name "CPOUT") (number "20"))
      (pin input line (at -17.78 2.54 0) (length 5.08) (name "SCL/SCLK") (number "23"))
      (pin bidirectional line (at -17.78 7.62 0) (length 5.08) (name "SDA/MOSI") (number "24"))
      (pin bidirectional line (at 17.78 2.54 180) (length 5.08) (name "AUX_SDA") (number "6"))
      (pin output clock (at 17.78 0 180) (length 5.08) (name "AUX_SCL") (number "7"))
      (pin input line (at -17.78 0 0) (length 5.08) (name "~CS") (number "8"))
      (pin bidirectional line (at -17.78 5.08 0) (length 5.08) (name "AD0/MISO") (number "9"))
    )
  )
  (symbol "Sensor_Motion:MPU-6050" (pin_names (offset 0.508))
    (property "Reference" "U" (id 0) (at -11.43 13.97 0))
    (property "Value" "MPU-6050" (id 1) (at 7.62 -13.97 0))
    (property "Footprint" "Sensor_Motion:InvenSense_QFN-24_4x4mm_P0.5mm" (id 2) (at 0 -20.32 0)
      (effects (font (size 1.27 1.27)) hide)
    )
    (property "Datasheet" "https://store.invensense.com/datasheets/invensense/MPU-6050_DataSheet_V3%204.pdf" (id 3) (at 0 -3.81 0)
      (effects (font (size 1.27 1.27)) hide)
    )
    (property "ki_keywords" "mems" (id 4) (at 0 0 0)
      (effects (font (size 1.27 1.27)) hide)
    )
    (property "ki_description" "InvenSense 6-Axis Motion Sensor, Gyroscope, Accelerometer, I2C" (id 5) (at 0 0 0)
      (effects (font (size 1.27 1.27)) hide)
    )
    (property "ki_fp_filters" "*QFN-24*4x4mm*P0.5mm*" (id 6) (at 0 0 0)
      (effects (font (size 1.27 1.27)) hide)
    )
    (symbol "MPU-6050_0_1"
      (rectangle (start -12.7 12.7) (end 12.7 -12.7) (stroke (width 0.254)) (fill (type background)))
    )
    (symbol "MPU-6050_1_1"
      (pin input clock (at -17.78 -7.62 0) (length 5.08) (name "CLKIN") (number "1"))
      (pin passive line (at 17.78 -7.62 180) (length 5.08) (name "REGOUT") (number "10"))
      (pin input line (at -17.78 -5.08 0) (length 5.08) (name "FSYNC") (number "11"))
      (pin output line (at 17.78 7.62 180) (length 5.08) (name "INT") (number "12"))
      (pin power_in line (at 2.54 17.78 270) (length 5.08) (name "VDD") (number "13"))
      (pin power_in line (at 0 -17.78 90) (length 5.08) (name "GND") (number "18"))
      (pin passive line (at 17.78 -5.08 180) (length 5.08) (name "CPOUT") (number "20"))
      (pin input line (at -17.78 5.08 0) (length 5.08) (name "SCL") (number "23"))
      (pin bidirectional line (at -17.78 7.62 0) (length 5.08) (name "SDA") (number "24"))
      (pin bidirectional line (at 17.78 2.54 180) (length 5.08) (name "AUX_SDA") (number "6"))
      (pin output clock (at 17.78 0 180) (length 5.08) (name "AUX_SCL") (number "7"))
      (pin power_in line (at -2.54 17.78 270) (length 5.08) (name "VDDIO") (number "8"))
      (pin input line (at -17.78 2.54 0) (length 5.08) (name "AD0") (number "9"))
    )
  )
  (symbol "Sensor_Motion:MPU-9150" (pin_names (offset 0.508))
    (property "Reference" "U" (id 0) (at -11.43 13.97 0))
    (property "Value" "MPU-9150" (id 1) (at 8.89 -13.97 0))
    (property "Footprint" "Sensor_Motion:InvenSense_QFN-24_4x4mm_P0.5mm" (id 2) (at 0 -20.32 0)
      (effects (font (size 1.27 1.27)) hide)
    )
    (property "Datasheet" "https://www.invensense.com/wp-content/uploads/2015/02/MPU-9150-Datasheet.pdf" (id 3) (at 0 -3.81 0)
      (effects (font (size 1.27 1.27)) hide)
    )
    (property "ki_keywords" "mems magnetometer" (id 4) (at 0 0 0)
      (effects (font (size 1.27 1.27)) hide)
    )
    (property "ki_description" "InvenSense 9-Axis Motion Sensor, Accelerometer, Gyroscope, Compass, I2C" (id 5) (at 0 0 0)
      (effects (font (size 1.27 1.27)) hide)
    )
    (property "ki_fp_filters" "*QFN-24*4x4mm*P0.5mm*" (id 6) (at 0 0 0)
      (effects (font (size 1.27 1.27)) hide)
    )
    (symbol "MPU-9150_0_1"
      (rectangle (start -12.7 12.7) (end 12.7 -12.7) (stroke (width 0.254)) (fill (type background)))
    )
    (symbol "MPU-9150_1_1"
      (pin input clock (at -17.78 -7.62 0) (length 5.08) (name "CLKIN") (number "1"))
      (pin passive line (at 17.78 -7.62 180) (length 5.08) (name "REGOUT") (number "10"))
      (pin input line (at -17.78 -5.08 0) (length 5.08) (name "FSYNC") (number "11"))
      (pin output line (at 17.78 7.62 180) (length 5.08) (name "INT") (number "12"))
      (pin power_in line (at 5.08 17.78 270) (length 5.08) (name "VDD") (number "13"))
      (pin power_in line (at -2.54 -17.78 90) (length 5.08) (name "GND") (number "15"))
      (pin power_in line (at 0 -17.78 90) (length 5.08) (name "GND") (number "17"))
      (pin power_in line (at 2.54 -17.78 90) (length 5.08) (name "GND") (number "18"))
      (pin passive line (at 17.78 -5.08 180) (length 5.08) (name "CPOUT") (number "20"))
      (pin input line (at -17.78 5.08 0) (length 5.08) (name "SCL") (number "23"))
      (pin bidirectional line (at -17.78 7.62 0) (length 5.08) (name "SDA") (number "24"))
      (pin power_in line (at 2.54 17.78 270) (length 5.08) (name "VDD") (number "3"))
      (pin bidirectional line (at 17.78 2.54 180) (length 5.08) (name "AUX_SDA") (number "6"))
      (pin output clock (at 17.78 0 180) (length 5.08) (name "AUX_SCL") (number "7"))
      (pin power_in line (at -2.54 17.78 270) (length 5.08) (name "VDDIO") (number "8"))
      (pin input line (at -17.78 2.54 0) (length 5.08) (name "AD0") (number "9"))
    )
  )
  (symbol "Sensor_Motion:MPU-9250" (pin_names (offset 0.508))
    (property "Reference" "U" (id 0) (at -11.43 19.05 0))
    (property "Value" "MPU-9250" (id 1) (at 7.62 -19.05 0))
    (property "Footprint" "Sensor_Motion:InvenSense_QFN-24_3x3mm_P0.4mm" (id 2) (at 0 -25.4 0)
      (effects (font (size 1.27 1.27)) hide)
    )
    (property "Datasheet" "https://store.invensense.com/datasheets/invensense/MPU9250REV1.0.pdf" (id 3) (at 0 -3.81 0)
      (effects (font (size 1.27 1.27)) hide)
    )
    (property "ki_keywords" "mems magnetometer" (id 4) (at 0 0 0)
      (effects (font (size 1.27 1.27)) hide)
    )
    (property "ki_description" "InvenSense 9-Axis Motion Sensor, Accelerometer, Gyroscope, Compass, I2C/SPI" (id 5) (at 0 0 0)
      (effects (font (size 1.27 1.27)) hide)
    )
    (property "ki_fp_filters" "*QFN*3x3mm*P0.4mm*" (id 6) (at 0 0 0)
      (effects (font (size 1.27 1.27)) hide)
    )
    (symbol "MPU-9250_0_1"
      (rectangle (start -12.7 17.78) (end 12.7 -17.78) (stroke (width 0.254)) (fill (type background)))
    )
    (symbol "MPU-9250_1_1"
      (pin input line (at 17.78 -7.62 180) (length 5.08) (name "RESV_VDDIO") (number "1"))
      (pin passive line (at 17.78 -5.08 180) (length 5.08) (name "REGOUT") (number "10"))
      (pin input line (at -17.78 -5.08 0) (length 5.08) (name "FSYNC") (number "11"))
      (pin output line (at 17.78 7.62 180) (length 5.08) (name "INT") (number "12"))
      (pin power_in line (at 2.54 22.86 270) (length 5.08) (name "VDD") (number "13"))
      (pin power_in line (at 0 -22.86 90) (length 5.08) (name "GND") (number "18"))
      (pin power_in line (at 17.78 -10.16 180) (length 5.08) (name "RESV_GND") (number "20"))
      (pin bidirectional line (at 17.78 2.54 180) (length 5.08) (name "AUX_SDA") (number "21"))
      (pin input line (at -17.78 0 0) (length 5.08) (name "~CS") (number "22"))
      (pin input line (at -17.78 2.54 0) (length 5.08) (name "SCL/SCLK") (number "23"))
      (pin bidirectional line (at -17.78 7.62 0) (length 5.08) (name "SDA/MOSI") (number "24"))
      (pin output clock (at 17.78 0 180) (length 5.08) (name "AUX_SCL") (number "7"))
      (pin power_in line (at -2.54 22.86 270) (length 5.08) (name "VDDIO") (number "8"))
      (pin bidirectional line (at -17.78 5.08 0) (length 5.08) (name "AD0/MISO") (number "9"))
    )
  )
)
