(kicad_symbol_lib (version 20200126) (host kicad_symbol_editor "(5.99.0-1517-ga8407fba4)")
  (symbol "Sensor_Magnetic:A1101ELHL" (pin_names (offset 0.508))
    (property "Reference" "U" (id 0) (at 0 11.43 0)
      (effects (font (size 1.27 1.27)) (justify left))
    )
    (property "Value" "A1101ELHL" (id 1) (at 0 8.89 0)
      (effects (font (size 1.27 1.27)) (justify left))
    )
    (property "Footprint" "Package_TO_SOT_SMD:SOT-23" (id 2) (at 0 -8.89 0)
      (effects (font (size 1.27 1.27) italic) (justify left) hide)
    )
    (property "Datasheet" "http://www.allegromicro.com/en/Products/Part_Numbers/1101/1101.pdf" (id 3) (at 0 16.51 0)
      (effects (font (size 1.27 1.27)) hide)
    )
    (property "ki_keywords" "hall switch" (id 4) (at 0 0 0)
      (effects (font (size 1.27 1.27)) hide)
    )
    (property "ki_description" "Hall effect switch, unipolar, Bop=100G, Brp=45G, -40C to +85C" (id 5) (at 0 0 0)
      (effects (font (size 1.27 1.27)) hide)
    )
    (property "ki_fp_filters" "SOT?23*" (id 6) (at 0 0 0)
      (effects (font (size 1.27 1.27)) hide)
    )
    (symbol "A1101ELHL_0_1"
      (rectangle (start -5.08 7.62) (end 5.08 -7.62) (stroke (width 0.254)) (fill (type background)))
    )
    (symbol "A1101ELHL_1_1"
      (pin power_in line (at -2.54 10.16 270) (length 2.54) (name "VCC") (number "1"))
      (pin open_collector line (at 7.62 0 180) (length 2.54) (name "VOUT") (number "2"))
      (pin power_in line (at -2.54 -10.16 90) (length 2.54) (name "GND") (number "3"))
    )
  )
  (symbol "Sensor_Magnetic:A1101LLHL" (extends "A1101ELHL")
    (property "Value" "A1101LLHL" (id 1) (at 0 8.89 0)
      (effects (font (size 1.27 1.27)) (justify left))
    )
    (property "Datasheet" "http://www.allegromicro.com/en/Products/Part_Numbers/1101/1101.pdf" (id 3) (at 0 16.51 0)
      (effects (font (size 1.27 1.27)) hide)
    )
    (property "ki_keywords" "hall switch" (id 4) (at 0 0 0)
      (effects (font (size 1.27 1.27)) hide)
    )
    (property "ki_description" "Hall effect switch, unipolar, Bop=100G, Brp=45G, -40C to +125C" (id 5) (at 0 0 0)
      (effects (font (size 1.27 1.27)) hide)
    )
  )
  (symbol "Sensor_Magnetic:A1102ELHL" (extends "A1101ELHL")
    (property "Value" "A1102ELHL" (id 1) (at 0 8.89 0)
      (effects (font (size 1.27 1.27)) (justify left))
    )
    (property "Datasheet" "http://www.allegromicro.com/en/Products/Part_Numbers/1101/1101.pdf" (id 3) (at 0 16.51 0)
      (effects (font (size 1.27 1.27)) hide)
    )
    (property "ki_keywords" "hall switch" (id 4) (at 0 0 0)
      (effects (font (size 1.27 1.27)) hide)
    )
    (property "ki_description" "Hall effect switch, unipolar, Bop=180G, Brp=125G, -40C to +85C" (id 5) (at 0 0 0)
      (effects (font (size 1.27 1.27)) hide)
    )
  )
  (symbol "Sensor_Magnetic:A1102LLHL" (extends "A1101ELHL")
    (property "Value" "A1102LLHL" (id 1) (at 0 8.89 0)
      (effects (font (size 1.27 1.27)) (justify left))
    )
    (property "Datasheet" "http://www.allegromicro.com/en/Products/Part_Numbers/1101/1101.pdf" (id 3) (at 0 16.51 0)
      (effects (font (size 1.27 1.27)) hide)
    )
    (property "ki_keywords" "hall switch" (id 4) (at 0 0 0)
      (effects (font (size 1.27 1.27)) hide)
    )
    (property "ki_description" "Hall effect switch, unipolar, Bop=180G, Brp=125G, -40C to +125C" (id 5) (at 0 0 0)
      (effects (font (size 1.27 1.27)) hide)
    )
  )
  (symbol "Sensor_Magnetic:A1103ELHL" (extends "A1101ELHL")
    (property "Value" "A1103ELHL" (id 1) (at 0 8.89 0)
      (effects (font (size 1.27 1.27)) (justify left))
    )
    (property "Datasheet" "http://www.allegromicro.com/en/Products/Part_Numbers/1101/1101.pdf" (id 3) (at 0 16.51 0)
      (effects (font (size 1.27 1.27)) hide)
    )
    (property "ki_keywords" "hall switch" (id 4) (at 0 0 0)
      (effects (font (size 1.27 1.27)) hide)
    )
    (property "ki_description" "Hall effect switch, unipolar, Bop=280G, Brp=225G, -40C to +85C" (id 5) (at 0 0 0)
      (effects (font (size 1.27 1.27)) hide)
    )
  )
  (symbol "Sensor_Magnetic:A1103LLHL" (extends "A1101ELHL")
    (property "Value" "A1103LLHL" (id 1) (at 0 8.89 0)
      (effects (font (size 1.27 1.27)) (justify left))
    )
    (property "Datasheet" "http://www.allegromicro.com/en/Products/Part_Numbers/1101/1101.pdf" (id 3) (at 0 16.51 0)
      (effects (font (size 1.27 1.27)) hide)
    )
    (property "ki_keywords" "hall switch" (id 4) (at 0 0 0)
      (effects (font (size 1.27 1.27)) hide)
    )
    (property "ki_description" "Hall effect switch, unipolar, Bop=280G, Brp=225G, -40C to +125C" (id 5) (at 0 0 0)
      (effects (font (size 1.27 1.27)) hide)
    )
  )
  (symbol "Sensor_Magnetic:A1104LLHL" (extends "A1101ELHL")
    (property "Value" "A1104LLHL" (id 1) (at 0 8.89 0)
      (effects (font (size 1.27 1.27)) (justify left))
    )
    (property "Datasheet" "http://www.allegromicro.com/en/Products/Part_Numbers/1101/1101.pdf" (id 3) (at 0 16.51 0)
      (effects (font (size 1.27 1.27)) hide)
    )
    (property "ki_keywords" "hall switch" (id 4) (at 0 0 0)
      (effects (font (size 1.27 1.27)) hide)
    )
    (property "ki_description" "Hall effect switch, unipolar, Bop=240G, Brp=200G, -40C to +125C" (id 5) (at 0 0 0)
      (effects (font (size 1.27 1.27)) hide)
    )
  )
  (symbol "Sensor_Magnetic:A1106LLHL" (extends "A1101ELHL")
    (property "Value" "A1106LLHL" (id 1) (at 0 8.89 0)
      (effects (font (size 1.27 1.27)) (justify left))
    )
    (property "Datasheet" "http://www.allegromicro.com/en/Products/Part_Numbers/1101/1101.pdf" (id 3) (at 0 16.51 0)
      (effects (font (size 1.27 1.27)) hide)
    )
    (property "ki_keywords" "hall switch" (id 4) (at 0 0 0)
      (effects (font (size 1.27 1.27)) hide)
    )
    (property "ki_description" "Hall effect switch, unipolar, Bop=340G, Brp=240G, -40C to +125C" (id 5) (at 0 0 0)
      (effects (font (size 1.27 1.27)) hide)
    )
  )
  (symbol "Sensor_Magnetic:DRV5033AJQDBZ" (extends "A1101ELHL")
    (property "Value" "DRV5033AJQDBZ" (id 1) (at 0 8.89 0)
      (effects (font (size 1.27 1.27)) (justify left))
    )
    (property "Datasheet" "http://www.ti.com/lit/ds/symlink/drv5033.pdf" (id 3) (at 0 16.51 0)
      (effects (font (size 1.27 1.27)) hide)
    )
    (property "ki_keywords" "hall switch" (id 4) (at 0 0 0)
      (effects (font (size 1.27 1.27)) hide)
    )
    (property "ki_description" "Hall effect switch, omnipolar, Bop=6.9mT, Brp=3.5, -40C to +125C" (id 5) (at 0 0 0)
      (effects (font (size 1.27 1.27)) hide)
    )
  )
  (symbol "Sensor_Magnetic:DRV5033FAQDBZ" (extends "A1101ELHL")
    (property "Value" "DRV5033FAQDBZ" (id 1) (at 0 8.89 0)
      (effects (font (size 1.27 1.27)) (justify left))
    )
    (property "Datasheet" "http://www.ti.com/lit/ds/symlink/drv5033.pdf" (id 3) (at 0 16.51 0)
      (effects (font (size 1.27 1.27)) hide)
    )
    (property "ki_keywords" "hall switch" (id 4) (at 0 0 0)
      (effects (font (size 1.27 1.27)) hide)
    )
    (property "ki_description" "Hall effect switch, omnipolar, Bop=3.5mT, Brp=2.0, -40C to +125C" (id 5) (at 0 0 0)
      (effects (font (size 1.27 1.27)) hide)
    )
  )
  (symbol "Sensor_Magnetic:A1301KLHLT-T" (pin_names (offset 0.508))
    (property "Reference" "U" (id 0) (at 0 11.43 0)
      (effects (font (size 1.27 1.27)) (justify left))
    )
    (property "Value" "A1301KLHLT-T" (id 1) (at 0 8.89 0)
      (effects (font (size 1.27 1.27)) (justify left))
    )
    (property "Footprint" "Package_TO_SOT_SMD:SOT-23W" (id 2) (at 0 -8.89 0)
      (effects (font (size 1.27 1.27) italic) (justify left) hide)
    )
    (property "Datasheet" "http://www.allegromicro.com/~/media/Files/Datasheets/A1301-2-Datasheet.ashx" (id 3) (at -2.54 0 0)
      (effects (font (size 1.27 1.27)) hide)
    )
    (property "ki_keywords" "hall switch" (id 4) (at 0 0 0)
      (effects (font (size 1.27 1.27)) hide)
    )
    (property "ki_description" "Linear Hall Effect Sensor, SOT-23W" (id 5) (at 0 0 0)
      (effects (font (size 1.27 1.27)) hide)
    )
    (property "ki_fp_filters" "SOT?23W*" (id 6) (at 0 0 0)
      (effects (font (size 1.27 1.27)) hide)
    )
    (symbol "A1301KLHLT-T_0_1"
      (rectangle (start -5.08 7.62) (end 5.08 -7.62) (stroke (width 0.254)) (fill (type background)))
    )
    (symbol "A1301KLHLT-T_1_1"
      (pin power_in line (at -2.54 10.16 270) (length 2.54) (name "VCC") (number "1"))
      (pin output line (at 7.62 0 180) (length 2.54) (name "VOUT") (number "2"))
      (pin power_in line (at -2.54 -10.16 90) (length 2.54) (name "GND") (number "3"))
    )
  )
  (symbol "Sensor_Magnetic:A1302ELHLT-T" (extends "A1301KLHLT-T")
    (property "Value" "A1302ELHLT-T" (id 1) (at 0 8.89 0)
      (effects (font (size 1.27 1.27)) (justify left))
    )
    (property "Datasheet" "http://www.allegromicro.com/~/media/Files/Datasheets/A1301-2-Datasheet.ashx" (id 3) (at -2.54 0 0)
      (effects (font (size 1.27 1.27)) hide)
    )
    (property "ki_keywords" "hall switch" (id 4) (at 0 0 0)
      (effects (font (size 1.27 1.27)) hide)
    )
    (property "ki_description" "Linear Hall Effect Sensor, SOT-23W" (id 5) (at 0 0 0)
      (effects (font (size 1.27 1.27)) hide)
    )
  )
  (symbol "Sensor_Magnetic:A1302KLHLT-T" (extends "A1301KLHLT-T")
    (property "Value" "A1302KLHLT-T" (id 1) (at 0 8.89 0)
      (effects (font (size 1.27 1.27)) (justify left))
    )
    (property "Datasheet" "http://www.allegromicro.com/~/media/Files/Datasheets/A1301-2-Datasheet.ashx" (id 3) (at -2.54 0 0)
      (effects (font (size 1.27 1.27)) hide)
    )
    (property "ki_keywords" "hall switch" (id 4) (at 0 0 0)
      (effects (font (size 1.27 1.27)) hide)
    )
    (property "ki_description" "Linear Hall Effect Sensor, SOT-23W" (id 5) (at 0 0 0)
      (effects (font (size 1.27 1.27)) hide)
    )
  )
  (symbol "Sensor_Magnetic:A3214ELHLT-T" (extends "A1301KLHLT-T")
    (property "Value" "A3214ELHLT-T" (id 1) (at 0 8.89 0)
      (effects (font (size 1.27 1.27)) (justify left))
    )
    (property "Datasheet" "http://www.allegromicro.com/~/media/Files/Datasheets/A3213-4-Datasheet.ashx" (id 3) (at -2.54 0 0)
      (effects (font (size 1.27 1.27)) hide)
    )
    (property "ki_keywords" "hall switch" (id 4) (at 0 0 0)
      (effects (font (size 1.27 1.27)) hide)
    )
    (property "ki_description" "Linear Hall Effect Sensor, SOT-23W" (id 5) (at 0 0 0)
      (effects (font (size 1.27 1.27)) hide)
    )
  )
  (symbol "Sensor_Magnetic:A1301KUA-T" (pin_names (offset 0.508))
    (property "Reference" "U" (id 0) (at 0 11.43 0)
      (effects (font (size 1.27 1.27)) (justify left))
    )
    (property "Value" "A1301KUA-T" (id 1) (at 0 8.89 0)
      (effects (font (size 1.27 1.27)) (justify left))
    )
    (property "Footprint" "" (id 2) (at 0 -8.89 0)
      (effects (font (size 1.27 1.27) italic) (justify left) hide)
    )
    (property "Datasheet" "http://www.allegromicro.com/~/media/Files/Datasheets/A1301-2-Datasheet.ashx" (id 3) (at -2.54 0 0)
      (effects (font (size 1.27 1.27)) hide)
    )
    (property "ki_keywords" "hall switch" (id 4) (at 0 0 0)
      (effects (font (size 1.27 1.27)) hide)
    )
    (property "ki_description" "Linear Hall Effect Sensor, SIP 3pin" (id 5) (at 0 0 0)
      (effects (font (size 1.27 1.27)) hide)
    )
    (symbol "A1301KUA-T_0_1"
      (rectangle (start -5.08 7.62) (end 5.08 -7.62) (stroke (width 0.254)) (fill (type background)))
    )
    (symbol "A1301KUA-T_1_1"
      (pin power_in line (at -2.54 10.16 270) (length 2.54) (name "VCC") (number "1"))
      (pin power_in line (at -2.54 -10.16 90) (length 2.54) (name "GND") (number "2"))
      (pin output line (at 7.62 0 180) (length 2.54) (name "VOUT") (number "3"))
    )
  )
  (symbol "Sensor_Magnetic:A1301EUA-T" (extends "A1301KUA-T")
    (property "Value" "A1301EUA-T" (id 1) (at 0 8.89 0)
      (effects (font (size 1.27 1.27)) (justify left))
    )
    (property "Datasheet" "http://www.allegromicro.com/~/media/Files/Datasheets/A1301-2-Datasheet.ashx" (id 3) (at -2.54 0 0)
      (effects (font (size 1.27 1.27)) hide)
    )
    (property "ki_keywords" "hall switch" (id 4) (at 0 0 0)
      (effects (font (size 1.27 1.27)) hide)
    )
    (property "ki_description" "Linear Hall Effect Sensor, SIP 3pin" (id 5) (at 0 0 0)
      (effects (font (size 1.27 1.27)) hide)
    )
  )
  (symbol "Sensor_Magnetic:A1302KUA-T" (extends "A1301KUA-T")
    (property "Value" "A1302KUA-T" (id 1) (at 0 8.89 0)
      (effects (font (size 1.27 1.27)) (justify left))
    )
    (property "Datasheet" "http://www.allegromicro.com/~/media/Files/Datasheets/A1301-2-Datasheet.ashx" (id 3) (at -2.54 0 0)
      (effects (font (size 1.27 1.27)) hide)
    )
    (property "ki_keywords" "hall switch" (id 4) (at 0 0 0)
      (effects (font (size 1.27 1.27)) hide)
    )
    (property "ki_description" "Linear Hall Effect Sensor, SIP 3pin" (id 5) (at 0 0 0)
      (effects (font (size 1.27 1.27)) hide)
    )
  )
  (symbol "Sensor_Magnetic:AH1806-P" (pin_names (offset 0.508))
    (property "Reference" "U" (id 0) (at -5.08 8.89 0))
    (property "Value" "AH1806-P" (id 1) (at 7.62 8.89 0))
    (property "Footprint" "" (id 2) (at 0 0 0)
      (effects (font (size 1.27 1.27)) hide)
    )
    (property "Datasheet" "https://www.diodes.com/assets/Datasheets/AH1806.pdf" (id 3) (at 0 0 0)
      (effects (font (size 1.27 1.27)) hide)
    )
    (property "ki_keywords" "hall switch" (id 4) (at 0 0 0)
      (effects (font (size 1.27 1.27)) hide)
    )
    (property "ki_description" "High Sensitivity Micropower Omnipolar Hall-Effect Switch, SIP-3" (id 5) (at 0 0 0)
      (effects (font (size 1.27 1.27)) hide)
    )
    (property "ki_fp_filters" "Diodes*SIP*4.1x1.5mm*P1.27mm*\nDiodes*SIP*4.1x1.5mm*P2.65mm*" (id 6) (at 0 0 0)
      (effects (font (size 1.27 1.27)) hide)
    )
    (symbol "AH1806-P_0_1"
      (rectangle (start 5.08 7.62) (end -5.08 -7.62) (stroke (width 0.254)) (fill (type background)))
    )
    (symbol "AH1806-P_1_1"
      (pin power_in line (at 0 10.16 270) (length 2.54) (name "VDD") (number "1"))
      (pin power_in line (at 0 -10.16 90) (length 2.54) (name "GND") (number "2"))
      (pin open_collector line (at 7.62 0 180) (length 2.54) (name "OUTPUT") (number "3"))
    )
  )
  (symbol "Sensor_Magnetic:AH1806-W" (pin_names (offset 0.508))
    (property "Reference" "U" (id 0) (at -5.08 8.89 0))
    (property "Value" "AH1806-W" (id 1) (at 7.62 8.89 0))
    (property "Footprint" "Package_TO_SOT_SMD:SC-59" (id 2) (at 13.97 -8.89 0)
      (effects (font (size 1.27 1.27)) hide)
    )
    (property "Datasheet" "https://www.diodes.com/assets/Datasheets/AH1806.pdf" (id 3) (at 0 0 0)
      (effects (font (size 1.27 1.27)) hide)
    )
    (property "ki_keywords" "hall switch" (id 4) (at 0 0 0)
      (effects (font (size 1.27 1.27)) hide)
    )
    (property "ki_description" "High Sensitivity Micropower Omnipolar Hall-Effect Switch, SC-59" (id 5) (at 0 0 0)
      (effects (font (size 1.27 1.27)) hide)
    )
    (property "ki_fp_filters" "SC?59*" (id 6) (at 0 0 0)
      (effects (font (size 1.27 1.27)) hide)
    )
    (symbol "AH1806-W_0_1"
      (rectangle (start 5.08 7.62) (end -5.08 -7.62) (stroke (width 0.254)) (fill (type background)))
    )
    (symbol "AH1806-W_1_1"
      (pin power_in line (at 0 10.16 270) (length 2.54) (name "VDD") (number "1"))
      (pin power_in line (at 0 -10.16 90) (length 2.54) (name "GND") (number "2"))
      (pin open_collector line (at 7.62 0 180) (length 2.54) (name "OUTPUT") (number "3"))
    )
  )
  (symbol "Sensor_Magnetic:AH1806-Z" (pin_names (offset 0.508))
    (property "Reference" "U" (id 0) (at -5.08 8.89 0))
    (property "Value" "AH1806-Z" (id 1) (at 7.62 8.89 0))
    (property "Footprint" "Package_TO_SOT_SMD:SOT-553" (id 2) (at 15.24 -8.89 0)
      (effects (font (size 1.27 1.27)) hide)
    )
    (property "Datasheet" "https://www.diodes.com/assets/Datasheets/AH1806.pdf" (id 3) (at 0 0 0)
      (effects (font (size 1.27 1.27)) hide)
    )
    (property "ki_keywords" "hall switch" (id 4) (at 0 0 0)
      (effects (font (size 1.27 1.27)) hide)
    )
    (property "ki_description" "High Sensitivity Micropower Omnipolar Hall-Effect Switch, SOT-553" (id 5) (at 0 0 0)
      (effects (font (size 1.27 1.27)) hide)
    )
    (property "ki_fp_filters" "SOT*553*" (id 6) (at 0 0 0)
      (effects (font (size 1.27 1.27)) hide)
    )
    (symbol "AH1806-Z_0_1"
      (rectangle (start 5.08 7.62) (end -5.08 -7.62) (stroke (width 0.254)) (fill (type background)))
    )
    (symbol "AH1806-Z_1_1"
      (pin unconnected line (at 5.08 2.54 180) (length 2.54) (name "NC") (number "1") hide)
      (pin power_in line (at 0 -10.16 90) (length 2.54) (name "GND") (number "2"))
      (pin unconnected line (at 5.08 -2.54 180) (length 2.54) (name "NC") (number "3") hide)
      (pin power_in line (at 0 10.16 270) (length 2.54) (name "VDD") (number "4"))
      (pin open_collector line (at 7.62 0 180) (length 2.54) (name "OUTPUT") (number "5"))
    )
  )
  (symbol "Sensor_Magnetic:AK7452" (pin_names (offset 0.508))
    (property "Reference" "U" (id 0) (at -10.16 11.43 0)
      (effects (font (size 1.27 1.27)) (justify left))
    )
    (property "Value" "AK7452" (id 1) (at 10.16 11.43 0)
      (effects (font (size 1.27 1.27)) (justify right))
    )
    (property "Footprint" "Package_SO:TSSOP-16_4.4x5mm_P0.65mm" (id 2) (at 0 -24.13 0)
      (effects (font (size 1.27 1.27)) hide)
    )
    (property "Datasheet" "https://www.akm.com/akm/en/file/datasheet/AK7452.pdf" (id 3) (at -54.61 40.64 0)
      (effects (font (size 1.27 1.27)) hide)
    )
    (property "ki_keywords" "sensor magnetic hall position rotation spi" (id 4) (at 0 0 0)
      (effects (font (size 1.27 1.27)) hide)
    )
    (property "ki_description" "Magnetic rotary angle sensor, 14-bit, SPI interface, ABZ, UVW, TSSOP-16" (id 5) (at 0 0 0)
      (effects (font (size 1.27 1.27)) hide)
    )
    (property "ki_fp_filters" "TSSOP*4.4x5mm*P0.65mm*" (id 6) (at 0 0 0)
      (effects (font (size 1.27 1.27)) hide)
    )
    (symbol "AK7452_0_1"
      (arc (start -2.794 0) (end 2.794 0) (radius (at 0 0) (length 2.794) (angles -179.9 -0.1))
        (stroke (width 0.254))
      )
      (rectangle (start -10.16 10.16) (end 10.16 -10.16) (stroke (width 0.254)) (fill (type background)))
      (polyline
        (pts (xy -2.794 0) (xy -3.302 -0.508))
        (stroke (width 0.254))
      )
      (polyline
        (pts (xy -2.794 0) (xy -2.286 -0.508))
        (stroke (width 0.254))
      )
      (polyline
        (pts (xy 2.794 0) (xy 2.286 -0.508))
        (stroke (width 0.254))
      )
      (polyline
        (pts (xy 2.794 0) (xy 3.302 -0.508))
        (stroke (width 0.254))
      )
    )
    (symbol "AK7452_1_1"
      (circle (center 0 0) (radius 2.032) (stroke (width 0.254)))
      (polyline
        (pts (xy 0.254 0.254) (xy 1.27 -0.762) (xy 0.762 -1.27) (xy -0.254 -0.254))
      )
      (polyline
        (pts (xy -0.762 1.27) (xy 0.254 0.254) (xy -0.254 -0.254) (xy -1.27 0.762)
             (xy -1.016 1.016) (xy -0.762 1.27) (xy -0.635 1.143)
        )
        (fill (type outline))
      )
      (pin output line (at 12.7 7.62 180) (length 2.54) (name "U") (number "1"))
      (pin unconnected line (at 7.62 -10.16 90) (length 2.54) (name "NC") (number "10") hide)
      (pin passive line (at 2.54 -12.7 90) (length 2.54) (name "TESTE") (number "11"))
      (pin power_in line (at 0 -12.7 90) (length 2.54) (name "VSS") (number "12"))
      (pin output line (at -12.7 -5.08 0) (length 2.54) (name "ERROR") (number "13"))
      (pin output line (at 12.7 -7.62 180) (length 2.54) (name "Z") (number "14"))
      (pin output line (at 12.7 -5.08 180) (length 2.54) (name "B") (number "15"))
      (pin output line (at 12.7 -2.54 180) (length 2.54) (name "A") (number "16"))
      (pin output line (at 12.7 5.08 180) (length 2.54) (name "V") (number "2"))
      (pin output line (at 12.7 2.54 180) (length 2.54) (name "W") (number "3"))
      (pin unconnected line (at 5.08 -10.16 90) (length 2.54) (name "NC") (number "4") hide)
      (pin output line (at -12.7 5.08 0) (length 2.54) (name "MISO") (number "5"))
      (pin input line (at -12.7 7.62 0) (length 2.54) (name "MOSI") (number "6"))
      (pin input line (at -12.7 2.54 0) (length 2.54) (name "SCLK") (number "7"))
      (pin input line (at -12.7 0 0) (length 2.54) (name "~CSN") (number "8"))
      (pin power_in line (at 0 12.7 270) (length 2.54) (name "VDD") (number "9"))
    )
  )
  (symbol "Sensor_Magnetic:AS5045B" (pin_names (offset 0.508))
    (property "Reference" "U" (id 0) (at -10.16 11.43 0)
      (effects (font (size 1.27 1.27)) (justify left))
    )
    (property "Value" "AS5045B" (id 1) (at 11.43 11.43 0)
      (effects (font (size 1.27 1.27)) (justify right))
    )
    (property "Footprint" "Package_SO:SSOP-16_5.3x6.2mm_P0.65mm" (id 2) (at 3.81 -11.43 0)
      (effects (font (size 1.27 1.27)) (justify left) hide)
    )
    (property "Datasheet" "https://ams.com/documents/20143/36005/AS5045B_DS000397_2-00.pdf" (id 3) (at -54.61 40.64 0)
      (effects (font (size 1.27 1.27)) hide)
    )
    (property "ki_keywords" "Magnetic Hall Encoder" (id 4) (at 0 0 0)
      (effects (font (size 1.27 1.27)) hide)
    )
    (property "ki_description" "Magnetic Position Sensor, 12-bit, PWM Output, ABI Output, SPI Interface, SSOP-16" (id 5) (at 0 0 0)
      (effects (font (size 1.27 1.27)) hide)
    )
    (property "ki_fp_filters" "SSOP*5.3x6.2mm*P0.65mm*" (id 6) (at 0 0 0)
      (effects (font (size 1.27 1.27)) hide)
    )
    (symbol "AS5045B_0_1"
      (arc (start -2.794 0) (end 2.794 0) (radius (at 0 0) (length 2.794) (angles -179.9 -0.1))
        (stroke (width 0.254))
      )
      (circle (center 0 0) (radius 2.032) (stroke (width 0.254)))
      (rectangle (start -10.16 10.16) (end 10.16 -10.16) (stroke (width 0.254)) (fill (type background)))
      (polyline
        (pts (xy -2.794 0) (xy -3.302 -0.508))
        (stroke (width 0.254))
      )
      (polyline
        (pts (xy -2.794 0) (xy -2.286 -0.508))
        (stroke (width 0.254))
      )
      (polyline
        (pts (xy 2.794 0) (xy 2.286 -0.508))
        (stroke (width 0.254))
      )
      (polyline
        (pts (xy 2.794 0) (xy 3.302 -0.508))
        (stroke (width 0.254))
      )
      (polyline
        (pts (xy 0.254 0.254) (xy 1.27 -0.762) (xy 0.762 -1.27) (xy -0.254 -0.254))
      )
      (polyline
        (pts (xy -0.762 1.27) (xy 0.254 0.254) (xy -0.254 -0.254) (xy -1.27 0.762)
             (xy -1.016 1.016) (xy -0.762 1.27) (xy -0.635 1.143)
        )
        (fill (type outline))
      )
    )
    (symbol "AS5045B_1_1"
      (pin open_collector line (at -12.7 -5.08 0) (length 2.54) (name "MagINCn") (number "1"))
      (pin input line (at 12.7 2.54 180) (length 2.54) (name "CLK") (number "10"))
      (pin input line (at 12.7 0 180) (length 2.54) (name "CSn") (number "11"))
      (pin output line (at 12.7 -7.62 180) (length 2.54) (name "PWM") (number "12"))
      (pin unconnected line (at 10.16 -5.08 180) (length 2.54) (name "NC") (number "13") hide)
      (pin unconnected line (at 2.54 -10.16 90) (length 2.54) (name "NC") (number "14") hide)
      (pin power_in line (at -2.54 12.7 270) (length 2.54) (name "VDD3V3") (number "15"))
      (pin power_in line (at 0 12.7 270) (length 2.54) (name "VDD5V") (number "16"))
      (pin open_collector line (at -12.7 -7.62 0) (length 2.54) (name "MagDECn") (number "2"))
      (pin output line (at -12.7 7.62 0) (length 2.54) (name "A") (number "3"))
      (pin output line (at -12.7 5.08 0) (length 2.54) (name "B") (number "4"))
      (pin unconnected line (at 10.16 -2.54 180) (length 2.54) (name "NC") (number "5") hide)
      (pin output line (at -12.7 2.54 0) (length 2.54) (name "I") (number "6"))
      (pin power_in line (at 0 -12.7 90) (length 2.54) (name "VSS") (number "7"))
      (pin input line (at 12.7 7.62 180) (length 2.54) (name "PDIO") (number "8"))
      (pin output line (at 12.7 5.08 180) (length 2.54) (name "DO") (number "9"))
    )
  )
  (symbol "Sensor_Magnetic:AS5047D" (pin_names (offset 0.508))
    (property "Reference" "U" (id 0) (at -8.89 11.43 0))
    (property "Value" "AS5047D" (id 1) (at 5.08 11.43 0))
    (property "Footprint" "Package_SO:TSSOP-14_4.4x5mm_P0.65mm" (id 2) (at 0 -15.24 0)
      (effects (font (size 1.27 1.27)) hide)
    )
    (property "Datasheet" "https://ams.com/documents/20143/36005/AS5047D_DS000394_2-00.pdf" (id 3) (at -19.05 -13.97 0)
      (effects (font (size 1.27 1.27)) hide)
    )
    (property "ki_keywords" "Magnetic Hall Sensor" (id 4) (at 0 0 0)
      (effects (font (size 1.27 1.27)) hide)
    )
    (property "ki_description" "On-Axis Magnetic Position Sensor, 14-bit, PWM Output, ABI Output, UVW Output, SPI Interface, TSSOP-14" (id 5) (at 0 0 0)
      (effects (font (size 1.27 1.27)) hide)
    )
    (property "ki_fp_filters" "TSSOP*4.4x5mm*P0.65mm*" (id 6) (at 0 0 0)
      (effects (font (size 1.27 1.27)) hide)
    )
    (symbol "AS5047D_1_1"
      (arc (start -2.794 0) (end 2.794 0) (radius (at 0 0) (length 2.794) (angles -179.9 -0.1))
        (stroke (width 0.254))
      )
      (circle (center 0 0) (radius 2.032) (stroke (width 0.254)))
      (rectangle (start -10.16 10.16) (end 10.16 -10.16) (stroke (width 0.254)) (fill (type background)))
      (polyline
        (pts (xy -2.794 0) (xy -3.302 -0.508))
        (stroke (width 0.254))
      )
      (polyline
        (pts (xy -2.794 0) (xy -2.286 -0.508))
        (stroke (width 0.254))
      )
      (polyline
        (pts (xy 2.794 0) (xy 2.286 -0.508))
        (stroke (width 0.254))
      )
      (polyline
        (pts (xy 2.794 0) (xy 3.302 -0.508))
        (stroke (width 0.254))
      )
      (polyline
        (pts (xy 0.254 0.254) (xy 1.27 -0.762) (xy 0.762 -1.27) (xy -0.254 -0.254))
      )
      (polyline
        (pts (xy -0.762 1.27) (xy 0.254 0.254) (xy -0.254 -0.254) (xy -1.27 0.762)
             (xy -1.016 1.016) (xy -0.762 1.27) (xy -0.635 1.143)
        )
        (fill (type outline))
      )
      (pin input line (at -12.7 0 0) (length 2.54) (name "~CS") (number "1"))
      (pin output line (at 12.7 -2.54 180) (length 2.54) (name "U") (number "10"))
      (pin power_in line (at 0 12.7 270) (length 2.54) (name "VDD") (number "11"))
      (pin power_out line (at -12.7 -5.08 0) (length 2.54) (name "VDD3V3") (number "12"))
      (pin power_in line (at 0 -12.7 90) (length 2.54) (name "GND") (number "13"))
      (pin output line (at 12.7 2.54 180) (length 2.54) (name "I/PWM") (number "14"))
      (pin input line (at -12.7 2.54 0) (length 2.54) (name "CLK") (number "2"))
      (pin output line (at -12.7 5.08 0) (length 2.54) (name "MISO") (number "3"))
      (pin input line (at -12.7 7.62 0) (length 2.54) (name "MOSI") (number "4"))
      (pin input line (at -12.7 -7.62 0) (length 2.54) (name "TST") (number "5"))
      (pin output line (at 12.7 5.08 180) (length 2.54) (name "B") (number "6"))
      (pin output line (at 12.7 7.62 180) (length 2.54) (name "A") (number "7"))
      (pin output line (at 12.7 -7.62 180) (length 2.54) (name "W/PWM") (number "8"))
      (pin output line (at 12.7 -5.08 180) (length 2.54) (name "V") (number "9"))
    )
  )
  (symbol "Sensor_Magnetic:AS5048A" (pin_names (offset 0.508))
    (property "Reference" "U" (id 0) (at -10.16 11.43 0)
      (effects (font (size 1.27 1.27)) (justify left))
    )
    (property "Value" "AS5048A" (id 1) (at 10.16 11.43 0)
      (effects (font (size 1.27 1.27)) (justify right))
    )
    (property "Footprint" "Package_SO:TSSOP-14_4.4x5mm_P0.65mm" (id 2) (at 0 -19.05 0)
      (effects (font (size 1.27 1.27)) hide)
    )
    (property "Datasheet" "https://ams.com/documents/20143/36005/AS5048_DS000298_4-00.pdf" (id 3) (at -54.61 40.64 0)
      (effects (font (size 1.27 1.27)) hide)
    )
    (property "ki_keywords" "sensor magnetic hall position rotation spi" (id 4) (at 0 0 0)
      (effects (font (size 1.27 1.27)) hide)
    )
    (property "ki_description" "Magnetic position sensor, 14-bit, PWM output, SPI Interface, TSSOP-14" (id 5) (at 0 0 0)
      (effects (font (size 1.27 1.27)) hide)
    )
    (property "ki_fp_filters" "TSSOP*4.4x5mm*P0.65mm*" (id 6) (at 0 0 0)
      (effects (font (size 1.27 1.27)) hide)
    )
    (symbol "AS5048A_0_1"
      (arc (start -2.794 0) (end 2.794 0) (radius (at 0 0) (length 2.794) (angles -179.9 -0.1))
        (stroke (width 0.254))
      )
      (rectangle (start -10.16 10.16) (end 10.16 -10.16) (stroke (width 0.254)) (fill (type background)))
      (polyline
        (pts (xy -2.794 0) (xy -3.302 -0.508))
        (stroke (width 0.254))
      )
      (polyline
        (pts (xy -2.794 0) (xy -2.286 -0.508))
        (stroke (width 0.254))
      )
      (polyline
        (pts (xy 2.794 0) (xy 2.286 -0.508))
        (stroke (width 0.254))
      )
      (polyline
        (pts (xy 2.794 0) (xy 3.302 -0.508))
        (stroke (width 0.254))
      )
    )
    (symbol "AS5048A_1_1"
      (circle (center 0 0) (radius 2.032) (stroke (width 0.254)))
      (polyline
        (pts (xy 0.254 0.254) (xy 1.27 -0.762) (xy 0.762 -1.27) (xy -0.254 -0.254))
      )
      (polyline
        (pts (xy -0.762 1.27) (xy 0.254 0.254) (xy -0.254 -0.254) (xy -1.27 0.762)
             (xy -1.016 1.016) (xy -0.762 1.27) (xy -0.635 1.143)
        )
        (fill (type outline))
      )
      (pin input line (at -12.7 0 0) (length 2.54) (name "~CSn") (number "1"))
      (pin passive line (at 5.08 -12.7 90) (length 2.54) (name "TEST") (number "10"))
      (pin power_in line (at 0 12.7 270) (length 2.54) (name "VDD5V") (number "11"))
      (pin power_in line (at -2.54 12.7 270) (length 2.54) (name "VDD3V") (number "12"))
      (pin power_in line (at 7.62 -12.7 90) (length 2.54) (name "GND") (number "13"))
      (pin output line (at 12.7 0 180) (length 2.54) (name "PWM") (number "14"))
      (pin input line (at -12.7 2.54 0) (length 2.54) (name "CLK") (number "2"))
      (pin output line (at -12.7 5.08 0) (length 2.54) (name "MISO") (number "3"))
      (pin input line (at -12.7 7.62 0) (length 2.54) (name "MOSI") (number "4"))
      (pin passive line (at -7.62 -12.7 90) (length 2.54) (name "TEST") (number "5"))
      (pin passive line (at -5.08 -12.7 90) (length 2.54) (name "TEST") (number "6"))
      (pin passive line (at -2.54 -12.7 90) (length 2.54) (name "TEST") (number "7"))
      (pin passive line (at 0 -12.7 90) (length 2.54) (name "TEST") (number "8"))
      (pin passive line (at 2.54 -12.7 90) (length 2.54) (name "TEST") (number "9"))
    )
  )
  (symbol "Sensor_Magnetic:AS5048B" (pin_names (offset 0.508))
    (property "Reference" "U" (id 0) (at -10.16 11.43 0)
      (effects (font (size 1.27 1.27)) (justify left))
    )
    (property "Value" "AS5048B" (id 1) (at 10.16 11.43 0)
      (effects (font (size 1.27 1.27)) (justify right))
    )
    (property "Footprint" "Package_SO:TSSOP-14_4.4x5mm_P0.65mm" (id 2) (at 0 -19.05 0)
      (effects (font (size 1.27 1.27)) hide)
    )
    (property "Datasheet" "https://ams.com/documents/20143/36005/AS5048_DS000298_4-00.pdf" (id 3) (at -54.61 40.64 0)
      (effects (font (size 1.27 1.27)) hide)
    )
    (property "ki_keywords" "sensor magnetic hall position rotation i2c" (id 4) (at 0 0 0)
      (effects (font (size 1.27 1.27)) hide)
    )
    (property "ki_description" "Magnetic position sensor, 14-bit, PWM output, I2C Interface, TSSOP-14" (id 5) (at 0 0 0)
      (effects (font (size 1.27 1.27)) hide)
    )
    (property "ki_fp_filters" "TSSOP*4.4x5mm*P0.65mm*" (id 6) (at 0 0 0)
      (effects (font (size 1.27 1.27)) hide)
    )
    (symbol "AS5048B_0_1"
      (arc (start -2.794 0) (end 2.794 0) (radius (at 0 0) (length 2.794) (angles -179.9 -0.1))
        (stroke (width 0.254))
      )
      (rectangle (start -10.16 10.16) (end 10.16 -10.16) (stroke (width 0.254)) (fill (type background)))
      (polyline
        (pts (xy -2.794 0) (xy -3.302 -0.508))
        (stroke (width 0.254))
      )
      (polyline
        (pts (xy -2.794 0) (xy -2.286 -0.508))
        (stroke (width 0.254))
      )
      (polyline
        (pts (xy 2.794 0) (xy 2.286 -0.508))
        (stroke (width 0.254))
      )
      (polyline
        (pts (xy 2.794 0) (xy 3.302 -0.508))
        (stroke (width 0.254))
      )
    )
    (symbol "AS5048B_1_1"
      (circle (center 0 0) (radius 2.032) (stroke (width 0.254)))
      (polyline
        (pts (xy 0.254 0.254) (xy 1.27 -0.762) (xy 0.762 -1.27) (xy -0.254 -0.254))
      )
      (polyline
        (pts (xy -0.762 1.27) (xy 0.254 0.254) (xy -0.254 -0.254) (xy -1.27 0.762)
             (xy -1.016 1.016) (xy -0.762 1.27) (xy -0.635 1.143)
        )
        (fill (type outline))
      )
      (pin bidirectional line (at -12.7 0 0) (length 2.54) (name "SDA") (number "1"))
      (pin passive line (at 5.08 -12.7 90) (length 2.54) (name "TEST") (number "10"))
      (pin power_in line (at 0 12.7 270) (length 2.54) (name "VDD5V") (number "11"))
      (pin power_in line (at -2.54 12.7 270) (length 2.54) (name "VDD3V") (number "12"))
      (pin power_in line (at 7.62 -12.7 90) (length 2.54) (name "GND") (number "13"))
      (pin output line (at 12.7 0 180) (length 2.54) (name "PWM") (number "14"))
      (pin input line (at -12.7 2.54 0) (length 2.54) (name "SCL") (number "2"))
      (pin input line (at -12.7 5.08 0) (length 2.54) (name "A2") (number "3"))
      (pin input line (at -12.7 7.62 0) (length 2.54) (name "A1") (number "4"))
      (pin passive line (at -7.62 -12.7 90) (length 2.54) (name "TEST") (number "5"))
      (pin passive line (at -5.08 -12.7 90) (length 2.54) (name "TEST") (number "6"))
      (pin passive line (at -2.54 -12.7 90) (length 2.54) (name "TEST") (number "7"))
      (pin passive line (at 0 -12.7 90) (length 2.54) (name "TEST") (number "8"))
      (pin passive line (at 2.54 -12.7 90) (length 2.54) (name "TEST") (number "9"))
    )
  )
  (symbol "Sensor_Magnetic:AS5055A" (pin_names (offset 0.508))
    (property "Reference" "U" (id 0) (at -10.16 11.43 0)
      (effects (font (size 1.27 1.27)) (justify left))
    )
    (property "Value" "AS5055A" (id 1) (at 10.16 11.43 0)
      (effects (font (size 1.27 1.27)) (justify right))
    )
    (property "Footprint" "Package_DFN_QFN:QFN-16-1EP_4x4mm_P0.65mm_EP2.7x2.7mm_PullBack" (id 2) (at 0 -19.05 0)
      (effects (font (size 1.27 1.27)) hide)
    )
    (property "Datasheet" "https://ams.com/documents/20143/36005/AS5055A_DS000304_2-00.pdf" (id 3) (at -54.61 40.64 0)
      (effects (font (size 1.27 1.27)) hide)
    )
    (property "ki_keywords" "sensor magnetic hall position rotation spi" (id 4) (at 0 0 0)
      (effects (font (size 1.27 1.27)) hide)
    )
    (property "ki_description" "Magnetic position sensor, 12-bit, SPI interface, QFN-16" (id 5) (at 0 0 0)
      (effects (font (size 1.27 1.27)) hide)
    )
    (property "ki_fp_filters" "QFN*1EP*4x4mm*P0.65mm*PullBack*" (id 6) (at 0 0 0)
      (effects (font (size 1.27 1.27)) hide)
    )
    (symbol "AS5055A_0_1"
      (arc (start -2.794 0) (end 2.794 0) (radius (at 0 0) (length 2.794) (angles -179.9 -0.1))
        (stroke (width 0.254))
      )
      (rectangle (start -10.16 10.16) (end 10.16 -10.16) (stroke (width 0.254)) (fill (type background)))
      (polyline
        (pts (xy -2.794 0) (xy -3.302 -0.508))
        (stroke (width 0.254))
      )
      (polyline
        (pts (xy -2.794 0) (xy -2.286 -0.508))
        (stroke (width 0.254))
      )
      (polyline
        (pts (xy 2.794 0) (xy 2.286 -0.508))
        (stroke (width 0.254))
      )
      (polyline
        (pts (xy 2.794 0) (xy 3.302 -0.508))
        (stroke (width 0.254))
      )
    )
    (symbol "AS5055A_1_1"
      (circle (center 0 0) (radius 2.032) (stroke (width 0.254)))
      (polyline
        (pts (xy 0.254 0.254) (xy 1.27 -0.762) (xy 0.762 -1.27) (xy -0.254 -0.254))
      )
      (polyline
        (pts (xy -0.762 1.27) (xy 0.254 0.254) (xy -0.254 -0.254) (xy -1.27 0.762)
             (xy -1.016 1.016) (xy -0.762 1.27) (xy -0.635 1.143)
        )
        (fill (type outline))
      )
      (pin input line (at -12.7 7.62 0) (length 2.54) (name "MOSI") (number "1"))
      (pin input line (at -12.7 -7.62 0) (length 2.54) (name "~EN_INT") (number "10"))
      (pin power_in line (at 0 12.7 270) (length 2.54) (name "VDDp") (number "11"))
      (pin power_in line (at -2.54 12.7 270) (length 2.54) (name "VDD") (number "12"))
      (pin power_in line (at 2.54 -12.7 90) (length 2.54) (name "VSS") (number "13"))
      (pin input line (at -12.7 -2.54 0) (length 2.54) (name "WM") (number "14"))
      (pin output line (at -12.7 -5.08 0) (length 2.54) (name "~INT") (number "15"))
      (pin unconnected line (at 5.08 -10.16 90) (length 2.54) (name "NC") (number "16") hide)
      (pin unconnected line (at 7.62 -10.16 90) (length 2.54) (name "NC") (number "17") hide)
      (pin output line (at -12.7 5.08 0) (length 2.54) (name "MISO") (number "2"))
      (pin input line (at -12.7 2.54 0) (length 2.54) (name "SCK") (number "3"))
      (pin input line (at -12.7 0 0) (length 2.54) (name "~SS") (number "4"))
      (pin unconnected line (at 10.16 7.62 180) (length 2.54) (name "NC") (number "5") hide)
      (pin unconnected line (at 10.16 5.08 180) (length 2.54) (name "NC") (number "6") hide)
      (pin unconnected line (at 10.16 2.54 180) (length 2.54) (name "NC") (number "7") hide)
      (pin unconnected line (at 10.16 0 180) (length 2.54) (name "NC") (number "8") hide)
      (pin passive line (at 0 -12.7 90) (length 2.54) (name "TEST") (number "9"))
    )
  )
  (symbol "Sensor_Magnetic:AS5050A" (extends "AS5055A")
    (property "Value" "AS5050A" (id 1) (at 10.16 11.43 0)
      (effects (font (size 1.27 1.27)) (justify right))
    )
    (property "Datasheet" "https://ams.com/documents/20143/36005/AS5055A_DS000304_2-00.pdf" (id 3) (at -54.61 40.64 0)
      (effects (font (size 1.27 1.27)) hide)
    )
    (property "ki_keywords" "sensor magnetic hall position rotation spi" (id 4) (at 0 0 0)
      (effects (font (size 1.27 1.27)) hide)
    )
    (property "ki_description" "Magnetic position sensor, 10-bit, SPI interface, QFN-16" (id 5) (at 0 0 0)
      (effects (font (size 1.27 1.27)) hide)
    )
  )
  (symbol "Sensor_Magnetic:BMM150" (pin_names (offset 0.508))
    (property "Reference" "U" (id 0) (at -10.16 6.35 0)
      (effects (font (size 1.27 1.27)) (justify left))
    )
    (property "Value" "BMM150" (id 1) (at 7.62 6.35 0)
      (effects (font (size 1.27 1.27)) (justify right))
    )
    (property "Footprint" "Package_CSP:WLCSP-12_1.56x1.56mm_P0.4mm" (id 2) (at -11.43 3.81 0)
      (effects (font (size 1.27 1.27)) hide)
    )
    (property "Datasheet" "https://www.mouser.com/datasheet/2/783/BST-BMM150-DS001-01-786480.pdf" (id 3) (at -8.89 6.35 0)
      (effects (font (size 1.27 1.27)) hide)
    )
    (property "ki_keywords" "BOSH Geomagnetic Sensor" (id 4) (at 0 0 0)
      (effects (font (size 1.27 1.27)) hide)
    )
    (property "ki_description" "Geomagnetic Sensor, WLCSP-12" (id 5) (at 0 0 0)
      (effects (font (size 1.27 1.27)) hide)
    )
    (property "ki_fp_filters" "WLCSP*1.56x1.56mm*P0.4mm*" (id 6) (at 0 0 0)
      (effects (font (size 1.27 1.27)) hide)
    )
    (symbol "BMM150_0_1"
      (rectangle (start -10.16 5.08) (end 7.62 -7.62) (stroke (width 0.254)) (fill (type background)))
    )
    (symbol "BMM150_1_1"
      (pin input line (at 10.16 -5.08 180) (length 2.54) (name "PS") (number "A1"))
      (pin bidirectional line (at -12.7 -2.54 0) (length 2.54) (name "SCK") (number "A3"))
      (pin input line (at -12.7 -5.08 0) (length 2.54) (name "CSB") (number "A5"))
      (pin power_in line (at -2.54 7.62 270) (length 2.54) (name "VDDIO") (number "B2"))
      (pin bidirectional line (at -12.7 2.54 0) (length 2.54) (name "SDI") (number "B4"))
      (pin bidirectional line (at -12.7 0 0) (length 2.54) (name "SDO") (number "C1"))
      (pin power_in line (at 0 -10.16 90) (length 2.54) (name "GND") (number "C5"))
      (pin output line (at 10.16 0 180) (length 2.54) (name "INT") (number "D2"))
      (pin output line (at 10.16 2.54 180) (length 2.54) (name "DRDY") (number "D4"))
      (pin passive line (at 0 -10.16 90) (length 2.54) (name "GND") (number "E1") hide)
      (pin passive line (at 0 -10.16 90) (length 2.54) (name "GND") (number "E3") hide)
      (pin power_in line (at 0 7.62 270) (length 2.54) (name "VDD") (number "E5"))
    )
  )
  (symbol "Sensor_Magnetic:IST8310" (pin_names (offset 0.508))
    (property "Reference" "U" (id 0) (at -7.62 11.43 0))
    (property "Value" "IST8310" (id 1) (at 10.16 11.43 0))
    (property "Footprint" "Package_LGA:LGA-16_3x3mm_P0.5mm" (id 2) (at 0 0 0)
      (effects (font (size 1.27 1.27)) hide)
    )
    (property "Datasheet" "http://www.isentek.com/en/dlf.php?file=../ISENTEK/(201703-09)IST8310%20Datasheet%20v1.2_brief-105.09.20.pdf" (id 3) (at 0 0 0)
      (effects (font (size 1.27 1.27)) hide)
    )
    (property "ki_keywords" "magnet field sensor compass" (id 4) (at 0 0 0)
      (effects (font (size 1.27 1.27)) hide)
    )
    (property "ki_description" "3D Magnetometer, I2C Interface, LGA-16" (id 5) (at 0 0 0)
      (effects (font (size 1.27 1.27)) hide)
    )
    (property "ki_fp_filters" "LGA*3x3mm*P0.5mm*" (id 6) (at 0 0 0)
      (effects (font (size 1.27 1.27)) hide)
    )
    (symbol "IST8310_0_1"
      (rectangle (start -7.62 10.16) (end 7.62 -10.16) (stroke (width 0.254)) (fill (type background)))
    )
    (symbol "IST8310_1_1"
      (pin input line (at -10.16 0 0) (length 2.54) (name "SCL") (number "1"))
      (pin passive line (at 10.16 2.54 180) (length 2.54) (name "C1") (number "10"))
      (pin passive line (at 0 -12.7 90) (length 2.54) (name "VSS") (number "11") hide)
      (pin unconnected line (at 7.62 7.62 180) (length 2.54) (name "NC") (number "12") hide)
      (pin power_in line (at 0 12.7 270) (length 2.54) (name "DVDD") (number "13"))
      (pin input line (at -10.16 -7.62 0) (length 2.54) (name "~RST") (number "14"))
      (pin output line (at -10.16 -2.54 0) (length 2.54) (name "DRDY") (number "15"))
      (pin bidirectional line (at -10.16 2.54 0) (length 2.54) (name "SDA") (number "16"))
      (pin power_in line (at -2.54 12.7 270) (length 2.54) (name "AVDD") (number "2"))
      (pin unconnected line (at -7.62 7.62 0) (length 2.54) (name "NC") (number "3") hide)
      (pin unconnected line (at -7.62 5.08 0) (length 2.54) (name "NC") (number "4") hide)
      (pin input line (at 10.16 -5.08 180) (length 2.54) (name "CAD0") (number "5"))
      (pin input line (at 10.16 -7.62 180) (length 2.54) (name "CAD1") (number "6"))
      (pin passive line (at 2.54 12.7 270) (length 2.54) (name "VPP") (number "7"))
      (pin unconnected line (at 7.62 5.08 180) (length 2.54) (name "NC") (number "8") hide)
      (pin power_in line (at 0 -12.7 90) (length 2.54) (name "VSS") (number "9"))
    )
  )
  (symbol "Sensor_Magnetic:IST8308" (extends "IST8310")
    (property "Value" "IST8308" (id 1) (at 10.16 11.43 0))
    (property "Datasheet" "http://www.isentek.com/en/dlf.php?file=../ISENTEK/(201703-20)IST8308%20Datasheet%20v1.0_brief.pdf" (id 3) (at 0 0 0)
      (effects (font (size 1.27 1.27)) hide)
    )
    (property "ki_keywords" "magnet field sensor compass" (id 4) (at 0 0 0)
      (effects (font (size 1.27 1.27)) hide)
    )
    (property "ki_description" "3D Magnetometer, High Sensitivity, I2C Interface, LGA-16" (id 5) (at 0 0 0)
      (effects (font (size 1.27 1.27)) hide)
    )
  )
  (symbol "Sensor_Magnetic:MA730" (pin_names (offset 0.508))
    (property "Reference" "U" (id 0) (at -10.16 11.43 0)
      (effects (font (size 1.27 1.27)) (justify left))
    )
    (property "Value" "MA730" (id 1) (at 10.16 11.43 0)
      (effects (font (size 1.27 1.27)) (justify right))
    )
    (property "Footprint" "Package_DFN_QFN:QFN-16-1EP_3x3mm_P0.5mm_EP1.8x1.8mm" (id 2) (at 0 -24.13 0)
      (effects (font (size 1.27 1.27)) hide)
    )
    (property "Datasheet" "https://www.monolithicpower.com/pub/media/document/m/a/ma730_r1.01.pdf" (id 3) (at -54.61 40.64 0)
      (effects (font (size 1.27 1.27)) hide)
    )
    (property "ki_keywords" "sensor magnetic hall position rotation spi" (id 4) (at 0 0 0)
      (effects (font (size 1.27 1.27)) hide)
    )
    (property "ki_description" "Magnetic rotary angle sensor, 14-bit, SPI interface, ABZ, PWM, QFN-16" (id 5) (at 0 0 0)
      (effects (font (size 1.27 1.27)) hide)
    )
    (property "ki_fp_filters" "QFN*3x3mm*P0.5mm*EP1.8x1.8mm*" (id 6) (at 0 0 0)
      (effects (font (size 1.27 1.27)) hide)
    )
    (symbol "MA730_0_1"
      (arc (start -2.794 0) (end 2.794 0) (radius (at 0 0) (length 2.794) (angles -179.9 -0.1))
        (stroke (width 0.254))
      )
      (rectangle (start -10.16 10.16) (end 10.16 -10.16) (stroke (width 0.254)) (fill (type background)))
      (polyline
        (pts (xy -2.794 0) (xy -3.302 -0.508))
        (stroke (width 0.254))
      )
      (polyline
        (pts (xy -2.794 0) (xy -2.286 -0.508))
        (stroke (width 0.254))
      )
      (polyline
        (pts (xy 2.794 0) (xy 2.286 -0.508))
        (stroke (width 0.254))
      )
      (polyline
        (pts (xy 2.794 0) (xy 3.302 -0.508))
        (stroke (width 0.254))
      )
    )
    (symbol "MA730_1_1"
      (circle (center 0 0) (radius 2.032) (stroke (width 0.254)))
      (polyline
        (pts (xy 0.254 0.254) (xy 1.27 -0.762) (xy 0.762 -1.27) (xy -0.254 -0.254))
      )
      (polyline
        (pts (xy -0.762 1.27) (xy 0.254 0.254) (xy -0.254 -0.254) (xy -1.27 0.762)
             (xy -1.016 1.016) (xy -0.762 1.27) (xy -0.635 1.143)
        )
        (fill (type outline))
      )
      (pin output line (at -12.7 -5.08 0) (length 2.54) (name "SSD") (number "1"))
      (pin passive line (at 2.54 -12.7 90) (length 2.54) (name "TEST") (number "10"))
      (pin output line (at 12.7 2.54 180) (length 2.54) (name "MGL") (number "11"))
      (pin input line (at -12.7 2.54 0) (length 2.54) (name "SCLK") (number "12"))
      (pin power_in line (at 0 12.7 270) (length 2.54) (name "VDD") (number "13"))
      (pin unconnected line (at 5.08 -10.16 90) (length 2.54) (name "NC") (number "14") hide)
      (pin input line (at -12.7 -7.62 0) (length 2.54) (name "SSCK") (number "15"))
      (pin output line (at 12.7 5.08 180) (length 2.54) (name "MGH") (number "16"))
      (pin input line (at -2.54 -12.7 90) (length 2.54) (name "PAD") (number "17"))
      (pin output line (at 12.7 -2.54 180) (length 2.54) (name "A") (number "2"))
      (pin output line (at 12.7 -7.62 180) (length 2.54) (name "Z") (number "3"))
      (pin input line (at -12.7 7.62 0) (length 2.54) (name "MOSI") (number "4"))
      (pin input line (at -12.7 0 0) (length 2.54) (name "~CS") (number "5"))
      (pin output line (at 12.7 -5.08 180) (length 2.54) (name "B") (number "6"))
      (pin output line (at -12.7 5.08 0) (length 2.54) (name "MISO") (number "7"))
      (pin power_in line (at 0 -12.7 90) (length 2.54) (name "GND") (number "8"))
      (pin output line (at 12.7 7.62 180) (length 2.54) (name "PWM") (number "9"))
    )
  )
  (symbol "Sensor_Magnetic:MMC5883MA" (pin_names (offset 0.508))
    (property "Reference" "U" (id 0) (at -7.62 7.62 0)
      (effects (font (size 1.27 1.27)) (justify left top))
    )
    (property "Value" "MMC5883MA" (id 1) (at 5.08 7.62 0)
      (effects (font (size 1.27 1.27)) (justify left top))
    )
    (property "Footprint" "Package_LGA:LGA-16_3x3mm_P0.5mm" (id 2) (at 0 -17.78 0)
      (effects (font (size 1.27 1.27)) hide)
    )
    (property "Datasheet" "http://www.memsic.com/userfiles/files/DataSheets/Magnetic-Sensors-Datasheets/MMC5883MA-RevC.pdf" (id 3) (at -2.54 0 0)
      (effects (font (size 1.27 1.27)) hide)
    )
    (property "ki_keywords" "I2C magnetic 3-axis sensor" (id 4) (at 0 0 0)
      (effects (font (size 1.27 1.27)) hide)
    )
    (property "ki_description" "3-axis Magnetic Sensor, I2C Interface, LGA-16" (id 5) (at 0 0 0)
      (effects (font (size 1.27 1.27)) hide)
    )
    (property "ki_fp_filters" "*LGA*3x3mm*P0.5mm*" (id 6) (at 0 0 0)
      (effects (font (size 1.27 1.27)) hide)
    )
    (symbol "MMC5883MA_0_1"
      (rectangle (start -7.62 -5.08) (end 7.62 5.08) (stroke (width 0.254)) (fill (type background)))
    )
    (symbol "MMC5883MA_1_1"
      (pin input line (at -10.16 2.54 0) (length 2.54) (name "SCL") (number "1"))
      (pin passive line (at 10.16 0 180) (length 2.54) (name "CAP") (number "10"))
      (pin passive line (at 0 -7.62 90) (length 2.54) (name "GND") (number "11") hide)
      (pin unconnected line (at 5.08 -5.08 90) (length 2.54) (name "NC") (number "12") hide)
      (pin power_in line (at 2.54 7.62 270) (length 2.54) (name "VDDIO") (number "13"))
      (pin unconnected line (at -2.54 -5.08 90) (length 2.54) (name "NC") (number "14") hide)
      (pin output line (at -10.16 -2.54 0) (length 2.54) (name "INT") (number "15"))
      (pin bidirectional line (at -10.16 0 0) (length 2.54) (name "SDA") (number "16"))
      (pin power_in line (at 0 7.62 270) (length 2.54) (name "VDD") (number "2"))
      (pin unconnected line (at 7.62 -5.08 180) (length 2.54) (name "NC") (number "3") hide)
      (pin unconnected line (at 7.62 2.54 180) (length 2.54) (name "NC") (number "4") hide)
      (pin unconnected line (at 7.62 5.08 180) (length 2.54) (name "NC") (number "5") hide)
      (pin unconnected line (at 7.62 -2.54 180) (length 2.54) (name "NC") (number "6") hide)
      (pin unconnected line (at -5.08 -5.08 90) (length 2.54) (name "NC") (number "7") hide)
      (pin unconnected line (at 2.54 -5.08 90) (length 2.54) (name "NC") (number "8") hide)
      (pin power_in line (at 0 -7.62 90) (length 2.54) (name "GND") (number "9"))
    )
  )
  (symbol "Sensor_Magnetic:SM351LT" (pin_names (offset 0.508))
    (property "Reference" "U" (id 0) (at 5.08 8.89 0))
    (property "Value" "SM351LT" (id 1) (at 2.54 6.35 0))
    (property "Footprint" "Package_TO_SOT_SMD:SOT-23" (id 2) (at -1.27 0 0)
      (effects (font (size 1.27 1.27)) hide)
    )
    (property "Datasheet" "https://sensing.honeywell.com/honeywell-sensing-nanopower-series-product-sheet-50095501-a-en.pdf" (id 3) (at -1.27 0 0)
      (effects (font (size 1.27 1.27)) hide)
    )
    (property "ki_keywords" "Hall Effect Switch Sensor" (id 4) (at 0 0 0)
      (effects (font (size 1.27 1.27)) hide)
    )
    (property "ki_description" "Hall Effect Switch, SOT-23" (id 5) (at 0 0 0)
      (effects (font (size 1.27 1.27)) hide)
    )
    (property "ki_fp_filters" "SOT?23*" (id 6) (at 0 0 0)
      (effects (font (size 1.27 1.27)) hide)
    )
    (symbol "SM351LT_0_1"
      (rectangle (start 7.62 5.08) (end -7.62 -5.08) (stroke (width 0.254)) (fill (type background)))
    )
    (symbol "SM351LT_1_1"
      (pin power_in line (at -5.08 7.62 270) (length 2.54) (name "VCC") (number "1"))
      (pin output line (at 10.16 0 180) (length 2.54) (name "OUTPUT") (number "2"))
      (pin power_in line (at -5.08 -7.62 90) (length 2.54) (name "GND") (number "3"))
    )
  )
  (symbol "Sensor_Magnetic:SM353LT" (extends "SM351LT")
    (property "Value" "SM353LT" (id 1) (at 2.54 6.35 0))
    (property "Datasheet" "https://sensing.honeywell.com/honeywell-sensing-nanopower-series-product-sheet-50095501-a-en.pdf" (id 3) (at -1.27 0 0)
      (effects (font (size 1.27 1.27)) hide)
    )
    (property "ki_keywords" "Hall Effect Switch Sensor" (id 4) (at 0 0 0)
      (effects (font (size 1.27 1.27)) hide)
    )
    (property "ki_description" "Hall Effect Switch, SOT-23" (id 5) (at 0 0 0)
      (effects (font (size 1.27 1.27)) hide)
    )
  )
  (symbol "Sensor_Magnetic:TLV493D" (pin_names (offset 0.508))
    (property "Reference" "U" (id 0) (at -6.35 11.43 0))
    (property "Value" "TLV493D" (id 1) (at 5.08 11.43 0))
    (property "Footprint" "Package_TO_SOT_SMD:SOT-23-6" (id 2) (at -1.27 -12.7 0)
      (effects (font (size 1.27 1.27)) hide)
    )
    (property "Datasheet" "http://www.infineon.com/dgdl/Infineon-TLV493D-A1B6-DS-v01_00-EN.pdf?fileId=5546d462525dbac40152a6b85c760e80" (id 3) (at -3.81 12.7 0)
      (effects (font (size 1.27 1.27)) hide)
    )
    (property "ki_keywords" "magnetic field i2c" (id 4) (at 0 0 0)
      (effects (font (size 1.27 1.27)) hide)
    )
    (property "ki_description" "Low power 3D magnetic sensor, I2C interface, SOT-23-6" (id 5) (at 0 0 0)
      (effects (font (size 1.27 1.27)) hide)
    )
    (property "ki_fp_filters" "SOT?23*" (id 6) (at 0 0 0)
      (effects (font (size 1.27 1.27)) hide)
    )
    (symbol "TLV493D_0_1"
      (rectangle (start -7.62 10.16) (end 6.35 -7.62) (stroke (width 0.254)) (fill (type background)))
    )
    (symbol "TLV493D_1_1"
      (pin bidirectional line (at -10.16 2.54 0) (length 2.54) (name "SCL/INT") (number "1"))
      (pin power_in line (at 2.54 -10.16 90) (length 2.54) (name "GND") (number "2"))
      (pin power_in line (at 0 -10.16 90) (length 2.54) (name "GND") (number "3"))
      (pin power_in line (at 0 12.7 270) (length 2.54) (name "VDD") (number "4"))
      (pin power_in line (at -2.54 -10.16 90) (length 2.54) (name "GND") (number "5"))
      (pin bidirectional line (at -10.16 0 0) (length 2.54) (name "SDA/ADDR") (number "6"))
    )
  )
)
