(kicad_symbol_lib (version 20200126) (host kicad_symbol_editor "(5.99.0-1517-ga8407fba4)")
  (symbol "Sensor_Audio:IM69D120" (pin_names (offset 0.254))
    (property "Reference" "MK" (id 0) (at -7.62 6.35 0)
      (effects (font (size 1.27 1.27)) (justify left))
    )
    (property "Value" "IM69D120" (id 1) (at 1.27 6.35 0)
      (effects (font (size 1.27 1.27)) (justify left))
    )
    (property "Footprint" "Sensor_Audio:Infineon_PG-LLGA-5-1" (id 2) (at 17.78 -7.62 0)
      (effects (font (size 1.27 1.27) italic) hide)
    )
    (property "Datasheet" "https://www.infineon.com/dgdl/Infineon-IM69D120-DS-v01_00-EN.pdf?fileId=5546d462602a9dc801607a0e41a01a2b" (id 3) (at 0 0 0)
      (effects (font (size 1.27 1.27)) hide)
    )
    (property "ki_keywords" "mems microphone" (id 4) (at 0 0 0)
      (effects (font (size 1.27 1.27)) hide)
    )
    (property "ki_description" "High performance digital XENSIV MEMS microphone, -26 dBFS Sensitivity, LLGA-5" (id 5) (at 0 0 0)
      (effects (font (size 1.27 1.27)) hide)
    )
    (property "ki_fp_filters" "Infineon*PG*LLGA*" (id 6) (at 0 0 0)
      (effects (font (size 1.27 1.27)) hide)
    )
    (symbol "IM69D120_0_1"
      (circle (center -3.81 0) (radius 1.27) (stroke (width 0.254)))
      (rectangle (start -7.62 5.08) (end 7.62 -5.08) (stroke (width 0.254)) (fill (type background)))
      (polyline
        (pts (xy -5.08 1.27) (xy -5.08 -1.27))
        (stroke (width 0.381))
      )
    )
    (symbol "IM69D120_1_1"
      (pin output line (at 10.16 -2.54 180) (length 2.54) (name "DATA") (number "1"))
      (pin power_in line (at 0 7.62 270) (length 2.54) (name "VDD") (number "2"))
      (pin input line (at 10.16 0 180) (length 2.54) (name "CLOCK") (number "3"))
      (pin input line (at 10.16 2.54 180) (length 2.54) (name "SELECT") (number "4"))
      (pin power_in line (at 0 -7.62 90) (length 2.54) (name "GND") (number "5"))
    )
  )
  (symbol "Sensor_Audio:IM69D130" (extends "IM69D120")
    (property "Value" "IM69D130" (id 1) (at 1.27 6.35 0)
      (effects (font (size 1.27 1.27)) (justify left))
    )
    (property "Datasheet" "https://www.infineon.com/dgdl/Infineon-IM69D130-DS-v01_00-EN.pdf?fileId=5546d462602a9dc801607a0e46511a2e" (id 3) (at 0 0 0)
      (effects (font (size 1.27 1.27)) hide)
    )
    (property "ki_keywords" "mems microphone" (id 4) (at 0 0 0)
      (effects (font (size 1.27 1.27)) hide)
    )
    (property "ki_description" "High performance digital XENSIV MEMS microphone, -36 dBFS Sensitivity, LLGA-5" (id 5) (at 0 0 0)
      (effects (font (size 1.27 1.27)) hide)
    )
  )
  (symbol "Sensor_Audio:MP45DT02" (pin_names (offset 0.508))
    (property "Reference" "MK" (id 0) (at -7.62 6.35 0)
      (effects (font (size 1.27 1.27)) (justify left))
    )
    (property "Value" "MP45DT02" (id 1) (at 1.27 -6.35 0)
      (effects (font (size 1.27 1.27)) (justify left))
    )
    (property "Footprint" "Sensor_Audio:ST_HLGA-6_3.76x4.72mm_P1.65mm" (id 2) (at -22.86 -8.89 0)
      (effects (font (size 1.27 1.27) italic) (justify left) hide)
    )
    (property "Datasheet" "http://www.st.com/st-web-ui/static/active/en/resource/technical/document/datasheet/DM00025467.pdf" (id 3) (at 0 0 0)
      (effects (font (size 1.27 1.27)) hide)
    )
    (property "ki_keywords" "MEMS Microphone" (id 4) (at 0 0 0)
      (effects (font (size 1.27 1.27)) hide)
    )
    (property "ki_description" "MEMS Omnidirectional Digital Microphone, HLGA-6" (id 5) (at 0 0 0)
      (effects (font (size 1.27 1.27)) hide)
    )
    (property "ki_fp_filters" "ST*HLGA*3.76x4.72mm*P1.65mm*" (id 6) (at 0 0 0)
      (effects (font (size 1.27 1.27)) hide)
    )
    (symbol "MP45DT02_0_1"
      (circle (center -3.81 0) (radius 1.27) (stroke (width 0.254)))
      (rectangle (start -7.62 5.08) (end 7.62 -5.08) (stroke (width 0.254)) (fill (type background)))
      (polyline
        (pts (xy -5.08 1.27) (xy -5.08 -1.27))
        (stroke (width 0.381))
      )
    )
    (symbol "MP45DT02_1_1"
      (pin power_in line (at 0 -7.62 90) (length 2.54) (name "GND") (number "1"))
      (pin input line (at 10.16 2.54 180) (length 2.54) (name "LR") (number "2"))
      (pin passive line (at 0 -7.62 90) (length 2.54) (name "GND") (number "3") hide)
      (pin input line (at 10.16 0 180) (length 2.54) (name "CLK") (number "4"))
      (pin output line (at 10.16 -2.54 180) (length 2.54) (name "DOUT") (number "5"))
      (pin power_in line (at 0 7.62 270) (length 2.54) (name "VDD") (number "6"))
    )
  )
)
