(kicad_symbol_lib (version 20200126) (host kicad_symbol_editor "(5.99.0-1517-ga8407fba4)")
  (symbol "Timer_PLL:ADF4002BCPZ" (pin_names (offset 0.508))
    (property "Reference" "U" (id 0) (at 12.7 16.51 0)
      (effects (font (size 1.27 1.27)) (justify right))
    )
    (property "Value" "ADF4002BCPZ" (id 1) (at 0 0 0))
    (property "Footprint" "Package_CSP:LFCSP-20-1EP_4x4mm_P0.5mm_EP2.1x2.1mm" (id 2) (at 0 2.54 0)
      (effects (font (size 1.27 1.27)) hide)
    )
    (property "Datasheet" "https://www.analog.com/media/en/technical-documentation/data-sheets/ADF4002.pdf" (id 3) (at 0 0 0)
      (effects (font (size 1.27 1.27)) hide)
    )
    (property "ki_keywords" "Analog Devices PFD" (id 4) (at 0 0 0)
      (effects (font (size 1.27 1.27)) hide)
    )
    (property "ki_description" "400MHz Bandwidth Frequency Synthesizer, LFCSP-20" (id 5) (at 0 0 0)
      (effects (font (size 1.27 1.27)) hide)
    )
    (property "ki_fp_filters" "LFCSP*4x4mm*P0.5mm*EP2.1x2.1mm*" (id 6) (at 0 0 0)
      (effects (font (size 1.27 1.27)) hide)
    )
    (symbol "ADF4002BCPZ_0_1"
      (rectangle (start -12.7 15.24) (end 12.7 -15.24) (stroke (width 0.254)) (fill (type background)))
    )
    (symbol "ADF4002BCPZ_1_1"
      (pin power_in line (at 5.08 -17.78 90) (length 2.54) (name "CPGND") (number "1"))
      (pin passive line (at -5.08 -17.78 90) (length 2.54) (name "DGND") (number "10") hide)
      (pin input line (at -15.24 -10.16 0) (length 2.54) (name "CE") (number "11"))
      (pin input line (at -15.24 0 0) (length 2.54) (name "CLK") (number "12"))
      (pin input line (at -15.24 -2.54 0) (length 2.54) (name "DATA") (number "13"))
      (pin input line (at -15.24 -5.08 0) (length 2.54) (name "LE") (number "14"))
      (pin output line (at 15.24 -5.08 180) (length 2.54) (name "MUXOUT") (number "15"))
      (pin power_in line (at -5.08 17.78 270) (length 2.54) (name "DVDD") (number "16"))
      (pin passive line (at -5.08 17.78 270) (length 2.54) (name "DVDD") (number "17") hide)
      (pin power_in line (at 5.08 17.78 270) (length 2.54) (name "VP") (number "18"))
      (pin input line (at -15.24 -12.7 0) (length 2.54) (name "RSET") (number "19"))
      (pin power_in line (at 0 -17.78 90) (length 2.54) (name "AGND") (number "2"))
      (pin output line (at 15.24 5.08 180) (length 2.54) (name "CP") (number "20"))
      (pin passive line (at 0 -17.78 90) (length 2.54) (name "AGND") (number "21") hide)
      (pin passive line (at 0 -17.78 90) (length 2.54) (name "AGND") (number "3") hide)
      (pin input line (at -15.24 5.08 0) (length 2.54) (name "RFINB") (number "4"))
      (pin input line (at -15.24 7.62 0) (length 2.54) (name "RFINA") (number "5"))
      (pin passive line (at 0 17.78 270) (length 2.54) (name "AVDD") (number "6") hide)
      (pin power_in line (at 0 17.78 270) (length 2.54) (name "AVDD") (number "7"))
      (pin input line (at -15.24 12.7 0) (length 2.54) (name "REFIN") (number "8"))
      (pin power_in line (at -5.08 -17.78 90) (length 2.54) (name "DGND") (number "9"))
    )
  )
  (symbol "Timer_PLL:ADF4002BRUZ" (pin_names (offset 0.508))
    (property "Reference" "U" (id 0) (at 12.7 16.51 0)
      (effects (font (size 1.27 1.27)) (justify right))
    )
    (property "Value" "ADF4002BRUZ" (id 1) (at 0 0 0))
    (property "Footprint" "Package_SO:TSSOP-16_4.4x5mm_P0.65mm" (id 2) (at 0 2.54 0)
      (effects (font (size 1.27 1.27)) hide)
    )
    (property "Datasheet" "https://www.analog.com/media/en/technical-documentation/data-sheets/ADF4002.pdf" (id 3) (at 0 0 0)
      (effects (font (size 1.27 1.27)) hide)
    )
    (property "ki_keywords" "Analog Devices PFD" (id 4) (at 0 0 0)
      (effects (font (size 1.27 1.27)) hide)
    )
    (property "ki_description" "400MHz Bandwidth Frequency Synthesizer, TSSOP-16" (id 5) (at 0 0 0)
      (effects (font (size 1.27 1.27)) hide)
    )
    (property "ki_fp_filters" "TSSOP*4.4x5mm*P0.65mm*" (id 6) (at 0 0 0)
      (effects (font (size 1.27 1.27)) hide)
    )
    (symbol "ADF4002BRUZ_0_1"
      (rectangle (start -12.7 15.24) (end 12.7 -15.24) (stroke (width 0.254)) (fill (type background)))
    )
    (symbol "ADF4002BRUZ_1_1"
      (pin input line (at -15.24 -12.7 0) (length 2.54) (name "RSET") (number "1"))
      (pin input line (at -15.24 -10.16 0) (length 2.54) (name "CE") (number "10"))
      (pin input line (at -15.24 0 0) (length 2.54) (name "CLK") (number "11"))
      (pin input line (at -15.24 -2.54 0) (length 2.54) (name "DATA") (number "12"))
      (pin input line (at -15.24 -5.08 0) (length 2.54) (name "LE") (number "13"))
      (pin output line (at 15.24 -5.08 180) (length 2.54) (name "MUXOUT") (number "14"))
      (pin power_in line (at -5.08 17.78 270) (length 2.54) (name "DVDD") (number "15"))
      (pin power_in line (at 5.08 17.78 270) (length 2.54) (name "VP") (number "16"))
      (pin output line (at 15.24 5.08 180) (length 2.54) (name "CP") (number "2"))
      (pin power_in line (at 5.08 -17.78 90) (length 2.54) (name "CPGND") (number "3"))
      (pin power_in line (at 0 -17.78 90) (length 2.54) (name "AGND") (number "4"))
      (pin input line (at -15.24 5.08 0) (length 2.54) (name "RFINB") (number "5"))
      (pin input line (at -15.24 7.62 0) (length 2.54) (name "RFINA") (number "6"))
      (pin power_in line (at 0 17.78 270) (length 2.54) (name "AVDD") (number "7"))
      (pin input line (at -15.24 12.7 0) (length 2.54) (name "REFIN") (number "8"))
      (pin power_in line (at -5.08 -17.78 90) (length 2.54) (name "DGND") (number "9"))
    )
  )
  (symbol "Timer_PLL:ADF4158" (pin_names (offset 0.508))
    (property "Reference" "U" (id 0) (at 0 2.54 0))
    (property "Value" "ADF4158" (id 1) (at 0 0 0))
    (property "Footprint" "Package_CSP:LFCSP-24-1EP_4x4mm_P0.5mm_EP2.5x2.5mm" (id 2) (at 0 0 0)
      (effects (font (size 1.27 1.27)) hide)
    )
    (property "Datasheet" "https://www.analog.com/media/en/technical-documentation/data-sheets/ADF4158.pdf" (id 3) (at 0 0 0)
      (effects (font (size 1.27 1.27)) hide)
    )
    (property "ki_keywords" "fractional-N PLL" (id 4) (at 0 0 0)
      (effects (font (size 1.27 1.27)) hide)
    )
    (property "ki_description" "0.5-6.1GHz fractional-N PLL, LFCSP-24" (id 5) (at 0 0 0)
      (effects (font (size 1.27 1.27)) hide)
    )
    (property "ki_fp_filters" "LFCSP*1EP*4x4mm*P0.5mm*" (id 6) (at 0 0 0)
      (effects (font (size 1.27 1.27)) hide)
    )
    (symbol "ADF4158_0_1"
      (rectangle (start -15.24 15.24) (end 15.24 -15.24) (stroke (width 0.254)) (fill (type background)))
    )
    (symbol "ADF4158_1_1"
      (pin power_in line (at -2.54 -17.78 90) (length 2.54) (name "CPGND") (number "1"))
      (pin power_in line (at 2.54 -17.78 90) (length 2.54) (name "DGND") (number "10"))
      (pin power_in line (at 5.08 -17.78 90) (length 2.54) (name "SDGND") (number "11"))
      (pin input line (at -17.78 2.54 0) (length 2.54) (name "TXDATA") (number "12"))
      (pin input line (at -17.78 12.7 0) (length 2.54) (name "CE") (number "13"))
      (pin input line (at -17.78 -2.54 0) (length 2.54) (name "CLK") (number "14"))
      (pin input line (at -17.78 -5.08 0) (length 2.54) (name "DATA") (number "15"))
      (pin input line (at -17.78 -7.62 0) (length 2.54) (name "LE") (number "16"))
      (pin output line (at 17.78 -2.54 180) (length 2.54) (name "MUXOUT") (number "17"))
      (pin power_in line (at 0 17.78 270) (length 2.54) (name "SDVDD") (number "18"))
      (pin power_in line (at 2.54 17.78 270) (length 2.54) (name "DVDD") (number "19"))
      (pin power_in line (at 0 -17.78 90) (length 2.54) (name "AGND") (number "2"))
      (pin passive line (at 17.78 2.54 180) (length 2.54) (name "SW1") (number "20"))
      (pin passive line (at 17.78 12.7 180) (length 2.54) (name "SW2") (number "21"))
      (pin power_in line (at 5.08 17.78 270) (length 2.54) (name "VP") (number "22"))
      (pin passive line (at -17.78 -12.7 0) (length 2.54) (name "RSET") (number "23"))
      (pin output line (at 17.78 7.62 180) (length 2.54) (name "CP") (number "24"))
      (pin passive line (at 0 -17.78 90) (length 2.54) (name "AGND") (number "25") hide)
      (pin passive line (at 0 -17.78 90) (length 2.54) (name "AGND") (number "3") hide)
      (pin input line (at 17.78 -7.62 180) (length 2.54) (name "RFINB") (number "4"))
      (pin input line (at 17.78 -10.16 180) (length 2.54) (name "RFINA") (number "5"))
      (pin power_in line (at -2.54 17.78 270) (length 2.54) (name "AVDD") (number "6"))
      (pin passive line (at -2.54 17.78 270) (length 2.54) (name "AVDD") (number "7") hide)
      (pin passive line (at -2.54 17.78 270) (length 2.54) (name "AVDD") (number "8") hide)
      (pin input line (at -17.78 7.62 0) (length 2.54) (name "REFIN") (number "9"))
    )
  )
  (symbol "Timer_PLL:ADF4351"
    (property "Reference" "U" (id 0) (at 0 1.27 0))
    (property "Value" "ADF4351" (id 1) (at 0 -1.27 0))
    (property "Footprint" "Package_CSP:LFCSP-32-1EP_5x5mm_P0.5mm_EP3.25x3.25mm" (id 2) (at 0 0 0)
      (effects (font (size 1.27 1.27)) hide)
    )
    (property "Datasheet" "https://www.analog.com/media/en/technical-documentation/data-sheets/ADF4351.pdf" (id 3) (at 0 0 0)
      (effects (font (size 1.27 1.27)) hide)
    )
    (property "ki_keywords" "fractional-N PLL" (id 4) (at 0 0 0)
      (effects (font (size 1.27 1.27)) hide)
    )
    (property "ki_description" "35-4400MHz fractional-N PLL, LFCSP-32" (id 5) (at 0 0 0)
      (effects (font (size 1.27 1.27)) hide)
    )
    (property "ki_fp_filters" "LFCSP*32*1EP*5x5mm*P0.5mm*EP3.25x3.25mm*" (id 6) (at 0 0 0)
      (effects (font (size 1.27 1.27)) hide)
    )
    (symbol "ADF4351_0_1"
      (rectangle (start 17.78 25.4) (end -17.78 -25.4) (stroke (width 0.254)) (fill (type background)))
    )
    (symbol "ADF4351_1_1"
      (pin input line (at -20.32 15.24 0) (length 2.54) (name "CLK") (number "1"))
      (pin power_in line (at -7.62 27.94 270) (length 2.54) (name "AVDD") (number "10"))
      (pin power_in line (at -5.08 -27.94 90) (length 2.54) (name "AGNDVCO") (number "11"))
      (pin output line (at 20.32 7.62 180) (length 2.54) (name "RF_OUT_A+") (number "12"))
      (pin output line (at 20.32 5.08 180) (length 2.54) (name "RF_OUT_A-") (number "13"))
      (pin output line (at 20.32 -2.54 180) (length 2.54) (name "RF_OUT_B+") (number "14"))
      (pin output line (at 20.32 -5.08 180) (length 2.54) (name "RF_OUT_B-") (number "15"))
      (pin power_in line (at -2.54 27.94 270) (length 2.54) (name "VVCO") (number "16"))
      (pin power_in line (at 0 27.94 270) (length 2.54) (name "VVCO") (number "17"))
      (pin power_in line (at -2.54 -27.94 90) (length 2.54) (name "AGNDVCO") (number "18"))
      (pin input line (at -20.32 -7.62 0) (length 2.54) (name "TEMP") (number "19"))
      (pin input line (at -20.32 12.7 0) (length 2.54) (name "DATA") (number "2"))
      (pin input line (at 20.32 -12.7 180) (length 2.54) (name "VTUNE") (number "20"))
      (pin power_in line (at 0 -27.94 90) (length 2.54) (name "AGNDVCO") (number "21"))
      (pin input line (at -20.32 -15.24 0) (length 2.54) (name "RSET") (number "22"))
      (pin input line (at -20.32 -10.16 0) (length 2.54) (name "VCOM") (number "23"))
      (pin input line (at -20.32 -12.7 0) (length 2.54) (name "VREF") (number "24"))
      (pin input line (at 20.32 17.78 180) (length 2.54) (name "LD") (number "25"))
      (pin input line (at -20.32 2.54 0) (length 2.54) (name "PDB_RF") (number "26"))
      (pin power_in line (at 2.54 -27.94 90) (length 2.54) (name "DGND") (number "27"))
      (pin power_in line (at 2.54 27.94 270) (length 2.54) (name "DVDD") (number "28"))
      (pin input line (at -20.32 -2.54 0) (length 2.54) (name "REFIN") (number "29"))
      (pin input line (at -20.32 10.16 0) (length 2.54) (name "LE") (number "3"))
      (pin output line (at 20.32 15.24 180) (length 2.54) (name "MUXOUT") (number "30"))
      (pin power_in line (at 5.08 -27.94 90) (length 2.54) (name "SDGND") (number "31"))
      (pin power_in line (at 7.62 27.94 270) (length 2.54) (name "SDVDD") (number "32"))
      (pin power_in line (at 7.62 -27.94 90) (length 2.54) (name "EP") (number "33"))
      (pin input line (at -20.32 5.08 0) (length 2.54) (name "CE") (number "4"))
      (pin input line (at 20.32 -20.32 180) (length 2.54) (name "SW") (number "5"))
      (pin power_in line (at -10.16 27.94 270) (length 2.54) (name "Vp") (number "6"))
      (pin input line (at 20.32 -15.24 180) (length 2.54) (name "CPout") (number "7"))
      (pin power_in line (at -10.16 -27.94 90) (length 2.54) (name "CPGND") (number "8"))
      (pin power_in line (at -7.62 -27.94 90) (length 2.54) (name "AGND") (number "9"))
    )
  )
  (symbol "Timer_PLL:ADF4350" (extends "ADF4351")
    (property "Value" "ADF4350" (id 1) (at 0 -1.27 0))
    (property "Datasheet" "https://www.analog.com/media/en/technical-documentation/data-sheets/ADF4350.pdf" (id 3) (at 0 0 0)
      (effects (font (size 1.27 1.27)) hide)
    )
    (property "ki_keywords" "fractional-N PLL" (id 4) (at 0 0 0)
      (effects (font (size 1.27 1.27)) hide)
    )
    (property "ki_description" "137.5-4400MHz fractional-N PLL, LFCSP-32" (id 5) (at 0 0 0)
      (effects (font (size 1.27 1.27)) hide)
    )
  )
  (symbol "Timer_PLL:CDCVF2505" (pin_names (offset 0.508))
    (property "Reference" "U" (id 0) (at -8.89 8.89 0))
    (property "Value" "CDCVF2505" (id 1) (at 10.16 8.89 0))
    (property "Footprint" "" (id 2) (at -10.16 7.62 0)
      (effects (font (size 1.27 1.27)) hide)
    )
    (property "Datasheet" "http://www.ti.com/lit/ds/symlink/cdcvf2505.pdf" (id 3) (at -10.16 7.62 0)
      (effects (font (size 1.27 1.27)) hide)
    )
    (property "ki_keywords" "pll clock driver" (id 4) (at 0 0 0)
      (effects (font (size 1.27 1.27)) hide)
    )
    (property "ki_description" "Clock Phase-Lock Loop Clock Driver, 24-200MHz, 3.3V, SOIC-8/TSSOP-8" (id 5) (at 0 0 0)
      (effects (font (size 1.27 1.27)) hide)
    )
    (property "ki_fp_filters" "SOIC*3.9x4.9mm*P1.27mm*\nTSSOP*4.4x3mm*P0.65mm*" (id 6) (at 0 0 0)
      (effects (font (size 1.27 1.27)) hide)
    )
    (symbol "CDCVF2505_0_1"
      (rectangle (start -10.16 7.62) (end 10.16 -7.62) (stroke (width 0.254)) (fill (type background)))
    )
    (symbol "CDCVF2505_1_1"
      (pin input line (at -12.7 0 0) (length 2.54) (name "CLKIN") (number "1"))
      (pin tri_state line (at 12.7 0 180) (length 2.54) (name "1Y1") (number "2"))
      (pin tri_state line (at 12.7 2.54 180) (length 2.54) (name "1Y0") (number "3"))
      (pin power_in line (at 0 -10.16 90) (length 2.54) (name "GND") (number "4"))
      (pin tri_state line (at 12.7 -5.08 180) (length 2.54) (name "1Y2") (number "5"))
      (pin power_in line (at 0 10.16 270) (length 2.54) (name "VDD") (number "6"))
      (pin tri_state line (at 12.7 -2.54 180) (length 2.54) (name "1Y3") (number "7"))
      (pin tri_state line (at 12.7 5.08 180) (length 2.54) (name "CLKOUT") (number "8"))
    )
  )
  (symbol "Timer_PLL:CS2000-CP" (pin_names (offset 0.508))
    (property "Reference" "U" (id 0) (at -12.7 13.97 0))
    (property "Value" "CS2000-CP" (id 1) (at 7.62 13.97 0))
    (property "Footprint" "Package_SO:MSOP-10_3x3mm_P0.5mm" (id 2) (at 20.32 -11.43 0)
      (effects (font (size 1.27 1.27)) hide)
    )
    (property "Datasheet" "https://statics.cirrus.com/pubs/proDatasheet/CS2000-CP_F3.pdf" (id 3) (at 0 -1.27 0)
      (effects (font (size 1.27 1.27)) hide)
    )
    (property "ki_keywords" "Clock Synthesizer Multiplier" (id 4) (at 0 0 0)
      (effects (font (size 1.27 1.27)) hide)
    )
    (property "ki_description" "Fractional-N Clock Synthesizer & Clock Multiplier, MSOP-10" (id 5) (at 0 0 0)
      (effects (font (size 1.27 1.27)) hide)
    )
    (property "ki_fp_filters" "MSOP*3x3mm*P0.5mm*" (id 6) (at 0 0 0)
      (effects (font (size 1.27 1.27)) hide)
    )
    (symbol "CS2000-CP_0_1"
      (rectangle (start -15.24 12.7) (end 15.24 -10.16) (stroke (width 0.254)) (fill (type background)))
    )
    (symbol "CS2000-CP_1_1"
      (pin power_in line (at 0 15.24 270) (length 2.54) (name "VD") (number "1"))
      (pin bidirectional line (at -17.78 10.16 0) (length 2.54) (name "SDA/CDIN") (number "10"))
      (pin power_in line (at 0 -12.7 90) (length 2.54) (name "GND") (number "2"))
      (pin output line (at 17.78 2.54 180) (length 2.54) (name "CLK_OUT") (number "3"))
      (pin output line (at 17.78 0 180) (length 2.54) (name "AUX_OUT") (number "4"))
      (pin input line (at -17.78 0 0) (length 2.54) (name "CLK_IN") (number "5"))
      (pin output line (at -17.78 -7.62 0) (length 2.54) (name "XTO") (number "6"))
      (pin input line (at -17.78 -5.08 0) (length 2.54) (name "XTI/REF_CLK") (number "7"))
      (pin input line (at -17.78 5.08 0) (length 2.54) (name "AD0/~CS") (number "8"))
      (pin input line (at -17.78 7.62 0) (length 2.54) (name "SCL/CCLK") (number "9"))
    )
  )
  (symbol "Timer_PLL:ICS525-01R" (pin_names (offset 0.508))
    (property "Reference" "U" (id 0) (at -5.08 36.83 0)
      (effects (font (size 1.27 1.27)) (justify right))
    )
    (property "Value" "ICS525-01R" (id 1) (at 7.62 -36.83 0))
    (property "Footprint" "Package_SO:SSOP-28_3.9x9.9mm_P0.635mm" (id 2) (at 0 -50.8 0)
      (effects (font (size 1.27 1.27)) hide)
    )
    (property "Datasheet" "https://www.idt.com/document/dst/525-01-02-datasheet" (id 3) (at 0 0 0)
      (effects (font (size 1.27 1.27)) hide)
    )
    (property "ki_keywords" "Configurable clock" (id 4) (at 0 0 0)
      (effects (font (size 1.27 1.27)) hide)
    )
    (property "ki_description" "User configurable clock up to 160 MHz, SSOP-28" (id 5) (at 0 0 0)
      (effects (font (size 1.27 1.27)) hide)
    )
    (property "ki_fp_filters" "SSOP*3.9x9.9mm*P0.635mm*" (id 6) (at 0 0 0)
      (effects (font (size 1.27 1.27)) hide)
    )
    (symbol "ICS525-01R_0_1"
      (rectangle (start -7.62 35.56) (end 7.62 -35.56) (stroke (width 0.254)) (fill (type background)))
    )
    (symbol "ICS525-01R_1_1"
      (pin input line (at -10.16 10.16 0) (length 2.54) (name "R5") (number "1"))
      (pin input line (at -10.16 -7.62 0) (length 2.54) (name "V0") (number "10"))
      (pin input line (at -10.16 -10.16 0) (length 2.54) (name "V1") (number "11"))
      (pin input line (at -10.16 -12.7 0) (length 2.54) (name "V2") (number "12"))
      (pin input line (at -10.16 -15.24 0) (length 2.54) (name "V3") (number "13"))
      (pin input line (at -10.16 -17.78 0) (length 2.54) (name "V4") (number "14"))
      (pin input line (at -10.16 -20.32 0) (length 2.54) (name "V5") (number "15"))
      (pin input line (at -10.16 -22.86 0) (length 2.54) (name "V6") (number "16"))
      (pin input line (at -10.16 -25.4 0) (length 2.54) (name "V7") (number "17"))
      (pin input line (at -10.16 -27.94 0) (length 2.54) (name "V8") (number "18"))
      (pin input line (at -10.16 -33.02 0) (length 2.54) (name "~PD") (number "19"))
      (pin input line (at -10.16 7.62 0) (length 2.54) (name "R6") (number "2"))
      (pin passive line (at 0 -38.1 90) (length 2.54) (name "GND") (number "20") hide)
      (pin tri_state line (at 10.16 2.54 180) (length 2.54) (name "CLK") (number "21"))
      (pin tri_state line (at 10.16 -2.54 180) (length 2.54) (name "REF") (number "22"))
      (pin power_in line (at 2.54 38.1 270) (length 2.54) (name "VDD") (number "23"))
      (pin input line (at -10.16 22.86 0) (length 2.54) (name "R0") (number "24"))
      (pin input line (at -10.16 20.32 0) (length 2.54) (name "R1") (number "25"))
      (pin input line (at -10.16 17.78 0) (length 2.54) (name "R2") (number "26"))
      (pin input line (at -10.16 15.24 0) (length 2.54) (name "R3") (number "27"))
      (pin input line (at -10.16 12.7 0) (length 2.54) (name "R4") (number "28"))
      (pin input line (at -10.16 2.54 0) (length 2.54) (name "S0") (number "3"))
      (pin input line (at -10.16 0 0) (length 2.54) (name "S1") (number "4"))
      (pin input line (at -10.16 -2.54 0) (length 2.54) (name "S2") (number "5"))
      (pin power_in line (at -2.54 38.1 270) (length 2.54) (name "VDD") (number "6"))
      (pin input line (at -10.16 30.48 0) (length 2.54) (name "X1/ICLK") (number "7"))
      (pin output line (at -10.16 27.94 0) (length 2.54) (name "X2") (number "8"))
      (pin power_in line (at 0 -38.1 90) (length 2.54) (name "GND") (number "9"))
    )
  )
  (symbol "Timer_PLL:ICS525R-02" (extends "ICS525-01R")
    (property "Value" "ICS525R-02" (id 1) (at 7.62 -36.83 0))
    (property "Datasheet" "https://www.idt.com/document/dst/525-01-02-datasheet" (id 3) (at 0 0 0)
      (effects (font (size 1.27 1.27)) hide)
    )
    (property "ki_keywords" "Configurable clock" (id 4) (at 0 0 0)
      (effects (font (size 1.27 1.27)) hide)
    )
    (property "ki_description" "User configurable clock up to 200 MHz, SSOP-28" (id 5) (at 0 0 0)
      (effects (font (size 1.27 1.27)) hide)
    )
  )
)
