(kicad_symbol_lib (version 20200126) (host kicad_symbol_editor "(5.99.0-1517-ga8407fba4)")
  (symbol "Transistor_IGBT:IRG4PF50W" (pin_names (offset 0) hide)
    (property "Reference" "Q" (id 0) (at 5.08 1.905 0)
      (effects (font (size 1.27 1.27)) (justify left))
    )
    (property "Value" "IRG4PF50W" (id 1) (at 5.08 0 0)
      (effects (font (size 1.27 1.27)) (justify left))
    )
    (property "Footprint" "Package_TO_SOT_THT:TO-247-3_Vertical" (id 2) (at 5.08 -1.905 0)
      (effects (font (size 1.27 1.27) italic) (justify left) hide)
    )
    (property "Datasheet" "http://www.irf.com/product-info/datasheets/data/irg4pf50w.pdf" (id 3) (at 0 0 0)
      (effects (font (size 1.27 1.27)) (justify left) hide)
    )
    (property "ki_keywords" "N-Channel IGBT Power Transistor" (id 4) (at 0 0 0)
      (effects (font (size 1.27 1.27)) hide)
    )
    (property "ki_description" "28A, 900V, N-Channel IGBT" (id 5) (at 0 0 0)
      (effects (font (size 1.27 1.27)) hide)
    )
    (property "ki_fp_filters" "TO?247*" (id 6) (at 0 0 0)
      (effects (font (size 1.27 1.27)) hide)
    )
    (symbol "IRG4PF50W_0_1"
      (circle (center 1.27 0) (radius 2.8194) (stroke (width 0.254)))
      (polyline
        (pts (xy 0 0) (xy 0.254 0))
      )
      (polyline
        (pts (xy 0.762 -1.016) (xy 0.762 -2.032))
        (stroke (width 0.254))
      )
      (polyline
        (pts (xy 0.762 0.508) (xy 0.762 -0.508))
        (stroke (width 0.254))
      )
      (polyline
        (pts (xy 0.762 2.032) (xy 0.762 1.016))
        (stroke (width 0.254))
      )
      (polyline
        (pts (xy 2.54 -2.413) (xy 0.762 -1.524))
      )
      (polyline
        (pts (xy 2.54 -0.889) (xy 0.762 0))
      )
      (polyline
        (pts (xy 2.54 2.413) (xy 0.762 1.524))
      )
      (polyline
        (pts (xy 0.254 1.905) (xy 0.254 -1.905) (xy 0.254 -1.905))
        (stroke (width 0.254))
      )
      (polyline
        (pts (xy 1.397 -2.159) (xy 1.651 -1.651) (xy 2.54 -2.413) (xy 1.397 -2.159))
        (fill (type outline))
      )
      (polyline
        (pts (xy 2.159 1.905) (xy 1.905 2.413) (xy 1.016 1.651) (xy 2.159 1.905))
        (fill (type outline))
      )
    )
    (symbol "IRG4PF50W_1_1"
      (pin input line (at -5.08 0 0) (length 5.08) (name "G") (number "1"))
      (pin passive line (at 2.54 5.08 270) (length 2.54) (name "C") (number "2"))
      (pin passive line (at 2.54 -5.08 90) (length 2.54) (name "E") (number "3"))
    )
  )
)
